Copyright 1986-2018 Xilinx, Inc. All Rights Reserved.
-------------------------------------------------------------------------------------------------
| Tool Version      : Vivado v.2018.2 (win64) Build 2258646 Thu Jun 14 20:03:12 MDT 2018
| Date              : Thu Feb 14 02:48:12 2019
| Host              : PCPHESEBE02 running 64-bit Service Pack 1  (build 7601)
| Command           : report_timing_summary -setup -nworst 5 -max_paths 5 -file timing_setup.txt
| Design            : wrapper
| Device            : xcvu9p-flgc2104
| Speed File        : -1  PRODUCTION 1.20 05-21-2018
| Temperature Grade : E
-------------------------------------------------------------------------------------------------

Timing Summary Report

------------------------------------------------------------------------------------------------
| Timer Settings
| --------------
------------------------------------------------------------------------------------------------

  Enable Multi Corner Analysis               :  Yes
  Enable Pessimism Removal                   :  Yes
  Pessimism Removal Resolution               :  Nearest Common Node
  Enable Input Delay Default Clock           :  No
  Enable Preset / Clear Arcs                 :  No
  Disable Flight Delays                      :  No
  Ignore I/O Paths                           :  No
  Timing Early Launch at Borrowing Latches   :  false

  Corner  Analyze    Analyze    
  Name    Max Paths  Min Paths  
  ------  ---------  ---------  
  Slow    Yes        Yes        
  Fast    Yes        Yes        



check_timing report

Table of Contents
-----------------
1. checking no_clock
2. checking constant_clock
3. checking pulse_width_clock
4. checking unconstrained_internal_endpoints
5. checking no_input_delay
6. checking no_output_delay
7. checking multiple_clock
8. checking generated_clocks
9. checking loops
10. checking partial_input_delay
11. checking partial_output_delay
12. checking latch_loops

1. checking no_clock
--------------------
 There are 0 register/latch pins with no clock.


2. checking constant_clock
--------------------------
 There are 0 register/latch pins with constant_clock.


3. checking pulse_width_clock
-----------------------------
 There are 0 register/latch pins which need pulse_width check


4. checking unconstrained_internal_endpoints
--------------------------------------------
 There are 0 pins that are not constrained for maximum delay.

 There are 0 pins that are not constrained for maximum delay due to constant clock.


5. checking no_input_delay
--------------------------
 There are 0 input ports with no input delay specified.

 There are 0 input ports with no input delay but user has a false path constraint.


6. checking no_output_delay
---------------------------
 There is 1 port with no output delay specified. (HIGH)

 There are 0 ports with no output delay but user has a false path constraint

 There are 0 ports with no output delay but with a timing clock defined on it or propagating through it


7. checking multiple_clock
--------------------------
 There are 0 register/latch pins with multiple clocks.


8. checking generated_clocks
----------------------------
 There are 0 generated clocks that are not connected to a clock source.


9. checking loops
-----------------
 There are 0 combinational loops in the design.


10. checking partial_input_delay
--------------------------------
 There are 0 input ports with partial input delay specified.


11. checking partial_output_delay
---------------------------------
 There are 0 ports with partial output delay specified.


12. checking latch_loops
------------------------
 There are 0 combinational latch loops in the design through latch input



------------------------------------------------------------------------------------------------
| Design Timing Summary
| ---------------------
------------------------------------------------------------------------------------------------

    WNS(ns)      TNS(ns)  TNS Failing Endpoints  TNS Total Endpoints     WPWS(ns)     TPWS(ns)  TPWS Failing Endpoints  TPWS Total Endpoints  
    -------      -------  ---------------------  -------------------     --------     --------  ----------------------  --------------------  
     -2.593     -543.337                    310                 4929        5.677        0.000                       0                  5249  


Timing constraints are not met.


------------------------------------------------------------------------------------------------
| Clock Summary
| -------------
------------------------------------------------------------------------------------------------

Clock        Waveform(ns)         Period(ns)      Frequency(MHz)
-----        ------------         ----------      --------------
clk          {0.000 6.250}        12.500          80.000          
clk_wrapper  {0.000 500.000}      1000.000        1.000           


------------------------------------------------------------------------------------------------
| Intra Clock Table
| -----------------
------------------------------------------------------------------------------------------------

Clock             WNS(ns)      TNS(ns)  TNS Failing Endpoints  TNS Total Endpoints     WPWS(ns)     TPWS(ns)  TPWS Failing Endpoints  TPWS Total Endpoints  
-----             -------      -------  ---------------------  -------------------     --------     --------  ----------------------  --------------------  
clk                -2.593     -543.337                    310                 4929        5.677        0.000                       0                  4907  
clk_wrapper                                                                             498.562        0.000                       0                   342  


------------------------------------------------------------------------------------------------
| Inter Clock Table
| -----------------
------------------------------------------------------------------------------------------------

From Clock    To Clock          WNS(ns)      TNS(ns)  TNS Failing Endpoints  TNS Total Endpoints  
----------    --------          -------      -------  ---------------------  -------------------  


------------------------------------------------------------------------------------------------
| Other Path Groups Table
| -----------------------
------------------------------------------------------------------------------------------------

Path Group    From Clock    To Clock          WNS(ns)      TNS(ns)  TNS Failing Endpoints  TNS Total Endpoints  
----------    ----------    --------          -------      -------  ---------------------  -------------------  


------------------------------------------------------------------------------------------------
| Timing Details
| --------------
------------------------------------------------------------------------------------------------


---------------------------------------------------------------------------------------------------
From Clock:  clk
  To Clock:  clk

Setup :          310  Failing Endpoints,  Worst Slack       -2.593ns,  Total Violation     -543.337ns
Hold  :           NA  Failing Endpoints,  Worst Slack           NA  ,  Total Violation           NA
PW    :            0  Failing Endpoints,  Worst Slack        5.677ns,  Total Violation        0.000ns
---------------------------------------------------------------------------------------------------


Max Delay Paths
--------------------------------------------------------------------------------------
Slack (VIOLATED) :        -2.593ns  (required time - arrival time)
  Source:                 muon_sorter_1/pt_ret_870_fast/C
                            (rising edge-triggered cell FDRE clocked by clk  {rise@0.000ns fall@6.250ns period=12.500ns})
  Destination:            muon_sorter_1/roi_ret_672/D
                            (rising edge-triggered cell FDRE clocked by clk  {rise@0.000ns fall@6.250ns period=12.500ns})
  Path Group:             clk
  Path Type:              Setup (Max at Slow Process Corner)
  Requirement:            12.500ns  (clk rise@12.500ns - clk rise@0.000ns)
  Data Path Delay:        15.090ns  (logic 4.064ns (26.932%)  route 11.026ns (73.068%))
  Logic Levels:           36  (LUT3=1 LUT4=4 LUT5=10 LUT6=21)
  Clock Path Skew:        0.005ns (DCD - SCD + CPR)
    Destination Clock Delay (DCD):    2.877ns = ( 15.377 - 12.500 ) 
    Source Clock Delay      (SCD):    3.276ns
    Clock Pessimism Removal (CPR):    0.404ns
  Clock Uncertainty:      0.035ns  ((TSJ^2 + TIJ^2)^1/2 + DJ) / 2 + PE
    Total System Jitter     (TSJ):    0.071ns
    Total Input Jitter      (TIJ):    0.000ns
    Discrete Jitter          (DJ):    0.000ns
    Phase Error              (PE):    0.000ns
  Clock Net Delay (Source):      2.135ns (routing 1.014ns, distribution 1.121ns)
  Clock Net Delay (Destination): 2.047ns (routing 0.926ns, distribution 1.121ns)

    Location             Delay type                Incr(ns)  Path(ns)    Netlist Resource(s)
  -------------------------------------------------------------------    -------------------
                         (clock clk rise edge)        0.000     0.000 r  
    AV33                                              0.000     0.000 r  clk (IN)
                         net (fo=0)                   0.000     0.000    clk_ibuf_iso/I
    AV33                 INBUF (Prop_INBUF_HPIOB_M_PAD_O)
                                                      0.779     0.779 r  clk_ibuf_iso/INBUF_INST/O
                         net (fo=1, routed)           0.000     0.779    clk_ibuf_iso/OUT
    AV33                 IBUFCTRL (Prop_IBUFCTRL_HPIOB_M_I_O)
                                                      0.000     0.779 r  clk_ibuf_iso/IBUFCTRL_INST/O
                         net (fo=1, routed)           0.334     1.113    clk_ibuf_iso
    BUFGCE_X1Y224        BUFGCE (Prop_BUFCE_BUFGCE_I_O)
                                                      0.028     1.141 r  clk_ibuf/O
    X3Y8 (CLOCK_ROOT)    net (fo=4906, routed)        2.135     3.276    muon_sorter_1/clk_c
    SLICE_X100Y511       FDRE                                         r  muon_sorter_1/pt_ret_870_fast/C
  -------------------------------------------------------------------    -------------------
    SLICE_X100Y511       FDRE (Prop_DFF2_SLICEM_C_Q)
                                                      0.098     3.374 r  muon_sorter_1/pt_ret_870_fast/Q
                         net (fo=5, routed)           0.231     3.605    muon_sorter_1/max_pt_1_3[11]
    SLICE_X100Y511       LUT6 (Prop_B6LUT_SLICEM_I3_O)
                                                      0.178     3.783 f  muon_sorter_1/pt_ret_829_RNISKFH2/O
                         net (fo=3, routed)           0.197     3.980    muon_sorter_1/pt_ret_1378_RNI6NEN5/I4
    SLICE_X99Y509        LUT5 (Prop_B5LUT_SLICEM_I4_O)
                                                      0.089     4.069 r  muon_sorter_1/pt_ret_1378_RNI6NEN5/LUT5/O
                         net (fo=1, routed)           0.261     4.330    muon_sorter_1/max_pt_2_0_x[11]
    SLICE_X99Y509        LUT5 (Prop_E6LUT_SLICEM_I4_O)
                                                      0.039     4.369 r  muon_sorter_1/pt_ret_1496_RNIK6CNB/O
                         net (fo=14, routed)          0.251     4.620    muon_sorter_1/max_pt_2_3[11]
    SLICE_X102Y509       LUT6 (Prop_D6LUT_SLICEM_I4_O)
                                                      0.098     4.718 f  muon_sorter_1/pt_ret_1393_RNIQHH5O/O
                         net (fo=5, routed)           0.456     5.174    muon_sorter_1/N_813
    SLICE_X102Y505       LUT6 (Prop_G6LUT_SLICEM_I5_O)
                                                      0.116     5.290 r  muon_sorter_1/pt_ret_1227_RNIEESVK2/O
                         net (fo=4, routed)           0.124     5.414    muon_sorter_1/pt_ret_1227_RNIBDQL36/I4
    SLICE_X100Y505       LUT6 (Prop_H6LUT_SLICEM_I4_O)
                                                      0.066     5.480 r  muon_sorter_1/pt_ret_1227_RNIBDQL36/LUT6/O
                         net (fo=16, routed)          0.326     5.806    muon_sorter_1/max_pt_3_3[11]
    SLICE_X102Y502       LUT5 (Prop_F6LUT_SLICEM_I3_O)
                                                      0.177     5.983 f  muon_sorter_1/pt_ret_1227_RNI2J568F/O
                         net (fo=5, routed)           0.268     6.251    muon_sorter_1/pt_ret_1227_RNIC5Q7A43/I4
    SLICE_X101Y500       LUT5 (Prop_A5LUT_SLICEL_I4_O)
                                                      0.085     6.336 r  muon_sorter_1/pt_ret_1227_RNIC5Q7A43/LUT5/O
                         net (fo=2, routed)           0.149     6.485    muon_sorter_1/max_pt_4_0_x[11]
    SLICE_X101Y498       LUT6 (Prop_F6LUT_SLICEL_I5_O)
                                                      0.062     6.547 r  muon_sorter_1/pt_ret_1300_RNIUKE0VQ1/O
                         net (fo=13, routed)          0.326     6.873    muon_sorter_1/max_pt_4_3[11]
    SLICE_X97Y500        LUT6 (Prop_H6LUT_SLICEM_I3_O)
                                                      0.100     6.973 r  muon_sorter_1/pt_ret_1345_RNI6CVC8J/O
                         net (fo=3, routed)           0.430     7.403    muon_sorter_1/N_2116
    SLICE_X98Y497        LUT5 (Prop_B6LUT_SLICEL_I0_O)
                                                      0.177     7.580 r  muon_sorter_1/pt_ret_1345_RNIT5PU8E3/O
                         net (fo=10, routed)          0.388     7.968    muon_sorter_1/max_pt_5_1[11]
    SLICE_X99Y494        LUT6 (Prop_F6LUT_SLICEM_I3_O)
                                                      0.113     8.081 r  muon_sorter_1/pt_ret_1300_RNILRIK4O2/O
                         net (fo=7, routed)           0.442     8.523    muon_sorter_1/pt_compare_14_11_27_0_a2[5]
    SLICE_X98Y489        LUT6 (Prop_A6LUT_SLICEL_I1_O)
                                                      0.149     8.672 r  muon_sorter_1/pt_ret_1370_RNI7P0QOV2/O
                         net (fo=3, routed)           0.252     8.924    muon_sorter_1/pt_ret_1399_RNITU7OBP3/I4
    SLICE_X98Y489        LUT5 (Prop_C5LUT_SLICEL_I4_O)
                                                      0.083     9.007 r  muon_sorter_1/pt_ret_1399_RNITU7OBP3/LUT5/O
                         net (fo=14, routed)          0.346     9.353    muon_sorter_1/max_pt_6_3[5]
    SLICE_X101Y486       LUT6 (Prop_H6LUT_SLICEL_I5_O)
                                                      0.040     9.393 f  muon_sorter_1/pt_ret_1399_RNIC2QBU42/O
                         net (fo=5, routed)           0.325     9.718    muon_sorter_1/pt_ret_1398_RNISKTUHC2/I1
    SLICE_X100Y486       LUT5 (Prop_A5LUT_SLICEM_I1_O)
                                                      0.171     9.889 r  muon_sorter_1/pt_ret_1398_RNISKTUHC2/LUT5/O
                         net (fo=1, routed)           0.228    10.117    muon_sorter_1/max_pt_7_0_x[5]
    SLICE_X100Y486       LUT6 (Prop_D6LUT_SLICEM_I3_O)
                                                      0.147    10.264 r  muon_sorter_1/pt_ret_1399_RNI7EC11M1/O
                         net (fo=14, routed)          0.387    10.651    muon_sorter_1/max_pt_7_3[5]
    SLICE_X97Y483        LUT6 (Prop_G6LUT_SLICEM_I4_O)
                                                      0.100    10.751 f  muon_sorter_1/pt_ret_1399_RNINHHP6N1/O
                         net (fo=7, routed)           0.562    11.313    muon_sorter_1/pt_ret_1399_RNI01LMGH2/I4
    SLICE_X98Y477        LUT6 (Prop_B6LUT_SLICEL_I4_O)
                                                      0.064    11.377 r  muon_sorter_1/pt_ret_1399_RNI01LMGH2/LUT6/O
                         net (fo=13, routed)          0.440    11.817    muon_sorter_1/max_pt_8_0[12]
    SLICE_X97Y475        LUT6 (Prop_C6LUT_SLICEM_I2_O)
                                                      0.147    11.964 r  muon_sorter_1/pt_ret_1399_RNI4GD9F5/O
                         net (fo=5, routed)           0.330    12.294    muon_sorter_1/pt_compare_9_12_0_a2[8]
    SLICE_X98Y475        LUT6 (Prop_G6LUT_SLICEL_I5_O)
                                                      0.178    12.472 r  muon_sorter_1/pt_ret_1399_RNI5GPIKU2/O
                         net (fo=5, routed)           0.285    12.757    muon_sorter_1/max_pt_9_2[8]
    SLICE_X97Y474        LUT4 (Prop_D5LUT_SLICEM_I3_O)
                                                      0.167    12.924 r  muon_sorter_1/pt_ret_1399_RNIS3L0VO_lut6_2_o5/O
                         net (fo=2, routed)           0.442    13.366    muon_sorter_1/max_pt_9_3_x_0[8]
    SLICE_X102Y472       LUT6 (Prop_D6LUT_SLICEM_I4_O)
                                                      0.174    13.540 r  muon_sorter_1/pt_ret_1399_RNII357981/O
                         net (fo=6, routed)           0.122    13.662    muon_sorter_1/pt_ret_1399_RNIHA662R2/I0
    SLICE_X103Y472       LUT5 (Prop_D5LUT_SLICEL_I0_O)
                                                      0.193    13.855 r  muon_sorter_1/pt_ret_1399_RNIHA662R2/LUT5/O
                         net (fo=1, routed)           0.147    14.002    muon_sorter_1/max_pt_10_0_x[8]
    SLICE_X101Y472       LUT6 (Prop_B6LUT_SLICEL_I5_O)
                                                      0.115    14.117 r  muon_sorter_1/pt_ret_1861_RNIRDN3PE1/O
                         net (fo=13, routed)          0.305    14.422    muon_sorter_1/max_pt_10_3[8]
    SLICE_X100Y469       LUT5 (Prop_E6LUT_SLICEM_I4_O)
                                                      0.063    14.485 f  muon_sorter_1/pt_ret_1861_RNIC5CR0D/O
                         net (fo=7, routed)           0.407    14.892    muon_sorter_1/N_1308
    SLICE_X99Y465        LUT3 (Prop_E6LUT_SLICEM_I0_O)
                                                      0.039    14.931 r  muon_sorter_1/pt_ret_1861_RNII3SF2K3/O
                         net (fo=2, routed)           0.288    15.219    muon_sorter_1/pt_compare_11_15_0_a2_RNI2O051[9]
    SLICE_X100Y465       LUT5 (Prop_H6LUT_SLICEM_I3_O)
                                                      0.066    15.285 r  muon_sorter_1/pt_ret_1861_RNI1UOGTD_0_lut6_2_o5/O
                         net (fo=10, routed)          0.366    15.651    muon_sorter_1/max_pt_11_3[9]
    SLICE_X101Y467       LUT6 (Prop_H6LUT_SLICEL_I3_O)
                                                      0.064    15.715 f  muon_sorter_1/pt_ret_1759_RNIVJVUCA/O
                         net (fo=4, routed)           0.461    16.176    muon_sorter_1/pt_compare_12_9_0_a2[6]
    SLICE_X102Y466       LUT6 (Prop_E6LUT_SLICEM_I0_O)
                                                      0.101    16.277 r  muon_sorter_1/pt_ret_1861_RNI2LQVHU3/O
                         net (fo=16, routed)          0.385    16.662    muon_sorter_1/max_pt_12_0[9]
    SLICE_X104Y467       LUT6 (Prop_C6LUT_SLICEM_I4_O)
                                                      0.174    16.836 f  muon_sorter_1/pt_ret_1861_RNIT4E9B2/O
                         net (fo=5, routed)           0.557    17.393    muon_sorter_1/pt_compare_13_9_0_a2[0]
    SLICE_X106Y469       LUT4 (Prop_E6LUT_SLICEL_I2_O)
                                                      0.100    17.493 r  muon_sorter_1/pt_ret_1861_RNIKT7TLC3/O
                         net (fo=1, routed)           0.049    17.542    muon_sorter_1/pt_ret_1861_RNIKT7TLC3
    SLICE_X106Y469       LUT4 (Prop_B6LUT_SLICEL_I3_O)
                                                      0.064    17.606 r  muon_sorter_1/pt_ret_1861_RNI6FQJ05/O
                         net (fo=2, routed)           0.168    17.774    muon_sorter_1/pt_ret_1861_RNI6FQJ05
    SLICE_X106Y468       LUT4 (Prop_D5LUT_SLICEL_I3_O)
                                                      0.080    17.854 r  muon_sorter_1/pt_ret_1861_RNIGTA8MQ1_2_lut6_2_o5/O
                         net (fo=10, routed)          0.172    18.026    muon_sorter_1/max_pt_13[9]
    SLICE_X106Y469       LUT6 (Prop_F6LUT_SLICEL_I5_O)
                                                      0.148    18.174 r  muon_sorter_1/roi_ret_672_RNO_1/O
                         net (fo=1, routed)           0.099    18.273    muon_sorter_1/roi_4_11[1]
    SLICE_X106Y468       LUT6 (Prop_E6LUT_SLICEL_I5_O)
                                                      0.039    18.312 r  muon_sorter_1/roi_ret_672_RNO_2/O
                         net (fo=1, routed)           0.054    18.366    muon_sorter_1/roi_2_1_0_1[1]
    SLICE_X106Y468       FDRE                                         r  muon_sorter_1/roi_ret_672/D
  -------------------------------------------------------------------    -------------------

                         (clock clk rise edge)       12.500    12.500 r  
    AV33                                              0.000    12.500 r  clk (IN)
                         net (fo=0)                   0.000    12.500    clk_ibuf_iso/I
    AV33                 INBUF (Prop_INBUF_HPIOB_M_PAD_O)
                                                      0.510    13.010 r  clk_ibuf_iso/INBUF_INST/O
                         net (fo=1, routed)           0.000    13.010    clk_ibuf_iso/OUT
    AV33                 IBUFCTRL (Prop_IBUFCTRL_HPIOB_M_I_O)
                                                      0.000    13.010 r  clk_ibuf_iso/IBUFCTRL_INST/O
                         net (fo=1, routed)           0.296    13.306    clk_ibuf_iso
    BUFGCE_X1Y224        BUFGCE (Prop_BUFCE_BUFGCE_I_O)
                                                      0.024    13.330 r  clk_ibuf/O
    X3Y8 (CLOCK_ROOT)    net (fo=4906, routed)        2.047    15.377    muon_sorter_1/clk_c
    SLICE_X106Y468       FDRE                                         r  muon_sorter_1/roi_ret_672/C
                         clock pessimism              0.404    15.781    
                         clock uncertainty           -0.035    15.746    
    SLICE_X106Y468       FDRE (Setup_EFF_SLICEL_C_D)
                                                      0.027    15.773    muon_sorter_1/roi_ret_672
  -------------------------------------------------------------------
                         required time                         15.773    
                         arrival time                         -18.366    
  -------------------------------------------------------------------
                         slack                                 -2.593    

Slack (VIOLATED) :        -2.593ns  (required time - arrival time)
  Source:                 muon_sorter_1/pt_ret_870_fast/C
                            (rising edge-triggered cell FDRE clocked by clk  {rise@0.000ns fall@6.250ns period=12.500ns})
  Destination:            muon_sorter_1/roi_ret_672/D
                            (rising edge-triggered cell FDRE clocked by clk  {rise@0.000ns fall@6.250ns period=12.500ns})
  Path Group:             clk
  Path Type:              Setup (Max at Slow Process Corner)
  Requirement:            12.500ns  (clk rise@12.500ns - clk rise@0.000ns)
  Data Path Delay:        15.090ns  (logic 4.064ns (26.932%)  route 11.026ns (73.068%))
  Logic Levels:           36  (LUT3=1 LUT4=4 LUT5=10 LUT6=21)
  Clock Path Skew:        0.005ns (DCD - SCD + CPR)
    Destination Clock Delay (DCD):    2.877ns = ( 15.377 - 12.500 ) 
    Source Clock Delay      (SCD):    3.276ns
    Clock Pessimism Removal (CPR):    0.404ns
  Clock Uncertainty:      0.035ns  ((TSJ^2 + TIJ^2)^1/2 + DJ) / 2 + PE
    Total System Jitter     (TSJ):    0.071ns
    Total Input Jitter      (TIJ):    0.000ns
    Discrete Jitter          (DJ):    0.000ns
    Phase Error              (PE):    0.000ns
  Clock Net Delay (Source):      2.135ns (routing 1.014ns, distribution 1.121ns)
  Clock Net Delay (Destination): 2.047ns (routing 0.926ns, distribution 1.121ns)

    Location             Delay type                Incr(ns)  Path(ns)    Netlist Resource(s)
  -------------------------------------------------------------------    -------------------
                         (clock clk rise edge)        0.000     0.000 r  
    AV33                                              0.000     0.000 r  clk (IN)
                         net (fo=0)                   0.000     0.000    clk_ibuf_iso/I
    AV33                 INBUF (Prop_INBUF_HPIOB_M_PAD_O)
                                                      0.779     0.779 r  clk_ibuf_iso/INBUF_INST/O
                         net (fo=1, routed)           0.000     0.779    clk_ibuf_iso/OUT
    AV33                 IBUFCTRL (Prop_IBUFCTRL_HPIOB_M_I_O)
                                                      0.000     0.779 r  clk_ibuf_iso/IBUFCTRL_INST/O
                         net (fo=1, routed)           0.334     1.113    clk_ibuf_iso
    BUFGCE_X1Y224        BUFGCE (Prop_BUFCE_BUFGCE_I_O)
                                                      0.028     1.141 r  clk_ibuf/O
    X3Y8 (CLOCK_ROOT)    net (fo=4906, routed)        2.135     3.276    muon_sorter_1/clk_c
    SLICE_X100Y511       FDRE                                         r  muon_sorter_1/pt_ret_870_fast/C
  -------------------------------------------------------------------    -------------------
    SLICE_X100Y511       FDRE (Prop_DFF2_SLICEM_C_Q)
                                                      0.098     3.374 f  muon_sorter_1/pt_ret_870_fast/Q
                         net (fo=5, routed)           0.231     3.605    muon_sorter_1/max_pt_1_3[11]
    SLICE_X100Y511       LUT6 (Prop_B6LUT_SLICEM_I3_O)
                                                      0.178     3.783 f  muon_sorter_1/pt_ret_829_RNISKFH2/O
                         net (fo=3, routed)           0.197     3.980    muon_sorter_1/pt_ret_1378_RNI6NEN5/I4
    SLICE_X99Y509        LUT5 (Prop_B5LUT_SLICEM_I4_O)
                                                      0.089     4.069 r  muon_sorter_1/pt_ret_1378_RNI6NEN5/LUT5/O
                         net (fo=1, routed)           0.261     4.330    muon_sorter_1/max_pt_2_0_x[11]
    SLICE_X99Y509        LUT5 (Prop_E6LUT_SLICEM_I4_O)
                                                      0.039     4.369 r  muon_sorter_1/pt_ret_1496_RNIK6CNB/O
                         net (fo=14, routed)          0.251     4.620    muon_sorter_1/max_pt_2_3[11]
    SLICE_X102Y509       LUT6 (Prop_D6LUT_SLICEM_I4_O)
                                                      0.098     4.718 f  muon_sorter_1/pt_ret_1393_RNIQHH5O/O
                         net (fo=5, routed)           0.456     5.174    muon_sorter_1/N_813
    SLICE_X102Y505       LUT6 (Prop_G6LUT_SLICEM_I5_O)
                                                      0.116     5.290 r  muon_sorter_1/pt_ret_1227_RNIEESVK2/O
                         net (fo=4, routed)           0.124     5.414    muon_sorter_1/pt_ret_1227_RNIBDQL36/I4
    SLICE_X100Y505       LUT6 (Prop_H6LUT_SLICEM_I4_O)
                                                      0.066     5.480 r  muon_sorter_1/pt_ret_1227_RNIBDQL36/LUT6/O
                         net (fo=16, routed)          0.326     5.806    muon_sorter_1/max_pt_3_3[11]
    SLICE_X102Y502       LUT5 (Prop_F6LUT_SLICEM_I3_O)
                                                      0.177     5.983 f  muon_sorter_1/pt_ret_1227_RNI2J568F/O
                         net (fo=5, routed)           0.268     6.251    muon_sorter_1/pt_ret_1227_RNIC5Q7A43/I4
    SLICE_X101Y500       LUT5 (Prop_A5LUT_SLICEL_I4_O)
                                                      0.085     6.336 r  muon_sorter_1/pt_ret_1227_RNIC5Q7A43/LUT5/O
                         net (fo=2, routed)           0.149     6.485    muon_sorter_1/max_pt_4_0_x[11]
    SLICE_X101Y498       LUT6 (Prop_F6LUT_SLICEL_I5_O)
                                                      0.062     6.547 r  muon_sorter_1/pt_ret_1300_RNIUKE0VQ1/O
                         net (fo=13, routed)          0.326     6.873    muon_sorter_1/max_pt_4_3[11]
    SLICE_X97Y500        LUT6 (Prop_H6LUT_SLICEM_I3_O)
                                                      0.100     6.973 r  muon_sorter_1/pt_ret_1345_RNI6CVC8J/O
                         net (fo=3, routed)           0.430     7.403    muon_sorter_1/N_2116
    SLICE_X98Y497        LUT5 (Prop_B6LUT_SLICEL_I0_O)
                                                      0.177     7.580 r  muon_sorter_1/pt_ret_1345_RNIT5PU8E3/O
                         net (fo=10, routed)          0.388     7.968    muon_sorter_1/max_pt_5_1[11]
    SLICE_X99Y494        LUT6 (Prop_F6LUT_SLICEM_I3_O)
                                                      0.113     8.081 r  muon_sorter_1/pt_ret_1300_RNILRIK4O2/O
                         net (fo=7, routed)           0.442     8.523    muon_sorter_1/pt_compare_14_11_27_0_a2[5]
    SLICE_X98Y489        LUT6 (Prop_A6LUT_SLICEL_I1_O)
                                                      0.149     8.672 r  muon_sorter_1/pt_ret_1370_RNI7P0QOV2/O
                         net (fo=3, routed)           0.252     8.924    muon_sorter_1/pt_ret_1399_RNITU7OBP3/I4
    SLICE_X98Y489        LUT5 (Prop_C5LUT_SLICEL_I4_O)
                                                      0.083     9.007 r  muon_sorter_1/pt_ret_1399_RNITU7OBP3/LUT5/O
                         net (fo=14, routed)          0.346     9.353    muon_sorter_1/max_pt_6_3[5]
    SLICE_X101Y486       LUT6 (Prop_H6LUT_SLICEL_I5_O)
                                                      0.040     9.393 f  muon_sorter_1/pt_ret_1399_RNIC2QBU42/O
                         net (fo=5, routed)           0.325     9.718    muon_sorter_1/pt_ret_1398_RNISKTUHC2/I1
    SLICE_X100Y486       LUT5 (Prop_A5LUT_SLICEM_I1_O)
                                                      0.171     9.889 r  muon_sorter_1/pt_ret_1398_RNISKTUHC2/LUT5/O
                         net (fo=1, routed)           0.228    10.117    muon_sorter_1/max_pt_7_0_x[5]
    SLICE_X100Y486       LUT6 (Prop_D6LUT_SLICEM_I3_O)
                                                      0.147    10.264 r  muon_sorter_1/pt_ret_1399_RNI7EC11M1/O
                         net (fo=14, routed)          0.387    10.651    muon_sorter_1/max_pt_7_3[5]
    SLICE_X97Y483        LUT6 (Prop_G6LUT_SLICEM_I4_O)
                                                      0.100    10.751 f  muon_sorter_1/pt_ret_1399_RNINHHP6N1/O
                         net (fo=7, routed)           0.562    11.313    muon_sorter_1/pt_ret_1399_RNI01LMGH2/I4
    SLICE_X98Y477        LUT6 (Prop_B6LUT_SLICEL_I4_O)
                                                      0.064    11.377 r  muon_sorter_1/pt_ret_1399_RNI01LMGH2/LUT6/O
                         net (fo=13, routed)          0.440    11.817    muon_sorter_1/max_pt_8_0[12]
    SLICE_X97Y475        LUT6 (Prop_C6LUT_SLICEM_I2_O)
                                                      0.147    11.964 r  muon_sorter_1/pt_ret_1399_RNI4GD9F5/O
                         net (fo=5, routed)           0.330    12.294    muon_sorter_1/pt_compare_9_12_0_a2[8]
    SLICE_X98Y475        LUT6 (Prop_G6LUT_SLICEL_I5_O)
                                                      0.178    12.472 r  muon_sorter_1/pt_ret_1399_RNI5GPIKU2/O
                         net (fo=5, routed)           0.285    12.757    muon_sorter_1/max_pt_9_2[8]
    SLICE_X97Y474        LUT4 (Prop_D5LUT_SLICEM_I3_O)
                                                      0.167    12.924 r  muon_sorter_1/pt_ret_1399_RNIS3L0VO_lut6_2_o5/O
                         net (fo=2, routed)           0.442    13.366    muon_sorter_1/max_pt_9_3_x_0[8]
    SLICE_X102Y472       LUT6 (Prop_D6LUT_SLICEM_I4_O)
                                                      0.174    13.540 r  muon_sorter_1/pt_ret_1399_RNII357981/O
                         net (fo=6, routed)           0.122    13.662    muon_sorter_1/pt_ret_1399_RNIHA662R2/I0
    SLICE_X103Y472       LUT5 (Prop_D5LUT_SLICEL_I0_O)
                                                      0.193    13.855 r  muon_sorter_1/pt_ret_1399_RNIHA662R2/LUT5/O
                         net (fo=1, routed)           0.147    14.002    muon_sorter_1/max_pt_10_0_x[8]
    SLICE_X101Y472       LUT6 (Prop_B6LUT_SLICEL_I5_O)
                                                      0.115    14.117 r  muon_sorter_1/pt_ret_1861_RNIRDN3PE1/O
                         net (fo=13, routed)          0.305    14.422    muon_sorter_1/max_pt_10_3[8]
    SLICE_X100Y469       LUT5 (Prop_E6LUT_SLICEM_I4_O)
                                                      0.063    14.485 f  muon_sorter_1/pt_ret_1861_RNIC5CR0D/O
                         net (fo=7, routed)           0.407    14.892    muon_sorter_1/N_1308
    SLICE_X99Y465        LUT3 (Prop_E6LUT_SLICEM_I0_O)
                                                      0.039    14.931 r  muon_sorter_1/pt_ret_1861_RNII3SF2K3/O
                         net (fo=2, routed)           0.288    15.219    muon_sorter_1/pt_compare_11_15_0_a2_RNI2O051[9]
    SLICE_X100Y465       LUT5 (Prop_H6LUT_SLICEM_I3_O)
                                                      0.066    15.285 r  muon_sorter_1/pt_ret_1861_RNI1UOGTD_0_lut6_2_o5/O
                         net (fo=10, routed)          0.366    15.651    muon_sorter_1/max_pt_11_3[9]
    SLICE_X101Y467       LUT6 (Prop_H6LUT_SLICEL_I3_O)
                                                      0.064    15.715 f  muon_sorter_1/pt_ret_1759_RNIVJVUCA/O
                         net (fo=4, routed)           0.461    16.176    muon_sorter_1/pt_compare_12_9_0_a2[6]
    SLICE_X102Y466       LUT6 (Prop_E6LUT_SLICEM_I0_O)
                                                      0.101    16.277 r  muon_sorter_1/pt_ret_1861_RNI2LQVHU3/O
                         net (fo=16, routed)          0.385    16.662    muon_sorter_1/max_pt_12_0[9]
    SLICE_X104Y467       LUT6 (Prop_C6LUT_SLICEM_I4_O)
                                                      0.174    16.836 f  muon_sorter_1/pt_ret_1861_RNIT4E9B2/O
                         net (fo=5, routed)           0.557    17.393    muon_sorter_1/pt_compare_13_9_0_a2[0]
    SLICE_X106Y469       LUT4 (Prop_E6LUT_SLICEL_I2_O)
                                                      0.100    17.493 r  muon_sorter_1/pt_ret_1861_RNIKT7TLC3/O
                         net (fo=1, routed)           0.049    17.542    muon_sorter_1/pt_ret_1861_RNIKT7TLC3
    SLICE_X106Y469       LUT4 (Prop_B6LUT_SLICEL_I3_O)
                                                      0.064    17.606 r  muon_sorter_1/pt_ret_1861_RNI6FQJ05/O
                         net (fo=2, routed)           0.168    17.774    muon_sorter_1/pt_ret_1861_RNI6FQJ05
    SLICE_X106Y468       LUT4 (Prop_D5LUT_SLICEL_I3_O)
                                                      0.080    17.854 r  muon_sorter_1/pt_ret_1861_RNIGTA8MQ1_2_lut6_2_o5/O
                         net (fo=10, routed)          0.172    18.026    muon_sorter_1/max_pt_13[9]
    SLICE_X106Y469       LUT6 (Prop_F6LUT_SLICEL_I5_O)
                                                      0.148    18.174 r  muon_sorter_1/roi_ret_672_RNO_1/O
                         net (fo=1, routed)           0.099    18.273    muon_sorter_1/roi_4_11[1]
    SLICE_X106Y468       LUT6 (Prop_E6LUT_SLICEL_I5_O)
                                                      0.039    18.312 r  muon_sorter_1/roi_ret_672_RNO_2/O
                         net (fo=1, routed)           0.054    18.366    muon_sorter_1/roi_2_1_0_1[1]
    SLICE_X106Y468       FDRE                                         r  muon_sorter_1/roi_ret_672/D
  -------------------------------------------------------------------    -------------------

                         (clock clk rise edge)       12.500    12.500 r  
    AV33                                              0.000    12.500 r  clk (IN)
                         net (fo=0)                   0.000    12.500    clk_ibuf_iso/I
    AV33                 INBUF (Prop_INBUF_HPIOB_M_PAD_O)
                                                      0.510    13.010 r  clk_ibuf_iso/INBUF_INST/O
                         net (fo=1, routed)           0.000    13.010    clk_ibuf_iso/OUT
    AV33                 IBUFCTRL (Prop_IBUFCTRL_HPIOB_M_I_O)
                                                      0.000    13.010 r  clk_ibuf_iso/IBUFCTRL_INST/O
                         net (fo=1, routed)           0.296    13.306    clk_ibuf_iso
    BUFGCE_X1Y224        BUFGCE (Prop_BUFCE_BUFGCE_I_O)
                                                      0.024    13.330 r  clk_ibuf/O
    X3Y8 (CLOCK_ROOT)    net (fo=4906, routed)        2.047    15.377    muon_sorter_1/clk_c
    SLICE_X106Y468       FDRE                                         r  muon_sorter_1/roi_ret_672/C
                         clock pessimism              0.404    15.781    
                         clock uncertainty           -0.035    15.746    
    SLICE_X106Y468       FDRE (Setup_EFF_SLICEL_C_D)
                                                      0.027    15.773    muon_sorter_1/roi_ret_672
  -------------------------------------------------------------------
                         required time                         15.773    
                         arrival time                         -18.366    
  -------------------------------------------------------------------
                         slack                                 -2.593    

Slack (VIOLATED) :        -2.593ns  (required time - arrival time)
  Source:                 muon_sorter_1/pt_ret_870_fast/C
                            (rising edge-triggered cell FDRE clocked by clk  {rise@0.000ns fall@6.250ns period=12.500ns})
  Destination:            muon_sorter_1/roi_ret_672/D
                            (rising edge-triggered cell FDRE clocked by clk  {rise@0.000ns fall@6.250ns period=12.500ns})
  Path Group:             clk
  Path Type:              Setup (Max at Slow Process Corner)
  Requirement:            12.500ns  (clk rise@12.500ns - clk rise@0.000ns)
  Data Path Delay:        15.090ns  (logic 4.064ns (26.932%)  route 11.026ns (73.068%))
  Logic Levels:           36  (LUT3=1 LUT4=4 LUT5=10 LUT6=21)
  Clock Path Skew:        0.005ns (DCD - SCD + CPR)
    Destination Clock Delay (DCD):    2.877ns = ( 15.377 - 12.500 ) 
    Source Clock Delay      (SCD):    3.276ns
    Clock Pessimism Removal (CPR):    0.404ns
  Clock Uncertainty:      0.035ns  ((TSJ^2 + TIJ^2)^1/2 + DJ) / 2 + PE
    Total System Jitter     (TSJ):    0.071ns
    Total Input Jitter      (TIJ):    0.000ns
    Discrete Jitter          (DJ):    0.000ns
    Phase Error              (PE):    0.000ns
  Clock Net Delay (Source):      2.135ns (routing 1.014ns, distribution 1.121ns)
  Clock Net Delay (Destination): 2.047ns (routing 0.926ns, distribution 1.121ns)

    Location             Delay type                Incr(ns)  Path(ns)    Netlist Resource(s)
  -------------------------------------------------------------------    -------------------
                         (clock clk rise edge)        0.000     0.000 r  
    AV33                                              0.000     0.000 r  clk (IN)
                         net (fo=0)                   0.000     0.000    clk_ibuf_iso/I
    AV33                 INBUF (Prop_INBUF_HPIOB_M_PAD_O)
                                                      0.779     0.779 r  clk_ibuf_iso/INBUF_INST/O
                         net (fo=1, routed)           0.000     0.779    clk_ibuf_iso/OUT
    AV33                 IBUFCTRL (Prop_IBUFCTRL_HPIOB_M_I_O)
                                                      0.000     0.779 r  clk_ibuf_iso/IBUFCTRL_INST/O
                         net (fo=1, routed)           0.334     1.113    clk_ibuf_iso
    BUFGCE_X1Y224        BUFGCE (Prop_BUFCE_BUFGCE_I_O)
                                                      0.028     1.141 r  clk_ibuf/O
    X3Y8 (CLOCK_ROOT)    net (fo=4906, routed)        2.135     3.276    muon_sorter_1/clk_c
    SLICE_X100Y511       FDRE                                         r  muon_sorter_1/pt_ret_870_fast/C
  -------------------------------------------------------------------    -------------------
    SLICE_X100Y511       FDRE (Prop_DFF2_SLICEM_C_Q)
                                                      0.098     3.374 r  muon_sorter_1/pt_ret_870_fast/Q
                         net (fo=5, routed)           0.231     3.605    muon_sorter_1/max_pt_1_3[11]
    SLICE_X100Y511       LUT6 (Prop_B6LUT_SLICEM_I3_O)
                                                      0.178     3.783 f  muon_sorter_1/pt_ret_829_RNISKFH2/O
                         net (fo=3, routed)           0.197     3.980    muon_sorter_1/pt_ret_1378_RNI6NEN5/I4
    SLICE_X99Y509        LUT5 (Prop_B5LUT_SLICEM_I4_O)
                                                      0.089     4.069 r  muon_sorter_1/pt_ret_1378_RNI6NEN5/LUT5/O
                         net (fo=1, routed)           0.261     4.330    muon_sorter_1/max_pt_2_0_x[11]
    SLICE_X99Y509        LUT5 (Prop_E6LUT_SLICEM_I4_O)
                                                      0.039     4.369 r  muon_sorter_1/pt_ret_1496_RNIK6CNB/O
                         net (fo=14, routed)          0.251     4.620    muon_sorter_1/max_pt_2_3[11]
    SLICE_X102Y509       LUT6 (Prop_D6LUT_SLICEM_I4_O)
                                                      0.098     4.718 f  muon_sorter_1/pt_ret_1393_RNIQHH5O/O
                         net (fo=5, routed)           0.456     5.174    muon_sorter_1/N_813
    SLICE_X102Y505       LUT6 (Prop_G6LUT_SLICEM_I5_O)
                                                      0.116     5.290 r  muon_sorter_1/pt_ret_1227_RNIEESVK2/O
                         net (fo=4, routed)           0.124     5.414    muon_sorter_1/pt_ret_1227_RNIBDQL36/I4
    SLICE_X100Y505       LUT6 (Prop_H6LUT_SLICEM_I4_O)
                                                      0.066     5.480 r  muon_sorter_1/pt_ret_1227_RNIBDQL36/LUT6/O
                         net (fo=16, routed)          0.326     5.806    muon_sorter_1/max_pt_3_3[11]
    SLICE_X102Y502       LUT5 (Prop_F6LUT_SLICEM_I3_O)
                                                      0.177     5.983 f  muon_sorter_1/pt_ret_1227_RNI2J568F/O
                         net (fo=5, routed)           0.268     6.251    muon_sorter_1/pt_ret_1227_RNIC5Q7A43/I4
    SLICE_X101Y500       LUT5 (Prop_A5LUT_SLICEL_I4_O)
                                                      0.085     6.336 r  muon_sorter_1/pt_ret_1227_RNIC5Q7A43/LUT5/O
                         net (fo=2, routed)           0.149     6.485    muon_sorter_1/max_pt_4_0_x[11]
    SLICE_X101Y498       LUT6 (Prop_F6LUT_SLICEL_I5_O)
                                                      0.062     6.547 r  muon_sorter_1/pt_ret_1300_RNIUKE0VQ1/O
                         net (fo=13, routed)          0.326     6.873    muon_sorter_1/max_pt_4_3[11]
    SLICE_X97Y500        LUT6 (Prop_H6LUT_SLICEM_I3_O)
                                                      0.100     6.973 r  muon_sorter_1/pt_ret_1345_RNI6CVC8J/O
                         net (fo=3, routed)           0.430     7.403    muon_sorter_1/N_2116
    SLICE_X98Y497        LUT5 (Prop_B6LUT_SLICEL_I0_O)
                                                      0.177     7.580 r  muon_sorter_1/pt_ret_1345_RNIT5PU8E3/O
                         net (fo=10, routed)          0.388     7.968    muon_sorter_1/max_pt_5_1[11]
    SLICE_X99Y494        LUT6 (Prop_F6LUT_SLICEM_I3_O)
                                                      0.113     8.081 r  muon_sorter_1/pt_ret_1300_RNILRIK4O2/O
                         net (fo=7, routed)           0.442     8.523    muon_sorter_1/pt_compare_14_11_27_0_a2[5]
    SLICE_X98Y489        LUT6 (Prop_A6LUT_SLICEL_I1_O)
                                                      0.149     8.672 r  muon_sorter_1/pt_ret_1370_RNI7P0QOV2/O
                         net (fo=3, routed)           0.252     8.924    muon_sorter_1/pt_ret_1399_RNITU7OBP3/I4
    SLICE_X98Y489        LUT5 (Prop_C5LUT_SLICEL_I4_O)
                                                      0.083     9.007 r  muon_sorter_1/pt_ret_1399_RNITU7OBP3/LUT5/O
                         net (fo=14, routed)          0.346     9.353    muon_sorter_1/max_pt_6_3[5]
    SLICE_X101Y486       LUT6 (Prop_H6LUT_SLICEL_I5_O)
                                                      0.040     9.393 f  muon_sorter_1/pt_ret_1399_RNIC2QBU42/O
                         net (fo=5, routed)           0.325     9.718    muon_sorter_1/pt_ret_1398_RNISKTUHC2/I1
    SLICE_X100Y486       LUT5 (Prop_A5LUT_SLICEM_I1_O)
                                                      0.171     9.889 r  muon_sorter_1/pt_ret_1398_RNISKTUHC2/LUT5/O
                         net (fo=1, routed)           0.228    10.117    muon_sorter_1/max_pt_7_0_x[5]
    SLICE_X100Y486       LUT6 (Prop_D6LUT_SLICEM_I3_O)
                                                      0.147    10.264 r  muon_sorter_1/pt_ret_1399_RNI7EC11M1/O
                         net (fo=14, routed)          0.387    10.651    muon_sorter_1/max_pt_7_3[5]
    SLICE_X97Y483        LUT6 (Prop_G6LUT_SLICEM_I4_O)
                                                      0.100    10.751 r  muon_sorter_1/pt_ret_1399_RNINHHP6N1/O
                         net (fo=7, routed)           0.562    11.313    muon_sorter_1/pt_ret_1399_RNI01LMGH2/I4
    SLICE_X98Y477        LUT6 (Prop_B6LUT_SLICEL_I4_O)
                                                      0.064    11.377 f  muon_sorter_1/pt_ret_1399_RNI01LMGH2/LUT6/O
                         net (fo=13, routed)          0.440    11.817    muon_sorter_1/max_pt_8_0[12]
    SLICE_X97Y475        LUT6 (Prop_C6LUT_SLICEM_I2_O)
                                                      0.147    11.964 r  muon_sorter_1/pt_ret_1399_RNI4GD9F5/O
                         net (fo=5, routed)           0.330    12.294    muon_sorter_1/pt_compare_9_12_0_a2[8]
    SLICE_X98Y475        LUT6 (Prop_G6LUT_SLICEL_I5_O)
                                                      0.178    12.472 r  muon_sorter_1/pt_ret_1399_RNI5GPIKU2/O
                         net (fo=5, routed)           0.285    12.757    muon_sorter_1/max_pt_9_2[8]
    SLICE_X97Y474        LUT4 (Prop_D5LUT_SLICEM_I3_O)
                                                      0.167    12.924 r  muon_sorter_1/pt_ret_1399_RNIS3L0VO_lut6_2_o5/O
                         net (fo=2, routed)           0.442    13.366    muon_sorter_1/max_pt_9_3_x_0[8]
    SLICE_X102Y472       LUT6 (Prop_D6LUT_SLICEM_I4_O)
                                                      0.174    13.540 r  muon_sorter_1/pt_ret_1399_RNII357981/O
                         net (fo=6, routed)           0.122    13.662    muon_sorter_1/pt_ret_1399_RNIHA662R2/I0
    SLICE_X103Y472       LUT5 (Prop_D5LUT_SLICEL_I0_O)
                                                      0.193    13.855 r  muon_sorter_1/pt_ret_1399_RNIHA662R2/LUT5/O
                         net (fo=1, routed)           0.147    14.002    muon_sorter_1/max_pt_10_0_x[8]
    SLICE_X101Y472       LUT6 (Prop_B6LUT_SLICEL_I5_O)
                                                      0.115    14.117 r  muon_sorter_1/pt_ret_1861_RNIRDN3PE1/O
                         net (fo=13, routed)          0.305    14.422    muon_sorter_1/max_pt_10_3[8]
    SLICE_X100Y469       LUT5 (Prop_E6LUT_SLICEM_I4_O)
                                                      0.063    14.485 f  muon_sorter_1/pt_ret_1861_RNIC5CR0D/O
                         net (fo=7, routed)           0.407    14.892    muon_sorter_1/N_1308
    SLICE_X99Y465        LUT3 (Prop_E6LUT_SLICEM_I0_O)
                                                      0.039    14.931 r  muon_sorter_1/pt_ret_1861_RNII3SF2K3/O
                         net (fo=2, routed)           0.288    15.219    muon_sorter_1/pt_compare_11_15_0_a2_RNI2O051[9]
    SLICE_X100Y465       LUT5 (Prop_H6LUT_SLICEM_I3_O)
                                                      0.066    15.285 r  muon_sorter_1/pt_ret_1861_RNI1UOGTD_0_lut6_2_o5/O
                         net (fo=10, routed)          0.366    15.651    muon_sorter_1/max_pt_11_3[9]
    SLICE_X101Y467       LUT6 (Prop_H6LUT_SLICEL_I3_O)
                                                      0.064    15.715 f  muon_sorter_1/pt_ret_1759_RNIVJVUCA/O
                         net (fo=4, routed)           0.461    16.176    muon_sorter_1/pt_compare_12_9_0_a2[6]
    SLICE_X102Y466       LUT6 (Prop_E6LUT_SLICEM_I0_O)
                                                      0.101    16.277 r  muon_sorter_1/pt_ret_1861_RNI2LQVHU3/O
                         net (fo=16, routed)          0.385    16.662    muon_sorter_1/max_pt_12_0[9]
    SLICE_X104Y467       LUT6 (Prop_C6LUT_SLICEM_I4_O)
                                                      0.174    16.836 f  muon_sorter_1/pt_ret_1861_RNIT4E9B2/O
                         net (fo=5, routed)           0.557    17.393    muon_sorter_1/pt_compare_13_9_0_a2[0]
    SLICE_X106Y469       LUT4 (Prop_E6LUT_SLICEL_I2_O)
                                                      0.100    17.493 r  muon_sorter_1/pt_ret_1861_RNIKT7TLC3/O
                         net (fo=1, routed)           0.049    17.542    muon_sorter_1/pt_ret_1861_RNIKT7TLC3
    SLICE_X106Y469       LUT4 (Prop_B6LUT_SLICEL_I3_O)
                                                      0.064    17.606 r  muon_sorter_1/pt_ret_1861_RNI6FQJ05/O
                         net (fo=2, routed)           0.168    17.774    muon_sorter_1/pt_ret_1861_RNI6FQJ05
    SLICE_X106Y468       LUT4 (Prop_D5LUT_SLICEL_I3_O)
                                                      0.080    17.854 r  muon_sorter_1/pt_ret_1861_RNIGTA8MQ1_2_lut6_2_o5/O
                         net (fo=10, routed)          0.172    18.026    muon_sorter_1/max_pt_13[9]
    SLICE_X106Y469       LUT6 (Prop_F6LUT_SLICEL_I5_O)
                                                      0.148    18.174 r  muon_sorter_1/roi_ret_672_RNO_1/O
                         net (fo=1, routed)           0.099    18.273    muon_sorter_1/roi_4_11[1]
    SLICE_X106Y468       LUT6 (Prop_E6LUT_SLICEL_I5_O)
                                                      0.039    18.312 r  muon_sorter_1/roi_ret_672_RNO_2/O
                         net (fo=1, routed)           0.054    18.366    muon_sorter_1/roi_2_1_0_1[1]
    SLICE_X106Y468       FDRE                                         r  muon_sorter_1/roi_ret_672/D
  -------------------------------------------------------------------    -------------------

                         (clock clk rise edge)       12.500    12.500 r  
    AV33                                              0.000    12.500 r  clk (IN)
                         net (fo=0)                   0.000    12.500    clk_ibuf_iso/I
    AV33                 INBUF (Prop_INBUF_HPIOB_M_PAD_O)
                                                      0.510    13.010 r  clk_ibuf_iso/INBUF_INST/O
                         net (fo=1, routed)           0.000    13.010    clk_ibuf_iso/OUT
    AV33                 IBUFCTRL (Prop_IBUFCTRL_HPIOB_M_I_O)
                                                      0.000    13.010 r  clk_ibuf_iso/IBUFCTRL_INST/O
                         net (fo=1, routed)           0.296    13.306    clk_ibuf_iso
    BUFGCE_X1Y224        BUFGCE (Prop_BUFCE_BUFGCE_I_O)
                                                      0.024    13.330 r  clk_ibuf/O
    X3Y8 (CLOCK_ROOT)    net (fo=4906, routed)        2.047    15.377    muon_sorter_1/clk_c
    SLICE_X106Y468       FDRE                                         r  muon_sorter_1/roi_ret_672/C
                         clock pessimism              0.404    15.781    
                         clock uncertainty           -0.035    15.746    
    SLICE_X106Y468       FDRE (Setup_EFF_SLICEL_C_D)
                                                      0.027    15.773    muon_sorter_1/roi_ret_672
  -------------------------------------------------------------------
                         required time                         15.773    
                         arrival time                         -18.366    
  -------------------------------------------------------------------
                         slack                                 -2.593    

Slack (VIOLATED) :        -2.593ns  (required time - arrival time)
  Source:                 muon_sorter_1/pt_ret_870_fast/C
                            (rising edge-triggered cell FDRE clocked by clk  {rise@0.000ns fall@6.250ns period=12.500ns})
  Destination:            muon_sorter_1/roi_ret_672/D
                            (rising edge-triggered cell FDRE clocked by clk  {rise@0.000ns fall@6.250ns period=12.500ns})
  Path Group:             clk
  Path Type:              Setup (Max at Slow Process Corner)
  Requirement:            12.500ns  (clk rise@12.500ns - clk rise@0.000ns)
  Data Path Delay:        15.090ns  (logic 4.064ns (26.932%)  route 11.026ns (73.068%))
  Logic Levels:           36  (LUT3=1 LUT4=4 LUT5=10 LUT6=21)
  Clock Path Skew:        0.005ns (DCD - SCD + CPR)
    Destination Clock Delay (DCD):    2.877ns = ( 15.377 - 12.500 ) 
    Source Clock Delay      (SCD):    3.276ns
    Clock Pessimism Removal (CPR):    0.404ns
  Clock Uncertainty:      0.035ns  ((TSJ^2 + TIJ^2)^1/2 + DJ) / 2 + PE
    Total System Jitter     (TSJ):    0.071ns
    Total Input Jitter      (TIJ):    0.000ns
    Discrete Jitter          (DJ):    0.000ns
    Phase Error              (PE):    0.000ns
  Clock Net Delay (Source):      2.135ns (routing 1.014ns, distribution 1.121ns)
  Clock Net Delay (Destination): 2.047ns (routing 0.926ns, distribution 1.121ns)

    Location             Delay type                Incr(ns)  Path(ns)    Netlist Resource(s)
  -------------------------------------------------------------------    -------------------
                         (clock clk rise edge)        0.000     0.000 r  
    AV33                                              0.000     0.000 r  clk (IN)
                         net (fo=0)                   0.000     0.000    clk_ibuf_iso/I
    AV33                 INBUF (Prop_INBUF_HPIOB_M_PAD_O)
                                                      0.779     0.779 r  clk_ibuf_iso/INBUF_INST/O
                         net (fo=1, routed)           0.000     0.779    clk_ibuf_iso/OUT
    AV33                 IBUFCTRL (Prop_IBUFCTRL_HPIOB_M_I_O)
                                                      0.000     0.779 r  clk_ibuf_iso/IBUFCTRL_INST/O
                         net (fo=1, routed)           0.334     1.113    clk_ibuf_iso
    BUFGCE_X1Y224        BUFGCE (Prop_BUFCE_BUFGCE_I_O)
                                                      0.028     1.141 r  clk_ibuf/O
    X3Y8 (CLOCK_ROOT)    net (fo=4906, routed)        2.135     3.276    muon_sorter_1/clk_c
    SLICE_X100Y511       FDRE                                         r  muon_sorter_1/pt_ret_870_fast/C
  -------------------------------------------------------------------    -------------------
    SLICE_X100Y511       FDRE (Prop_DFF2_SLICEM_C_Q)
                                                      0.098     3.374 f  muon_sorter_1/pt_ret_870_fast/Q
                         net (fo=5, routed)           0.231     3.605    muon_sorter_1/max_pt_1_3[11]
    SLICE_X100Y511       LUT6 (Prop_B6LUT_SLICEM_I3_O)
                                                      0.178     3.783 f  muon_sorter_1/pt_ret_829_RNISKFH2/O
                         net (fo=3, routed)           0.197     3.980    muon_sorter_1/pt_ret_1378_RNI6NEN5/I4
    SLICE_X99Y509        LUT5 (Prop_B5LUT_SLICEM_I4_O)
                                                      0.089     4.069 r  muon_sorter_1/pt_ret_1378_RNI6NEN5/LUT5/O
                         net (fo=1, routed)           0.261     4.330    muon_sorter_1/max_pt_2_0_x[11]
    SLICE_X99Y509        LUT5 (Prop_E6LUT_SLICEM_I4_O)
                                                      0.039     4.369 r  muon_sorter_1/pt_ret_1496_RNIK6CNB/O
                         net (fo=14, routed)          0.251     4.620    muon_sorter_1/max_pt_2_3[11]
    SLICE_X102Y509       LUT6 (Prop_D6LUT_SLICEM_I4_O)
                                                      0.098     4.718 f  muon_sorter_1/pt_ret_1393_RNIQHH5O/O
                         net (fo=5, routed)           0.456     5.174    muon_sorter_1/N_813
    SLICE_X102Y505       LUT6 (Prop_G6LUT_SLICEM_I5_O)
                                                      0.116     5.290 r  muon_sorter_1/pt_ret_1227_RNIEESVK2/O
                         net (fo=4, routed)           0.124     5.414    muon_sorter_1/pt_ret_1227_RNIBDQL36/I4
    SLICE_X100Y505       LUT6 (Prop_H6LUT_SLICEM_I4_O)
                                                      0.066     5.480 r  muon_sorter_1/pt_ret_1227_RNIBDQL36/LUT6/O
                         net (fo=16, routed)          0.326     5.806    muon_sorter_1/max_pt_3_3[11]
    SLICE_X102Y502       LUT5 (Prop_F6LUT_SLICEM_I3_O)
                                                      0.177     5.983 f  muon_sorter_1/pt_ret_1227_RNI2J568F/O
                         net (fo=5, routed)           0.268     6.251    muon_sorter_1/pt_ret_1227_RNIC5Q7A43/I4
    SLICE_X101Y500       LUT5 (Prop_A5LUT_SLICEL_I4_O)
                                                      0.085     6.336 r  muon_sorter_1/pt_ret_1227_RNIC5Q7A43/LUT5/O
                         net (fo=2, routed)           0.149     6.485    muon_sorter_1/max_pt_4_0_x[11]
    SLICE_X101Y498       LUT6 (Prop_F6LUT_SLICEL_I5_O)
                                                      0.062     6.547 r  muon_sorter_1/pt_ret_1300_RNIUKE0VQ1/O
                         net (fo=13, routed)          0.326     6.873    muon_sorter_1/max_pt_4_3[11]
    SLICE_X97Y500        LUT6 (Prop_H6LUT_SLICEM_I3_O)
                                                      0.100     6.973 r  muon_sorter_1/pt_ret_1345_RNI6CVC8J/O
                         net (fo=3, routed)           0.430     7.403    muon_sorter_1/N_2116
    SLICE_X98Y497        LUT5 (Prop_B6LUT_SLICEL_I0_O)
                                                      0.177     7.580 r  muon_sorter_1/pt_ret_1345_RNIT5PU8E3/O
                         net (fo=10, routed)          0.388     7.968    muon_sorter_1/max_pt_5_1[11]
    SLICE_X99Y494        LUT6 (Prop_F6LUT_SLICEM_I3_O)
                                                      0.113     8.081 r  muon_sorter_1/pt_ret_1300_RNILRIK4O2/O
                         net (fo=7, routed)           0.442     8.523    muon_sorter_1/pt_compare_14_11_27_0_a2[5]
    SLICE_X98Y489        LUT6 (Prop_A6LUT_SLICEL_I1_O)
                                                      0.149     8.672 r  muon_sorter_1/pt_ret_1370_RNI7P0QOV2/O
                         net (fo=3, routed)           0.252     8.924    muon_sorter_1/pt_ret_1399_RNITU7OBP3/I4
    SLICE_X98Y489        LUT5 (Prop_C5LUT_SLICEL_I4_O)
                                                      0.083     9.007 r  muon_sorter_1/pt_ret_1399_RNITU7OBP3/LUT5/O
                         net (fo=14, routed)          0.346     9.353    muon_sorter_1/max_pt_6_3[5]
    SLICE_X101Y486       LUT6 (Prop_H6LUT_SLICEL_I5_O)
                                                      0.040     9.393 f  muon_sorter_1/pt_ret_1399_RNIC2QBU42/O
                         net (fo=5, routed)           0.325     9.718    muon_sorter_1/pt_ret_1398_RNISKTUHC2/I1
    SLICE_X100Y486       LUT5 (Prop_A5LUT_SLICEM_I1_O)
                                                      0.171     9.889 r  muon_sorter_1/pt_ret_1398_RNISKTUHC2/LUT5/O
                         net (fo=1, routed)           0.228    10.117    muon_sorter_1/max_pt_7_0_x[5]
    SLICE_X100Y486       LUT6 (Prop_D6LUT_SLICEM_I3_O)
                                                      0.147    10.264 r  muon_sorter_1/pt_ret_1399_RNI7EC11M1/O
                         net (fo=14, routed)          0.387    10.651    muon_sorter_1/max_pt_7_3[5]
    SLICE_X97Y483        LUT6 (Prop_G6LUT_SLICEM_I4_O)
                                                      0.100    10.751 r  muon_sorter_1/pt_ret_1399_RNINHHP6N1/O
                         net (fo=7, routed)           0.562    11.313    muon_sorter_1/pt_ret_1399_RNI01LMGH2/I4
    SLICE_X98Y477        LUT6 (Prop_B6LUT_SLICEL_I4_O)
                                                      0.064    11.377 f  muon_sorter_1/pt_ret_1399_RNI01LMGH2/LUT6/O
                         net (fo=13, routed)          0.440    11.817    muon_sorter_1/max_pt_8_0[12]
    SLICE_X97Y475        LUT6 (Prop_C6LUT_SLICEM_I2_O)
                                                      0.147    11.964 r  muon_sorter_1/pt_ret_1399_RNI4GD9F5/O
                         net (fo=5, routed)           0.330    12.294    muon_sorter_1/pt_compare_9_12_0_a2[8]
    SLICE_X98Y475        LUT6 (Prop_G6LUT_SLICEL_I5_O)
                                                      0.178    12.472 r  muon_sorter_1/pt_ret_1399_RNI5GPIKU2/O
                         net (fo=5, routed)           0.285    12.757    muon_sorter_1/max_pt_9_2[8]
    SLICE_X97Y474        LUT4 (Prop_D5LUT_SLICEM_I3_O)
                                                      0.167    12.924 r  muon_sorter_1/pt_ret_1399_RNIS3L0VO_lut6_2_o5/O
                         net (fo=2, routed)           0.442    13.366    muon_sorter_1/max_pt_9_3_x_0[8]
    SLICE_X102Y472       LUT6 (Prop_D6LUT_SLICEM_I4_O)
                                                      0.174    13.540 r  muon_sorter_1/pt_ret_1399_RNII357981/O
                         net (fo=6, routed)           0.122    13.662    muon_sorter_1/pt_ret_1399_RNIHA662R2/I0
    SLICE_X103Y472       LUT5 (Prop_D5LUT_SLICEL_I0_O)
                                                      0.193    13.855 r  muon_sorter_1/pt_ret_1399_RNIHA662R2/LUT5/O
                         net (fo=1, routed)           0.147    14.002    muon_sorter_1/max_pt_10_0_x[8]
    SLICE_X101Y472       LUT6 (Prop_B6LUT_SLICEL_I5_O)
                                                      0.115    14.117 r  muon_sorter_1/pt_ret_1861_RNIRDN3PE1/O
                         net (fo=13, routed)          0.305    14.422    muon_sorter_1/max_pt_10_3[8]
    SLICE_X100Y469       LUT5 (Prop_E6LUT_SLICEM_I4_O)
                                                      0.063    14.485 f  muon_sorter_1/pt_ret_1861_RNIC5CR0D/O
                         net (fo=7, routed)           0.407    14.892    muon_sorter_1/N_1308
    SLICE_X99Y465        LUT3 (Prop_E6LUT_SLICEM_I0_O)
                                                      0.039    14.931 r  muon_sorter_1/pt_ret_1861_RNII3SF2K3/O
                         net (fo=2, routed)           0.288    15.219    muon_sorter_1/pt_compare_11_15_0_a2_RNI2O051[9]
    SLICE_X100Y465       LUT5 (Prop_H6LUT_SLICEM_I3_O)
                                                      0.066    15.285 r  muon_sorter_1/pt_ret_1861_RNI1UOGTD_0_lut6_2_o5/O
                         net (fo=10, routed)          0.366    15.651    muon_sorter_1/max_pt_11_3[9]
    SLICE_X101Y467       LUT6 (Prop_H6LUT_SLICEL_I3_O)
                                                      0.064    15.715 f  muon_sorter_1/pt_ret_1759_RNIVJVUCA/O
                         net (fo=4, routed)           0.461    16.176    muon_sorter_1/pt_compare_12_9_0_a2[6]
    SLICE_X102Y466       LUT6 (Prop_E6LUT_SLICEM_I0_O)
                                                      0.101    16.277 r  muon_sorter_1/pt_ret_1861_RNI2LQVHU3/O
                         net (fo=16, routed)          0.385    16.662    muon_sorter_1/max_pt_12_0[9]
    SLICE_X104Y467       LUT6 (Prop_C6LUT_SLICEM_I4_O)
                                                      0.174    16.836 f  muon_sorter_1/pt_ret_1861_RNIT4E9B2/O
                         net (fo=5, routed)           0.557    17.393    muon_sorter_1/pt_compare_13_9_0_a2[0]
    SLICE_X106Y469       LUT4 (Prop_E6LUT_SLICEL_I2_O)
                                                      0.100    17.493 r  muon_sorter_1/pt_ret_1861_RNIKT7TLC3/O
                         net (fo=1, routed)           0.049    17.542    muon_sorter_1/pt_ret_1861_RNIKT7TLC3
    SLICE_X106Y469       LUT4 (Prop_B6LUT_SLICEL_I3_O)
                                                      0.064    17.606 r  muon_sorter_1/pt_ret_1861_RNI6FQJ05/O
                         net (fo=2, routed)           0.168    17.774    muon_sorter_1/pt_ret_1861_RNI6FQJ05
    SLICE_X106Y468       LUT4 (Prop_D5LUT_SLICEL_I3_O)
                                                      0.080    17.854 r  muon_sorter_1/pt_ret_1861_RNIGTA8MQ1_2_lut6_2_o5/O
                         net (fo=10, routed)          0.172    18.026    muon_sorter_1/max_pt_13[9]
    SLICE_X106Y469       LUT6 (Prop_F6LUT_SLICEL_I5_O)
                                                      0.148    18.174 r  muon_sorter_1/roi_ret_672_RNO_1/O
                         net (fo=1, routed)           0.099    18.273    muon_sorter_1/roi_4_11[1]
    SLICE_X106Y468       LUT6 (Prop_E6LUT_SLICEL_I5_O)
                                                      0.039    18.312 r  muon_sorter_1/roi_ret_672_RNO_2/O
                         net (fo=1, routed)           0.054    18.366    muon_sorter_1/roi_2_1_0_1[1]
    SLICE_X106Y468       FDRE                                         r  muon_sorter_1/roi_ret_672/D
  -------------------------------------------------------------------    -------------------

                         (clock clk rise edge)       12.500    12.500 r  
    AV33                                              0.000    12.500 r  clk (IN)
                         net (fo=0)                   0.000    12.500    clk_ibuf_iso/I
    AV33                 INBUF (Prop_INBUF_HPIOB_M_PAD_O)
                                                      0.510    13.010 r  clk_ibuf_iso/INBUF_INST/O
                         net (fo=1, routed)           0.000    13.010    clk_ibuf_iso/OUT
    AV33                 IBUFCTRL (Prop_IBUFCTRL_HPIOB_M_I_O)
                                                      0.000    13.010 r  clk_ibuf_iso/IBUFCTRL_INST/O
                         net (fo=1, routed)           0.296    13.306    clk_ibuf_iso
    BUFGCE_X1Y224        BUFGCE (Prop_BUFCE_BUFGCE_I_O)
                                                      0.024    13.330 r  clk_ibuf/O
    X3Y8 (CLOCK_ROOT)    net (fo=4906, routed)        2.047    15.377    muon_sorter_1/clk_c
    SLICE_X106Y468       FDRE                                         r  muon_sorter_1/roi_ret_672/C
                         clock pessimism              0.404    15.781    
                         clock uncertainty           -0.035    15.746    
    SLICE_X106Y468       FDRE (Setup_EFF_SLICEL_C_D)
                                                      0.027    15.773    muon_sorter_1/roi_ret_672
  -------------------------------------------------------------------
                         required time                         15.773    
                         arrival time                         -18.366    
  -------------------------------------------------------------------
                         slack                                 -2.593    

Slack (VIOLATED) :        -2.593ns  (required time - arrival time)
  Source:                 muon_sorter_1/pt_ret_870_fast/C
                            (rising edge-triggered cell FDRE clocked by clk  {rise@0.000ns fall@6.250ns period=12.500ns})
  Destination:            muon_sorter_1/roi_ret_672/D
                            (rising edge-triggered cell FDRE clocked by clk  {rise@0.000ns fall@6.250ns period=12.500ns})
  Path Group:             clk
  Path Type:              Setup (Max at Slow Process Corner)
  Requirement:            12.500ns  (clk rise@12.500ns - clk rise@0.000ns)
  Data Path Delay:        15.090ns  (logic 4.064ns (26.932%)  route 11.026ns (73.068%))
  Logic Levels:           36  (LUT3=1 LUT4=4 LUT5=10 LUT6=21)
  Clock Path Skew:        0.005ns (DCD - SCD + CPR)
    Destination Clock Delay (DCD):    2.877ns = ( 15.377 - 12.500 ) 
    Source Clock Delay      (SCD):    3.276ns
    Clock Pessimism Removal (CPR):    0.404ns
  Clock Uncertainty:      0.035ns  ((TSJ^2 + TIJ^2)^1/2 + DJ) / 2 + PE
    Total System Jitter     (TSJ):    0.071ns
    Total Input Jitter      (TIJ):    0.000ns
    Discrete Jitter          (DJ):    0.000ns
    Phase Error              (PE):    0.000ns
  Clock Net Delay (Source):      2.135ns (routing 1.014ns, distribution 1.121ns)
  Clock Net Delay (Destination): 2.047ns (routing 0.926ns, distribution 1.121ns)

    Location             Delay type                Incr(ns)  Path(ns)    Netlist Resource(s)
  -------------------------------------------------------------------    -------------------
                         (clock clk rise edge)        0.000     0.000 r  
    AV33                                              0.000     0.000 r  clk (IN)
                         net (fo=0)                   0.000     0.000    clk_ibuf_iso/I
    AV33                 INBUF (Prop_INBUF_HPIOB_M_PAD_O)
                                                      0.779     0.779 r  clk_ibuf_iso/INBUF_INST/O
                         net (fo=1, routed)           0.000     0.779    clk_ibuf_iso/OUT
    AV33                 IBUFCTRL (Prop_IBUFCTRL_HPIOB_M_I_O)
                                                      0.000     0.779 r  clk_ibuf_iso/IBUFCTRL_INST/O
                         net (fo=1, routed)           0.334     1.113    clk_ibuf_iso
    BUFGCE_X1Y224        BUFGCE (Prop_BUFCE_BUFGCE_I_O)
                                                      0.028     1.141 r  clk_ibuf/O
    X3Y8 (CLOCK_ROOT)    net (fo=4906, routed)        2.135     3.276    muon_sorter_1/clk_c
    SLICE_X100Y511       FDRE                                         r  muon_sorter_1/pt_ret_870_fast/C
  -------------------------------------------------------------------    -------------------
    SLICE_X100Y511       FDRE (Prop_DFF2_SLICEM_C_Q)
                                                      0.098     3.374 r  muon_sorter_1/pt_ret_870_fast/Q
                         net (fo=5, routed)           0.231     3.605    muon_sorter_1/max_pt_1_3[11]
    SLICE_X100Y511       LUT6 (Prop_B6LUT_SLICEM_I3_O)
                                                      0.178     3.783 f  muon_sorter_1/pt_ret_829_RNISKFH2/O
                         net (fo=3, routed)           0.197     3.980    muon_sorter_1/pt_ret_1378_RNI6NEN5/I4
    SLICE_X99Y509        LUT5 (Prop_B5LUT_SLICEM_I4_O)
                                                      0.089     4.069 r  muon_sorter_1/pt_ret_1378_RNI6NEN5/LUT5/O
                         net (fo=1, routed)           0.261     4.330    muon_sorter_1/max_pt_2_0_x[11]
    SLICE_X99Y509        LUT5 (Prop_E6LUT_SLICEM_I4_O)
                                                      0.039     4.369 r  muon_sorter_1/pt_ret_1496_RNIK6CNB/O
                         net (fo=14, routed)          0.251     4.620    muon_sorter_1/max_pt_2_3[11]
    SLICE_X102Y509       LUT6 (Prop_D6LUT_SLICEM_I4_O)
                                                      0.098     4.718 f  muon_sorter_1/pt_ret_1393_RNIQHH5O/O
                         net (fo=5, routed)           0.456     5.174    muon_sorter_1/N_813
    SLICE_X102Y505       LUT6 (Prop_G6LUT_SLICEM_I5_O)
                                                      0.116     5.290 r  muon_sorter_1/pt_ret_1227_RNIEESVK2/O
                         net (fo=4, routed)           0.124     5.414    muon_sorter_1/pt_ret_1227_RNIBDQL36/I4
    SLICE_X100Y505       LUT6 (Prop_H6LUT_SLICEM_I4_O)
                                                      0.066     5.480 r  muon_sorter_1/pt_ret_1227_RNIBDQL36/LUT6/O
                         net (fo=16, routed)          0.326     5.806    muon_sorter_1/max_pt_3_3[11]
    SLICE_X102Y502       LUT5 (Prop_F6LUT_SLICEM_I3_O)
                                                      0.177     5.983 r  muon_sorter_1/pt_ret_1227_RNI2J568F/O
                         net (fo=5, routed)           0.268     6.251    muon_sorter_1/pt_ret_1227_RNIC5Q7A43/I4
    SLICE_X101Y500       LUT5 (Prop_A5LUT_SLICEL_I4_O)
                                                      0.085     6.336 f  muon_sorter_1/pt_ret_1227_RNIC5Q7A43/LUT5/O
                         net (fo=2, routed)           0.149     6.485    muon_sorter_1/max_pt_4_0_x[11]
    SLICE_X101Y498       LUT6 (Prop_F6LUT_SLICEL_I5_O)
                                                      0.062     6.547 f  muon_sorter_1/pt_ret_1300_RNIUKE0VQ1/O
                         net (fo=13, routed)          0.326     6.873    muon_sorter_1/max_pt_4_3[11]
    SLICE_X97Y500        LUT6 (Prop_H6LUT_SLICEM_I3_O)
                                                      0.100     6.973 r  muon_sorter_1/pt_ret_1345_RNI6CVC8J/O
                         net (fo=3, routed)           0.430     7.403    muon_sorter_1/N_2116
    SLICE_X98Y497        LUT5 (Prop_B6LUT_SLICEL_I0_O)
                                                      0.177     7.580 r  muon_sorter_1/pt_ret_1345_RNIT5PU8E3/O
                         net (fo=10, routed)          0.388     7.968    muon_sorter_1/max_pt_5_1[11]
    SLICE_X99Y494        LUT6 (Prop_F6LUT_SLICEM_I3_O)
                                                      0.113     8.081 r  muon_sorter_1/pt_ret_1300_RNILRIK4O2/O
                         net (fo=7, routed)           0.442     8.523    muon_sorter_1/pt_compare_14_11_27_0_a2[5]
    SLICE_X98Y489        LUT6 (Prop_A6LUT_SLICEL_I1_O)
                                                      0.149     8.672 r  muon_sorter_1/pt_ret_1370_RNI7P0QOV2/O
                         net (fo=3, routed)           0.252     8.924    muon_sorter_1/pt_ret_1399_RNITU7OBP3/I4
    SLICE_X98Y489        LUT5 (Prop_C5LUT_SLICEL_I4_O)
                                                      0.083     9.007 r  muon_sorter_1/pt_ret_1399_RNITU7OBP3/LUT5/O
                         net (fo=14, routed)          0.346     9.353    muon_sorter_1/max_pt_6_3[5]
    SLICE_X101Y486       LUT6 (Prop_H6LUT_SLICEL_I5_O)
                                                      0.040     9.393 f  muon_sorter_1/pt_ret_1399_RNIC2QBU42/O
                         net (fo=5, routed)           0.325     9.718    muon_sorter_1/pt_ret_1398_RNISKTUHC2/I1
    SLICE_X100Y486       LUT5 (Prop_A5LUT_SLICEM_I1_O)
                                                      0.171     9.889 r  muon_sorter_1/pt_ret_1398_RNISKTUHC2/LUT5/O
                         net (fo=1, routed)           0.228    10.117    muon_sorter_1/max_pt_7_0_x[5]
    SLICE_X100Y486       LUT6 (Prop_D6LUT_SLICEM_I3_O)
                                                      0.147    10.264 r  muon_sorter_1/pt_ret_1399_RNI7EC11M1/O
                         net (fo=14, routed)          0.387    10.651    muon_sorter_1/max_pt_7_3[5]
    SLICE_X97Y483        LUT6 (Prop_G6LUT_SLICEM_I4_O)
                                                      0.100    10.751 r  muon_sorter_1/pt_ret_1399_RNINHHP6N1/O
                         net (fo=7, routed)           0.562    11.313    muon_sorter_1/pt_ret_1399_RNI01LMGH2/I4
    SLICE_X98Y477        LUT6 (Prop_B6LUT_SLICEL_I4_O)
                                                      0.064    11.377 f  muon_sorter_1/pt_ret_1399_RNI01LMGH2/LUT6/O
                         net (fo=13, routed)          0.440    11.817    muon_sorter_1/max_pt_8_0[12]
    SLICE_X97Y475        LUT6 (Prop_C6LUT_SLICEM_I2_O)
                                                      0.147    11.964 r  muon_sorter_1/pt_ret_1399_RNI4GD9F5/O
                         net (fo=5, routed)           0.330    12.294    muon_sorter_1/pt_compare_9_12_0_a2[8]
    SLICE_X98Y475        LUT6 (Prop_G6LUT_SLICEL_I5_O)
                                                      0.178    12.472 r  muon_sorter_1/pt_ret_1399_RNI5GPIKU2/O
                         net (fo=5, routed)           0.285    12.757    muon_sorter_1/max_pt_9_2[8]
    SLICE_X97Y474        LUT4 (Prop_D5LUT_SLICEM_I3_O)
                                                      0.167    12.924 r  muon_sorter_1/pt_ret_1399_RNIS3L0VO_lut6_2_o5/O
                         net (fo=2, routed)           0.442    13.366    muon_sorter_1/max_pt_9_3_x_0[8]
    SLICE_X102Y472       LUT6 (Prop_D6LUT_SLICEM_I4_O)
                                                      0.174    13.540 r  muon_sorter_1/pt_ret_1399_RNII357981/O
                         net (fo=6, routed)           0.122    13.662    muon_sorter_1/pt_ret_1399_RNIHA662R2/I0
    SLICE_X103Y472       LUT5 (Prop_D5LUT_SLICEL_I0_O)
                                                      0.193    13.855 r  muon_sorter_1/pt_ret_1399_RNIHA662R2/LUT5/O
                         net (fo=1, routed)           0.147    14.002    muon_sorter_1/max_pt_10_0_x[8]
    SLICE_X101Y472       LUT6 (Prop_B6LUT_SLICEL_I5_O)
                                                      0.115    14.117 r  muon_sorter_1/pt_ret_1861_RNIRDN3PE1/O
                         net (fo=13, routed)          0.305    14.422    muon_sorter_1/max_pt_10_3[8]
    SLICE_X100Y469       LUT5 (Prop_E6LUT_SLICEM_I4_O)
                                                      0.063    14.485 f  muon_sorter_1/pt_ret_1861_RNIC5CR0D/O
                         net (fo=7, routed)           0.407    14.892    muon_sorter_1/N_1308
    SLICE_X99Y465        LUT3 (Prop_E6LUT_SLICEM_I0_O)
                                                      0.039    14.931 r  muon_sorter_1/pt_ret_1861_RNII3SF2K3/O
                         net (fo=2, routed)           0.288    15.219    muon_sorter_1/pt_compare_11_15_0_a2_RNI2O051[9]
    SLICE_X100Y465       LUT5 (Prop_H6LUT_SLICEM_I3_O)
                                                      0.066    15.285 r  muon_sorter_1/pt_ret_1861_RNI1UOGTD_0_lut6_2_o5/O
                         net (fo=10, routed)          0.366    15.651    muon_sorter_1/max_pt_11_3[9]
    SLICE_X101Y467       LUT6 (Prop_H6LUT_SLICEL_I3_O)
                                                      0.064    15.715 f  muon_sorter_1/pt_ret_1759_RNIVJVUCA/O
                         net (fo=4, routed)           0.461    16.176    muon_sorter_1/pt_compare_12_9_0_a2[6]
    SLICE_X102Y466       LUT6 (Prop_E6LUT_SLICEM_I0_O)
                                                      0.101    16.277 r  muon_sorter_1/pt_ret_1861_RNI2LQVHU3/O
                         net (fo=16, routed)          0.385    16.662    muon_sorter_1/max_pt_12_0[9]
    SLICE_X104Y467       LUT6 (Prop_C6LUT_SLICEM_I4_O)
                                                      0.174    16.836 f  muon_sorter_1/pt_ret_1861_RNIT4E9B2/O
                         net (fo=5, routed)           0.557    17.393    muon_sorter_1/pt_compare_13_9_0_a2[0]
    SLICE_X106Y469       LUT4 (Prop_E6LUT_SLICEL_I2_O)
                                                      0.100    17.493 r  muon_sorter_1/pt_ret_1861_RNIKT7TLC3/O
                         net (fo=1, routed)           0.049    17.542    muon_sorter_1/pt_ret_1861_RNIKT7TLC3
    SLICE_X106Y469       LUT4 (Prop_B6LUT_SLICEL_I3_O)
                                                      0.064    17.606 r  muon_sorter_1/pt_ret_1861_RNI6FQJ05/O
                         net (fo=2, routed)           0.168    17.774    muon_sorter_1/pt_ret_1861_RNI6FQJ05
    SLICE_X106Y468       LUT4 (Prop_D5LUT_SLICEL_I3_O)
                                                      0.080    17.854 r  muon_sorter_1/pt_ret_1861_RNIGTA8MQ1_2_lut6_2_o5/O
                         net (fo=10, routed)          0.172    18.026    muon_sorter_1/max_pt_13[9]
    SLICE_X106Y469       LUT6 (Prop_F6LUT_SLICEL_I5_O)
                                                      0.148    18.174 r  muon_sorter_1/roi_ret_672_RNO_1/O
                         net (fo=1, routed)           0.099    18.273    muon_sorter_1/roi_4_11[1]
    SLICE_X106Y468       LUT6 (Prop_E6LUT_SLICEL_I5_O)
                                                      0.039    18.312 r  muon_sorter_1/roi_ret_672_RNO_2/O
                         net (fo=1, routed)           0.054    18.366    muon_sorter_1/roi_2_1_0_1[1]
    SLICE_X106Y468       FDRE                                         r  muon_sorter_1/roi_ret_672/D
  -------------------------------------------------------------------    -------------------

                         (clock clk rise edge)       12.500    12.500 r  
    AV33                                              0.000    12.500 r  clk (IN)
                         net (fo=0)                   0.000    12.500    clk_ibuf_iso/I
    AV33                 INBUF (Prop_INBUF_HPIOB_M_PAD_O)
                                                      0.510    13.010 r  clk_ibuf_iso/INBUF_INST/O
                         net (fo=1, routed)           0.000    13.010    clk_ibuf_iso/OUT
    AV33                 IBUFCTRL (Prop_IBUFCTRL_HPIOB_M_I_O)
                                                      0.000    13.010 r  clk_ibuf_iso/IBUFCTRL_INST/O
                         net (fo=1, routed)           0.296    13.306    clk_ibuf_iso
    BUFGCE_X1Y224        BUFGCE (Prop_BUFCE_BUFGCE_I_O)
                                                      0.024    13.330 r  clk_ibuf/O
    X3Y8 (CLOCK_ROOT)    net (fo=4906, routed)        2.047    15.377    muon_sorter_1/clk_c
    SLICE_X106Y468       FDRE                                         r  muon_sorter_1/roi_ret_672/C
                         clock pessimism              0.404    15.781    
                         clock uncertainty           -0.035    15.746    
    SLICE_X106Y468       FDRE (Setup_EFF_SLICEL_C_D)
                                                      0.027    15.773    muon_sorter_1/roi_ret_672
  -------------------------------------------------------------------
                         required time                         15.773    
                         arrival time                         -18.366    
  -------------------------------------------------------------------
                         slack                                 -2.593    





Pulse Width Checks
--------------------------------------------------------------------------------------
Clock Name:         clk
Waveform(ns):       { 0.000 6.250 }
Period(ns):         12.500
Sources:            { clk }

Check Type        Corner  Lib Pin     Reference Pin  Required(ns)  Actual(ns)  Slack(ns)  Location        Pin
Min Period        n/a     BUFGCE/I    n/a            1.499         12.500      11.001     BUFGCE_X1Y224   clk_ibuf/I
Min Period        n/a     SRL16E/CLK  n/a            1.146         12.500      11.354     SLICE_X108Y504  muon_sorter_1/sr_3_0.roi_1_0_sr_3_8.roi_1_1/CLK
Min Period        n/a     SRL16E/CLK  n/a            1.146         12.500      11.354     SLICE_X110Y499  muon_sorter_1/sr_3_0.roi_1_1_sr_3_8.roi_1_1/CLK
Min Period        n/a     SRL16E/CLK  n/a            1.146         12.500      11.354     SLICE_X107Y499  muon_sorter_1/sr_3_3.roi_1_6_sr_3_8.roi_1_1/CLK
Min Period        n/a     SRL16E/CLK  n/a            1.146         12.500      11.354     SLICE_X107Y506  muon_sorter_1/sr_3_3.roi_1_sr_3_8.roi_1_1/CLK
Low Pulse Width   Fast    SRL16E/CLK  n/a            0.573         6.250       5.677      SLICE_X108Y504  muon_sorter_1/sr_3_0.roi_1_0_sr_3_8.roi_1_1/CLK
Low Pulse Width   Fast    SRL16E/CLK  n/a            0.573         6.250       5.677      SLICE_X107Y506  muon_sorter_1/sr_3_3.roi_1_sr_3_8.roi_1_1/CLK
Low Pulse Width   Fast    SRL16E/CLK  n/a            0.573         6.250       5.677      SLICE_X107Y503  muon_sorter_1/sr_3_3.sector_1_0_sr_3_8.roi_1_1/CLK
Low Pulse Width   Fast    SRL16E/CLK  n/a            0.573         6.250       5.677      SLICE_X107Y503  muon_sorter_1/sr_3_3.sector_1_sr_3_8.roi_1_1/CLK
Low Pulse Width   Fast    SRL16E/CLK  n/a            0.573         6.250       5.677      SLICE_X108Y504  muon_sorter_1/sr_3_0.roi_1_3_sr_3_8.roi_1_1/CLK
High Pulse Width  Slow    SRL16E/CLK  n/a            0.573         6.250       5.677      SLICE_X107Y503  muon_sorter_1/sr_3_3.sector_1_0_sr_3_8.roi_1_1/CLK
High Pulse Width  Slow    SRL16E/CLK  n/a            0.573         6.250       5.677      SLICE_X107Y503  muon_sorter_1/sr_3_3.sector_1_sr_3_8.roi_1_1/CLK
High Pulse Width  Slow    SRL16E/CLK  n/a            0.573         6.250       5.677      SLICE_X104Y492  muon_sorter_1/sr_3_5.roi_1_3_sr_3_8.roi_1_1/CLK
High Pulse Width  Slow    SRL16E/CLK  n/a            0.573         6.250       5.677      SLICE_X104Y492  muon_sorter_1/sr_3_5.roi_1_6_sr_3_8.roi_1_1/CLK
High Pulse Width  Slow    SRL16E/CLK  n/a            0.573         6.250       5.677      SLICE_X104Y492  muon_sorter_1/sr_3_5.roi_1_sr_3_8.roi_1_1/CLK



---------------------------------------------------------------------------------------------------
From Clock:  clk_wrapper
  To Clock:  clk_wrapper

Setup :           NA  Failing Endpoints,  Worst Slack           NA  ,  Total Violation           NA
Hold  :           NA  Failing Endpoints,  Worst Slack           NA  ,  Total Violation           NA
PW    :            0  Failing Endpoints,  Worst Slack      498.562ns,  Total Violation        0.000ns
---------------------------------------------------------------------------------------------------


Pulse Width Checks
--------------------------------------------------------------------------------------
Clock Name:         clk_wrapper
Waveform(ns):       { 0.000 500.000 }
Period(ns):         1000.000
Sources:            { clk_wrapper }

Check Type        Corner  Lib Pin   Reference Pin  Required(ns)  Actual(ns)  Slack(ns)  Location               Pin
Min Period        n/a     FDRE/C    n/a            3.195         1000.000    996.805    BITSLICE_RX_TX_X1Y483  reducer_1/delay_block[4][0]/C
Min Period        n/a     BUFGCE/I  n/a            1.499         1000.000    998.501    BUFGCE_X1Y230          clk_wrapper_ibuf/I
Min Period        n/a     FDRE/C    n/a            0.550         1000.000    999.450    SLICE_X88Y454          reducer_1/delay_block[0][168]/C
Min Period        n/a     FDRE/C    n/a            0.550         1000.000    999.450    SLICE_X88Y454          reducer_1/delay_block[0][169]/C
Min Period        n/a     FDRE/C    n/a            0.550         1000.000    999.450    SLICE_X109Y581         reducer_1/delay_block[0][16]/C
Low Pulse Width   Slow    FDRE/C    n/a            1.438         500.000     498.562    BITSLICE_RX_TX_X1Y483  reducer_1/delay_block[4][0]/C
Low Pulse Width   Fast    FDRE/C    n/a            1.438         500.000     498.562    BITSLICE_RX_TX_X1Y483  reducer_1/delay_block[4][0]/C
Low Pulse Width   Slow    FDRE/C    n/a            0.275         500.000     499.725    SLICE_X100Y579         reducer_1/delay_block[0][185]/C
Low Pulse Width   Slow    FDRE/C    n/a            0.275         500.000     499.725    SLICE_X100Y579         reducer_1/delay_block[0][187]/C
Low Pulse Width   Slow    FDRE/C    n/a            0.275         500.000     499.725    SLICE_X100Y575         reducer_1/delay_block[0][190]/C
High Pulse Width  Fast    FDRE/C    n/a            1.438         500.000     498.562    BITSLICE_RX_TX_X1Y483  reducer_1/delay_block[4][0]/C
High Pulse Width  Slow    FDRE/C    n/a            1.438         500.000     498.562    BITSLICE_RX_TX_X1Y483  reducer_1/delay_block[4][0]/C
High Pulse Width  Fast    FDRE/C    n/a            0.275         500.000     499.725    SLICE_X101Y581         reducer_1/delay_block[0][180]/C
High Pulse Width  Fast    FDRE/C    n/a            0.275         500.000     499.725    SLICE_X101Y581         reducer_1/delay_block[0][181]/C
High Pulse Width  Fast    FDRE/C    n/a            0.275         500.000     499.725    SLICE_X101Y581         reducer_1/delay_block[0][182]/C



