Copyright 1986-2018 Xilinx, Inc. All Rights Reserved.
-------------------------------------------------------------------------------------------------
| Tool Version      : Vivado v.2018.2 (win64) Build 2258646 Thu Jun 14 20:03:12 MDT 2018
| Date              : Mon Mar  4 16:10:39 2019
| Host              : PCPHESEBE02 running 64-bit Service Pack 1  (build 7601)
| Command           : report_timing_summary -setup -nworst 5 -max_paths 5 -file timing_setup.txt
| Design            : wrapper
| Device            : xcvu9p-flgc2104
| Speed File        : -1  PRODUCTION 1.20 05-21-2018
| Temperature Grade : E
-------------------------------------------------------------------------------------------------

Timing Summary Report

------------------------------------------------------------------------------------------------
| Timer Settings
| --------------
------------------------------------------------------------------------------------------------

  Enable Multi Corner Analysis               :  Yes
  Enable Pessimism Removal                   :  Yes
  Pessimism Removal Resolution               :  Nearest Common Node
  Enable Input Delay Default Clock           :  No
  Enable Preset / Clear Arcs                 :  No
  Disable Flight Delays                      :  No
  Ignore I/O Paths                           :  No
  Timing Early Launch at Borrowing Latches   :  false

  Corner  Analyze    Analyze    
  Name    Max Paths  Min Paths  
  ------  ---------  ---------  
  Slow    Yes        Yes        
  Fast    Yes        Yes        



check_timing report

Table of Contents
-----------------
1. checking no_clock
2. checking constant_clock
3. checking pulse_width_clock
4. checking unconstrained_internal_endpoints
5. checking no_input_delay
6. checking no_output_delay
7. checking multiple_clock
8. checking generated_clocks
9. checking loops
10. checking partial_input_delay
11. checking partial_output_delay
12. checking latch_loops

1. checking no_clock
--------------------
 There are 0 register/latch pins with no clock.


2. checking constant_clock
--------------------------
 There are 0 register/latch pins with constant_clock.


3. checking pulse_width_clock
-----------------------------
 There are 0 register/latch pins which need pulse_width check


4. checking unconstrained_internal_endpoints
--------------------------------------------
 There are 0 pins that are not constrained for maximum delay.

 There are 0 pins that are not constrained for maximum delay due to constant clock.


5. checking no_input_delay
--------------------------
 There is 1 input port with no input delay specified. (HIGH)

 There are 0 input ports with no input delay but user has a false path constraint.


6. checking no_output_delay
---------------------------
 There is 1 port with no output delay specified. (HIGH)

 There are 0 ports with no output delay but user has a false path constraint

 There are 0 ports with no output delay but with a timing clock defined on it or propagating through it


7. checking multiple_clock
--------------------------
 There are 0 register/latch pins with multiple clocks.


8. checking generated_clocks
----------------------------
 There are 0 generated clocks that are not connected to a clock source.


9. checking loops
-----------------
 There are 0 combinational loops in the design.


10. checking partial_input_delay
--------------------------------
 There are 0 input ports with partial input delay specified.


11. checking partial_output_delay
---------------------------------
 There are 0 ports with partial output delay specified.


12. checking latch_loops
------------------------
 There are 0 combinational latch loops in the design through latch input



------------------------------------------------------------------------------------------------
| Design Timing Summary
| ---------------------
------------------------------------------------------------------------------------------------

    WNS(ns)      TNS(ns)  TNS Failing Endpoints  TNS Total Endpoints     WPWS(ns)     TPWS(ns)  TPWS Failing Endpoints  TPWS Total Endpoints  
    -------      -------  ---------------------  -------------------     --------     --------  ----------------------  --------------------  
     -0.800     -126.437                    254                  538        1.287        0.000                       0                  1269  


Timing constraints are not met.


------------------------------------------------------------------------------------------------
| Clock Summary
| -------------
------------------------------------------------------------------------------------------------

Clock        Waveform(ns)         Period(ns)      Frequency(MHz)
-----        ------------         ----------      --------------
clk          {0.000 1.563}        3.125           320.000         
clk_wrapper  {0.000 500.000}      1000.000        1.000           


------------------------------------------------------------------------------------------------
| Intra Clock Table
| -----------------
------------------------------------------------------------------------------------------------

Clock             WNS(ns)      TNS(ns)  TNS Failing Endpoints  TNS Total Endpoints     WPWS(ns)     TPWS(ns)  TPWS Failing Endpoints  TPWS Total Endpoints  
-----             -------      -------  ---------------------  -------------------     --------     --------  ----------------------  --------------------  
clk                -0.800     -126.437                    254                  538        1.287        0.000                       0                   781  
clk_wrapper                                                                             498.562        0.000                       0                   488  


------------------------------------------------------------------------------------------------
| Inter Clock Table
| -----------------
------------------------------------------------------------------------------------------------

From Clock    To Clock          WNS(ns)      TNS(ns)  TNS Failing Endpoints  TNS Total Endpoints  
----------    --------          -------      -------  ---------------------  -------------------  


------------------------------------------------------------------------------------------------
| Other Path Groups Table
| -----------------------
------------------------------------------------------------------------------------------------

Path Group    From Clock    To Clock          WNS(ns)      TNS(ns)  TNS Failing Endpoints  TNS Total Endpoints  
----------    ----------    --------          -------      -------  ---------------------  -------------------  


------------------------------------------------------------------------------------------------
| Timing Details
| --------------
------------------------------------------------------------------------------------------------


---------------------------------------------------------------------------------------------------
From Clock:  clk
  To Clock:  clk

Setup :          254  Failing Endpoints,  Worst Slack       -0.800ns,  Total Violation     -126.437ns
Hold  :           NA  Failing Endpoints,  Worst Slack           NA  ,  Total Violation           NA
PW    :            0  Failing Endpoints,  Worst Slack        1.287ns,  Total Violation        0.000ns
---------------------------------------------------------------------------------------------------


Max Delay Paths
--------------------------------------------------------------------------------------
Slack (VIOLATED) :        -0.800ns  (required time - arrival time)
  Source:                 shift_reg_tap_i/sr_p.sr_1_fast[156]/C
                            (rising edge-triggered cell FDRE clocked by clk  {rise@0.000ns fall@1.563ns period=3.125ns})
  Destination:            dut_inst/sorter_inst/genblk1.bitonic_merge_i/genblk1.cmp_g[0].compare_i/qdelay[1][15].idx_ret_0/D
                            (rising edge-triggered cell FDRE clocked by clk  {rise@0.000ns fall@1.563ns period=3.125ns})
  Path Group:             clk
  Path Type:              Setup (Max at Slow Process Corner)
  Requirement:            3.125ns  (clk rise@3.125ns - clk rise@0.000ns)
  Data Path Delay:        3.799ns  (logic 1.426ns (37.536%)  route 2.373ns (62.464%))
  Logic Levels:           18  (LUT3=1 LUT4=2 LUT5=7 LUT6=8)
  Clock Path Skew:        -0.117ns (DCD - SCD + CPR)
    Destination Clock Delay (DCD):    2.539ns = ( 5.664 - 3.125 ) 
    Source Clock Delay      (SCD):    3.094ns
    Clock Pessimism Removal (CPR):    0.438ns
  Clock Uncertainty:      0.035ns  ((TSJ^2 + TIJ^2)^1/2 + DJ) / 2 + PE
    Total System Jitter     (TSJ):    0.071ns
    Total Input Jitter      (TIJ):    0.000ns
    Discrete Jitter          (DJ):    0.000ns
    Phase Error              (PE):    0.000ns
  Clock Net Delay (Source):      1.953ns (routing 1.014ns, distribution 0.939ns)
  Clock Net Delay (Destination): 1.709ns (routing 0.926ns, distribution 0.783ns)

    Location             Delay type                Incr(ns)  Path(ns)    Netlist Resource(s)
  -------------------------------------------------------------------    -------------------
                         (clock clk rise edge)        0.000     0.000 r  
    AV33                                              0.000     0.000 r  clk (IN)
                         net (fo=0)                   0.000     0.000    clk_ibuf_iso/I
    AV33                 INBUF (Prop_INBUF_HPIOB_M_PAD_O)
                                                      0.779     0.779 r  clk_ibuf_iso/INBUF_INST/O
                         net (fo=1, routed)           0.000     0.779    clk_ibuf_iso/OUT
    AV33                 IBUFCTRL (Prop_IBUFCTRL_HPIOB_M_I_O)
                                                      0.000     0.779 r  clk_ibuf_iso/IBUFCTRL_INST/O
                         net (fo=1, routed)           0.334     1.113    clk_ibuf_iso
    BUFGCE_X1Y224        BUFGCE (Prop_BUFCE_BUFGCE_I_O)
                                                      0.028     1.141 r  clk_ibuf/O
    X3Y8 (CLOCK_ROOT)    net (fo=780, routed)         1.953     3.094    shift_reg_tap_i/clk_c
    SLICE_X102Y514       FDRE                                         r  shift_reg_tap_i/sr_p.sr_1_fast[156]/C
  -------------------------------------------------------------------    -------------------
    SLICE_X102Y514       FDRE (Prop_BFF2_SLICEM_C_Q)
                                                      0.097     3.191 r  shift_reg_tap_i/sr_p.sr_1_fast[156]/Q
                         net (fo=3, routed)           0.108     3.299    dut_inst/sorter_inst/genblk1.bitonic_sort_high/genblk1.bitonic_sort_high/genblk1.bitonic_sort_low/genblk1.bitonic_merge_i/genblk1.cmp_g[0].compare_i/sr_1_fast_0
    SLICE_X103Y514       LUT4 (Prop_H6LUT_SLICEL_I1_O)
                                                      0.100     3.399 r  dut_inst/sorter_inst/genblk1.bitonic_sort_high/genblk1.bitonic_sort_high/genblk1.bitonic_sort_low/genblk1.bitonic_merge_i/genblk1.cmp_g[0].compare_i/s0.idx2_c2/O
                         net (fo=1, routed)           0.112     3.511    dut_inst/sorter_inst/genblk1.bitonic_sort_high/genblk1.bitonic_sort_high/genblk1.bitonic_sort_low/genblk1.bitonic_merge_i/genblk1.cmp_g[0].compare_i/idx2_c2
    SLICE_X103Y513       LUT5 (Prop_C6LUT_SLICEL_I4_O)
                                                      0.038     3.549 r  dut_inst/sorter_inst/genblk1.bitonic_sort_high/genblk1.bitonic_sort_high/genblk1.bitonic_sort_low/genblk1.bitonic_merge_i/genblk1.cmp_g[0].compare_i/s0.idx2_c4/O
                         net (fo=12, routed)          0.302     3.851    dut_inst/sorter_inst/genblk1.bitonic_sort_high/genblk1.bitonic_sort_high/genblk1.bitonic_merge_i/genblk1.cmp_g[0].compare_i/idx2_11
    SLICE_X104Y512       LUT6 (Prop_C6LUT_SLICEM_I5_O)
                                                      0.098     3.949 r  dut_inst/sorter_inst/genblk1.bitonic_sort_high/genblk1.bitonic_sort_high/genblk1.bitonic_merge_i/genblk1.cmp_g[0].compare_i/un1_b_ac0_1_0/O
                         net (fo=1, routed)           0.104     4.053    dut_inst/sorter_inst/genblk1.bitonic_sort_high/genblk1.bitonic_sort_high/genblk1.bitonic_merge_i/genblk1.cmp_g[0].compare_i/un1_b_ac0_1_0_1
    SLICE_X103Y512       LUT5 (Prop_A6LUT_SLICEL_I4_O)
                                                      0.039     4.092 r  dut_inst/sorter_inst/genblk1.bitonic_sort_high/genblk1.bitonic_sort_high/genblk1.bitonic_merge_i/genblk1.cmp_g[0].compare_i/un1_b_ac0_1/O
                         net (fo=1, routed)           0.048     4.140    dut_inst/sorter_inst/genblk1.bitonic_sort_high/genblk1.bitonic_sort_high/genblk1.bitonic_merge_i/genblk1.cmp_g[0].compare_i/un1_b_ac0_1
    SLICE_X103Y512       LUT6 (Prop_C6LUT_SLICEL_I5_O)
                                                      0.038     4.178 r  dut_inst/sorter_inst/genblk1.bitonic_sort_high/genblk1.bitonic_sort_high/genblk1.bitonic_merge_i/genblk1.cmp_g[0].compare_i/un1_b_c3/O
                         net (fo=1, routed)           0.110     4.288    dut_inst/sorter_inst/genblk1.bitonic_sort_high/genblk1.bitonic_sort_high/genblk1.bitonic_merge_i/genblk1.cmp_g[0].compare_i/un1_b_c3_1
    SLICE_X103Y514       LUT5 (Prop_A6LUT_SLICEL_I4_O)
                                                      0.039     4.327 r  dut_inst/sorter_inst/genblk1.bitonic_sort_high/genblk1.bitonic_sort_high/genblk1.bitonic_merge_i/genblk1.cmp_g[0].compare_i/un1_b_c4/O
                         net (fo=8, routed)           0.064     4.391    dut_inst/sorter_inst/genblk1.bitonic_sort_high/genblk1.bitonic_sort_high/genblk1.bitonic_merge_i/genblk1.cmp_g[0].compare_i/un1_b_9
    SLICE_X103Y513       LUT5 (Prop_G6LUT_SLICEL_I4_O)
                                                      0.038     4.429 r  dut_inst/sorter_inst/genblk1.bitonic_sort_high/genblk1.bitonic_sort_high/genblk1.bitonic_merge_i/genblk1.cmp_g[0].compare_i/s1.pt[1]/O
                         net (fo=6, routed)           0.202     4.631    dut_inst/sorter_inst/genblk1.bitonic_sort_high/genblk1.bitonic_sort_high/genblk1.bitonic_merge_i/genblk1.bitonic_merge_high/genblk1.cmp_g[0].compare_i/pt_18_0_0
    SLICE_X104Y513       LUT6 (Prop_F6LUT_SLICEM_I3_O)
                                                      0.148     4.779 r  dut_inst/sorter_inst/genblk1.bitonic_sort_high/genblk1.bitonic_sort_high/genblk1.bitonic_merge_i/genblk1.bitonic_merge_high/genblk1.cmp_g[0].compare_i/un1_b_c2/O
                         net (fo=1, routed)           0.100     4.879    dut_inst/sorter_inst/genblk1.bitonic_sort_high/genblk1.bitonic_sort_high/genblk1.bitonic_merge_i/genblk1.bitonic_merge_high/genblk1.cmp_g[0].compare_i/un1_b_c2_5
    SLICE_X104Y512       LUT5 (Prop_G6LUT_SLICEM_I4_O)
                                                      0.039     4.918 r  dut_inst/sorter_inst/genblk1.bitonic_sort_high/genblk1.bitonic_sort_high/genblk1.bitonic_merge_i/genblk1.bitonic_merge_high/genblk1.cmp_g[0].compare_i/un1_b_c4/O
                         net (fo=8, routed)           0.188     5.106    dut_inst/sorter_inst/genblk1.bitonic_sort_high/genblk1.bitonic_sort_high/genblk1.bitonic_merge_i/genblk1.bitonic_merge_high/genblk1.cmp_g[0].compare_i/un1_b_0
    SLICE_X103Y511       LUT3 (Prop_E6LUT_SLICEL_I2_O)
                                                      0.039     5.145 f  dut_inst/sorter_inst/genblk1.bitonic_sort_high/genblk1.bitonic_sort_high/genblk1.bitonic_merge_i/genblk1.bitonic_merge_high/genblk1.cmp_g[0].compare_i/s1.pt[1]/O
                         net (fo=4, routed)           0.120     5.265    dut_inst/sorter_inst/genblk1.bitonic_sort_high/genblk1.bitonic_merge_i/genblk1.cmp_g[3].compare_i/pt_16_0[1]
    SLICE_X102Y511       LUT6 (Prop_E6LUT_SLICEM_I4_O)
                                                      0.148     5.413 r  dut_inst/sorter_inst/genblk1.bitonic_sort_high/genblk1.bitonic_merge_i/genblk1.cmp_g[3].compare_i/un1_b_c2/O
                         net (fo=1, routed)           0.048     5.461    dut_inst/sorter_inst/genblk1.bitonic_sort_high/genblk1.bitonic_merge_i/genblk1.cmp_g[3].compare_i/un1_b_c2_7
    SLICE_X102Y511       LUT5 (Prop_C6LUT_SLICEM_I4_O)
                                                      0.038     5.499 r  dut_inst/sorter_inst/genblk1.bitonic_sort_high/genblk1.bitonic_merge_i/genblk1.cmp_g[3].compare_i/un1_b_c4/O
                         net (fo=21, routed)          0.125     5.624    dut_inst/sorter_inst/genblk1.bitonic_sort_high/genblk1.bitonic_merge_i/genblk1.bitonic_merge_low/genblk1.cmp_g[1].compare_i/un1_b_7
    SLICE_X102Y510       LUT6 (Prop_F6LUT_SLICEM_I4_O)
                                                      0.148     5.772 r  dut_inst/sorter_inst/genblk1.bitonic_sort_high/genblk1.bitonic_merge_i/genblk1.bitonic_merge_low/genblk1.cmp_g[1].compare_i/un1_b_axb2/O
                         net (fo=1, routed)           0.167     5.939    dut_inst/sorter_inst/genblk1.bitonic_sort_high/genblk1.bitonic_merge_i/genblk1.bitonic_merge_low/genblk1.cmp_g[1].compare_i/un1_b_axb2_0
    SLICE_X102Y512       LUT6 (Prop_H6LUT_SLICEM_I5_O)
                                                      0.100     6.039 r  dut_inst/sorter_inst/genblk1.bitonic_sort_high/genblk1.bitonic_merge_i/genblk1.bitonic_merge_low/genblk1.cmp_g[1].compare_i/un1_b_ac0_3/O
                         net (fo=1, routed)           0.116     6.155    dut_inst/sorter_inst/genblk1.bitonic_sort_high/genblk1.bitonic_merge_i/genblk1.bitonic_merge_low/genblk1.cmp_g[1].compare_i/un1_b_ac0_3_1
    SLICE_X100Y513       LUT6 (Prop_A6LUT_SLICEM_I5_O)
                                                      0.040     6.195 r  dut_inst/sorter_inst/genblk1.bitonic_sort_high/genblk1.bitonic_merge_i/genblk1.bitonic_merge_low/genblk1.cmp_g[1].compare_i/un1_b_c4/O
                         net (fo=7, routed)           0.078     6.273    dut_inst/sorter_inst/genblk1.bitonic_sort_high/genblk1.bitonic_merge_i/genblk1.bitonic_merge_low/genblk1.cmp_g[1].compare_i/un1_b_6
    SLICE_X100Y513       LUT5 (Prop_B6LUT_SLICEM_I4_O)
                                                      0.100     6.373 f  dut_inst/sorter_inst/genblk1.bitonic_sort_high/genblk1.bitonic_merge_i/genblk1.bitonic_merge_low/genblk1.cmp_g[1].compare_i/s0.pt[2]/O
                         net (fo=8, routed)           0.121     6.494    dut_inst/sorter_inst/genblk1.bitonic_sort_high/genblk1.bitonic_merge_i/genblk1.bitonic_merge_low/genblk1.bitonic_merge_low/genblk1.cmp_g[0].compare_i/un1_compare_i_6[11]
    SLICE_X100Y514       LUT4 (Prop_A6LUT_SLICEM_I2_O)
                                                      0.100     6.594 f  dut_inst/sorter_inst/genblk1.bitonic_sort_high/genblk1.bitonic_merge_i/genblk1.bitonic_merge_low/genblk1.bitonic_merge_low/genblk1.cmp_g[0].compare_i/s0.pt_i_m2[2]/O
                         net (fo=3, routed)           0.190     6.784    dut_inst/sorter_inst/genblk1.bitonic_merge_i/genblk1.cmp_g[0].compare_i/N_671_reti
    SLICE_X104Y514       LUT6 (Prop_B6LUT_SLICEM_I5_O)
                                                      0.039     6.823 r  dut_inst/sorter_inst/genblk1.bitonic_merge_i/genblk1.cmp_g[0].compare_i/qdelay[1][15].idx_ret_0_RNO/O
                         net (fo=1, routed)           0.070     6.893    dut_inst/sorter_inst/genblk1.bitonic_merge_i/genblk1.cmp_g[0].compare_i/idx2_ac0_5_0_0_reti
    SLICE_X104Y514       FDRE                                         r  dut_inst/sorter_inst/genblk1.bitonic_merge_i/genblk1.cmp_g[0].compare_i/qdelay[1][15].idx_ret_0/D
  -------------------------------------------------------------------    -------------------

                         (clock clk rise edge)        3.125     3.125 r  
    AV33                                              0.000     3.125 r  clk (IN)
                         net (fo=0)                   0.000     3.125    clk_ibuf_iso/I
    AV33                 INBUF (Prop_INBUF_HPIOB_M_PAD_O)
                                                      0.510     3.635 r  clk_ibuf_iso/INBUF_INST/O
                         net (fo=1, routed)           0.000     3.635    clk_ibuf_iso/OUT
    AV33                 IBUFCTRL (Prop_IBUFCTRL_HPIOB_M_I_O)
                                                      0.000     3.635 r  clk_ibuf_iso/IBUFCTRL_INST/O
                         net (fo=1, routed)           0.296     3.931    clk_ibuf_iso
    BUFGCE_X1Y224        BUFGCE (Prop_BUFCE_BUFGCE_I_O)
                                                      0.024     3.955 r  clk_ibuf/O
    X3Y8 (CLOCK_ROOT)    net (fo=780, routed)         1.709     5.664    dut_inst/sorter_inst/genblk1.bitonic_merge_i/genblk1.cmp_g[0].compare_i/clk_c
    SLICE_X104Y514       FDRE                                         r  dut_inst/sorter_inst/genblk1.bitonic_merge_i/genblk1.cmp_g[0].compare_i/qdelay[1][15].idx_ret_0/C
                         clock pessimism              0.438     6.102    
                         clock uncertainty           -0.035     6.067    
    SLICE_X104Y514       FDRE (Setup_BFF_SLICEM_C_D)
                                                      0.027     6.094    dut_inst/sorter_inst/genblk1.bitonic_merge_i/genblk1.cmp_g[0].compare_i/qdelay[1][15].idx_ret_0
  -------------------------------------------------------------------
                         required time                          6.094    
                         arrival time                          -6.893    
  -------------------------------------------------------------------
                         slack                                 -0.800    

Slack (VIOLATED) :        -0.800ns  (required time - arrival time)
  Source:                 shift_reg_tap_i/sr_p.sr_1_fast[156]/C
                            (rising edge-triggered cell FDRE clocked by clk  {rise@0.000ns fall@1.563ns period=3.125ns})
  Destination:            dut_inst/sorter_inst/genblk1.bitonic_merge_i/genblk1.cmp_g[0].compare_i/qdelay[1][15].idx_ret_0/D
                            (rising edge-triggered cell FDRE clocked by clk  {rise@0.000ns fall@1.563ns period=3.125ns})
  Path Group:             clk
  Path Type:              Setup (Max at Slow Process Corner)
  Requirement:            3.125ns  (clk rise@3.125ns - clk rise@0.000ns)
  Data Path Delay:        3.799ns  (logic 1.426ns (37.536%)  route 2.373ns (62.464%))
  Logic Levels:           18  (LUT3=1 LUT4=2 LUT5=7 LUT6=8)
  Clock Path Skew:        -0.117ns (DCD - SCD + CPR)
    Destination Clock Delay (DCD):    2.539ns = ( 5.664 - 3.125 ) 
    Source Clock Delay      (SCD):    3.094ns
    Clock Pessimism Removal (CPR):    0.438ns
  Clock Uncertainty:      0.035ns  ((TSJ^2 + TIJ^2)^1/2 + DJ) / 2 + PE
    Total System Jitter     (TSJ):    0.071ns
    Total Input Jitter      (TIJ):    0.000ns
    Discrete Jitter          (DJ):    0.000ns
    Phase Error              (PE):    0.000ns
  Clock Net Delay (Source):      1.953ns (routing 1.014ns, distribution 0.939ns)
  Clock Net Delay (Destination): 1.709ns (routing 0.926ns, distribution 0.783ns)

    Location             Delay type                Incr(ns)  Path(ns)    Netlist Resource(s)
  -------------------------------------------------------------------    -------------------
                         (clock clk rise edge)        0.000     0.000 r  
    AV33                                              0.000     0.000 r  clk (IN)
                         net (fo=0)                   0.000     0.000    clk_ibuf_iso/I
    AV33                 INBUF (Prop_INBUF_HPIOB_M_PAD_O)
                                                      0.779     0.779 r  clk_ibuf_iso/INBUF_INST/O
                         net (fo=1, routed)           0.000     0.779    clk_ibuf_iso/OUT
    AV33                 IBUFCTRL (Prop_IBUFCTRL_HPIOB_M_I_O)
                                                      0.000     0.779 r  clk_ibuf_iso/IBUFCTRL_INST/O
                         net (fo=1, routed)           0.334     1.113    clk_ibuf_iso
    BUFGCE_X1Y224        BUFGCE (Prop_BUFCE_BUFGCE_I_O)
                                                      0.028     1.141 r  clk_ibuf/O
    X3Y8 (CLOCK_ROOT)    net (fo=780, routed)         1.953     3.094    shift_reg_tap_i/clk_c
    SLICE_X102Y514       FDRE                                         r  shift_reg_tap_i/sr_p.sr_1_fast[156]/C
  -------------------------------------------------------------------    -------------------
    SLICE_X102Y514       FDRE (Prop_BFF2_SLICEM_C_Q)
                                                      0.097     3.191 r  shift_reg_tap_i/sr_p.sr_1_fast[156]/Q
                         net (fo=3, routed)           0.108     3.299    dut_inst/sorter_inst/genblk1.bitonic_sort_high/genblk1.bitonic_sort_high/genblk1.bitonic_sort_low/genblk1.bitonic_merge_i/genblk1.cmp_g[0].compare_i/sr_1_fast_0
    SLICE_X103Y514       LUT4 (Prop_H6LUT_SLICEL_I1_O)
                                                      0.100     3.399 r  dut_inst/sorter_inst/genblk1.bitonic_sort_high/genblk1.bitonic_sort_high/genblk1.bitonic_sort_low/genblk1.bitonic_merge_i/genblk1.cmp_g[0].compare_i/s0.idx2_c2/O
                         net (fo=1, routed)           0.112     3.511    dut_inst/sorter_inst/genblk1.bitonic_sort_high/genblk1.bitonic_sort_high/genblk1.bitonic_sort_low/genblk1.bitonic_merge_i/genblk1.cmp_g[0].compare_i/idx2_c2
    SLICE_X103Y513       LUT5 (Prop_C6LUT_SLICEL_I4_O)
                                                      0.038     3.549 r  dut_inst/sorter_inst/genblk1.bitonic_sort_high/genblk1.bitonic_sort_high/genblk1.bitonic_sort_low/genblk1.bitonic_merge_i/genblk1.cmp_g[0].compare_i/s0.idx2_c4/O
                         net (fo=12, routed)          0.302     3.851    dut_inst/sorter_inst/genblk1.bitonic_sort_high/genblk1.bitonic_sort_high/genblk1.bitonic_merge_i/genblk1.cmp_g[0].compare_i/idx2_11
    SLICE_X104Y512       LUT6 (Prop_C6LUT_SLICEM_I5_O)
                                                      0.098     3.949 f  dut_inst/sorter_inst/genblk1.bitonic_sort_high/genblk1.bitonic_sort_high/genblk1.bitonic_merge_i/genblk1.cmp_g[0].compare_i/un1_b_ac0_1_0/O
                         net (fo=1, routed)           0.104     4.053    dut_inst/sorter_inst/genblk1.bitonic_sort_high/genblk1.bitonic_sort_high/genblk1.bitonic_merge_i/genblk1.cmp_g[0].compare_i/un1_b_ac0_1_0_1
    SLICE_X103Y512       LUT5 (Prop_A6LUT_SLICEL_I4_O)
                                                      0.039     4.092 f  dut_inst/sorter_inst/genblk1.bitonic_sort_high/genblk1.bitonic_sort_high/genblk1.bitonic_merge_i/genblk1.cmp_g[0].compare_i/un1_b_ac0_1/O
                         net (fo=1, routed)           0.048     4.140    dut_inst/sorter_inst/genblk1.bitonic_sort_high/genblk1.bitonic_sort_high/genblk1.bitonic_merge_i/genblk1.cmp_g[0].compare_i/un1_b_ac0_1
    SLICE_X103Y512       LUT6 (Prop_C6LUT_SLICEL_I5_O)
                                                      0.038     4.178 f  dut_inst/sorter_inst/genblk1.bitonic_sort_high/genblk1.bitonic_sort_high/genblk1.bitonic_merge_i/genblk1.cmp_g[0].compare_i/un1_b_c3/O
                         net (fo=1, routed)           0.110     4.288    dut_inst/sorter_inst/genblk1.bitonic_sort_high/genblk1.bitonic_sort_high/genblk1.bitonic_merge_i/genblk1.cmp_g[0].compare_i/un1_b_c3_1
    SLICE_X103Y514       LUT5 (Prop_A6LUT_SLICEL_I4_O)
                                                      0.039     4.327 f  dut_inst/sorter_inst/genblk1.bitonic_sort_high/genblk1.bitonic_sort_high/genblk1.bitonic_merge_i/genblk1.cmp_g[0].compare_i/un1_b_c4/O
                         net (fo=8, routed)           0.064     4.391    dut_inst/sorter_inst/genblk1.bitonic_sort_high/genblk1.bitonic_sort_high/genblk1.bitonic_merge_i/genblk1.cmp_g[0].compare_i/un1_b_9
    SLICE_X103Y513       LUT5 (Prop_G6LUT_SLICEL_I4_O)
                                                      0.038     4.429 r  dut_inst/sorter_inst/genblk1.bitonic_sort_high/genblk1.bitonic_sort_high/genblk1.bitonic_merge_i/genblk1.cmp_g[0].compare_i/s1.pt[1]/O
                         net (fo=6, routed)           0.202     4.631    dut_inst/sorter_inst/genblk1.bitonic_sort_high/genblk1.bitonic_sort_high/genblk1.bitonic_merge_i/genblk1.bitonic_merge_high/genblk1.cmp_g[0].compare_i/pt_18_0_0
    SLICE_X104Y513       LUT6 (Prop_F6LUT_SLICEM_I3_O)
                                                      0.148     4.779 r  dut_inst/sorter_inst/genblk1.bitonic_sort_high/genblk1.bitonic_sort_high/genblk1.bitonic_merge_i/genblk1.bitonic_merge_high/genblk1.cmp_g[0].compare_i/un1_b_c2/O
                         net (fo=1, routed)           0.100     4.879    dut_inst/sorter_inst/genblk1.bitonic_sort_high/genblk1.bitonic_sort_high/genblk1.bitonic_merge_i/genblk1.bitonic_merge_high/genblk1.cmp_g[0].compare_i/un1_b_c2_5
    SLICE_X104Y512       LUT5 (Prop_G6LUT_SLICEM_I4_O)
                                                      0.039     4.918 r  dut_inst/sorter_inst/genblk1.bitonic_sort_high/genblk1.bitonic_sort_high/genblk1.bitonic_merge_i/genblk1.bitonic_merge_high/genblk1.cmp_g[0].compare_i/un1_b_c4/O
                         net (fo=8, routed)           0.188     5.106    dut_inst/sorter_inst/genblk1.bitonic_sort_high/genblk1.bitonic_sort_high/genblk1.bitonic_merge_i/genblk1.bitonic_merge_high/genblk1.cmp_g[0].compare_i/un1_b_0
    SLICE_X103Y511       LUT3 (Prop_E6LUT_SLICEL_I2_O)
                                                      0.039     5.145 f  dut_inst/sorter_inst/genblk1.bitonic_sort_high/genblk1.bitonic_sort_high/genblk1.bitonic_merge_i/genblk1.bitonic_merge_high/genblk1.cmp_g[0].compare_i/s1.pt[1]/O
                         net (fo=4, routed)           0.120     5.265    dut_inst/sorter_inst/genblk1.bitonic_sort_high/genblk1.bitonic_merge_i/genblk1.cmp_g[3].compare_i/pt_16_0[1]
    SLICE_X102Y511       LUT6 (Prop_E6LUT_SLICEM_I4_O)
                                                      0.148     5.413 r  dut_inst/sorter_inst/genblk1.bitonic_sort_high/genblk1.bitonic_merge_i/genblk1.cmp_g[3].compare_i/un1_b_c2/O
                         net (fo=1, routed)           0.048     5.461    dut_inst/sorter_inst/genblk1.bitonic_sort_high/genblk1.bitonic_merge_i/genblk1.cmp_g[3].compare_i/un1_b_c2_7
    SLICE_X102Y511       LUT5 (Prop_C6LUT_SLICEM_I4_O)
                                                      0.038     5.499 r  dut_inst/sorter_inst/genblk1.bitonic_sort_high/genblk1.bitonic_merge_i/genblk1.cmp_g[3].compare_i/un1_b_c4/O
                         net (fo=21, routed)          0.125     5.624    dut_inst/sorter_inst/genblk1.bitonic_sort_high/genblk1.bitonic_merge_i/genblk1.bitonic_merge_low/genblk1.cmp_g[1].compare_i/un1_b_7
    SLICE_X102Y510       LUT6 (Prop_F6LUT_SLICEM_I4_O)
                                                      0.148     5.772 r  dut_inst/sorter_inst/genblk1.bitonic_sort_high/genblk1.bitonic_merge_i/genblk1.bitonic_merge_low/genblk1.cmp_g[1].compare_i/un1_b_axb2/O
                         net (fo=1, routed)           0.167     5.939    dut_inst/sorter_inst/genblk1.bitonic_sort_high/genblk1.bitonic_merge_i/genblk1.bitonic_merge_low/genblk1.cmp_g[1].compare_i/un1_b_axb2_0
    SLICE_X102Y512       LUT6 (Prop_H6LUT_SLICEM_I5_O)
                                                      0.100     6.039 r  dut_inst/sorter_inst/genblk1.bitonic_sort_high/genblk1.bitonic_merge_i/genblk1.bitonic_merge_low/genblk1.cmp_g[1].compare_i/un1_b_ac0_3/O
                         net (fo=1, routed)           0.116     6.155    dut_inst/sorter_inst/genblk1.bitonic_sort_high/genblk1.bitonic_merge_i/genblk1.bitonic_merge_low/genblk1.cmp_g[1].compare_i/un1_b_ac0_3_1
    SLICE_X100Y513       LUT6 (Prop_A6LUT_SLICEM_I5_O)
                                                      0.040     6.195 r  dut_inst/sorter_inst/genblk1.bitonic_sort_high/genblk1.bitonic_merge_i/genblk1.bitonic_merge_low/genblk1.cmp_g[1].compare_i/un1_b_c4/O
                         net (fo=7, routed)           0.078     6.273    dut_inst/sorter_inst/genblk1.bitonic_sort_high/genblk1.bitonic_merge_i/genblk1.bitonic_merge_low/genblk1.cmp_g[1].compare_i/un1_b_6
    SLICE_X100Y513       LUT5 (Prop_B6LUT_SLICEM_I4_O)
                                                      0.100     6.373 f  dut_inst/sorter_inst/genblk1.bitonic_sort_high/genblk1.bitonic_merge_i/genblk1.bitonic_merge_low/genblk1.cmp_g[1].compare_i/s0.pt[2]/O
                         net (fo=8, routed)           0.121     6.494    dut_inst/sorter_inst/genblk1.bitonic_sort_high/genblk1.bitonic_merge_i/genblk1.bitonic_merge_low/genblk1.bitonic_merge_low/genblk1.cmp_g[0].compare_i/un1_compare_i_6[11]
    SLICE_X100Y514       LUT4 (Prop_A6LUT_SLICEM_I2_O)
                                                      0.100     6.594 f  dut_inst/sorter_inst/genblk1.bitonic_sort_high/genblk1.bitonic_merge_i/genblk1.bitonic_merge_low/genblk1.bitonic_merge_low/genblk1.cmp_g[0].compare_i/s0.pt_i_m2[2]/O
                         net (fo=3, routed)           0.190     6.784    dut_inst/sorter_inst/genblk1.bitonic_merge_i/genblk1.cmp_g[0].compare_i/N_671_reti
    SLICE_X104Y514       LUT6 (Prop_B6LUT_SLICEM_I5_O)
                                                      0.039     6.823 r  dut_inst/sorter_inst/genblk1.bitonic_merge_i/genblk1.cmp_g[0].compare_i/qdelay[1][15].idx_ret_0_RNO/O
                         net (fo=1, routed)           0.070     6.893    dut_inst/sorter_inst/genblk1.bitonic_merge_i/genblk1.cmp_g[0].compare_i/idx2_ac0_5_0_0_reti
    SLICE_X104Y514       FDRE                                         r  dut_inst/sorter_inst/genblk1.bitonic_merge_i/genblk1.cmp_g[0].compare_i/qdelay[1][15].idx_ret_0/D
  -------------------------------------------------------------------    -------------------

                         (clock clk rise edge)        3.125     3.125 r  
    AV33                                              0.000     3.125 r  clk (IN)
                         net (fo=0)                   0.000     3.125    clk_ibuf_iso/I
    AV33                 INBUF (Prop_INBUF_HPIOB_M_PAD_O)
                                                      0.510     3.635 r  clk_ibuf_iso/INBUF_INST/O
                         net (fo=1, routed)           0.000     3.635    clk_ibuf_iso/OUT
    AV33                 IBUFCTRL (Prop_IBUFCTRL_HPIOB_M_I_O)
                                                      0.000     3.635 r  clk_ibuf_iso/IBUFCTRL_INST/O
                         net (fo=1, routed)           0.296     3.931    clk_ibuf_iso
    BUFGCE_X1Y224        BUFGCE (Prop_BUFCE_BUFGCE_I_O)
                                                      0.024     3.955 r  clk_ibuf/O
    X3Y8 (CLOCK_ROOT)    net (fo=780, routed)         1.709     5.664    dut_inst/sorter_inst/genblk1.bitonic_merge_i/genblk1.cmp_g[0].compare_i/clk_c
    SLICE_X104Y514       FDRE                                         r  dut_inst/sorter_inst/genblk1.bitonic_merge_i/genblk1.cmp_g[0].compare_i/qdelay[1][15].idx_ret_0/C
                         clock pessimism              0.438     6.102    
                         clock uncertainty           -0.035     6.067    
    SLICE_X104Y514       FDRE (Setup_BFF_SLICEM_C_D)
                                                      0.027     6.094    dut_inst/sorter_inst/genblk1.bitonic_merge_i/genblk1.cmp_g[0].compare_i/qdelay[1][15].idx_ret_0
  -------------------------------------------------------------------
                         required time                          6.094    
                         arrival time                          -6.893    
  -------------------------------------------------------------------
                         slack                                 -0.800    

Slack (VIOLATED) :        -0.800ns  (required time - arrival time)
  Source:                 shift_reg_tap_i/sr_p.sr_1_fast[156]/C
                            (rising edge-triggered cell FDRE clocked by clk  {rise@0.000ns fall@1.563ns period=3.125ns})
  Destination:            dut_inst/sorter_inst/genblk1.bitonic_merge_i/genblk1.cmp_g[0].compare_i/qdelay[1][15].idx_ret_0/D
                            (rising edge-triggered cell FDRE clocked by clk  {rise@0.000ns fall@1.563ns period=3.125ns})
  Path Group:             clk
  Path Type:              Setup (Max at Slow Process Corner)
  Requirement:            3.125ns  (clk rise@3.125ns - clk rise@0.000ns)
  Data Path Delay:        3.799ns  (logic 1.426ns (37.536%)  route 2.373ns (62.464%))
  Logic Levels:           18  (LUT3=1 LUT4=2 LUT5=7 LUT6=8)
  Clock Path Skew:        -0.117ns (DCD - SCD + CPR)
    Destination Clock Delay (DCD):    2.539ns = ( 5.664 - 3.125 ) 
    Source Clock Delay      (SCD):    3.094ns
    Clock Pessimism Removal (CPR):    0.438ns
  Clock Uncertainty:      0.035ns  ((TSJ^2 + TIJ^2)^1/2 + DJ) / 2 + PE
    Total System Jitter     (TSJ):    0.071ns
    Total Input Jitter      (TIJ):    0.000ns
    Discrete Jitter          (DJ):    0.000ns
    Phase Error              (PE):    0.000ns
  Clock Net Delay (Source):      1.953ns (routing 1.014ns, distribution 0.939ns)
  Clock Net Delay (Destination): 1.709ns (routing 0.926ns, distribution 0.783ns)

    Location             Delay type                Incr(ns)  Path(ns)    Netlist Resource(s)
  -------------------------------------------------------------------    -------------------
                         (clock clk rise edge)        0.000     0.000 r  
    AV33                                              0.000     0.000 r  clk (IN)
                         net (fo=0)                   0.000     0.000    clk_ibuf_iso/I
    AV33                 INBUF (Prop_INBUF_HPIOB_M_PAD_O)
                                                      0.779     0.779 r  clk_ibuf_iso/INBUF_INST/O
                         net (fo=1, routed)           0.000     0.779    clk_ibuf_iso/OUT
    AV33                 IBUFCTRL (Prop_IBUFCTRL_HPIOB_M_I_O)
                                                      0.000     0.779 r  clk_ibuf_iso/IBUFCTRL_INST/O
                         net (fo=1, routed)           0.334     1.113    clk_ibuf_iso
    BUFGCE_X1Y224        BUFGCE (Prop_BUFCE_BUFGCE_I_O)
                                                      0.028     1.141 r  clk_ibuf/O
    X3Y8 (CLOCK_ROOT)    net (fo=780, routed)         1.953     3.094    shift_reg_tap_i/clk_c
    SLICE_X102Y514       FDRE                                         r  shift_reg_tap_i/sr_p.sr_1_fast[156]/C
  -------------------------------------------------------------------    -------------------
    SLICE_X102Y514       FDRE (Prop_BFF2_SLICEM_C_Q)
                                                      0.097     3.191 r  shift_reg_tap_i/sr_p.sr_1_fast[156]/Q
                         net (fo=3, routed)           0.108     3.299    dut_inst/sorter_inst/genblk1.bitonic_sort_high/genblk1.bitonic_sort_high/genblk1.bitonic_sort_low/genblk1.bitonic_merge_i/genblk1.cmp_g[0].compare_i/sr_1_fast_0
    SLICE_X103Y514       LUT4 (Prop_H6LUT_SLICEL_I1_O)
                                                      0.100     3.399 r  dut_inst/sorter_inst/genblk1.bitonic_sort_high/genblk1.bitonic_sort_high/genblk1.bitonic_sort_low/genblk1.bitonic_merge_i/genblk1.cmp_g[0].compare_i/s0.idx2_c2/O
                         net (fo=1, routed)           0.112     3.511    dut_inst/sorter_inst/genblk1.bitonic_sort_high/genblk1.bitonic_sort_high/genblk1.bitonic_sort_low/genblk1.bitonic_merge_i/genblk1.cmp_g[0].compare_i/idx2_c2
    SLICE_X103Y513       LUT5 (Prop_C6LUT_SLICEL_I4_O)
                                                      0.038     3.549 r  dut_inst/sorter_inst/genblk1.bitonic_sort_high/genblk1.bitonic_sort_high/genblk1.bitonic_sort_low/genblk1.bitonic_merge_i/genblk1.cmp_g[0].compare_i/s0.idx2_c4/O
                         net (fo=12, routed)          0.302     3.851    dut_inst/sorter_inst/genblk1.bitonic_sort_high/genblk1.bitonic_sort_high/genblk1.bitonic_merge_i/genblk1.cmp_g[0].compare_i/idx2_11
    SLICE_X104Y512       LUT6 (Prop_C6LUT_SLICEM_I5_O)
                                                      0.098     3.949 r  dut_inst/sorter_inst/genblk1.bitonic_sort_high/genblk1.bitonic_sort_high/genblk1.bitonic_merge_i/genblk1.cmp_g[0].compare_i/un1_b_ac0_1_0/O
                         net (fo=1, routed)           0.104     4.053    dut_inst/sorter_inst/genblk1.bitonic_sort_high/genblk1.bitonic_sort_high/genblk1.bitonic_merge_i/genblk1.cmp_g[0].compare_i/un1_b_ac0_1_0_1
    SLICE_X103Y512       LUT5 (Prop_A6LUT_SLICEL_I4_O)
                                                      0.039     4.092 r  dut_inst/sorter_inst/genblk1.bitonic_sort_high/genblk1.bitonic_sort_high/genblk1.bitonic_merge_i/genblk1.cmp_g[0].compare_i/un1_b_ac0_1/O
                         net (fo=1, routed)           0.048     4.140    dut_inst/sorter_inst/genblk1.bitonic_sort_high/genblk1.bitonic_sort_high/genblk1.bitonic_merge_i/genblk1.cmp_g[0].compare_i/un1_b_ac0_1
    SLICE_X103Y512       LUT6 (Prop_C6LUT_SLICEL_I5_O)
                                                      0.038     4.178 r  dut_inst/sorter_inst/genblk1.bitonic_sort_high/genblk1.bitonic_sort_high/genblk1.bitonic_merge_i/genblk1.cmp_g[0].compare_i/un1_b_c3/O
                         net (fo=1, routed)           0.110     4.288    dut_inst/sorter_inst/genblk1.bitonic_sort_high/genblk1.bitonic_sort_high/genblk1.bitonic_merge_i/genblk1.cmp_g[0].compare_i/un1_b_c3_1
    SLICE_X103Y514       LUT5 (Prop_A6LUT_SLICEL_I4_O)
                                                      0.039     4.327 r  dut_inst/sorter_inst/genblk1.bitonic_sort_high/genblk1.bitonic_sort_high/genblk1.bitonic_merge_i/genblk1.cmp_g[0].compare_i/un1_b_c4/O
                         net (fo=8, routed)           0.064     4.391    dut_inst/sorter_inst/genblk1.bitonic_sort_high/genblk1.bitonic_sort_high/genblk1.bitonic_merge_i/genblk1.cmp_g[0].compare_i/un1_b_9
    SLICE_X103Y513       LUT5 (Prop_G6LUT_SLICEL_I4_O)
                                                      0.038     4.429 f  dut_inst/sorter_inst/genblk1.bitonic_sort_high/genblk1.bitonic_sort_high/genblk1.bitonic_merge_i/genblk1.cmp_g[0].compare_i/s1.pt[1]/O
                         net (fo=6, routed)           0.202     4.631    dut_inst/sorter_inst/genblk1.bitonic_sort_high/genblk1.bitonic_sort_high/genblk1.bitonic_merge_i/genblk1.bitonic_merge_high/genblk1.cmp_g[0].compare_i/pt_18_0_0
    SLICE_X104Y513       LUT6 (Prop_F6LUT_SLICEM_I3_O)
                                                      0.148     4.779 f  dut_inst/sorter_inst/genblk1.bitonic_sort_high/genblk1.bitonic_sort_high/genblk1.bitonic_merge_i/genblk1.bitonic_merge_high/genblk1.cmp_g[0].compare_i/un1_b_c2/O
                         net (fo=1, routed)           0.100     4.879    dut_inst/sorter_inst/genblk1.bitonic_sort_high/genblk1.bitonic_sort_high/genblk1.bitonic_merge_i/genblk1.bitonic_merge_high/genblk1.cmp_g[0].compare_i/un1_b_c2_5
    SLICE_X104Y512       LUT5 (Prop_G6LUT_SLICEM_I4_O)
                                                      0.039     4.918 f  dut_inst/sorter_inst/genblk1.bitonic_sort_high/genblk1.bitonic_sort_high/genblk1.bitonic_merge_i/genblk1.bitonic_merge_high/genblk1.cmp_g[0].compare_i/un1_b_c4/O
                         net (fo=8, routed)           0.188     5.106    dut_inst/sorter_inst/genblk1.bitonic_sort_high/genblk1.bitonic_sort_high/genblk1.bitonic_merge_i/genblk1.bitonic_merge_high/genblk1.cmp_g[0].compare_i/un1_b_0
    SLICE_X103Y511       LUT3 (Prop_E6LUT_SLICEL_I2_O)
                                                      0.039     5.145 f  dut_inst/sorter_inst/genblk1.bitonic_sort_high/genblk1.bitonic_sort_high/genblk1.bitonic_merge_i/genblk1.bitonic_merge_high/genblk1.cmp_g[0].compare_i/s1.pt[1]/O
                         net (fo=4, routed)           0.120     5.265    dut_inst/sorter_inst/genblk1.bitonic_sort_high/genblk1.bitonic_merge_i/genblk1.cmp_g[3].compare_i/pt_16_0[1]
    SLICE_X102Y511       LUT6 (Prop_E6LUT_SLICEM_I4_O)
                                                      0.148     5.413 r  dut_inst/sorter_inst/genblk1.bitonic_sort_high/genblk1.bitonic_merge_i/genblk1.cmp_g[3].compare_i/un1_b_c2/O
                         net (fo=1, routed)           0.048     5.461    dut_inst/sorter_inst/genblk1.bitonic_sort_high/genblk1.bitonic_merge_i/genblk1.cmp_g[3].compare_i/un1_b_c2_7
    SLICE_X102Y511       LUT5 (Prop_C6LUT_SLICEM_I4_O)
                                                      0.038     5.499 r  dut_inst/sorter_inst/genblk1.bitonic_sort_high/genblk1.bitonic_merge_i/genblk1.cmp_g[3].compare_i/un1_b_c4/O
                         net (fo=21, routed)          0.125     5.624    dut_inst/sorter_inst/genblk1.bitonic_sort_high/genblk1.bitonic_merge_i/genblk1.bitonic_merge_low/genblk1.cmp_g[1].compare_i/un1_b_7
    SLICE_X102Y510       LUT6 (Prop_F6LUT_SLICEM_I4_O)
                                                      0.148     5.772 r  dut_inst/sorter_inst/genblk1.bitonic_sort_high/genblk1.bitonic_merge_i/genblk1.bitonic_merge_low/genblk1.cmp_g[1].compare_i/un1_b_axb2/O
                         net (fo=1, routed)           0.167     5.939    dut_inst/sorter_inst/genblk1.bitonic_sort_high/genblk1.bitonic_merge_i/genblk1.bitonic_merge_low/genblk1.cmp_g[1].compare_i/un1_b_axb2_0
    SLICE_X102Y512       LUT6 (Prop_H6LUT_SLICEM_I5_O)
                                                      0.100     6.039 r  dut_inst/sorter_inst/genblk1.bitonic_sort_high/genblk1.bitonic_merge_i/genblk1.bitonic_merge_low/genblk1.cmp_g[1].compare_i/un1_b_ac0_3/O
                         net (fo=1, routed)           0.116     6.155    dut_inst/sorter_inst/genblk1.bitonic_sort_high/genblk1.bitonic_merge_i/genblk1.bitonic_merge_low/genblk1.cmp_g[1].compare_i/un1_b_ac0_3_1
    SLICE_X100Y513       LUT6 (Prop_A6LUT_SLICEM_I5_O)
                                                      0.040     6.195 r  dut_inst/sorter_inst/genblk1.bitonic_sort_high/genblk1.bitonic_merge_i/genblk1.bitonic_merge_low/genblk1.cmp_g[1].compare_i/un1_b_c4/O
                         net (fo=7, routed)           0.078     6.273    dut_inst/sorter_inst/genblk1.bitonic_sort_high/genblk1.bitonic_merge_i/genblk1.bitonic_merge_low/genblk1.cmp_g[1].compare_i/un1_b_6
    SLICE_X100Y513       LUT5 (Prop_B6LUT_SLICEM_I4_O)
                                                      0.100     6.373 f  dut_inst/sorter_inst/genblk1.bitonic_sort_high/genblk1.bitonic_merge_i/genblk1.bitonic_merge_low/genblk1.cmp_g[1].compare_i/s0.pt[2]/O
                         net (fo=8, routed)           0.121     6.494    dut_inst/sorter_inst/genblk1.bitonic_sort_high/genblk1.bitonic_merge_i/genblk1.bitonic_merge_low/genblk1.bitonic_merge_low/genblk1.cmp_g[0].compare_i/un1_compare_i_6[11]
    SLICE_X100Y514       LUT4 (Prop_A6LUT_SLICEM_I2_O)
                                                      0.100     6.594 f  dut_inst/sorter_inst/genblk1.bitonic_sort_high/genblk1.bitonic_merge_i/genblk1.bitonic_merge_low/genblk1.bitonic_merge_low/genblk1.cmp_g[0].compare_i/s0.pt_i_m2[2]/O
                         net (fo=3, routed)           0.190     6.784    dut_inst/sorter_inst/genblk1.bitonic_merge_i/genblk1.cmp_g[0].compare_i/N_671_reti
    SLICE_X104Y514       LUT6 (Prop_B6LUT_SLICEM_I5_O)
                                                      0.039     6.823 r  dut_inst/sorter_inst/genblk1.bitonic_merge_i/genblk1.cmp_g[0].compare_i/qdelay[1][15].idx_ret_0_RNO/O
                         net (fo=1, routed)           0.070     6.893    dut_inst/sorter_inst/genblk1.bitonic_merge_i/genblk1.cmp_g[0].compare_i/idx2_ac0_5_0_0_reti
    SLICE_X104Y514       FDRE                                         r  dut_inst/sorter_inst/genblk1.bitonic_merge_i/genblk1.cmp_g[0].compare_i/qdelay[1][15].idx_ret_0/D
  -------------------------------------------------------------------    -------------------

                         (clock clk rise edge)        3.125     3.125 r  
    AV33                                              0.000     3.125 r  clk (IN)
                         net (fo=0)                   0.000     3.125    clk_ibuf_iso/I
    AV33                 INBUF (Prop_INBUF_HPIOB_M_PAD_O)
                                                      0.510     3.635 r  clk_ibuf_iso/INBUF_INST/O
                         net (fo=1, routed)           0.000     3.635    clk_ibuf_iso/OUT
    AV33                 IBUFCTRL (Prop_IBUFCTRL_HPIOB_M_I_O)
                                                      0.000     3.635 r  clk_ibuf_iso/IBUFCTRL_INST/O
                         net (fo=1, routed)           0.296     3.931    clk_ibuf_iso
    BUFGCE_X1Y224        BUFGCE (Prop_BUFCE_BUFGCE_I_O)
                                                      0.024     3.955 r  clk_ibuf/O
    X3Y8 (CLOCK_ROOT)    net (fo=780, routed)         1.709     5.664    dut_inst/sorter_inst/genblk1.bitonic_merge_i/genblk1.cmp_g[0].compare_i/clk_c
    SLICE_X104Y514       FDRE                                         r  dut_inst/sorter_inst/genblk1.bitonic_merge_i/genblk1.cmp_g[0].compare_i/qdelay[1][15].idx_ret_0/C
                         clock pessimism              0.438     6.102    
                         clock uncertainty           -0.035     6.067    
    SLICE_X104Y514       FDRE (Setup_BFF_SLICEM_C_D)
                                                      0.027     6.094    dut_inst/sorter_inst/genblk1.bitonic_merge_i/genblk1.cmp_g[0].compare_i/qdelay[1][15].idx_ret_0
  -------------------------------------------------------------------
                         required time                          6.094    
                         arrival time                          -6.893    
  -------------------------------------------------------------------
                         slack                                 -0.800    

Slack (VIOLATED) :        -0.800ns  (required time - arrival time)
  Source:                 shift_reg_tap_i/sr_p.sr_1_fast[156]/C
                            (rising edge-triggered cell FDRE clocked by clk  {rise@0.000ns fall@1.563ns period=3.125ns})
  Destination:            dut_inst/sorter_inst/genblk1.bitonic_merge_i/genblk1.cmp_g[0].compare_i/qdelay[1][15].idx_ret_0/D
                            (rising edge-triggered cell FDRE clocked by clk  {rise@0.000ns fall@1.563ns period=3.125ns})
  Path Group:             clk
  Path Type:              Setup (Max at Slow Process Corner)
  Requirement:            3.125ns  (clk rise@3.125ns - clk rise@0.000ns)
  Data Path Delay:        3.799ns  (logic 1.426ns (37.536%)  route 2.373ns (62.464%))
  Logic Levels:           18  (LUT3=1 LUT4=2 LUT5=7 LUT6=8)
  Clock Path Skew:        -0.117ns (DCD - SCD + CPR)
    Destination Clock Delay (DCD):    2.539ns = ( 5.664 - 3.125 ) 
    Source Clock Delay      (SCD):    3.094ns
    Clock Pessimism Removal (CPR):    0.438ns
  Clock Uncertainty:      0.035ns  ((TSJ^2 + TIJ^2)^1/2 + DJ) / 2 + PE
    Total System Jitter     (TSJ):    0.071ns
    Total Input Jitter      (TIJ):    0.000ns
    Discrete Jitter          (DJ):    0.000ns
    Phase Error              (PE):    0.000ns
  Clock Net Delay (Source):      1.953ns (routing 1.014ns, distribution 0.939ns)
  Clock Net Delay (Destination): 1.709ns (routing 0.926ns, distribution 0.783ns)

    Location             Delay type                Incr(ns)  Path(ns)    Netlist Resource(s)
  -------------------------------------------------------------------    -------------------
                         (clock clk rise edge)        0.000     0.000 r  
    AV33                                              0.000     0.000 r  clk (IN)
                         net (fo=0)                   0.000     0.000    clk_ibuf_iso/I
    AV33                 INBUF (Prop_INBUF_HPIOB_M_PAD_O)
                                                      0.779     0.779 r  clk_ibuf_iso/INBUF_INST/O
                         net (fo=1, routed)           0.000     0.779    clk_ibuf_iso/OUT
    AV33                 IBUFCTRL (Prop_IBUFCTRL_HPIOB_M_I_O)
                                                      0.000     0.779 r  clk_ibuf_iso/IBUFCTRL_INST/O
                         net (fo=1, routed)           0.334     1.113    clk_ibuf_iso
    BUFGCE_X1Y224        BUFGCE (Prop_BUFCE_BUFGCE_I_O)
                                                      0.028     1.141 r  clk_ibuf/O
    X3Y8 (CLOCK_ROOT)    net (fo=780, routed)         1.953     3.094    shift_reg_tap_i/clk_c
    SLICE_X102Y514       FDRE                                         r  shift_reg_tap_i/sr_p.sr_1_fast[156]/C
  -------------------------------------------------------------------    -------------------
    SLICE_X102Y514       FDRE (Prop_BFF2_SLICEM_C_Q)
                                                      0.097     3.191 f  shift_reg_tap_i/sr_p.sr_1_fast[156]/Q
                         net (fo=3, routed)           0.108     3.299    dut_inst/sorter_inst/genblk1.bitonic_sort_high/genblk1.bitonic_sort_high/genblk1.bitonic_sort_low/genblk1.bitonic_merge_i/genblk1.cmp_g[0].compare_i/sr_1_fast_0
    SLICE_X103Y514       LUT4 (Prop_H6LUT_SLICEL_I1_O)
                                                      0.100     3.399 f  dut_inst/sorter_inst/genblk1.bitonic_sort_high/genblk1.bitonic_sort_high/genblk1.bitonic_sort_low/genblk1.bitonic_merge_i/genblk1.cmp_g[0].compare_i/s0.idx2_c2/O
                         net (fo=1, routed)           0.112     3.511    dut_inst/sorter_inst/genblk1.bitonic_sort_high/genblk1.bitonic_sort_high/genblk1.bitonic_sort_low/genblk1.bitonic_merge_i/genblk1.cmp_g[0].compare_i/idx2_c2
    SLICE_X103Y513       LUT5 (Prop_C6LUT_SLICEL_I4_O)
                                                      0.038     3.549 f  dut_inst/sorter_inst/genblk1.bitonic_sort_high/genblk1.bitonic_sort_high/genblk1.bitonic_sort_low/genblk1.bitonic_merge_i/genblk1.cmp_g[0].compare_i/s0.idx2_c4/O
                         net (fo=12, routed)          0.302     3.851    dut_inst/sorter_inst/genblk1.bitonic_sort_high/genblk1.bitonic_sort_high/genblk1.bitonic_merge_i/genblk1.cmp_g[0].compare_i/idx2_11
    SLICE_X104Y512       LUT6 (Prop_C6LUT_SLICEM_I5_O)
                                                      0.098     3.949 r  dut_inst/sorter_inst/genblk1.bitonic_sort_high/genblk1.bitonic_sort_high/genblk1.bitonic_merge_i/genblk1.cmp_g[0].compare_i/un1_b_ac0_1_0/O
                         net (fo=1, routed)           0.104     4.053    dut_inst/sorter_inst/genblk1.bitonic_sort_high/genblk1.bitonic_sort_high/genblk1.bitonic_merge_i/genblk1.cmp_g[0].compare_i/un1_b_ac0_1_0_1
    SLICE_X103Y512       LUT5 (Prop_A6LUT_SLICEL_I4_O)
                                                      0.039     4.092 r  dut_inst/sorter_inst/genblk1.bitonic_sort_high/genblk1.bitonic_sort_high/genblk1.bitonic_merge_i/genblk1.cmp_g[0].compare_i/un1_b_ac0_1/O
                         net (fo=1, routed)           0.048     4.140    dut_inst/sorter_inst/genblk1.bitonic_sort_high/genblk1.bitonic_sort_high/genblk1.bitonic_merge_i/genblk1.cmp_g[0].compare_i/un1_b_ac0_1
    SLICE_X103Y512       LUT6 (Prop_C6LUT_SLICEL_I5_O)
                                                      0.038     4.178 r  dut_inst/sorter_inst/genblk1.bitonic_sort_high/genblk1.bitonic_sort_high/genblk1.bitonic_merge_i/genblk1.cmp_g[0].compare_i/un1_b_c3/O
                         net (fo=1, routed)           0.110     4.288    dut_inst/sorter_inst/genblk1.bitonic_sort_high/genblk1.bitonic_sort_high/genblk1.bitonic_merge_i/genblk1.cmp_g[0].compare_i/un1_b_c3_1
    SLICE_X103Y514       LUT5 (Prop_A6LUT_SLICEL_I4_O)
                                                      0.039     4.327 r  dut_inst/sorter_inst/genblk1.bitonic_sort_high/genblk1.bitonic_sort_high/genblk1.bitonic_merge_i/genblk1.cmp_g[0].compare_i/un1_b_c4/O
                         net (fo=8, routed)           0.064     4.391    dut_inst/sorter_inst/genblk1.bitonic_sort_high/genblk1.bitonic_sort_high/genblk1.bitonic_merge_i/genblk1.cmp_g[0].compare_i/un1_b_9
    SLICE_X103Y513       LUT5 (Prop_G6LUT_SLICEL_I4_O)
                                                      0.038     4.429 f  dut_inst/sorter_inst/genblk1.bitonic_sort_high/genblk1.bitonic_sort_high/genblk1.bitonic_merge_i/genblk1.cmp_g[0].compare_i/s1.pt[1]/O
                         net (fo=6, routed)           0.202     4.631    dut_inst/sorter_inst/genblk1.bitonic_sort_high/genblk1.bitonic_sort_high/genblk1.bitonic_merge_i/genblk1.bitonic_merge_high/genblk1.cmp_g[0].compare_i/pt_18_0_0
    SLICE_X104Y513       LUT6 (Prop_F6LUT_SLICEM_I3_O)
                                                      0.148     4.779 f  dut_inst/sorter_inst/genblk1.bitonic_sort_high/genblk1.bitonic_sort_high/genblk1.bitonic_merge_i/genblk1.bitonic_merge_high/genblk1.cmp_g[0].compare_i/un1_b_c2/O
                         net (fo=1, routed)           0.100     4.879    dut_inst/sorter_inst/genblk1.bitonic_sort_high/genblk1.bitonic_sort_high/genblk1.bitonic_merge_i/genblk1.bitonic_merge_high/genblk1.cmp_g[0].compare_i/un1_b_c2_5
    SLICE_X104Y512       LUT5 (Prop_G6LUT_SLICEM_I4_O)
                                                      0.039     4.918 f  dut_inst/sorter_inst/genblk1.bitonic_sort_high/genblk1.bitonic_sort_high/genblk1.bitonic_merge_i/genblk1.bitonic_merge_high/genblk1.cmp_g[0].compare_i/un1_b_c4/O
                         net (fo=8, routed)           0.188     5.106    dut_inst/sorter_inst/genblk1.bitonic_sort_high/genblk1.bitonic_sort_high/genblk1.bitonic_merge_i/genblk1.bitonic_merge_high/genblk1.cmp_g[0].compare_i/un1_b_0
    SLICE_X103Y511       LUT3 (Prop_E6LUT_SLICEL_I2_O)
                                                      0.039     5.145 f  dut_inst/sorter_inst/genblk1.bitonic_sort_high/genblk1.bitonic_sort_high/genblk1.bitonic_merge_i/genblk1.bitonic_merge_high/genblk1.cmp_g[0].compare_i/s1.pt[1]/O
                         net (fo=4, routed)           0.120     5.265    dut_inst/sorter_inst/genblk1.bitonic_sort_high/genblk1.bitonic_merge_i/genblk1.cmp_g[3].compare_i/pt_16_0[1]
    SLICE_X102Y511       LUT6 (Prop_E6LUT_SLICEM_I4_O)
                                                      0.148     5.413 r  dut_inst/sorter_inst/genblk1.bitonic_sort_high/genblk1.bitonic_merge_i/genblk1.cmp_g[3].compare_i/un1_b_c2/O
                         net (fo=1, routed)           0.048     5.461    dut_inst/sorter_inst/genblk1.bitonic_sort_high/genblk1.bitonic_merge_i/genblk1.cmp_g[3].compare_i/un1_b_c2_7
    SLICE_X102Y511       LUT5 (Prop_C6LUT_SLICEM_I4_O)
                                                      0.038     5.499 r  dut_inst/sorter_inst/genblk1.bitonic_sort_high/genblk1.bitonic_merge_i/genblk1.cmp_g[3].compare_i/un1_b_c4/O
                         net (fo=21, routed)          0.125     5.624    dut_inst/sorter_inst/genblk1.bitonic_sort_high/genblk1.bitonic_merge_i/genblk1.bitonic_merge_low/genblk1.cmp_g[1].compare_i/un1_b_7
    SLICE_X102Y510       LUT6 (Prop_F6LUT_SLICEM_I4_O)
                                                      0.148     5.772 r  dut_inst/sorter_inst/genblk1.bitonic_sort_high/genblk1.bitonic_merge_i/genblk1.bitonic_merge_low/genblk1.cmp_g[1].compare_i/un1_b_axb2/O
                         net (fo=1, routed)           0.167     5.939    dut_inst/sorter_inst/genblk1.bitonic_sort_high/genblk1.bitonic_merge_i/genblk1.bitonic_merge_low/genblk1.cmp_g[1].compare_i/un1_b_axb2_0
    SLICE_X102Y512       LUT6 (Prop_H6LUT_SLICEM_I5_O)
                                                      0.100     6.039 r  dut_inst/sorter_inst/genblk1.bitonic_sort_high/genblk1.bitonic_merge_i/genblk1.bitonic_merge_low/genblk1.cmp_g[1].compare_i/un1_b_ac0_3/O
                         net (fo=1, routed)           0.116     6.155    dut_inst/sorter_inst/genblk1.bitonic_sort_high/genblk1.bitonic_merge_i/genblk1.bitonic_merge_low/genblk1.cmp_g[1].compare_i/un1_b_ac0_3_1
    SLICE_X100Y513       LUT6 (Prop_A6LUT_SLICEM_I5_O)
                                                      0.040     6.195 r  dut_inst/sorter_inst/genblk1.bitonic_sort_high/genblk1.bitonic_merge_i/genblk1.bitonic_merge_low/genblk1.cmp_g[1].compare_i/un1_b_c4/O
                         net (fo=7, routed)           0.078     6.273    dut_inst/sorter_inst/genblk1.bitonic_sort_high/genblk1.bitonic_merge_i/genblk1.bitonic_merge_low/genblk1.cmp_g[1].compare_i/un1_b_6
    SLICE_X100Y513       LUT5 (Prop_B6LUT_SLICEM_I4_O)
                                                      0.100     6.373 f  dut_inst/sorter_inst/genblk1.bitonic_sort_high/genblk1.bitonic_merge_i/genblk1.bitonic_merge_low/genblk1.cmp_g[1].compare_i/s0.pt[2]/O
                         net (fo=8, routed)           0.121     6.494    dut_inst/sorter_inst/genblk1.bitonic_sort_high/genblk1.bitonic_merge_i/genblk1.bitonic_merge_low/genblk1.bitonic_merge_low/genblk1.cmp_g[0].compare_i/un1_compare_i_6[11]
    SLICE_X100Y514       LUT4 (Prop_A6LUT_SLICEM_I2_O)
                                                      0.100     6.594 f  dut_inst/sorter_inst/genblk1.bitonic_sort_high/genblk1.bitonic_merge_i/genblk1.bitonic_merge_low/genblk1.bitonic_merge_low/genblk1.cmp_g[0].compare_i/s0.pt_i_m2[2]/O
                         net (fo=3, routed)           0.190     6.784    dut_inst/sorter_inst/genblk1.bitonic_merge_i/genblk1.cmp_g[0].compare_i/N_671_reti
    SLICE_X104Y514       LUT6 (Prop_B6LUT_SLICEM_I5_O)
                                                      0.039     6.823 r  dut_inst/sorter_inst/genblk1.bitonic_merge_i/genblk1.cmp_g[0].compare_i/qdelay[1][15].idx_ret_0_RNO/O
                         net (fo=1, routed)           0.070     6.893    dut_inst/sorter_inst/genblk1.bitonic_merge_i/genblk1.cmp_g[0].compare_i/idx2_ac0_5_0_0_reti
    SLICE_X104Y514       FDRE                                         r  dut_inst/sorter_inst/genblk1.bitonic_merge_i/genblk1.cmp_g[0].compare_i/qdelay[1][15].idx_ret_0/D
  -------------------------------------------------------------------    -------------------

                         (clock clk rise edge)        3.125     3.125 r  
    AV33                                              0.000     3.125 r  clk (IN)
                         net (fo=0)                   0.000     3.125    clk_ibuf_iso/I
    AV33                 INBUF (Prop_INBUF_HPIOB_M_PAD_O)
                                                      0.510     3.635 r  clk_ibuf_iso/INBUF_INST/O
                         net (fo=1, routed)           0.000     3.635    clk_ibuf_iso/OUT
    AV33                 IBUFCTRL (Prop_IBUFCTRL_HPIOB_M_I_O)
                                                      0.000     3.635 r  clk_ibuf_iso/IBUFCTRL_INST/O
                         net (fo=1, routed)           0.296     3.931    clk_ibuf_iso
    BUFGCE_X1Y224        BUFGCE (Prop_BUFCE_BUFGCE_I_O)
                                                      0.024     3.955 r  clk_ibuf/O
    X3Y8 (CLOCK_ROOT)    net (fo=780, routed)         1.709     5.664    dut_inst/sorter_inst/genblk1.bitonic_merge_i/genblk1.cmp_g[0].compare_i/clk_c
    SLICE_X104Y514       FDRE                                         r  dut_inst/sorter_inst/genblk1.bitonic_merge_i/genblk1.cmp_g[0].compare_i/qdelay[1][15].idx_ret_0/C
                         clock pessimism              0.438     6.102    
                         clock uncertainty           -0.035     6.067    
    SLICE_X104Y514       FDRE (Setup_BFF_SLICEM_C_D)
                                                      0.027     6.094    dut_inst/sorter_inst/genblk1.bitonic_merge_i/genblk1.cmp_g[0].compare_i/qdelay[1][15].idx_ret_0
  -------------------------------------------------------------------
                         required time                          6.094    
                         arrival time                          -6.893    
  -------------------------------------------------------------------
                         slack                                 -0.800    

Slack (VIOLATED) :        -0.800ns  (required time - arrival time)
  Source:                 shift_reg_tap_i/sr_p.sr_1_fast[156]/C
                            (rising edge-triggered cell FDRE clocked by clk  {rise@0.000ns fall@1.563ns period=3.125ns})
  Destination:            dut_inst/sorter_inst/genblk1.bitonic_merge_i/genblk1.cmp_g[0].compare_i/qdelay[1][15].idx_ret_0/D
                            (rising edge-triggered cell FDRE clocked by clk  {rise@0.000ns fall@1.563ns period=3.125ns})
  Path Group:             clk
  Path Type:              Setup (Max at Slow Process Corner)
  Requirement:            3.125ns  (clk rise@3.125ns - clk rise@0.000ns)
  Data Path Delay:        3.799ns  (logic 1.426ns (37.536%)  route 2.373ns (62.464%))
  Logic Levels:           18  (LUT3=1 LUT4=2 LUT5=7 LUT6=8)
  Clock Path Skew:        -0.117ns (DCD - SCD + CPR)
    Destination Clock Delay (DCD):    2.539ns = ( 5.664 - 3.125 ) 
    Source Clock Delay      (SCD):    3.094ns
    Clock Pessimism Removal (CPR):    0.438ns
  Clock Uncertainty:      0.035ns  ((TSJ^2 + TIJ^2)^1/2 + DJ) / 2 + PE
    Total System Jitter     (TSJ):    0.071ns
    Total Input Jitter      (TIJ):    0.000ns
    Discrete Jitter          (DJ):    0.000ns
    Phase Error              (PE):    0.000ns
  Clock Net Delay (Source):      1.953ns (routing 1.014ns, distribution 0.939ns)
  Clock Net Delay (Destination): 1.709ns (routing 0.926ns, distribution 0.783ns)

    Location             Delay type                Incr(ns)  Path(ns)    Netlist Resource(s)
  -------------------------------------------------------------------    -------------------
                         (clock clk rise edge)        0.000     0.000 r  
    AV33                                              0.000     0.000 r  clk (IN)
                         net (fo=0)                   0.000     0.000    clk_ibuf_iso/I
    AV33                 INBUF (Prop_INBUF_HPIOB_M_PAD_O)
                                                      0.779     0.779 r  clk_ibuf_iso/INBUF_INST/O
                         net (fo=1, routed)           0.000     0.779    clk_ibuf_iso/OUT
    AV33                 IBUFCTRL (Prop_IBUFCTRL_HPIOB_M_I_O)
                                                      0.000     0.779 r  clk_ibuf_iso/IBUFCTRL_INST/O
                         net (fo=1, routed)           0.334     1.113    clk_ibuf_iso
    BUFGCE_X1Y224        BUFGCE (Prop_BUFCE_BUFGCE_I_O)
                                                      0.028     1.141 r  clk_ibuf/O
    X3Y8 (CLOCK_ROOT)    net (fo=780, routed)         1.953     3.094    shift_reg_tap_i/clk_c
    SLICE_X102Y514       FDRE                                         r  shift_reg_tap_i/sr_p.sr_1_fast[156]/C
  -------------------------------------------------------------------    -------------------
    SLICE_X102Y514       FDRE (Prop_BFF2_SLICEM_C_Q)
                                                      0.097     3.191 r  shift_reg_tap_i/sr_p.sr_1_fast[156]/Q
                         net (fo=3, routed)           0.108     3.299    dut_inst/sorter_inst/genblk1.bitonic_sort_high/genblk1.bitonic_sort_high/genblk1.bitonic_sort_low/genblk1.bitonic_merge_i/genblk1.cmp_g[0].compare_i/sr_1_fast_0
    SLICE_X103Y514       LUT4 (Prop_H6LUT_SLICEL_I1_O)
                                                      0.100     3.399 r  dut_inst/sorter_inst/genblk1.bitonic_sort_high/genblk1.bitonic_sort_high/genblk1.bitonic_sort_low/genblk1.bitonic_merge_i/genblk1.cmp_g[0].compare_i/s0.idx2_c2/O
                         net (fo=1, routed)           0.112     3.511    dut_inst/sorter_inst/genblk1.bitonic_sort_high/genblk1.bitonic_sort_high/genblk1.bitonic_sort_low/genblk1.bitonic_merge_i/genblk1.cmp_g[0].compare_i/idx2_c2
    SLICE_X103Y513       LUT5 (Prop_C6LUT_SLICEL_I4_O)
                                                      0.038     3.549 r  dut_inst/sorter_inst/genblk1.bitonic_sort_high/genblk1.bitonic_sort_high/genblk1.bitonic_sort_low/genblk1.bitonic_merge_i/genblk1.cmp_g[0].compare_i/s0.idx2_c4/O
                         net (fo=12, routed)          0.302     3.851    dut_inst/sorter_inst/genblk1.bitonic_sort_high/genblk1.bitonic_sort_high/genblk1.bitonic_merge_i/genblk1.cmp_g[0].compare_i/idx2_11
    SLICE_X104Y512       LUT6 (Prop_C6LUT_SLICEM_I5_O)
                                                      0.098     3.949 f  dut_inst/sorter_inst/genblk1.bitonic_sort_high/genblk1.bitonic_sort_high/genblk1.bitonic_merge_i/genblk1.cmp_g[0].compare_i/un1_b_ac0_1_0/O
                         net (fo=1, routed)           0.104     4.053    dut_inst/sorter_inst/genblk1.bitonic_sort_high/genblk1.bitonic_sort_high/genblk1.bitonic_merge_i/genblk1.cmp_g[0].compare_i/un1_b_ac0_1_0_1
    SLICE_X103Y512       LUT5 (Prop_A6LUT_SLICEL_I4_O)
                                                      0.039     4.092 f  dut_inst/sorter_inst/genblk1.bitonic_sort_high/genblk1.bitonic_sort_high/genblk1.bitonic_merge_i/genblk1.cmp_g[0].compare_i/un1_b_ac0_1/O
                         net (fo=1, routed)           0.048     4.140    dut_inst/sorter_inst/genblk1.bitonic_sort_high/genblk1.bitonic_sort_high/genblk1.bitonic_merge_i/genblk1.cmp_g[0].compare_i/un1_b_ac0_1
    SLICE_X103Y512       LUT6 (Prop_C6LUT_SLICEL_I5_O)
                                                      0.038     4.178 f  dut_inst/sorter_inst/genblk1.bitonic_sort_high/genblk1.bitonic_sort_high/genblk1.bitonic_merge_i/genblk1.cmp_g[0].compare_i/un1_b_c3/O
                         net (fo=1, routed)           0.110     4.288    dut_inst/sorter_inst/genblk1.bitonic_sort_high/genblk1.bitonic_sort_high/genblk1.bitonic_merge_i/genblk1.cmp_g[0].compare_i/un1_b_c3_1
    SLICE_X103Y514       LUT5 (Prop_A6LUT_SLICEL_I4_O)
                                                      0.039     4.327 f  dut_inst/sorter_inst/genblk1.bitonic_sort_high/genblk1.bitonic_sort_high/genblk1.bitonic_merge_i/genblk1.cmp_g[0].compare_i/un1_b_c4/O
                         net (fo=8, routed)           0.064     4.391    dut_inst/sorter_inst/genblk1.bitonic_sort_high/genblk1.bitonic_sort_high/genblk1.bitonic_merge_i/genblk1.cmp_g[0].compare_i/un1_b_9
    SLICE_X103Y513       LUT5 (Prop_G6LUT_SLICEL_I4_O)
                                                      0.038     4.429 f  dut_inst/sorter_inst/genblk1.bitonic_sort_high/genblk1.bitonic_sort_high/genblk1.bitonic_merge_i/genblk1.cmp_g[0].compare_i/s1.pt[1]/O
                         net (fo=6, routed)           0.202     4.631    dut_inst/sorter_inst/genblk1.bitonic_sort_high/genblk1.bitonic_sort_high/genblk1.bitonic_merge_i/genblk1.bitonic_merge_high/genblk1.cmp_g[0].compare_i/pt_18_0_0
    SLICE_X104Y513       LUT6 (Prop_F6LUT_SLICEM_I3_O)
                                                      0.148     4.779 f  dut_inst/sorter_inst/genblk1.bitonic_sort_high/genblk1.bitonic_sort_high/genblk1.bitonic_merge_i/genblk1.bitonic_merge_high/genblk1.cmp_g[0].compare_i/un1_b_c2/O
                         net (fo=1, routed)           0.100     4.879    dut_inst/sorter_inst/genblk1.bitonic_sort_high/genblk1.bitonic_sort_high/genblk1.bitonic_merge_i/genblk1.bitonic_merge_high/genblk1.cmp_g[0].compare_i/un1_b_c2_5
    SLICE_X104Y512       LUT5 (Prop_G6LUT_SLICEM_I4_O)
                                                      0.039     4.918 f  dut_inst/sorter_inst/genblk1.bitonic_sort_high/genblk1.bitonic_sort_high/genblk1.bitonic_merge_i/genblk1.bitonic_merge_high/genblk1.cmp_g[0].compare_i/un1_b_c4/O
                         net (fo=8, routed)           0.188     5.106    dut_inst/sorter_inst/genblk1.bitonic_sort_high/genblk1.bitonic_sort_high/genblk1.bitonic_merge_i/genblk1.bitonic_merge_high/genblk1.cmp_g[0].compare_i/un1_b_0
    SLICE_X103Y511       LUT3 (Prop_E6LUT_SLICEL_I2_O)
                                                      0.039     5.145 f  dut_inst/sorter_inst/genblk1.bitonic_sort_high/genblk1.bitonic_sort_high/genblk1.bitonic_merge_i/genblk1.bitonic_merge_high/genblk1.cmp_g[0].compare_i/s1.pt[1]/O
                         net (fo=4, routed)           0.120     5.265    dut_inst/sorter_inst/genblk1.bitonic_sort_high/genblk1.bitonic_merge_i/genblk1.cmp_g[3].compare_i/pt_16_0[1]
    SLICE_X102Y511       LUT6 (Prop_E6LUT_SLICEM_I4_O)
                                                      0.148     5.413 r  dut_inst/sorter_inst/genblk1.bitonic_sort_high/genblk1.bitonic_merge_i/genblk1.cmp_g[3].compare_i/un1_b_c2/O
                         net (fo=1, routed)           0.048     5.461    dut_inst/sorter_inst/genblk1.bitonic_sort_high/genblk1.bitonic_merge_i/genblk1.cmp_g[3].compare_i/un1_b_c2_7
    SLICE_X102Y511       LUT5 (Prop_C6LUT_SLICEM_I4_O)
                                                      0.038     5.499 r  dut_inst/sorter_inst/genblk1.bitonic_sort_high/genblk1.bitonic_merge_i/genblk1.cmp_g[3].compare_i/un1_b_c4/O
                         net (fo=21, routed)          0.125     5.624    dut_inst/sorter_inst/genblk1.bitonic_sort_high/genblk1.bitonic_merge_i/genblk1.bitonic_merge_low/genblk1.cmp_g[1].compare_i/un1_b_7
    SLICE_X102Y510       LUT6 (Prop_F6LUT_SLICEM_I4_O)
                                                      0.148     5.772 r  dut_inst/sorter_inst/genblk1.bitonic_sort_high/genblk1.bitonic_merge_i/genblk1.bitonic_merge_low/genblk1.cmp_g[1].compare_i/un1_b_axb2/O
                         net (fo=1, routed)           0.167     5.939    dut_inst/sorter_inst/genblk1.bitonic_sort_high/genblk1.bitonic_merge_i/genblk1.bitonic_merge_low/genblk1.cmp_g[1].compare_i/un1_b_axb2_0
    SLICE_X102Y512       LUT6 (Prop_H6LUT_SLICEM_I5_O)
                                                      0.100     6.039 r  dut_inst/sorter_inst/genblk1.bitonic_sort_high/genblk1.bitonic_merge_i/genblk1.bitonic_merge_low/genblk1.cmp_g[1].compare_i/un1_b_ac0_3/O
                         net (fo=1, routed)           0.116     6.155    dut_inst/sorter_inst/genblk1.bitonic_sort_high/genblk1.bitonic_merge_i/genblk1.bitonic_merge_low/genblk1.cmp_g[1].compare_i/un1_b_ac0_3_1
    SLICE_X100Y513       LUT6 (Prop_A6LUT_SLICEM_I5_O)
                                                      0.040     6.195 r  dut_inst/sorter_inst/genblk1.bitonic_sort_high/genblk1.bitonic_merge_i/genblk1.bitonic_merge_low/genblk1.cmp_g[1].compare_i/un1_b_c4/O
                         net (fo=7, routed)           0.078     6.273    dut_inst/sorter_inst/genblk1.bitonic_sort_high/genblk1.bitonic_merge_i/genblk1.bitonic_merge_low/genblk1.cmp_g[1].compare_i/un1_b_6
    SLICE_X100Y513       LUT5 (Prop_B6LUT_SLICEM_I4_O)
                                                      0.100     6.373 f  dut_inst/sorter_inst/genblk1.bitonic_sort_high/genblk1.bitonic_merge_i/genblk1.bitonic_merge_low/genblk1.cmp_g[1].compare_i/s0.pt[2]/O
                         net (fo=8, routed)           0.121     6.494    dut_inst/sorter_inst/genblk1.bitonic_sort_high/genblk1.bitonic_merge_i/genblk1.bitonic_merge_low/genblk1.bitonic_merge_low/genblk1.cmp_g[0].compare_i/un1_compare_i_6[11]
    SLICE_X100Y514       LUT4 (Prop_A6LUT_SLICEM_I2_O)
                                                      0.100     6.594 f  dut_inst/sorter_inst/genblk1.bitonic_sort_high/genblk1.bitonic_merge_i/genblk1.bitonic_merge_low/genblk1.bitonic_merge_low/genblk1.cmp_g[0].compare_i/s0.pt_i_m2[2]/O
                         net (fo=3, routed)           0.190     6.784    dut_inst/sorter_inst/genblk1.bitonic_merge_i/genblk1.cmp_g[0].compare_i/N_671_reti
    SLICE_X104Y514       LUT6 (Prop_B6LUT_SLICEM_I5_O)
                                                      0.039     6.823 r  dut_inst/sorter_inst/genblk1.bitonic_merge_i/genblk1.cmp_g[0].compare_i/qdelay[1][15].idx_ret_0_RNO/O
                         net (fo=1, routed)           0.070     6.893    dut_inst/sorter_inst/genblk1.bitonic_merge_i/genblk1.cmp_g[0].compare_i/idx2_ac0_5_0_0_reti
    SLICE_X104Y514       FDRE                                         r  dut_inst/sorter_inst/genblk1.bitonic_merge_i/genblk1.cmp_g[0].compare_i/qdelay[1][15].idx_ret_0/D
  -------------------------------------------------------------------    -------------------

                         (clock clk rise edge)        3.125     3.125 r  
    AV33                                              0.000     3.125 r  clk (IN)
                         net (fo=0)                   0.000     3.125    clk_ibuf_iso/I
    AV33                 INBUF (Prop_INBUF_HPIOB_M_PAD_O)
                                                      0.510     3.635 r  clk_ibuf_iso/INBUF_INST/O
                         net (fo=1, routed)           0.000     3.635    clk_ibuf_iso/OUT
    AV33                 IBUFCTRL (Prop_IBUFCTRL_HPIOB_M_I_O)
                                                      0.000     3.635 r  clk_ibuf_iso/IBUFCTRL_INST/O
                         net (fo=1, routed)           0.296     3.931    clk_ibuf_iso
    BUFGCE_X1Y224        BUFGCE (Prop_BUFCE_BUFGCE_I_O)
                                                      0.024     3.955 r  clk_ibuf/O
    X3Y8 (CLOCK_ROOT)    net (fo=780, routed)         1.709     5.664    dut_inst/sorter_inst/genblk1.bitonic_merge_i/genblk1.cmp_g[0].compare_i/clk_c
    SLICE_X104Y514       FDRE                                         r  dut_inst/sorter_inst/genblk1.bitonic_merge_i/genblk1.cmp_g[0].compare_i/qdelay[1][15].idx_ret_0/C
                         clock pessimism              0.438     6.102    
                         clock uncertainty           -0.035     6.067    
    SLICE_X104Y514       FDRE (Setup_BFF_SLICEM_C_D)
                                                      0.027     6.094    dut_inst/sorter_inst/genblk1.bitonic_merge_i/genblk1.cmp_g[0].compare_i/qdelay[1][15].idx_ret_0
  -------------------------------------------------------------------
                         required time                          6.094    
                         arrival time                          -6.893    
  -------------------------------------------------------------------
                         slack                                 -0.800    





Pulse Width Checks
--------------------------------------------------------------------------------------
Clock Name:         clk
Waveform(ns):       { 0.000 1.563 }
Period(ns):         3.125
Sources:            { clk }

Check Type        Corner  Lib Pin   Reference Pin  Required(ns)  Actual(ns)  Slack(ns)  Location        Pin
Min Period        n/a     BUFGCE/I  n/a            1.499         3.125       1.626      BUFGCE_X1Y224   clk_ibuf/I
Min Period        n/a     FDRE/C    n/a            0.550         3.125       2.575      SLICE_X104Y507  dut_inst/qdelay[1][15].idx_ret[0]/C
Min Period        n/a     FDRE/C    n/a            0.550         3.125       2.575      SLICE_X100Y510  dut_inst/qdelay[1][15].idx_ret[10]/C
Min Period        n/a     FDRE/C    n/a            0.550         3.125       2.575      SLICE_X100Y508  dut_inst/qdelay[1][15].idx_ret[12]/C
Min Period        n/a     FDRE/C    n/a            0.550         3.125       2.575      SLICE_X100Y508  dut_inst/qdelay[1][15].idx_ret[14]/C
Low Pulse Width   Slow    FDRE/C    n/a            0.275         1.562       1.287      SLICE_X100Y508  dut_inst/qdelay[1][15].idx_ret[12]/C
Low Pulse Width   Slow    FDRE/C    n/a            0.275         1.562       1.287      SLICE_X100Y508  dut_inst/qdelay[1][15].idx_ret[14]/C
Low Pulse Width   Slow    FDRE/C    n/a            0.275         1.562       1.287      SLICE_X100Y508  dut_inst/qdelay[1][15].idx_ret[3]/C
Low Pulse Width   Fast    FDRE/C    n/a            0.275         1.562       1.287      SLICE_X96Y512   dut_inst/qdelay[1][15].idx_ret_61[3]/C
Low Pulse Width   Slow    FDRE/C    n/a            0.275         1.562       1.287      SLICE_X103Y508  dut_inst/qdelay[1][15].idx_ret_622/C
High Pulse Width  Slow    FDRE/C    n/a            0.275         1.563       1.288      SLICE_X100Y515  dut_inst/qdelay[1][15].idx_ret_62[0]/C
High Pulse Width  Slow    FDRE/C    n/a            0.275         1.563       1.288      SLICE_X98Y513   dut_inst/qdelay[1][15].idx_ret_63[3]/C
High Pulse Width  Slow    FDRE/C    n/a            0.275         1.563       1.288      SLICE_X102Y513  dut_inst/qdelay[1][15].idx_ret_64[1]/C
High Pulse Width  Slow    FDRE/C    n/a            0.275         1.563       1.288      SLICE_X98Y513   dut_inst/qdelay[1][15].idx_ret_65[0]/C
High Pulse Width  Slow    FDRE/C    n/a            0.275         1.563       1.288      SLICE_X98Y514   dut_inst/qdelay[1][15].idx_ret_66[0]/C



---------------------------------------------------------------------------------------------------
From Clock:  clk_wrapper
  To Clock:  clk_wrapper

Setup :           NA  Failing Endpoints,  Worst Slack           NA  ,  Total Violation           NA
Hold  :           NA  Failing Endpoints,  Worst Slack           NA  ,  Total Violation           NA
PW    :            0  Failing Endpoints,  Worst Slack      498.562ns,  Total Violation        0.000ns
---------------------------------------------------------------------------------------------------


Pulse Width Checks
--------------------------------------------------------------------------------------
Clock Name:         clk_wrapper
Waveform(ns):       { 0.000 500.000 }
Period(ns):         1000.000
Sources:            { clk_wrapper }

Check Type        Corner  Lib Pin   Reference Pin  Required(ns)  Actual(ns)  Slack(ns)  Location               Pin
Min Period        n/a     FDRE/C    n/a            3.195         1000.000    996.805    BITSLICE_RX_TX_X1Y483  reducer_1/delay_block[4][0]/C
Min Period        n/a     BUFGCE/I  n/a            1.499         1000.000    998.501    BUFGCE_X1Y230          clk_wrapper_ibuf/I
Min Period        n/a     FDRE/C    n/a            0.550         1000.000    999.450    SLICE_X103Y510         lsfr_1/shiftreg_vector[111]/C
Min Period        n/a     FDRE/C    n/a            0.550         1000.000    999.450    SLICE_X104Y510         lsfr_1/shiftreg_vector[112]/C
Min Period        n/a     FDRE/C    n/a            0.550         1000.000    999.450    SLICE_X104Y510         lsfr_1/shiftreg_vector[113]/C
Low Pulse Width   Slow    FDRE/C    n/a            1.438         500.000     498.562    BITSLICE_RX_TX_X1Y483  reducer_1/delay_block[4][0]/C
Low Pulse Width   Fast    FDRE/C    n/a            1.438         500.000     498.562    BITSLICE_RX_TX_X1Y483  reducer_1/delay_block[4][0]/C
Low Pulse Width   Slow    FDRE/C    n/a            0.275         500.000     499.725    SLICE_X103Y510         lsfr_1/shiftreg_vector[111]/C
Low Pulse Width   Slow    FDRE/C    n/a            0.275         500.000     499.725    SLICE_X97Y518          lsfr_1/shiftreg_vector[77]/C
Low Pulse Width   Slow    FDRE/C    n/a            0.275         500.000     499.725    SLICE_X93Y504          reducer_1/delay_block[1][4]/C
High Pulse Width  Fast    FDRE/C    n/a            1.438         500.000     498.562    BITSLICE_RX_TX_X1Y483  reducer_1/delay_block[4][0]/C
High Pulse Width  Slow    FDRE/C    n/a            1.438         500.000     498.562    BITSLICE_RX_TX_X1Y483  reducer_1/delay_block[4][0]/C
High Pulse Width  Fast    FDRE/C    n/a            0.275         500.000     499.725    SLICE_X103Y510         lsfr_1/shiftreg_vector[111]/C
High Pulse Width  Fast    FDRE/C    n/a            0.275         500.000     499.725    SLICE_X96Y516          lsfr_1/shiftreg_vector[11]/C
High Pulse Width  Fast    FDRE/C    n/a            0.275         500.000     499.725    SLICE_X103Y516         lsfr_1/shiftreg_vector[122]/C



