Copyright 1986-2018 Xilinx, Inc. All Rights Reserved.
------------------------------------------------------------------------------------
| Tool Version : Vivado v.2018.2 (win64) Build 2258646 Thu Jun 14 20:03:12 MDT 2018
| Date         : Mon Mar 11 23:00:37 2019
| Host         : PCPHESEBE02 running 64-bit Service Pack 1  (build 7601)
| Command      : report_high_fanout_nets -file fanout.txt -max_nets 200
| Design       : wrapper_csn
| Device       : xcvu9p
------------------------------------------------------------------------------------

High Fan-out Nets Information

1. Summary
----------

+----------------------------------------------------------------+--------+-------------+
| Net Name                                                       | Fanout | Driver Type |
+----------------------------------------------------------------+--------+-------------+
| dut_inst/stage_g.10.pair_g.6.csn_cmp_inst/un1_b_i_100          |     43 | LUT5        |
| dut_inst/stage_g.6.pair_g.0.csn_cmp_inst/un1_b_i_85            |     39 | LUT5        |
| dut_inst/un1_b_i_o_0                                           |     37 | FDRE        |
| dut_inst/un1_b_i_o_6                                           |     36 | FDRE        |
| dut_inst/stage_g.6.pair_g.2.csn_cmp_inst/N_854_0               |     35 | LUT6        |
| dut_inst/un1_b_i_o_22                                          |     34 | FDRE        |
| dut_inst/un1_b_i_o_44                                          |     33 | FDRE        |
| dut_inst/stage_g.10.pair_g.5.csn_cmp_inst/un1_b_i_101          |     32 | LUT5        |
| dut_inst/stage_g.8.pair_g.0.csn_cmp_inst/un1_b_i_73            |     31 | LUT5        |
| dut_inst/un1_b_i_o_4                                           |     31 | FDRE        |
| dut_inst/stage_g.6.pair_g.2.csn_cmp_inst/un1_b_i_104           |     30 | LUT5        |
| dut_inst/stage_g.9.pair_g.8.csn_cmp_inst/un1_b_i_87            |     29 | LUT6        |
| dut_inst/un1_b_i_o_29                                          |     29 | FDRE        |
| dut_inst/stage_g.7.pair_g.6.csn_cmp_inst/un1_b_i_66            |     28 | LUT6        |
| dut_inst/stage_g.8.pair_g.1.csn_cmp_inst/un1_b_i_75            |     28 | LUT3        |
| dut_inst/stage_g.9.pair_g.0.csn_cmp_inst/un1_b_i_102           |     28 | LUT6        |
| dut_inst/un1_b_i_o_10                                          |     28 | FDRE        |
| dut_inst/un1_b_i_o_11                                          |     28 | FDRE        |
| dut_inst/un1_b_i_o_39                                          |     28 | FDRE        |
| dut_inst/un1_b_i_o_52                                          |     28 | FDRE        |
| dut_inst/un1_b_i_o_62                                          |     28 | FDRE        |
| dut_inst/stage_g.6.pair_g.3.csn_cmp_inst/un1_b_i_61            |     27 | LUT5        |
| dut_inst/stage_g.6.pair_g.7.csn_cmp_inst/un1_b_i_98            |     27 | LUT5        |
| dut_inst/stage_g.7.pair_g.2.csn_cmp_inst/un1_b_i_95            |     27 | LUT6        |
| dut_inst/stage_g.8.pair_g.4.csn_cmp_inst/pt_58_0               |     27 | LUT4        |
| dut_inst/un1_b_i_o_43                                          |     27 | FDRE        |
| dut_inst/stage_g.7.pair_g.3.csn_cmp_inst/un1_b_i_103           |     26 | LUT6        |
| dut_inst/stage_g.8.pair_g.3.csn_cmp_inst/pt_59_0               |     26 | LUT4        |
| dut_inst/un1_b_i_o_15                                          |     26 | FDRE        |
| dut_inst/un1_b_i_o_18                                          |     26 | FDRE        |
| dut_inst/un1_b_i_o_33                                          |     26 | FDRE        |
| dut_inst/un1_b_i_o_42                                          |     26 | FDRE        |
| dut_inst/un1_b_i_o_53                                          |     26 | FDRE        |
| dut_inst/stage_g.6.pair_g.2.csn_cmp_inst/N_837                 |     25 | LUT6        |
| dut_inst/stage_g.6.pair_g.5.csn_cmp_inst/un1_b_i_64            |     25 | LUT5        |
| dut_inst/un1_b_i_o_12                                          |     25 | FDRE        |
| dut_inst/un1_b_i_o_24                                          |     25 | FDRE        |
| dut_inst/un1_b_i_o_25                                          |     25 | FDRE        |
| dut_inst/un1_b_i_o_26                                          |     25 | FDRE        |
| dut_inst/un1_b_i_o_30                                          |     25 | FDRE        |
| dut_inst/un1_b_i_o_32                                          |     25 | FDRE        |
| dut_inst/un1_b_i_o_45                                          |     25 | FDRE        |
| dut_inst/un1_b_i_o_58                                          |     25 | FDRE        |
| dut_inst/un1_b_i_o_60                                          |     25 | FDRE        |
| dut_inst/un1_b_i_o_61                                          |     25 | FDRE        |
| dut_inst/stage_g.1.pair_g.7.csn_cmp_inst/pt_43_0               |     24 | LUT4        |
| dut_inst/stage_g.11.pair_g.0.csn_cmp_inst/un1_b_i_91           |     24 | LUT6        |
| dut_inst/stage_g.11.pair_g.1.csn_cmp_inst/un1_b_i_ac0_6_1z     |     24 | LUT6        |
| dut_inst/stage_g.6.pair_g.2.csn_cmp_inst/N_844_0               |     24 | LUT5        |
| dut_inst/stage_g.6.pair_g.6.csn_cmp_inst/un1_b_i_67            |     24 | LUT5        |
| dut_inst/stage_g.7.pair_g.4.csn_cmp_inst/un1_b_i_81            |     24 | LUT6        |
| dut_inst/stage_g.7.pair_g.7.csn_cmp_inst/un1_b_i_97            |     24 | LUT6        |
| dut_inst/stage_g.8.pair_g.3.csn_cmp_inst/un1_b_i_71            |     24 | LUT6        |
| dut_inst/stage_g.8.pair_g.6.csn_cmp_inst/un1_b_i_68            |     24 | LUT6        |
| dut_inst/un1_b_i_o_35                                          |     24 | FDRE        |
| dut_inst/un1_b_i_o_5                                           |     24 | FDRE        |
| dut_inst/stage_g.1.pair_g.2.csn_cmp_inst/pt_37_0               |     23 | LUT4        |
| dut_inst/stage_g.6.pair_g.1.csn_cmp_inst/un1_b_i_88            |     23 | LUT6        |
| dut_inst/stage_g.6.pair_g.4.csn_cmp_inst/un1_b_i_63            |     23 | LUT5        |
| dut_inst/stage_g.9.pair_g.1.csn_cmp_inst/un1_b_i_74            |     23 | LUT5        |
| dut_inst/stage_g.9.pair_g.7.csn_cmp_inst/un1_b_i_92            |     23 | LUT5        |
| dut_inst/un1_b_i_o                                             |     23 | FDRE        |
| dut_inst/un1_b_i_o_17                                          |     23 | FDRE        |
| dut_inst/un1_b_i_o_19                                          |     23 | FDRE        |
| dut_inst/un1_b_i_o_2                                           |     23 | FDRE        |
| dut_inst/un1_b_i_o_23                                          |     23 | FDRE        |
| dut_inst/un1_b_i_o_28                                          |     23 | FDRE        |
| dut_inst/un1_b_i_o_51                                          |     23 | FDRE        |
| dut_inst/un1_b_i_o_54                                          |     23 | FDRE        |
| dut_inst/pt_o_15[3]                                            |     22 | FDRE        |
| dut_inst/pt_o_16[3]                                            |     22 | FDRE        |
| dut_inst/pt_o_19[3]                                            |     22 | FDRE        |
| dut_inst/pt_o_20[3]                                            |     22 | FDRE        |
| dut_inst/stage_g.1.pair_g.9.csn_cmp_inst/pt_42_0               |     22 | LUT4        |
| dut_inst/stage_g.10.pair_g.2.csn_cmp_inst/un1_b_i_ac0_5_d_0_13 |     22 | LUT4        |
| dut_inst/stage_g.10.pair_g.2.csn_cmp_inst/un1_b_i_c2_12        |     22 | LUT6        |
| dut_inst/stage_g.10.pair_g.3.csn_cmp_inst/un1_b_i_ac0_5_0_0_7  |     22 | LUT4        |
| dut_inst/stage_g.11.pair_g.1.csn_cmp_inst/un1_b_i_ac0_5_c_1z   |     22 | LUT6        |
| dut_inst/stage_g.11.pair_g.1.csn_cmp_inst/un1_b_i_ac0_5_d_0_5  |     22 | LUT6        |
| dut_inst/stage_g.11.pair_g.1.csn_cmp_inst/un1_b_i_c2_3         |     22 | LUT4        |
| dut_inst/stage_g.11.pair_g.2.csn_cmp_inst/un1_b_i_ac0_5_0_0_14 |     22 | LUT4        |
| dut_inst/stage_g.11.pair_g.2.csn_cmp_inst/un1_b_i_ac0_5_d_0_12 |     22 | LUT4        |
| dut_inst/stage_g.11.pair_g.3.csn_cmp_inst/un1_b_i_ac0_5_0_0_4  |     22 | LUT4        |
| dut_inst/stage_g.11.pair_g.3.csn_cmp_inst/un1_b_i_ac0_5_d_0_2  |     22 | LUT4        |
| dut_inst/stage_g.11.pair_g.4.csn_cmp_inst/un1_b_i_79           |     22 | LUT5        |
| dut_inst/stage_g.11.pair_g.5.csn_cmp_inst/un1_b_i_99           |     22 | LUT5        |
| dut_inst/stage_g.6.pair_g.2.csn_cmp_inst/un1_b_i_ac0_5_0_0_15  |     22 | LUT4        |
| dut_inst/stage_g.6.pair_g.9.csn_cmp_inst/un1_b_i_78            |     22 | LUT3        |
| dut_inst/stage_g.7.pair_g.1.csn_cmp_inst/un1_b_i_96            |     22 | LUT6        |
| dut_inst/stage_g.8.pair_g.7.csn_cmp_inst/un1_b_i_86            |     22 | LUT5        |
| dut_inst/un1_b_i_o_16                                          |     22 | FDRE        |
| dut_inst/un1_b_i_o_27                                          |     22 | FDRE        |
| dut_inst/un1_b_i_o_3                                           |     22 | FDRE        |
| dut_inst/un1_b_i_o_34                                          |     22 | FDRE        |
| dut_inst/un1_b_i_o_41                                          |     22 | FDRE        |
| dut_inst/stage_g.1.pair_g.1.csn_cmp_inst/pt_36_0               |     21 | LUT4        |
| dut_inst/stage_g.3.pair_g.10.csn_cmp_inst/pt_102_0             |     21 | LUT6        |
| dut_inst/stage_g.3.pair_g.2.csn_cmp_inst/pt_99_0               |     21 | LUT6        |
| dut_inst/stage_g.8.pair_g.5.csn_cmp_inst/un1_b_i_70            |     21 | LUT3        |
| dut_inst/stage_g.9.pair_g.2.csn_cmp_inst/un1_b_i_77            |     21 | LUT4        |
| dut_inst/stage_g.9.pair_g.4.csn_cmp_inst/un1_b_i_c3_1z         |     21 | LUT6        |
| dut_inst/un1_b_i_o_20                                          |     21 | FDRE        |
| dut_inst/un1_b_i_o_21                                          |     21 | FDRE        |
| dut_inst/un1_b_i_o_31                                          |     21 | FDRE        |
| dut_inst/un1_b_i_o_37                                          |     21 | FDRE        |
| dut_inst/un1_b_i_o_49                                          |     21 | FDRE        |
| dut_inst/un1_b_i_o_56                                          |     21 | FDRE        |
| dut_inst/un1_b_i_o_57                                          |     21 | FDRE        |
| shift_reg_tap_i/input_slr[185]                                 |     21 | FDRE        |
| shift_reg_tap_i/input_slr[198]                                 |     21 | FDRE        |
| dut_inst/pt_o_17[3]                                            |     20 | FDRE        |
| dut_inst/pt_o_18[3]                                            |     20 | FDRE        |
| dut_inst/stage_g.0.pair_g.0.csn_cmp_inst/un1_b_i_59            |     20 | LUT5        |
| dut_inst/stage_g.11.pair_g.3.csn_cmp_inst/un1_b_i_c2_0         |     20 | LUT6        |
| dut_inst/stage_g.2.pair_g.3.csn_cmp_inst/pt_66_0               |     20 | LUT6        |
| dut_inst/stage_g.2.pair_g.7.csn_cmp_inst/pt_65_0               |     20 | LUT6        |
| dut_inst/stage_g.7.pair_g.0.csn_cmp_inst/un1_b_i_84            |     20 | LUT6        |
| dut_inst/stage_g.7.pair_g.5.csn_cmp_inst/un1_b_i_62            |     20 | LUT6        |
| dut_inst/un1_b_i_o_14                                          |     20 | FDRE        |
| dut_inst/un1_b_i_o_36                                          |     20 | FDRE        |
| dut_inst/un1_b_i_o_38                                          |     20 | FDRE        |
| dut_inst/un1_b_i_o_46                                          |     20 | FDRE        |
| dut_inst/un1_b_i_o_8                                           |     20 | FDRE        |
| dut_inst/un1_b_i_o_9                                           |     20 | FDRE        |
| dut_inst/pt_o_10[3]                                            |     19 | FDRE        |
| dut_inst/pt_o_11[3]                                            |     19 | FDRE        |
| dut_inst/pt_o_12[3]                                            |     19 | FDRE        |
| dut_inst/pt_o_13[3]                                            |     19 | FDRE        |
| dut_inst/pt_o_21[3]                                            |     19 | FDRE        |
| dut_inst/pt_o_22[3]                                            |     19 | FDRE        |
| dut_inst/stage_g.1.pair_g.3.csn_cmp_inst/pt_51_2               |     19 | LUT4        |
| dut_inst/stage_g.2.pair_g.2.csn_cmp_inst/pt_25_0               |     19 | LUT6        |
| dut_inst/stage_g.6.pair_g.8.csn_cmp_inst/un1_b_i_90            |     19 | LUT6        |
| dut_inst/stage_g.7.pair_g.9.csn_cmp_inst/un1_b_i_94            |     19 | LUT6        |
| dut_inst/stage_g.9.pair_g.3.csn_cmp_inst/un1_b_i_82            |     19 | LUT5        |
| dut_inst/stage_g.9.pair_g.6.csn_cmp_inst/un1_b_i_69            |     19 | LUT6        |
| shift_reg_tap_i/input_slr[29]                                  |     19 | FDRE        |
| shift_reg_tap_i/input_slr[42]                                  |     19 | FDRE        |
| shift_reg_tap_i/input_slr[55]                                  |     19 | FDRE        |
| shift_reg_tap_i/input_slr[68]                                  |     19 | FDRE        |
| dut_inst/stage_g.10.pair_g.3.csn_cmp_inst/un1_b_i_ac0_5_d_1z   |     18 | LUT5        |
| dut_inst/stage_g.11.pair_g.2.csn_cmp_inst/un1_b_i_c2_10        |     18 | LUT4        |
| dut_inst/stage_g.2.pair_g.2.csn_cmp_inst/pt_24_0               |     18 | LUT6        |
| dut_inst/stage_g.6.pair_g.2.csn_cmp_inst/N_669                 |     18 | LUT6        |
| dut_inst/stage_g.7.pair_g.8.csn_cmp_inst/un1_b_i_93            |     18 | LUT6        |
| dut_inst/stage_g.8.pair_g.2.csn_cmp_inst/un1_b_i_76            |     18 | LUT5        |
| dut_inst/stage_g.8.pair_g.4.csn_cmp_inst/un1_b_i_65            |     18 | LUT5        |
| dut_inst/stage_g.8.pair_g.5.csn_cmp_inst/un1_b_i_ac0_5_0_0_1   |     18 | LUT6        |
| dut_inst/un1_b_i_o_1                                           |     18 | FDRE        |
| dut_inst/un1_b_i_o_13                                          |     18 | FDRE        |
| dut_inst/un1_b_i_o_40                                          |     18 | FDRE        |
| dut_inst/un1_b_i_o_50                                          |     18 | FDRE        |
| dut_inst/un1_b_i_o_59                                          |     18 | FDRE        |
| dut_inst/un1_b_i_o_7                                           |     18 | FDRE        |
| shift_reg_tap_i/input_slr[159]                                 |     18 | FDRE        |
| shift_reg_tap_i/input_slr[211]                                 |     18 | FDRE        |
| shift_reg_tap_i/input_slr[224]                                 |     18 | FDRE        |
| shift_reg_tap_i/input_slr[3]                                   |     18 | FDRE        |
| dut_inst/un1_b_i_o_55                                          |     17 | FDRE        |
| dut_inst/stage_g.0.pair_g.3.csn_cmp_inst/un1_b_i_57            |     16 | LUT5        |
| dut_inst/stage_g.0.pair_g.5.csn_cmp_inst/pt_52_0               |     16 | LUT4        |
| dut_inst/stage_g.10.pair_g.1.csn_cmp_inst/un1_b_i_ac0_1_1z     |     16 | LUT6        |
| dut_inst/stage_g.10.pair_g.4.csn_cmp_inst/un1_b_i_80           |     16 | LUT5        |
| dut_inst/stage_g.3.pair_g.8.csn_cmp_inst/un1_b_i_2             |     16 | LUT5        |
| dut_inst/stage_g.6.pair_g.2.csn_cmp_inst/N_668                 |     16 | LUT6        |
| dut_inst/stage_g.9.pair_g.5.csn_cmp_inst/un1_b_i_83            |     16 | LUT5        |
| shift_reg_tap_i/input_slr[133]                                 |     16 | FDRE        |
| shift_reg_tap_i/input_slr[263]                                 |     16 | FDRE        |
| dut_inst/pt_o_20[2]                                            |     15 | FDRE        |
| dut_inst/pt_o_4[2]                                             |     15 | FDRE        |
| dut_inst/pt_o_5[2]                                             |     15 | FDRE        |
| dut_inst/pt_o_6[3]                                             |     15 | FDRE        |
| dut_inst/pt_o_7[2]                                             |     15 | FDRE        |
| dut_inst/pt_o_7[3]                                             |     15 | FDRE        |
| dut_inst/stage_g.0.pair_g.1.csn_cmp_inst/un1_b_i_45            |     15 | LUT5        |
| dut_inst/stage_g.0.pair_g.2.csn_cmp_inst/un1_b_i_53            |     15 | LUT5        |
| dut_inst/stage_g.0.pair_g.5.csn_cmp_inst/un1_b_i_58            |     15 | LUT5        |
| dut_inst/stage_g.0.pair_g.6.csn_cmp_inst/un1_b_i_46            |     15 | LUT5        |
| dut_inst/stage_g.0.pair_g.9.csn_cmp_inst/un1_b_i_48            |     15 | LUT5        |
| dut_inst/stage_g.1.pair_g.7.csn_cmp_inst/un1_b_i_10            |     15 | LUT6        |
| dut_inst/stage_g.10.pair_g.1.csn_cmp_inst/un1_b_i_89           |     15 | LUT6        |
| dut_inst/stage_g.10.pair_g.1.csn_cmp_inst/un1_b_i_ac0_5_0_0_8  |     15 | LUT6        |
| dut_inst/stage_g.10.pair_g.1.csn_cmp_inst/un1_b_i_ac0_5_d_0_6  |     15 | LUT6        |
| dut_inst/stage_g.10.pair_g.4.csn_cmp_inst/un1_b_i_ac0_5_0_0_22 |     15 | LUT4        |
| dut_inst/stage_g.10.pair_g.4.csn_cmp_inst/un1_b_i_ac0_5_d_0_21 |     15 | LUT4        |
| dut_inst/stage_g.3.pair_g.0.csn_cmp_inst/pt_109_0              |     15 | LUT6        |
| dut_inst/stage_g.3.pair_g.10.csn_cmp_inst/pt_67_0              |     15 | LUT6        |
| dut_inst/stage_g.3.pair_g.7.csn_cmp_inst/pt_108_0              |     15 | LUT4        |
| dut_inst/stage_g.4.pair_g.5.csn_cmp_inst/un1_b_i_24            |     15 | LUT5        |
| shift_reg_tap_i/input_slr[237]                                 |     15 | FDRE        |
| dut_inst/pt_o_4[3]                                             |     14 | FDRE        |
| dut_inst/pt_o_5[3]                                             |     14 | FDRE        |
| dut_inst/stage_g.0.pair_g.4.csn_cmp_inst/un1_b_i_47            |     14 | LUT5        |
| dut_inst/stage_g.1.pair_g.5.csn_cmp_inst/un1_b_i_54            |     14 | LUT6        |
| dut_inst/stage_g.10.pair_g.1.csn_cmp_inst/un1_b_i_ac0_2_1z     |     14 | LUT6        |
| dut_inst/stage_g.2.pair_g.10.csn_cmp_inst/un1_b_i_37           |     14 | LUT5        |
| dut_inst/stage_g.3.pair_g.7.csn_cmp_inst/un1_b_i_17            |     14 | LUT5        |
| dut_inst/pt_o_8[3]                                             |     13 | FDRE        |
| dut_inst/pt_o_9[3]                                             |     13 | FDRE        |
| dut_inst/stage_g.1.pair_g.1.csn_cmp_inst/un1_b_i_55            |     13 | LUT5        |
+----------------------------------------------------------------+--------+-------------+


