Copyright 1986-2018 Xilinx, Inc. All Rights Reserved.
------------------------------------------------------------------------------------
| Tool Version : Vivado v.2018.2 (win64) Build 2258646 Thu Jun 14 20:03:12 MDT 2018
| Date         : Wed Feb 13 17:42:25 2019
| Host         : PCPHESEBE02 running 64-bit Service Pack 1  (build 7601)
| Command      : report_high_fanout_nets -histogram -file fanout_hist.txt
| Design       : wrapper
| Device       : xcvu9p
------------------------------------------------------------------------------------

High Fan-out Nets Information

1. Histogram
------------

+---------+-------+--------+
|  Fanout |  Nets |      % |
+---------+-------+--------+
|       1 | 10977 |  71.21 |
|       2 |   691 |   4.48 |
|       3 |   399 |   2.58 |
|       4 |   322 |   2.08 |
|    5-10 |  1979 |  12.83 |
|   11-50 |  1045 |   6.77 |
|  51-100 |     0 |   0.00 |
| 101-500 |     0 |   0.00 |
|    >500 |     0 |   0.00 |
+---------+-------+--------+
|     ALL | 15413 | 100.00 |
+---------+-------+--------+


