Copyright 1986-2018 Xilinx, Inc. All Rights Reserved.
------------------------------------------------------------------------------------
| Tool Version : Vivado v.2018.2 (win64) Build 2258646 Thu Jun 14 20:03:12 MDT 2018
| Date         : Tue Mar  5 21:48:19 2019
| Host         : PCPHESEBE02 running 64-bit Service Pack 1  (build 7601)
| Command      : report_high_fanout_nets -histogram -file fanout_hist.txt
| Design       : wrapper_csn
| Device       : xcvu9p
------------------------------------------------------------------------------------

High Fan-out Nets Information

1. Histogram
------------

+---------+------+--------+
|  Fanout | Nets |      % |
+---------+------+--------+
|       1 | 1103 |  39.74 |
|       2 |  730 |  26.30 |
|       3 |  393 |  14.16 |
|       4 |  266 |   9.58 |
|    5-10 |  172 |   6.19 |
|   11-50 |  111 |   4.00 |
|  51-100 |    0 |   0.00 |
| 101-500 |    0 |   0.00 |
|    >500 |    0 |   0.00 |
+---------+------+--------+
|     ALL | 2775 | 100.00 |
+---------+------+--------+


