Copyright 1986-2018 Xilinx, Inc. All Rights Reserved.
-----------------------------------------------------------------------------------------------
| Tool Version      : Vivado v.2018.2 (win64) Build 2258646 Thu Jun 14 20:03:12 MDT 2018
| Date              : Thu Feb 14 15:49:23 2019
| Host              : PCPHESEBE02 running 64-bit Service Pack 1  (build 7601)
| Command           : report_timing_summary -hold -nworst 5 -max_paths 5 -file timing_hold.txt
| Design            : wrapper
| Device            : xcvu9p-flgc2104
| Speed File        : -1  PRODUCTION 1.20 05-21-2018
| Temperature Grade : E
-----------------------------------------------------------------------------------------------

Timing Summary Report

------------------------------------------------------------------------------------------------
| Timer Settings
| --------------
------------------------------------------------------------------------------------------------

  Enable Multi Corner Analysis               :  Yes
  Enable Pessimism Removal                   :  Yes
  Pessimism Removal Resolution               :  Nearest Common Node
  Enable Input Delay Default Clock           :  No
  Enable Preset / Clear Arcs                 :  No
  Disable Flight Delays                      :  No
  Ignore I/O Paths                           :  No
  Timing Early Launch at Borrowing Latches   :  false

  Corner  Analyze    Analyze    
  Name    Max Paths  Min Paths  
  ------  ---------  ---------  
  Slow    Yes        Yes        
  Fast    Yes        Yes        



check_timing report

Table of Contents
-----------------
1. checking no_clock
2. checking constant_clock
3. checking pulse_width_clock
4. checking unconstrained_internal_endpoints
5. checking no_input_delay
6. checking no_output_delay
7. checking multiple_clock
8. checking generated_clocks
9. checking loops
10. checking partial_input_delay
11. checking partial_output_delay
12. checking latch_loops

1. checking no_clock
--------------------
 There are 0 register/latch pins with no clock.


2. checking constant_clock
--------------------------
 There are 0 register/latch pins with constant_clock.


3. checking pulse_width_clock
-----------------------------
 There are 0 register/latch pins which need pulse_width check


4. checking unconstrained_internal_endpoints
--------------------------------------------
 There are 0 pins that are not constrained for maximum delay.

 There are 0 pins that are not constrained for maximum delay due to constant clock.


5. checking no_input_delay
--------------------------
 There is 1 input port with no input delay specified. (HIGH)

 There are 0 input ports with no input delay but user has a false path constraint.


6. checking no_output_delay
---------------------------
 There is 1 port with no output delay specified. (HIGH)

 There are 0 ports with no output delay but user has a false path constraint

 There are 0 ports with no output delay but with a timing clock defined on it or propagating through it


7. checking multiple_clock
--------------------------
 There are 0 register/latch pins with multiple clocks.


8. checking generated_clocks
----------------------------
 There are 0 generated clocks that are not connected to a clock source.


9. checking loops
-----------------
 There are 0 combinational loops in the design.


10. checking partial_input_delay
--------------------------------
 There are 0 input ports with partial input delay specified.


11. checking partial_output_delay
---------------------------------
 There are 0 ports with partial output delay specified.


12. checking latch_loops
------------------------
 There are 0 combinational latch loops in the design through latch input



------------------------------------------------------------------------------------------------
| Design Timing Summary
| ---------------------
------------------------------------------------------------------------------------------------

    WHS(ns)      THS(ns)  THS Failing Endpoints  THS Total Endpoints     WPWS(ns)     TPWS(ns)  TPWS Failing Endpoints  TPWS Total Endpoints  
    -------      -------  ---------------------  -------------------     --------     --------  ----------------------  --------------------  
      0.015        0.000                      0                 2975        1.287        0.000                       0                  3819  


All user specified timing constraints are met.


------------------------------------------------------------------------------------------------
| Clock Summary
| -------------
------------------------------------------------------------------------------------------------

Clock        Waveform(ns)         Period(ns)      Frequency(MHz)
-----        ------------         ----------      --------------
clk          {0.000 1.563}        3.125           320.000         
clk_wrapper  {0.000 500.000}      1000.000        1.000           


------------------------------------------------------------------------------------------------
| Intra Clock Table
| -----------------
------------------------------------------------------------------------------------------------

Clock             WHS(ns)      THS(ns)  THS Failing Endpoints  THS Total Endpoints     WPWS(ns)     TPWS(ns)  TPWS Failing Endpoints  TPWS Total Endpoints  
-----             -------      -------  ---------------------  -------------------     --------     --------  ----------------------  --------------------  
clk                 0.015        0.000                      0                 2975        1.287        0.000                       0                  3220  
clk_wrapper                                                                             498.562        0.000                       0                   599  


------------------------------------------------------------------------------------------------
| Inter Clock Table
| -----------------
------------------------------------------------------------------------------------------------

From Clock    To Clock          WHS(ns)      THS(ns)  THS Failing Endpoints  THS Total Endpoints  
----------    --------          -------      -------  ---------------------  -------------------  


------------------------------------------------------------------------------------------------
| Other Path Groups Table
| -----------------------
------------------------------------------------------------------------------------------------

Path Group    From Clock    To Clock          WHS(ns)      THS(ns)  THS Failing Endpoints  THS Total Endpoints  
----------    ----------    --------          -------      -------  ---------------------  -------------------  


------------------------------------------------------------------------------------------------
| Timing Details
| --------------
------------------------------------------------------------------------------------------------


---------------------------------------------------------------------------------------------------
From Clock:  clk
  To Clock:  clk

Setup :           NA  Failing Endpoints,  Worst Slack           NA  ,  Total Violation           NA
Hold  :            0  Failing Endpoints,  Worst Slack        0.015ns,  Total Violation        0.000ns
PW    :            0  Failing Endpoints,  Worst Slack        1.287ns,  Total Violation        0.000ns
---------------------------------------------------------------------------------------------------


Min Delay Paths
--------------------------------------------------------------------------------------
Slack (MET) :             0.015ns  (arrival time - required time)
  Source:                 shift_reg_tap_o/sr_p.sr_1[88]/C
                            (rising edge-triggered cell FDRE clocked by clk  {rise@0.000ns fall@1.563ns period=3.125ns})
  Destination:            shift_reg_tap_o/sr_p.sr_2[88]/D
                            (rising edge-triggered cell FDRE clocked by clk  {rise@0.000ns fall@1.563ns period=3.125ns})
  Path Group:             clk
  Path Type:              Hold (Min at Slow Process Corner)
  Requirement:            0.000ns  (clk rise@0.000ns - clk rise@0.000ns)
  Data Path Delay:        0.183ns  (logic 0.070ns (38.251%)  route 0.113ns (61.749%))
  Logic Levels:           0  
  Clock Path Skew:        0.115ns (DCD - SCD - CPR)
    Destination Clock Delay (DCD):    2.963ns
    Source Clock Delay      (SCD):    2.424ns
    Clock Pessimism Removal (CPR):    0.424ns
  Clock Net Delay (Source):      1.594ns (routing 0.794ns, distribution 0.800ns)
  Clock Net Delay (Destination): 1.822ns (routing 0.869ns, distribution 0.953ns)

    Location             Delay type                Incr(ns)  Path(ns)    Netlist Resource(s)
  -------------------------------------------------------------------    -------------------
                         (clock clk rise edge)        0.000     0.000 r  
    AV33                                              0.000     0.000 r  clk (IN)
                         net (fo=0)                   0.000     0.000    clk_ibuf_iso/I
    AV33                 INBUF (Prop_INBUF_HPIOB_M_PAD_O)
                                                      0.510     0.510 r  clk_ibuf_iso/INBUF_INST/O
                         net (fo=1, routed)           0.000     0.510    clk_ibuf_iso/OUT
    AV33                 IBUFCTRL (Prop_IBUFCTRL_HPIOB_M_I_O)
                                                      0.000     0.510 r  clk_ibuf_iso/IBUFCTRL_INST/O
                         net (fo=1, routed)           0.296     0.806    clk_ibuf_iso
    BUFGCE_X1Y224        BUFGCE (Prop_BUFCE_BUFGCE_I_O)
                                                      0.024     0.830 r  clk_ibuf/O
    X2Y9 (CLOCK_ROOT)    net (fo=3219, routed)        1.594     2.424    shift_reg_tap_o/clk_c
    SLICE_X73Y577        FDRE                                         r  shift_reg_tap_o/sr_p.sr_1[88]/C
  -------------------------------------------------------------------    -------------------
    SLICE_X73Y577        FDRE (Prop_CFF_SLICEL_C_Q)
                                                      0.070     2.494 r  shift_reg_tap_o/sr_p.sr_1[88]/Q
                         net (fo=1, routed)           0.113     2.607    shift_reg_tap_o/sr_1[88]
    SLICE_X75Y576        FDRE                                         r  shift_reg_tap_o/sr_p.sr_2[88]/D
  -------------------------------------------------------------------    -------------------

                         (clock clk rise edge)        0.000     0.000 r  
    AV33                                              0.000     0.000 r  clk (IN)
                         net (fo=0)                   0.000     0.000    clk_ibuf_iso/I
    AV33                 INBUF (Prop_INBUF_HPIOB_M_PAD_O)
                                                      0.779     0.779 r  clk_ibuf_iso/INBUF_INST/O
                         net (fo=1, routed)           0.000     0.779    clk_ibuf_iso/OUT
    AV33                 IBUFCTRL (Prop_IBUFCTRL_HPIOB_M_I_O)
                                                      0.000     0.779 r  clk_ibuf_iso/IBUFCTRL_INST/O
                         net (fo=1, routed)           0.334     1.113    clk_ibuf_iso
    BUFGCE_X1Y224        BUFGCE (Prop_BUFCE_BUFGCE_I_O)
                                                      0.028     1.141 r  clk_ibuf/O
    X2Y9 (CLOCK_ROOT)    net (fo=3219, routed)        1.822     2.963    shift_reg_tap_o/clk_c
    SLICE_X75Y576        FDRE                                         r  shift_reg_tap_o/sr_p.sr_2[88]/C
                         clock pessimism             -0.424     2.539    
    SLICE_X75Y576        FDRE (Hold_FFF_SLICEL_C_D)
                                                      0.053     2.592    shift_reg_tap_o/sr_p.sr_2[88]
  -------------------------------------------------------------------
                         required time                         -2.592    
                         arrival time                           2.607    
  -------------------------------------------------------------------
                         slack                                  0.015    

Slack (MET) :             0.015ns  (arrival time - required time)
  Source:                 shift_reg_tap_o/sr_p.sr_1[88]/C
                            (rising edge-triggered cell FDRE clocked by clk  {rise@0.000ns fall@1.563ns period=3.125ns})
  Destination:            shift_reg_tap_o/sr_p.sr_2[88]/D
                            (rising edge-triggered cell FDRE clocked by clk  {rise@0.000ns fall@1.563ns period=3.125ns})
  Path Group:             clk
  Path Type:              Hold (Min at Slow Process Corner)
  Requirement:            0.000ns  (clk rise@0.000ns - clk rise@0.000ns)
  Data Path Delay:        0.183ns  (logic 0.070ns (38.251%)  route 0.113ns (61.749%))
  Logic Levels:           0  
  Clock Path Skew:        0.115ns (DCD - SCD - CPR)
    Destination Clock Delay (DCD):    2.963ns
    Source Clock Delay      (SCD):    2.424ns
    Clock Pessimism Removal (CPR):    0.424ns
  Clock Net Delay (Source):      1.594ns (routing 0.794ns, distribution 0.800ns)
  Clock Net Delay (Destination): 1.822ns (routing 0.869ns, distribution 0.953ns)

    Location             Delay type                Incr(ns)  Path(ns)    Netlist Resource(s)
  -------------------------------------------------------------------    -------------------
                         (clock clk rise edge)        0.000     0.000 r  
    AV33                                              0.000     0.000 r  clk (IN)
                         net (fo=0)                   0.000     0.000    clk_ibuf_iso/I
    AV33                 INBUF (Prop_INBUF_HPIOB_M_PAD_O)
                                                      0.510     0.510 r  clk_ibuf_iso/INBUF_INST/O
                         net (fo=1, routed)           0.000     0.510    clk_ibuf_iso/OUT
    AV33                 IBUFCTRL (Prop_IBUFCTRL_HPIOB_M_I_O)
                                                      0.000     0.510 r  clk_ibuf_iso/IBUFCTRL_INST/O
                         net (fo=1, routed)           0.296     0.806    clk_ibuf_iso
    BUFGCE_X1Y224        BUFGCE (Prop_BUFCE_BUFGCE_I_O)
                                                      0.024     0.830 r  clk_ibuf/O
    X2Y9 (CLOCK_ROOT)    net (fo=3219, routed)        1.594     2.424    shift_reg_tap_o/clk_c
    SLICE_X73Y577        FDRE                                         r  shift_reg_tap_o/sr_p.sr_1[88]/C
  -------------------------------------------------------------------    -------------------
    SLICE_X73Y577        FDRE (Prop_CFF_SLICEL_C_Q)
                                                      0.070     2.494 f  shift_reg_tap_o/sr_p.sr_1[88]/Q
                         net (fo=1, routed)           0.113     2.607    shift_reg_tap_o/sr_1[88]
    SLICE_X75Y576        FDRE                                         f  shift_reg_tap_o/sr_p.sr_2[88]/D
  -------------------------------------------------------------------    -------------------

                         (clock clk rise edge)        0.000     0.000 r  
    AV33                                              0.000     0.000 r  clk (IN)
                         net (fo=0)                   0.000     0.000    clk_ibuf_iso/I
    AV33                 INBUF (Prop_INBUF_HPIOB_M_PAD_O)
                                                      0.779     0.779 r  clk_ibuf_iso/INBUF_INST/O
                         net (fo=1, routed)           0.000     0.779    clk_ibuf_iso/OUT
    AV33                 IBUFCTRL (Prop_IBUFCTRL_HPIOB_M_I_O)
                                                      0.000     0.779 r  clk_ibuf_iso/IBUFCTRL_INST/O
                         net (fo=1, routed)           0.334     1.113    clk_ibuf_iso
    BUFGCE_X1Y224        BUFGCE (Prop_BUFCE_BUFGCE_I_O)
                                                      0.028     1.141 r  clk_ibuf/O
    X2Y9 (CLOCK_ROOT)    net (fo=3219, routed)        1.822     2.963    shift_reg_tap_o/clk_c
    SLICE_X75Y576        FDRE                                         r  shift_reg_tap_o/sr_p.sr_2[88]/C
                         clock pessimism             -0.424     2.539    
    SLICE_X75Y576        FDRE (Hold_FFF_SLICEL_C_D)
                                                      0.053     2.592    shift_reg_tap_o/sr_p.sr_2[88]
  -------------------------------------------------------------------
                         required time                         -2.592    
                         arrival time                           2.607    
  -------------------------------------------------------------------
                         slack                                  0.015    

Slack (MET) :             0.016ns  (arrival time - required time)
  Source:                 shift_reg_tap_i/sr_p.sr_1[5]/C
                            (rising edge-triggered cell FDRE clocked by clk  {rise@0.000ns fall@1.563ns period=3.125ns})
  Destination:            shift_reg_tap_i/sr_p.sr_2[5]/D
                            (rising edge-triggered cell FDRE clocked by clk  {rise@0.000ns fall@1.563ns period=3.125ns})
  Path Group:             clk
  Path Type:              Hold (Min at Slow Process Corner)
  Requirement:            0.000ns  (clk rise@0.000ns - clk rise@0.000ns)
  Data Path Delay:        0.231ns  (logic 0.070ns (30.303%)  route 0.161ns (69.697%))
  Logic Levels:           0  
  Clock Path Skew:        0.162ns (DCD - SCD - CPR)
    Destination Clock Delay (DCD):    3.020ns
    Source Clock Delay      (SCD):    2.435ns
    Clock Pessimism Removal (CPR):    0.424ns
  Clock Net Delay (Source):      1.605ns (routing 0.794ns, distribution 0.811ns)
  Clock Net Delay (Destination): 1.879ns (routing 0.869ns, distribution 1.010ns)

    Location             Delay type                Incr(ns)  Path(ns)    Netlist Resource(s)
  -------------------------------------------------------------------    -------------------
                         (clock clk rise edge)        0.000     0.000 r  
    AV33                                              0.000     0.000 r  clk (IN)
                         net (fo=0)                   0.000     0.000    clk_ibuf_iso/I
    AV33                 INBUF (Prop_INBUF_HPIOB_M_PAD_O)
                                                      0.510     0.510 r  clk_ibuf_iso/INBUF_INST/O
                         net (fo=1, routed)           0.000     0.510    clk_ibuf_iso/OUT
    AV33                 IBUFCTRL (Prop_IBUFCTRL_HPIOB_M_I_O)
                                                      0.000     0.510 r  clk_ibuf_iso/IBUFCTRL_INST/O
                         net (fo=1, routed)           0.296     0.806    clk_ibuf_iso
    BUFGCE_X1Y224        BUFGCE (Prop_BUFCE_BUFGCE_I_O)
                                                      0.024     0.830 r  clk_ibuf/O
    X2Y9 (CLOCK_ROOT)    net (fo=3219, routed)        1.605     2.435    shift_reg_tap_i/clk_c
    SLICE_X83Y594        FDRE                                         r  shift_reg_tap_i/sr_p.sr_1[5]/C
  -------------------------------------------------------------------    -------------------
    SLICE_X83Y594        FDRE (Prop_GFF_SLICEL_C_Q)
                                                      0.070     2.505 r  shift_reg_tap_i/sr_p.sr_1[5]/Q
                         net (fo=1, routed)           0.161     2.666    shift_reg_tap_i/sr_1[5]
    SLICE_X81Y594        FDRE                                         r  shift_reg_tap_i/sr_p.sr_2[5]/D
  -------------------------------------------------------------------    -------------------

                         (clock clk rise edge)        0.000     0.000 r  
    AV33                                              0.000     0.000 r  clk (IN)
                         net (fo=0)                   0.000     0.000    clk_ibuf_iso/I
    AV33                 INBUF (Prop_INBUF_HPIOB_M_PAD_O)
                                                      0.779     0.779 r  clk_ibuf_iso/INBUF_INST/O
                         net (fo=1, routed)           0.000     0.779    clk_ibuf_iso/OUT
    AV33                 IBUFCTRL (Prop_IBUFCTRL_HPIOB_M_I_O)
                                                      0.000     0.779 r  clk_ibuf_iso/IBUFCTRL_INST/O
                         net (fo=1, routed)           0.334     1.113    clk_ibuf_iso
    BUFGCE_X1Y224        BUFGCE (Prop_BUFCE_BUFGCE_I_O)
                                                      0.028     1.141 r  clk_ibuf/O
    X2Y9 (CLOCK_ROOT)    net (fo=3219, routed)        1.879     3.020    shift_reg_tap_i/clk_c
    SLICE_X81Y594        FDRE                                         r  shift_reg_tap_i/sr_p.sr_2[5]/C
                         clock pessimism             -0.424     2.597    
    SLICE_X81Y594        FDRE (Hold_FFF_SLICEM_C_D)
                                                      0.053     2.650    shift_reg_tap_i/sr_p.sr_2[5]
  -------------------------------------------------------------------
                         required time                         -2.650    
                         arrival time                           2.666    
  -------------------------------------------------------------------
                         slack                                  0.016    

Slack (MET) :             0.016ns  (arrival time - required time)
  Source:                 shift_reg_tap_i/sr_p.sr_1[5]/C
                            (rising edge-triggered cell FDRE clocked by clk  {rise@0.000ns fall@1.563ns period=3.125ns})
  Destination:            shift_reg_tap_i/sr_p.sr_2[5]/D
                            (rising edge-triggered cell FDRE clocked by clk  {rise@0.000ns fall@1.563ns period=3.125ns})
  Path Group:             clk
  Path Type:              Hold (Min at Slow Process Corner)
  Requirement:            0.000ns  (clk rise@0.000ns - clk rise@0.000ns)
  Data Path Delay:        0.231ns  (logic 0.070ns (30.303%)  route 0.161ns (69.697%))
  Logic Levels:           0  
  Clock Path Skew:        0.162ns (DCD - SCD - CPR)
    Destination Clock Delay (DCD):    3.020ns
    Source Clock Delay      (SCD):    2.435ns
    Clock Pessimism Removal (CPR):    0.424ns
  Clock Net Delay (Source):      1.605ns (routing 0.794ns, distribution 0.811ns)
  Clock Net Delay (Destination): 1.879ns (routing 0.869ns, distribution 1.010ns)

    Location             Delay type                Incr(ns)  Path(ns)    Netlist Resource(s)
  -------------------------------------------------------------------    -------------------
                         (clock clk rise edge)        0.000     0.000 r  
    AV33                                              0.000     0.000 r  clk (IN)
                         net (fo=0)                   0.000     0.000    clk_ibuf_iso/I
    AV33                 INBUF (Prop_INBUF_HPIOB_M_PAD_O)
                                                      0.510     0.510 r  clk_ibuf_iso/INBUF_INST/O
                         net (fo=1, routed)           0.000     0.510    clk_ibuf_iso/OUT
    AV33                 IBUFCTRL (Prop_IBUFCTRL_HPIOB_M_I_O)
                                                      0.000     0.510 r  clk_ibuf_iso/IBUFCTRL_INST/O
                         net (fo=1, routed)           0.296     0.806    clk_ibuf_iso
    BUFGCE_X1Y224        BUFGCE (Prop_BUFCE_BUFGCE_I_O)
                                                      0.024     0.830 r  clk_ibuf/O
    X2Y9 (CLOCK_ROOT)    net (fo=3219, routed)        1.605     2.435    shift_reg_tap_i/clk_c
    SLICE_X83Y594        FDRE                                         r  shift_reg_tap_i/sr_p.sr_1[5]/C
  -------------------------------------------------------------------    -------------------
    SLICE_X83Y594        FDRE (Prop_GFF_SLICEL_C_Q)
                                                      0.070     2.505 f  shift_reg_tap_i/sr_p.sr_1[5]/Q
                         net (fo=1, routed)           0.161     2.666    shift_reg_tap_i/sr_1[5]
    SLICE_X81Y594        FDRE                                         f  shift_reg_tap_i/sr_p.sr_2[5]/D
  -------------------------------------------------------------------    -------------------

                         (clock clk rise edge)        0.000     0.000 r  
    AV33                                              0.000     0.000 r  clk (IN)
                         net (fo=0)                   0.000     0.000    clk_ibuf_iso/I
    AV33                 INBUF (Prop_INBUF_HPIOB_M_PAD_O)
                                                      0.779     0.779 r  clk_ibuf_iso/INBUF_INST/O
                         net (fo=1, routed)           0.000     0.779    clk_ibuf_iso/OUT
    AV33                 IBUFCTRL (Prop_IBUFCTRL_HPIOB_M_I_O)
                                                      0.000     0.779 r  clk_ibuf_iso/IBUFCTRL_INST/O
                         net (fo=1, routed)           0.334     1.113    clk_ibuf_iso
    BUFGCE_X1Y224        BUFGCE (Prop_BUFCE_BUFGCE_I_O)
                                                      0.028     1.141 r  clk_ibuf/O
    X2Y9 (CLOCK_ROOT)    net (fo=3219, routed)        1.879     3.020    shift_reg_tap_i/clk_c
    SLICE_X81Y594        FDRE                                         r  shift_reg_tap_i/sr_p.sr_2[5]/C
                         clock pessimism             -0.424     2.597    
    SLICE_X81Y594        FDRE (Hold_FFF_SLICEM_C_D)
                                                      0.053     2.650    shift_reg_tap_i/sr_p.sr_2[5]
  -------------------------------------------------------------------
                         required time                         -2.650    
                         arrival time                           2.666    
  -------------------------------------------------------------------
                         slack                                  0.016    

Slack (MET) :             0.019ns  (arrival time - required time)
  Source:                 shift_reg_tap_i/sr_p.sr_1[217]/C
                            (rising edge-triggered cell FDRE clocked by clk  {rise@0.000ns fall@1.563ns period=3.125ns})
  Destination:            shift_reg_tap_i/sr_p.sr_2[217]/D
                            (rising edge-triggered cell FDRE clocked by clk  {rise@0.000ns fall@1.563ns period=3.125ns})
  Path Group:             clk
  Path Type:              Hold (Min at Fast Process Corner)
  Requirement:            0.000ns  (clk rise@0.000ns - clk rise@0.000ns)
  Data Path Delay:        0.072ns  (logic 0.039ns (54.167%)  route 0.033ns (45.833%))
  Logic Levels:           0  
  Clock Path Skew:        0.006ns (DCD - SCD - CPR)
    Destination Clock Delay (DCD):    1.810ns
    Source Clock Delay      (SCD):    1.470ns
    Clock Pessimism Removal (CPR):    0.334ns
  Clock Net Delay (Source):      0.924ns (routing 0.446ns, distribution 0.478ns)
  Clock Net Delay (Destination): 1.038ns (routing 0.488ns, distribution 0.550ns)

    Location             Delay type                Incr(ns)  Path(ns)    Netlist Resource(s)
  -------------------------------------------------------------------    -------------------
                         (clock clk rise edge)        0.000     0.000 r  
    AV33                                              0.000     0.000 r  clk (IN)
                         net (fo=0)                   0.000     0.000    clk_ibuf_iso/I
    AV33                 INBUF (Prop_INBUF_HPIOB_M_PAD_O)
                                                      0.385     0.385 r  clk_ibuf_iso/INBUF_INST/O
                         net (fo=1, routed)           0.000     0.385    clk_ibuf_iso/OUT
    AV33                 IBUFCTRL (Prop_IBUFCTRL_HPIOB_M_I_O)
                                                      0.000     0.385 r  clk_ibuf_iso/IBUFCTRL_INST/O
                         net (fo=1, routed)           0.144     0.529    clk_ibuf_iso
    BUFGCE_X1Y224        BUFGCE (Prop_BUFCE_BUFGCE_I_O)
                                                      0.017     0.546 r  clk_ibuf/O
    X2Y9 (CLOCK_ROOT)    net (fo=3219, routed)        0.924     1.470    shift_reg_tap_i/clk_c
    SLICE_X83Y593        FDRE                                         r  shift_reg_tap_i/sr_p.sr_1[217]/C
  -------------------------------------------------------------------    -------------------
    SLICE_X83Y593        FDRE (Prop_AFF_SLICEL_C_Q)
                                                      0.039     1.509 r  shift_reg_tap_i/sr_p.sr_1[217]/Q
                         net (fo=1, routed)           0.033     1.542    shift_reg_tap_i/sr_1[217]
    SLICE_X83Y593        FDRE                                         r  shift_reg_tap_i/sr_p.sr_2[217]/D
  -------------------------------------------------------------------    -------------------

                         (clock clk rise edge)        0.000     0.000 r  
    AV33                                              0.000     0.000 r  clk (IN)
                         net (fo=0)                   0.000     0.000    clk_ibuf_iso/I
    AV33                 INBUF (Prop_INBUF_HPIOB_M_PAD_O)
                                                      0.572     0.572 r  clk_ibuf_iso/INBUF_INST/O
                         net (fo=1, routed)           0.000     0.572    clk_ibuf_iso/OUT
    AV33                 IBUFCTRL (Prop_IBUFCTRL_HPIOB_M_I_O)
                                                      0.000     0.572 r  clk_ibuf_iso/IBUFCTRL_INST/O
                         net (fo=1, routed)           0.181     0.753    clk_ibuf_iso
    BUFGCE_X1Y224        BUFGCE (Prop_BUFCE_BUFGCE_I_O)
                                                      0.019     0.772 r  clk_ibuf/O
    X2Y9 (CLOCK_ROOT)    net (fo=3219, routed)        1.038     1.810    shift_reg_tap_i/clk_c
    SLICE_X83Y593        FDRE                                         r  shift_reg_tap_i/sr_p.sr_2[217]/C
                         clock pessimism             -0.334     1.476    
    SLICE_X83Y593        FDRE (Hold_CFF2_SLICEL_C_D)
                                                      0.047     1.523    shift_reg_tap_i/sr_p.sr_2[217]
  -------------------------------------------------------------------
                         required time                         -1.523    
                         arrival time                           1.542    
  -------------------------------------------------------------------
                         slack                                  0.019    





Pulse Width Checks
--------------------------------------------------------------------------------------
Clock Name:         clk
Waveform(ns):       { 0.000 1.563 }
Period(ns):         3.125
Sources:            { clk }

Check Type        Corner  Lib Pin   Reference Pin  Required(ns)  Actual(ns)  Slack(ns)  Location       Pin
Min Period        n/a     BUFGCE/I  n/a            1.499         3.125       1.626      BUFGCE_X1Y224  clk_ibuf/I
Min Period        n/a     FDRE/C    n/a            0.550         3.125       2.575      SLICE_X67Y555  muon_cand_4.roi[0]/C
Min Period        n/a     FDRE/C    n/a            0.550         3.125       2.575      SLICE_X66Y555  muon_cand_4.roi[1]/C
Min Period        n/a     FDRE/C    n/a            0.550         3.125       2.575      SLICE_X67Y553  muon_cand_4.roi[2]/C
Min Period        n/a     FDRE/C    n/a            0.550         3.125       2.575      SLICE_X65Y566  muon_cand_4.roi[3]/C
Low Pulse Width   Slow    FDRE/C    n/a            0.275         1.562       1.287      SLICE_X67Y555  muon_cand_4.roi[0]/C
Low Pulse Width   Fast    FDRE/C    n/a            0.275         1.562       1.287      SLICE_X82Y581  muon_sorter_1/sr_p.sr_1_15.pt_ret_2715/C
Low Pulse Width   Slow    FDRE/C    n/a            0.275         1.562       1.287      SLICE_X63Y568  muon_sorter_1/sr_p.sr_2_1.roi[1]/C
Low Pulse Width   Fast    FDRE/C    n/a            0.275         1.562       1.287      SLICE_X66Y553  muon_sorter_1/sr_p.sr_2_10.pt[2]/C
Low Pulse Width   Fast    FDRE/C    n/a            0.275         1.562       1.287      SLICE_X72Y563  muon_sorter_1/sr_p.sr_2_14.roi_ret_46/C
High Pulse Width  Slow    FDRE/C    n/a            0.275         1.563       1.288      SLICE_X74Y557  muon_cand_4.roi[6]/C
High Pulse Width  Slow    FDRE/C    n/a            0.275         1.563       1.288      SLICE_X74Y558  muon_cand_4.roi[7]/C
High Pulse Width  Slow    FDRE/C    n/a            0.275         1.563       1.288      SLICE_X71Y559  muon_cand_4.sector[0]/C
High Pulse Width  Slow    FDRE/C    n/a            0.275         1.563       1.288      SLICE_X73Y560  muon_cand_4.sector[2]/C
High Pulse Width  Slow    FDRE/C    n/a            0.275         1.563       1.288      SLICE_X65Y590  muon_cand_5.pt_1_rep1/C



---------------------------------------------------------------------------------------------------
From Clock:  clk_wrapper
  To Clock:  clk_wrapper

Setup :           NA  Failing Endpoints,  Worst Slack           NA  ,  Total Violation           NA
Hold  :           NA  Failing Endpoints,  Worst Slack           NA  ,  Total Violation           NA
PW    :            0  Failing Endpoints,  Worst Slack      498.562ns,  Total Violation        0.000ns
---------------------------------------------------------------------------------------------------


Pulse Width Checks
--------------------------------------------------------------------------------------
Clock Name:         clk_wrapper
Waveform(ns):       { 0.000 500.000 }
Period(ns):         1000.000
Sources:            { clk_wrapper }

Check Type        Corner  Lib Pin   Reference Pin  Required(ns)  Actual(ns)  Slack(ns)  Location               Pin
Min Period        n/a     FDRE/C    n/a            3.195         1000.000    996.805    BITSLICE_RX_TX_X1Y483  reducer_1/delay_block[4][0]/C
Min Period        n/a     BUFGCE/I  n/a            1.499         1000.000    998.501    BUFGCE_X1Y230          clk_wrapper_ibuf/I
Min Period        n/a     FDRE/C    n/a            0.550         1000.000    999.450    SLICE_X85Y579          lsfr_1/output_vector_1[255]/C
Min Period        n/a     FDRE/C    n/a            0.550         1000.000    999.450    SLICE_X84Y591          lsfr_1/shiftreg_vector[0]/C
Min Period        n/a     FDRE/C    n/a            0.550         1000.000    999.450    SLICE_X67Y551          lsfr_1/shiftreg_vector[100]/C
Low Pulse Width   Slow    FDRE/C    n/a            1.438         500.000     498.562    BITSLICE_RX_TX_X1Y483  reducer_1/delay_block[4][0]/C
Low Pulse Width   Fast    FDRE/C    n/a            1.438         500.000     498.562    BITSLICE_RX_TX_X1Y483  reducer_1/delay_block[4][0]/C
Low Pulse Width   Slow    FDRE/C    n/a            0.275         500.000     499.725    SLICE_X68Y546          reducer_1/delay_block[2][2]/C
Low Pulse Width   Slow    FDRE/C    n/a            0.275         500.000     499.725    SLICE_X64Y557          reducer_1/delay_block[3][0]/C
Low Pulse Width   Slow    FDRE/C    n/a            0.275         500.000     499.725    SLICE_X67Y595          lsfr_1/shiftreg_vector[134]/C
High Pulse Width  Fast    FDRE/C    n/a            1.438         500.000     498.562    BITSLICE_RX_TX_X1Y483  reducer_1/delay_block[4][0]/C
High Pulse Width  Slow    FDRE/C    n/a            1.438         500.000     498.562    BITSLICE_RX_TX_X1Y483  reducer_1/delay_block[4][0]/C
High Pulse Width  Fast    FDRE/C    n/a            0.275         500.000     499.725    SLICE_X84Y591          lsfr_1/shiftreg_vector[0]/C
High Pulse Width  Fast    FDRE/C    n/a            0.275         500.000     499.725    SLICE_X67Y551          lsfr_1/shiftreg_vector[100]/C
High Pulse Width  Fast    FDRE/C    n/a            0.275         500.000     499.725    SLICE_X67Y551          lsfr_1/shiftreg_vector[101]/C



