Copyright 1986-2018 Xilinx, Inc. All Rights Reserved.
------------------------------------------------------------------------------------
| Tool Version : Vivado v.2018.2 (win64) Build 2258646 Thu Jun 14 20:03:12 MDT 2018
| Date         : Tue Mar 12 00:12:03 2019
| Host         : PCPHESEBE02 running 64-bit Service Pack 1  (build 7601)
| Command      : report_high_fanout_nets -file fanout.txt -max_nets 200
| Design       : wrapper_csn
| Device       : xcvu9p
------------------------------------------------------------------------------------

High Fan-out Nets Information

1. Summary
----------

+-------------------------------------------------------------------------+--------+-------------+
| Net Name                                                                | Fanout | Driver Type |
+-------------------------------------------------------------------------+--------+-------------+
| dut_inst/stage_g.10.pair_g.6.csn_cmp_inst/un1_b_i_80                    |     40 | LUT5        |
| dut_inst/stage_g.10.pair_g.1.csn_cmp_inst/un1_b_i_91                    |     38 | LUT6        |
| dut_inst/pt_o_0[3]                                                      |     37 | FDRE        |
| dut_inst/pt_o_2[3]                                                      |     37 | FDRE        |
| dut_inst/un1_b_i_o_o_1                                                  |     35 | FDRE        |
| dut_inst/pt_o_38[3]                                                     |     34 | FDRE        |
| dut_inst/pt_o_6[3]                                                      |     34 | FDRE        |
| dut_inst/stage_g.8.pair_g.0.csn_cmp_inst/un1_b_i_84                     |     34 | LUT5        |
| dut_inst/un1_b_i_o_o                                                    |     33 | FDRE        |
| dut_inst/un1_b_i_o_o_18                                                 |     33 | FDRE        |
| dut_inst/stage_g.9.pair_g.8.csn_cmp_inst/un1_b_i_104                    |     32 | LUT5        |
| dut_inst/stage_g.8.pair_g.1.csn_cmp_inst/un1_b_i_100                    |     31 | LUT5        |
| dut_inst/stage_g.8.pair_g.7.csn_cmp_inst/un1_b_i_95                     |     31 | LUT5        |
| dut_inst/un1_b_i_o_o_28                                                 |     31 | FDRE        |
| dut_inst/un1_b_i_o_o_47                                                 |     31 | FDRE        |
| dut_inst/pt_o_3[3]                                                      |     30 | FDRE        |
| dut_inst/pt_o_4[3]                                                      |     30 | FDRE        |
| dut_inst/stage_g.8.pair_g.5.csn_cmp_inst/un1_b_i_94                     |     30 | FDRE        |
| dut_inst/un1_b_i_o_o_23                                                 |     30 | FDRE        |
| dut_inst/un1_b_i_o_o_34                                                 |     30 | FDRE        |
| dut_inst/un1_b_i_o_o_43                                                 |     30 | FDRE        |
| dut_inst/pt_o_13[3]                                                     |     29 | FDRE        |
| dut_inst/pt_o_19[3]                                                     |     29 | FDRE        |
| dut_inst/pt_o_31[3]                                                     |     29 | FDRE        |
| dut_inst/pt_o_32[3]                                                     |     29 | FDRE        |
| dut_inst/un1_b_i_o_o_53                                                 |     29 | FDRE        |
| dut_inst/pt_o[3]                                                        |     28 | FDRE        |
| dut_inst/pt_o_1[3]                                                      |     28 | FDRE        |
| dut_inst/pt_ret_13_fast                                                 |     28 | FDRE        |
| dut_inst/stage_g.8.pair_g.3.csn_cmp_inst/un1_b_i_101                    |     28 | FDRE        |
| dut_inst/un1_b_i_o_o_19                                                 |     28 | FDRE        |
| shift_reg_tap_i/input_slr[68]                                           |     28 | FDRE        |
| dut_inst/pt_o_8[3]                                                      |     27 | FDRE        |
| dut_inst/pt_o_9[3]                                                      |     27 | FDRE        |
| dut_inst/stage_g.10.pair_g.7.csn_cmp_inst/un1_b_i_98                    |     27 | LUT6        |
| dut_inst/stage_g.8.pair_g.2.csn_cmp_inst/un1_b_i_86                     |     27 | LUT5        |
| dut_inst/stage_g.8.pair_g.4.csn_cmp_inst/un1_b_i_102                    |     27 | FDRE        |
| dut_inst/un1_b_i_o_o_14                                                 |     27 | FDRE        |
| dut_inst/un1_b_i_o_o_16                                                 |     27 | FDRE        |
| dut_inst/un1_b_i_o_o_31                                                 |     27 | FDRE        |
| dut_inst/un1_b_i_o_o_37                                                 |     27 | FDRE        |
| dut_inst/un1_b_i_o_o_39                                                 |     27 | FDRE        |
| dut_inst/un1_b_i_o_o_50                                                 |     27 | FDRE        |
| dut_inst/un1_b_i_o_o_8                                                  |     27 | FDRE        |
| shift_reg_tap_i/input_slr[55]                                           |     27 | FDRE        |
| dut_inst/pt_o_29[3]                                                     |     26 | FDRE        |
| dut_inst/pt_o_35[3]                                                     |     26 | FDRE        |
| dut_inst/stage_g.8.pair_g.6.csn_cmp_inst/un1_b_i_85                     |     26 | LUT5        |
| dut_inst/stage_g.9.pair_g.3.csn_cmp_inst/un1_b_i_81                     |     26 | LUT6        |
| dut_inst/un1_b_i_o_o_22                                                 |     26 | FDRE        |
| dut_inst/un1_b_i_o_o_24                                                 |     26 | FDRE        |
| dut_inst/un1_b_i_o_o_33                                                 |     26 | FDRE        |
| dut_inst/un1_b_i_o_o_5                                                  |     26 | FDRE        |
| dut_inst/un1_b_i_o_o_61                                                 |     26 | FDRE        |
| dut_inst/pt_o_34[3]                                                     |     25 | FDRE        |
| dut_inst/stage_g.10.pair_g.3.csn_cmp_inst/un1_b_i_92                    |     25 | LUT5        |
| dut_inst/stage_g.9.pair_g.1.csn_cmp_inst/un1_b_i_90                     |     25 | LUT6        |
| dut_inst/un1_b_i_o_o_20                                                 |     25 | FDRE        |
| dut_inst/un1_b_i_o_o_30                                                 |     25 | FDRE        |
| dut_inst/un1_b_i_o_o_51                                                 |     25 | FDRE        |
| dut_inst/pt_o_14[3]                                                     |     24 | FDRE        |
| dut_inst/pt_o_15[3]                                                     |     24 | FDRE        |
| dut_inst/stage_g.11.pair_g.6.csn_cmp_inst/un1_b_i_ac0_5_0_0_0           |     24 | LUT6        |
| dut_inst/stage_g.11.pair_g.6.csn_cmp_inst/un1_b_i_ac0_5_d_0             |     24 | LUT6        |
| dut_inst/un1_b_i_o_o_11                                                 |     24 | FDRE        |
| dut_inst/un1_b_i_o_o_12                                                 |     24 | FDRE        |
| dut_inst/un1_b_i_o_o_40                                                 |     24 | FDRE        |
| dut_inst/un1_b_i_o_o_69                                                 |     24 | FDRE        |
| dut_inst/un1_b_i_o_o_7                                                  |     24 | FDRE        |
| dut_inst/pt_o_22[3]                                                     |     23 | FDRE        |
| dut_inst/pt_o_25[3]                                                     |     23 | FDRE        |
| dut_inst/stage_g.10.pair_g.0.csn_cmp_inst/un1_b_i_97                    |     23 | LUT6        |
| dut_inst/un1_b_i_o_o_17                                                 |     23 | FDRE        |
| dut_inst/un1_b_i_o_o_29                                                 |     23 | FDRE        |
| dut_inst/un1_b_i_o_o_41                                                 |     23 | FDRE        |
| dut_inst/un1_b_i_o_o_42                                                 |     23 | FDRE        |
| dut_inst/un1_b_i_o_o_44                                                 |     23 | FDRE        |
| dut_inst/un1_b_i_o_o_46                                                 |     23 | FDRE        |
| dut_inst/un1_b_i_o_o_78                                                 |     23 | FDRE        |
| shift_reg_tap_i/input_slr[237]                                          |     23 | FDRE        |
| shift_reg_tap_i/input_slr[250]                                          |     23 | FDRE        |
| dut_inst/pt_o_23[3]                                                     |     22 | FDRE        |
| dut_inst/pt_o_36[3]                                                     |     22 | FDRE        |
| dut_inst/stage_g.11.pair_g.0.csn_cmp_inst/un1_b_i_ac0_5_0_0_0           |     22 | LUT6        |
| dut_inst/stage_g.11.pair_g.0.csn_cmp_inst/un1_b_i_ac0_5_d_1             |     22 | LUT6        |
| dut_inst/stage_g.11.pair_g.3.csn_cmp_inst/un1_b_i_ac0_5_0               |     22 | LUT5        |
| dut_inst/un1_b_i_o_11                                                   |     22 | FDRE        |
| dut_inst/un1_b_i_o_o_15                                                 |     22 | FDRE        |
| dut_inst/un1_b_i_o_o_27                                                 |     22 | FDRE        |
| dut_inst/un1_b_i_o_o_49                                                 |     22 | FDRE        |
| dut_inst/un1_b_i_o_o_58                                                 |     22 | FDRE        |
| dut_inst/un1_b_i_o_o_59                                                 |     22 | FDRE        |
| dut_inst/un1_b_i_o_o_6                                                  |     22 | FDRE        |
| dut_inst/un1_b_i_o_o_63                                                 |     22 | FDRE        |
| dut_inst/pt_o_10[3]                                                     |     21 | FDRE        |
| dut_inst/pt_o_11[3]                                                     |     21 | FDRE        |
| dut_inst/pt_o_12[3]                                                     |     21 | FDRE        |
| dut_inst/pt_o_26[3]                                                     |     21 | FDRE        |
| dut_inst/pt_o_37[3]                                                     |     21 | FDRE        |
| dut_inst/pt_o_7[3]                                                      |     21 | FDRE        |
| dut_inst/stage_g.9.pair_g.0.csn_cmp_inst/un1_b_i_99                     |     21 | LUT5        |
| dut_inst/stage_g.9.pair_g.2.csn_cmp_inst/un1_b_i_83                     |     21 | LUT6        |
| dut_inst/stage_g.9.pair_g.4.csn_cmp_inst/un1_b_i_93                     |     21 | LUT6        |
| dut_inst/un1_b_i_o_9                                                    |     21 | FDRE        |
| dut_inst/un1_b_i_o_o_13                                                 |     21 | FDRE        |
| dut_inst/un1_b_i_o_o_35                                                 |     21 | FDRE        |
| dut_inst/un1_b_i_o_o_38                                                 |     21 | FDRE        |
| dut_inst/un1_b_i_o_o_4                                                  |     21 | FDRE        |
| dut_inst/un1_b_i_o_o_68                                                 |     21 | FDRE        |
| shift_reg_tap_i/input_slr[16]                                           |     21 | FDRE        |
| shift_reg_tap_i/input_slr[3]                                            |     21 | FDRE        |
| dut_inst/pt_o_16[3]                                                     |     20 | FDRE        |
| dut_inst/pt_o_24[3]                                                     |     20 | FDRE        |
| dut_inst/pt_o_5[3]                                                      |     20 | FDRE        |
| dut_inst/stage_g.9.pair_g.6.csn_cmp_inst/un1_b_i_89                     |     20 | LUT6        |
| dut_inst/stage_g.9.pair_g.7.csn_cmp_inst/un1_b_i_103                    |     20 | LUT6        |
| dut_inst/un1_b_i_o_13                                                   |     20 | FDRE        |
| dut_inst/un1_b_i_o_6                                                    |     20 | FDRE        |
| dut_inst/un1_b_i_o_7                                                    |     20 | FDRE        |
| dut_inst/un1_b_i_o_o_0                                                  |     20 | FDRE        |
| dut_inst/un1_b_i_o_o_2                                                  |     20 | FDRE        |
| dut_inst/un1_b_i_o_o_21                                                 |     20 | FDRE        |
| dut_inst/un1_b_i_o_o_26                                                 |     20 | FDRE        |
| dut_inst/un1_b_i_o_o_3                                                  |     20 | FDRE        |
| dut_inst/un1_b_i_o_o_36                                                 |     20 | FDRE        |
| shift_reg_tap_i/input_slr[159]                                          |     20 | FDRE        |
| shift_reg_tap_i/input_slr[172]                                          |     20 | FDRE        |
| shift_reg_tap_i/input_slr[263]                                          |     20 | FDRE        |
| shift_reg_tap_i/input_slr[276]                                          |     20 | FDRE        |
| dut_inst/stage_g.10.pair_g.5.csn_cmp_inst/un1_b_i_ac0_5_c_lut6_2_o6     |     19 | LUT4        |
| dut_inst/stage_g.10.pair_g.5.csn_cmp_inst/un1_b_i_ac0_5_d_0_lut6_2_o6_1 |     19 | LUT4        |
| dut_inst/stage_g.10.pair_g.5.csn_cmp_inst/un1_b_i_ac0_6                 |     19 | LUT6        |
| dut_inst/stage_g.9.pair_g.5.csn_cmp_inst/un1_b_i_88                     |     19 | LUT6        |
| dut_inst/un1_b_i_o                                                      |     19 | FDRE        |
| dut_inst/un1_b_i_o_0                                                    |     19 | FDRE        |
| dut_inst/un1_b_i_o_1                                                    |     19 | FDRE        |
| dut_inst/un1_b_i_o_10                                                   |     19 | FDRE        |
| dut_inst/un1_b_i_o_12                                                   |     19 | FDRE        |
| dut_inst/un1_b_i_o_8                                                    |     19 | FDRE        |
| dut_inst/un1_b_i_o_o_45                                                 |     19 | FDRE        |
| dut_inst/un1_b_i_o_o_48                                                 |     19 | FDRE        |
| dut_inst/un1_b_i_o_o_54                                                 |     19 | FDRE        |
| shift_reg_tap_i/input_slr[29]                                           |     19 | FDRE        |
| shift_reg_tap_i/input_slr[42]                                           |     19 | FDRE        |
| dut_inst/stage_g.11.pair_g.1.csn_cmp_inst/un1_b_i_ac0_5_0_1             |     18 | LUT6        |
| dut_inst/stage_g.11.pair_g.4.csn_cmp_inst/un1_b_i_ac0_5_0_0_lut6_2_o5   |     18 | LUT5        |
| dut_inst/stage_g.11.pair_g.5.csn_cmp_inst/un1_b_i_ac0_5_0_lut6_2_o6     |     18 | LUT3        |
| dut_inst/un1_b_i_o_o_10                                                 |     18 | FDRE        |
| dut_inst/un1_b_i_o_o_25                                                 |     18 | FDRE        |
| dut_inst/un1_b_i_o_o_32                                                 |     18 | FDRE        |
| dut_inst/un1_b_i_o_o_9                                                  |     18 | FDRE        |
| dut_inst/pt_o_30[3]                                                     |     17 | FDRE        |
| dut_inst/pt_o_33[3]                                                     |     17 | FDRE        |
| dut_inst/stage_g.4.pair_g.6.csn_cmp_inst/pt_3_0                         |     17 | LUT2        |
| dut_inst/un1_b_i_o_o_65                                                 |     17 | FDRE        |
| dut_inst/stage_g.10.pair_g.5.csn_cmp_inst/un1_b_i_c2_6                  |     16 | LUT6        |
| dut_inst/stage_g.11.pair_g.2.csn_cmp_inst/un1_b_i_ac0_5_0_lut6_2_o6_0   |     16 | LUT5        |
| dut_inst/un1_b_i_o_o_70                                                 |     16 | FDRE        |
| shift_reg_tap_i/input_slr[211]                                          |     16 | FDRE        |
| shift_reg_tap_i/input_slr[224]                                          |     16 | FDRE        |
| shift_reg_tap_i/input_slr[81]                                           |     16 | FDRE        |
| shift_reg_tap_i/input_slr[94]                                           |     16 | FDRE        |
| dut_inst/pt_o_20[3]                                                     |     15 | FDRE        |
| dut_inst/pt_o_21[3]                                                     |     15 | FDRE        |
| dut_inst/stage_g.10.pair_g.4.csn_cmp_inst/un1_b_i_96                    |     15 | LUT5        |
| dut_inst/stage_g.10.pair_g.5.csn_cmp_inst/un1_b_i_87                    |     15 | LUT6        |
| dut_inst/un1_b_i_o_o_75                                                 |     15 | FDRE        |
| shift_reg_tap_i/input_slr[107]                                          |     15 | FDRE        |
| shift_reg_tap_i/input_slr[120]                                          |     15 | FDRE        |
| dut_inst/stage_g.0.pair_g.4.csn_cmp_inst/un1_b_i_7                      |     14 | LUT5        |
| dut_inst/stage_g.10.pair_g.2.csn_cmp_inst/un1_b_i_ac0_5_0_0_lut6_2_o6   |     14 | LUT4        |
| dut_inst/stage_g.10.pair_g.2.csn_cmp_inst/un1_b_i_ac0_5_d_0_lut6_2_o6_0 |     14 | LUT4        |
| dut_inst/stage_g.10.pair_g.4.csn_cmp_inst/un1_b_i_ac0_5_0_0_lut6_2_o6_0 |     14 | LUT4        |
| dut_inst/stage_g.10.pair_g.4.csn_cmp_inst/un1_b_i_ac0_5_d_0_lut6_2_o6_2 |     14 | LUT4        |
| dut_inst/stage_g.2.pair_g.6.csn_cmp_inst/un1_b_i_23                     |     14 | LUT5        |
| dut_inst/stage_g.2.pair_g.8.csn_cmp_inst/un1_b_i_35                     |     14 | LUT6        |
| dut_inst/un1_b_i_o_o_60                                                 |     14 | FDRE        |
| dut_inst/un1_b_i_o_o_62                                                 |     14 | FDRE        |
| dut_inst/un1_b_i_o_o_74                                                 |     14 | FDRE        |
| dut_inst/pt_o_1[2]                                                      |     13 | FDRE        |
| dut_inst/stage_g.0.pair_g.10.csn_cmp_inst/un1_b_i_1                     |     13 | LUT5        |
| dut_inst/stage_g.1.pair_g.8.csn_cmp_inst/pt_82_0                        |     13 | LUT4        |
| dut_inst/stage_g.10.pair_g.2.csn_cmp_inst/un1_b_i_c2_2                  |     13 | LUT6        |
| dut_inst/stage_g.10.pair_g.4.csn_cmp_inst/un1_b_i_c2_13                 |     13 | LUT6        |
| dut_inst/un1_b_i_o_o_80                                                 |     13 | FDRE        |
| dut_inst/pt_o_2[2]                                                      |     12 | FDRE        |
| dut_inst/pt_o_5[2]                                                      |     12 | FDRE        |
| dut_inst/pt_o_6[2]                                                      |     12 | FDRE        |
| dut_inst/stage_g.0.pair_g.7.csn_cmp_inst/un1_b_i_10                     |     12 | LUT5        |
| dut_inst/stage_g.1.pair_g.6.csn_cmp_inst/un1_b_i_11                     |     12 | LUT6        |
| dut_inst/stage_g.10.pair_g.2.csn_cmp_inst/un1_b_i_82                    |     12 | LUT5        |
| dut_inst/stage_g.10.pair_g.3.csn_cmp_inst/un1_b_i_ac0_5_0_0_1           |     12 | LUT4        |
| dut_inst/stage_g.10.pair_g.3.csn_cmp_inst/un1_b_i_ac0_5_d_0_0           |     12 | LUT4        |
| dut_inst/stage_g.2.pair_g.7.csn_cmp_inst/un1_b_i_40                     |     12 | LUT5        |
| dut_inst/stage_g.4.pair_g.0.csn_cmp_inst/pt_4[3]                        |     12 | LUT4        |
| dut_inst/stage_g.4.pair_g.2.csn_cmp_inst/pt_5_0                         |     12 | LUT4        |
| dut_inst/stage_g.4.pair_g.8.csn_cmp_inst/pt_53_0                        |     12 | LUT4        |
| dut_inst/stage_g.5.pair_g.7.csn_cmp_inst/pt_46_0                        |     12 | LUT4        |
| dut_inst/stage_g.9.pair_g.5.csn_cmp_inst/pt_85_3                        |     12 | LUT4        |
| dut_inst/stage_g.9.pair_g.6.csn_cmp_inst/pt_84_0                        |     12 | LUT4        |
+-------------------------------------------------------------------------+--------+-------------+


