Copyright 1986-2018 Xilinx, Inc. All Rights Reserved.
------------------------------------------------------------------------------------
| Tool Version : Vivado v.2018.2 (win64) Build 2258646 Thu Jun 14 20:03:12 MDT 2018
| Date         : Mon Mar 11 17:50:41 2019
| Host         : PCPHESEBE02 running 64-bit Service Pack 1  (build 7601)
| Command      : report_utilization -hierarchical -file hier_utilization.txt
| Design       : wrapper_csn
| Device       : xcvu9pflgc2104-1
| Design State : Routed
------------------------------------------------------------------------------------

Utilization Design Information

Table of Contents
-----------------
1. Utilization by Hierarchy

1. Utilization by Hierarchy
---------------------------

+--------------------------------------+-------------------------------------------------------------------------+------------+------------+---------+------+------+--------+--------+------+--------------+
|               Instance               |                                  Module                                 | Total LUTs | Logic LUTs | LUTRAMs | SRLs |  FFs | RAMB36 | RAMB18 | URAM | DSP48 Blocks |
+--------------------------------------+-------------------------------------------------------------------------+------------+------------+---------+------+------+--------+--------+------+--------------+
| wrapper_csn                          |                                                                   (top) |       2850 |       2850 |       0 |    0 | 1692 |      0 |      0 |    0 |            0 |
|   (wrapper_csn)                      |                                                                   (top) |          1 |          1 |       0 |    0 |    0 |      0 |      0 |    0 |            0 |
|   dut_inst                           | muon_sorter_I022_O022_D001_CSN_VHDL_PT1BIT-freq280x400retfan10000_rev_1 |       2774 |       2774 |       0 |    0 |  738 |      0 |      0 |    0 |            0 |
|     (dut_inst)                       | muon_sorter_I022_O022_D001_CSN_VHDL_PT1BIT-freq280x400retfan10000_rev_1 |        139 |        139 |       0 |    0 |  164 |      0 |      0 |    0 |            0 |
|     stage_g.0.pair_g.0.csn_cmp_inst  |                                           csn_cmp_false_false_false_114 |          7 |          7 |       0 |    0 |    8 |      0 |      0 |    0 |            0 |
|     stage_g.0.pair_g.1.csn_cmp_inst  |                                            csn_cmp_false_false_false_19 |         16 |         16 |       0 |    0 |   10 |      0 |      0 |    0 |            0 |
|     stage_g.0.pair_g.10.csn_cmp_inst |                                            csn_cmp_false_false_false_93 |         17 |         17 |       0 |    0 |    8 |      0 |      0 |    0 |            0 |
|     stage_g.0.pair_g.2.csn_cmp_inst  |                                             csn_cmp_false_false_false_9 |          2 |          2 |       0 |    0 |    1 |      0 |      0 |    0 |            0 |
|     stage_g.0.pair_g.3.csn_cmp_inst  |                                            csn_cmp_false_false_false_98 |          5 |          5 |       0 |    0 |    5 |      0 |      0 |    0 |            0 |
|     stage_g.0.pair_g.4.csn_cmp_inst  |                                            csn_cmp_false_false_false_76 |         13 |         13 |       0 |    0 |    5 |      0 |      0 |    0 |            0 |
|     stage_g.0.pair_g.5.csn_cmp_inst  |                                            csn_cmp_false_false_false_79 |          8 |          8 |       0 |    0 |    5 |      0 |      0 |    0 |            0 |
|     stage_g.0.pair_g.6.csn_cmp_inst  |                                            csn_cmp_false_false_false_82 |         14 |         14 |       0 |    0 |    6 |      0 |      0 |    0 |            0 |
|     stage_g.0.pair_g.7.csn_cmp_inst  |                                            csn_cmp_false_false_false_84 |          7 |          7 |       0 |    0 |    4 |      0 |      0 |    0 |            0 |
|     stage_g.0.pair_g.8.csn_cmp_inst  |                                            csn_cmp_false_false_false_87 |         11 |         11 |       0 |    0 |    3 |      0 |      0 |    0 |            0 |
|     stage_g.0.pair_g.9.csn_cmp_inst  |                                            csn_cmp_false_false_false_90 |          5 |          5 |       0 |    0 |    4 |      0 |      0 |    0 |            0 |
|     stage_g.1.pair_g.0.csn_cmp_inst  |                                            csn_cmp_false_false_false_96 |         15 |         15 |       0 |    0 |   18 |      0 |      0 |    0 |            0 |
|     stage_g.1.pair_g.1.csn_cmp_inst  |                                           csn_cmp_false_false_false_107 |         19 |         19 |       0 |    0 |   17 |      0 |      0 |    0 |            0 |
|     stage_g.1.pair_g.10.csn_cmp_inst |                                           csn_cmp_false_false_false_110 |         17 |         17 |       0 |    0 |   17 |      0 |      0 |    0 |            0 |
|     stage_g.1.pair_g.2.csn_cmp_inst  |                                            csn_cmp_false_false_false_68 |         27 |         27 |       0 |    0 |   25 |      0 |      0 |    0 |            0 |
|     stage_g.1.pair_g.3.csn_cmp_inst  |                                            csn_cmp_false_false_false_22 |         20 |         20 |       0 |    0 |   18 |      0 |      0 |    0 |            0 |
|     stage_g.1.pair_g.4.csn_cmp_inst  |                                               csn_cmp_false_false_false |         21 |         21 |       0 |    0 |   18 |      0 |      0 |    0 |            0 |
|     stage_g.1.pair_g.5.csn_cmp_inst  |                                           csn_cmp_false_false_false_106 |         17 |         17 |       0 |    0 |   17 |      0 |      0 |    0 |            0 |
|     stage_g.1.pair_g.6.csn_cmp_inst  |                                             csn_cmp_false_false_false_6 |         20 |         20 |       0 |    0 |   18 |      0 |      0 |    0 |            0 |
|     stage_g.1.pair_g.7.csn_cmp_inst  |                                            csn_cmp_false_false_false_21 |         20 |         20 |       0 |    0 |   18 |      0 |      0 |    0 |            0 |
|     stage_g.1.pair_g.8.csn_cmp_inst  |                                            csn_cmp_false_false_false_11 |         19 |         19 |       0 |    0 |   18 |      0 |      0 |    0 |            0 |
|     stage_g.1.pair_g.9.csn_cmp_inst  |                                            csn_cmp_false_false_false_14 |         19 |         19 |       0 |    0 |   18 |      0 |      0 |    0 |            0 |
|     stage_g.10.pair_g.0.csn_cmp_inst |                                            csn_cmp_false_false_false_39 |         12 |         12 |       0 |    0 |    0 |      0 |      0 |    0 |            0 |
|     stage_g.10.pair_g.1.csn_cmp_inst |                                            csn_cmp_false_false_false_42 |          4 |          4 |       0 |    0 |    0 |      0 |      0 |    0 |            0 |
|     stage_g.10.pair_g.2.csn_cmp_inst |                                            csn_cmp_false_false_false_45 |         12 |         12 |       0 |    0 |    0 |      0 |      0 |    0 |            0 |
|     stage_g.10.pair_g.3.csn_cmp_inst |                                            csn_cmp_false_false_false_48 |          8 |          8 |       0 |    0 |    0 |      0 |      0 |    0 |            0 |
|     stage_g.10.pair_g.4.csn_cmp_inst |                                            csn_cmp_false_false_false_51 |         11 |         11 |       0 |    0 |    0 |      0 |      0 |    0 |            0 |
|     stage_g.10.pair_g.5.csn_cmp_inst |                                            csn_cmp_false_false_false_54 |         10 |         10 |       0 |    0 |    0 |      0 |      0 |    0 |            0 |
|     stage_g.10.pair_g.6.csn_cmp_inst |                                            csn_cmp_false_false_false_57 |          7 |          7 |       0 |    0 |    0 |      0 |      0 |    0 |            0 |
|     stage_g.10.pair_g.7.csn_cmp_inst |                                            csn_cmp_false_false_false_59 |         15 |         15 |       0 |    0 |    0 |      0 |      0 |    0 |            0 |
|     stage_g.11.pair_g.0.csn_cmp_inst |                                            csn_cmp_false_false_false_69 |         17 |         17 |       0 |    0 |    0 |      0 |      0 |    0 |            0 |
|     stage_g.11.pair_g.1.csn_cmp_inst |                                           csn_cmp_false_false_false_112 |         20 |         20 |       0 |    0 |    0 |      0 |      0 |    0 |            0 |
|     stage_g.11.pair_g.2.csn_cmp_inst |                                            csn_cmp_false_false_false_86 |         21 |         21 |       0 |    0 |    0 |      0 |      0 |    0 |            0 |
|     stage_g.11.pair_g.3.csn_cmp_inst |                                            csn_cmp_false_false_false_25 |         19 |         19 |       0 |    0 |    0 |      0 |      0 |    0 |            0 |
|     stage_g.11.pair_g.4.csn_cmp_inst |                                            csn_cmp_false_false_false_17 |         18 |         18 |       0 |    0 |    0 |      0 |      0 |    0 |            0 |
|     stage_g.11.pair_g.5.csn_cmp_inst |                                            csn_cmp_false_false_false_70 |         19 |         19 |       0 |    0 |    0 |      0 |      0 |    0 |            0 |
|     stage_g.11.pair_g.6.csn_cmp_inst |                                            csn_cmp_false_false_false_85 |         19 |         19 |       0 |    0 |    0 |      0 |      0 |    0 |            0 |
|     stage_g.2.pair_g.0.csn_cmp_inst  |                                             csn_cmp_false_false_false_8 |         38 |         38 |       0 |    0 |   21 |      0 |      0 |    0 |            0 |
|     stage_g.2.pair_g.1.csn_cmp_inst  |                                           csn_cmp_false_false_false_102 |         36 |         36 |       0 |    0 |   22 |      0 |      0 |    0 |            0 |
|     stage_g.2.pair_g.10.csn_cmp_inst |                                            csn_cmp_false_false_false_47 |         27 |         27 |       0 |    0 |   22 |      0 |      0 |    0 |            0 |
|     stage_g.2.pair_g.2.csn_cmp_inst  |                                             csn_cmp_false_false_false_1 |         22 |         22 |       0 |    0 |   16 |      0 |      0 |    0 |            0 |
|     stage_g.2.pair_g.3.csn_cmp_inst  |                                           csn_cmp_false_false_false_109 |         22 |         22 |       0 |    0 |   17 |      0 |      0 |    0 |            0 |
|     stage_g.2.pair_g.4.csn_cmp_inst  |                                            csn_cmp_false_false_false_31 |         26 |         26 |       0 |    0 |   17 |      0 |      0 |    0 |            0 |
|     stage_g.2.pair_g.5.csn_cmp_inst  |                                            csn_cmp_false_false_false_34 |         39 |         39 |       0 |    0 |   21 |      0 |      0 |    0 |            0 |
|     stage_g.2.pair_g.6.csn_cmp_inst  |                                            csn_cmp_false_false_false_36 |         29 |         29 |       0 |    0 |   24 |      0 |      0 |    0 |            0 |
|     stage_g.2.pair_g.7.csn_cmp_inst  |                                            csn_cmp_false_false_false_38 |         26 |         26 |       0 |    0 |   15 |      0 |      0 |    0 |            0 |
|     stage_g.2.pair_g.8.csn_cmp_inst  |                                            csn_cmp_false_false_false_41 |         31 |         31 |       0 |    0 |   22 |      0 |      0 |    0 |            0 |
|     stage_g.2.pair_g.9.csn_cmp_inst  |                                            csn_cmp_false_false_false_44 |         40 |         40 |       0 |    0 |   23 |      0 |      0 |    0 |            0 |
|     stage_g.3.pair_g.0.csn_cmp_inst  |                                            csn_cmp_false_false_false_50 |          2 |          2 |       0 |    0 |    0 |      0 |      0 |    0 |            0 |
|     stage_g.3.pair_g.2.csn_cmp_inst  |                                            csn_cmp_false_false_false_56 |          3 |          3 |       0 |    0 |    0 |      0 |      0 |    0 |            0 |
|     stage_g.3.pair_g.3.csn_cmp_inst  |                                            csn_cmp_false_false_false_58 |         17 |         17 |       0 |    0 |    3 |      0 |      0 |    0 |            0 |
|     stage_g.3.pair_g.4.csn_cmp_inst  |                                            csn_cmp_false_false_false_61 |         39 |         39 |       0 |    0 |   11 |      0 |      0 |    0 |            0 |
|     stage_g.3.pair_g.5.csn_cmp_inst  |                                            csn_cmp_false_false_false_63 |         10 |         10 |       0 |    0 |    0 |      0 |      0 |    0 |            0 |
|     stage_g.3.pair_g.6.csn_cmp_inst  |                                            csn_cmp_false_false_false_65 |         13 |         13 |       0 |    0 |    3 |      0 |      0 |    0 |            0 |
|     stage_g.3.pair_g.7.csn_cmp_inst  |                                            csn_cmp_false_false_false_67 |         10 |         10 |       0 |    0 |    1 |      0 |      0 |    0 |            0 |
|     stage_g.3.pair_g.8.csn_cmp_inst  |                                            csn_cmp_false_false_false_18 |         20 |         20 |       0 |    0 |    0 |      0 |      0 |    0 |            0 |
|     stage_g.3.pair_g.9.csn_cmp_inst  |                                            csn_cmp_false_false_false_24 |         12 |         12 |       0 |    0 |    0 |      0 |      0 |    0 |            0 |
|     stage_g.4.pair_g.0.csn_cmp_inst  |                                            csn_cmp_false_false_false_75 |         11 |         11 |       0 |    0 |    0 |      0 |      0 |    0 |            0 |
|     stage_g.4.pair_g.1.csn_cmp_inst  |                                            csn_cmp_false_false_false_78 |         10 |         10 |       0 |    0 |    0 |      0 |      0 |    0 |            0 |
|     stage_g.4.pair_g.2.csn_cmp_inst  |                                            csn_cmp_false_false_false_81 |         16 |         16 |       0 |    0 |    2 |      0 |      0 |    0 |            0 |
|     stage_g.4.pair_g.4.csn_cmp_inst  |                                            csn_cmp_false_false_false_71 |          1 |          1 |       0 |    0 |    0 |      0 |      0 |    0 |            0 |
|     stage_g.4.pair_g.7.csn_cmp_inst  |                                            csn_cmp_false_false_false_95 |         19 |         19 |       0 |    0 |    4 |      0 |      0 |    0 |            0 |
|     stage_g.4.pair_g.8.csn_cmp_inst  |                                             csn_cmp_false_false_false_4 |          1 |          1 |       0 |    0 |    0 |      0 |      0 |    0 |            0 |
|     stage_g.5.pair_g.0.csn_cmp_inst  |                                           csn_cmp_false_false_false_105 |         36 |         36 |       0 |    0 |    1 |      0 |      0 |    0 |            0 |
|     stage_g.5.pair_g.1.csn_cmp_inst  |                                            csn_cmp_false_false_false_16 |         54 |         54 |       0 |    0 |    8 |      0 |      0 |    0 |            0 |
|     stage_g.5.pair_g.2.csn_cmp_inst  |                                             csn_cmp_false_false_false_5 |        153 |        153 |       0 |    0 |   13 |      0 |      0 |    0 |            0 |
|     stage_g.5.pair_g.3.csn_cmp_inst  |                                            csn_cmp_false_false_false_20 |        124 |        124 |       0 |    0 |    1 |      0 |      0 |    0 |            0 |
|     stage_g.5.pair_g.4.csn_cmp_inst  |                                            csn_cmp_false_false_false_28 |        121 |        121 |       0 |    0 |    9 |      0 |      0 |    0 |            0 |
|     stage_g.5.pair_g.5.csn_cmp_inst  |                                            csn_cmp_false_false_false_13 |        115 |        115 |       0 |    0 |    0 |      0 |      0 |    0 |            0 |
|     stage_g.5.pair_g.6.csn_cmp_inst  |                                             csn_cmp_false_false_false_0 |        117 |        117 |       0 |    0 |    2 |      0 |      0 |    0 |            0 |
|     stage_g.5.pair_g.7.csn_cmp_inst  |                                           csn_cmp_false_false_false_113 |        111 |        111 |       0 |    0 |    4 |      0 |      0 |    0 |            0 |
|     stage_g.5.pair_g.8.csn_cmp_inst  |                                           csn_cmp_false_false_false_101 |        111 |        111 |       0 |    0 |    8 |      0 |      0 |    0 |            0 |
|     stage_g.5.pair_g.9.csn_cmp_inst  |                                            csn_cmp_false_false_false_73 |        112 |        112 |       0 |    0 |    2 |      0 |      0 |    0 |            0 |
|     stage_g.6.pair_g.0.csn_cmp_inst  |                                            csn_cmp_false_false_false_30 |         14 |         14 |       0 |    0 |    0 |      0 |      0 |    0 |            0 |
|     stage_g.6.pair_g.1.csn_cmp_inst  |                                            csn_cmp_false_false_false_33 |         30 |         30 |       0 |    0 |    0 |      0 |      0 |    0 |            0 |
|     stage_g.6.pair_g.2.csn_cmp_inst  |                                            csn_cmp_false_false_false_35 |         11 |         11 |       0 |    0 |    0 |      0 |      0 |    0 |            0 |
|     stage_g.6.pair_g.3.csn_cmp_inst  |                                            csn_cmp_false_false_false_37 |         10 |         10 |       0 |    0 |    0 |      0 |      0 |    0 |            0 |
|     stage_g.6.pair_g.4.csn_cmp_inst  |                                            csn_cmp_false_false_false_40 |         13 |         13 |       0 |    0 |    0 |      0 |      0 |    0 |            0 |
|     stage_g.6.pair_g.5.csn_cmp_inst  |                                            csn_cmp_false_false_false_43 |         12 |         12 |       0 |    0 |    9 |      0 |      0 |    0 |            0 |
|     stage_g.6.pair_g.6.csn_cmp_inst  |                                            csn_cmp_false_false_false_46 |         11 |         11 |       0 |    0 |    7 |      0 |      0 |    0 |            0 |
|     stage_g.6.pair_g.7.csn_cmp_inst  |                                            csn_cmp_false_false_false_49 |         14 |         14 |       0 |    0 |    0 |      0 |      0 |    0 |            0 |
|     stage_g.6.pair_g.8.csn_cmp_inst  |                                            csn_cmp_false_false_false_52 |         15 |         15 |       0 |    0 |    0 |      0 |      0 |    0 |            0 |
|     stage_g.6.pair_g.9.csn_cmp_inst  |                                            csn_cmp_false_false_false_55 |         13 |         13 |       0 |    0 |    0 |      0 |      0 |    0 |            0 |
|     stage_g.7.pair_g.0.csn_cmp_inst  |                                            csn_cmp_false_false_false_60 |         19 |         19 |       0 |    0 |    0 |      0 |      0 |    0 |            0 |
|     stage_g.7.pair_g.1.csn_cmp_inst  |                                            csn_cmp_false_false_false_62 |         14 |         14 |       0 |    0 |    0 |      0 |      0 |    0 |            0 |
|     stage_g.7.pair_g.2.csn_cmp_inst  |                                            csn_cmp_false_false_false_64 |         17 |         17 |       0 |    0 |    1 |      0 |      0 |    0 |            0 |
|     stage_g.7.pair_g.3.csn_cmp_inst  |                                            csn_cmp_false_false_false_66 |         12 |         12 |       0 |    0 |    0 |      0 |      0 |    0 |            0 |
|     stage_g.7.pair_g.4.csn_cmp_inst  |                                            csn_cmp_false_false_false_23 |         17 |         17 |       0 |    0 |    0 |      0 |      0 |    0 |            0 |
|     stage_g.7.pair_g.5.csn_cmp_inst  |                                             csn_cmp_false_false_false_2 |         17 |         17 |       0 |    0 |    0 |      0 |      0 |    0 |            0 |
|     stage_g.7.pair_g.6.csn_cmp_inst  |                                             csn_cmp_false_false_false_3 |         13 |         13 |       0 |    0 |    0 |      0 |      0 |    0 |            0 |
|     stage_g.7.pair_g.7.csn_cmp_inst  |                                            csn_cmp_false_false_false_99 |         18 |         18 |       0 |    0 |    1 |      0 |      0 |    0 |            0 |
|     stage_g.7.pair_g.8.csn_cmp_inst  |                                            csn_cmp_false_false_false_77 |         15 |         15 |       0 |    0 |    1 |      0 |      0 |    0 |            0 |
|     stage_g.7.pair_g.9.csn_cmp_inst  |                                            csn_cmp_false_false_false_80 |         18 |         18 |       0 |    0 |    0 |      0 |      0 |    0 |            0 |
|     stage_g.8.pair_g.0.csn_cmp_inst  |                                            csn_cmp_false_false_false_72 |         10 |         10 |       0 |    0 |    1 |      0 |      0 |    0 |            0 |
|     stage_g.8.pair_g.1.csn_cmp_inst  |                                            csn_cmp_false_false_false_88 |         25 |         25 |       0 |    0 |    1 |      0 |      0 |    0 |            0 |
|     stage_g.8.pair_g.2.csn_cmp_inst  |                                            csn_cmp_false_false_false_91 |         10 |         10 |       0 |    0 |    0 |      0 |      0 |    0 |            0 |
|     stage_g.8.pair_g.3.csn_cmp_inst  |                                            csn_cmp_false_false_false_94 |         11 |         11 |       0 |    0 |    0 |      0 |      0 |    0 |            0 |
|     stage_g.8.pair_g.4.csn_cmp_inst  |                                            csn_cmp_false_false_false_97 |         15 |         15 |       0 |    0 |    0 |      0 |      0 |    0 |            0 |
|     stage_g.8.pair_g.5.csn_cmp_inst  |                                           csn_cmp_false_false_false_100 |         12 |         12 |       0 |    0 |    0 |      0 |      0 |    0 |            0 |
|     stage_g.8.pair_g.6.csn_cmp_inst  |                                           csn_cmp_false_false_false_103 |         12 |         12 |       0 |    0 |    0 |      0 |      0 |    0 |            0 |
|     stage_g.8.pair_g.7.csn_cmp_inst  |                                           csn_cmp_false_false_false_108 |         11 |         11 |       0 |    0 |    0 |      0 |      0 |    0 |            0 |
|     stage_g.9.pair_g.0.csn_cmp_inst  |                                           csn_cmp_false_false_false_104 |         16 |         16 |       0 |    0 |    0 |      0 |      0 |    0 |            0 |
|     stage_g.9.pair_g.1.csn_cmp_inst  |                                            csn_cmp_false_false_false_12 |         16 |         16 |       0 |    0 |    0 |      0 |      0 |    0 |            0 |
|     stage_g.9.pair_g.2.csn_cmp_inst  |                                            csn_cmp_false_false_false_15 |         18 |         18 |       0 |    0 |    0 |      0 |      0 |    0 |            0 |
|     stage_g.9.pair_g.3.csn_cmp_inst  |                                            csn_cmp_false_false_false_26 |         13 |         13 |       0 |    0 |    0 |      0 |      0 |    0 |            0 |
|     stage_g.9.pair_g.4.csn_cmp_inst  |                                            csn_cmp_false_false_false_10 |         17 |         17 |       0 |    0 |    0 |      0 |      0 |    0 |            0 |
|     stage_g.9.pair_g.5.csn_cmp_inst  |                                            csn_cmp_false_false_false_27 |         10 |         10 |       0 |    0 |    0 |      0 |      0 |    0 |            0 |
|     stage_g.9.pair_g.6.csn_cmp_inst  |                                             csn_cmp_false_false_false_7 |         14 |         14 |       0 |    0 |    0 |      0 |      0 |    0 |            0 |
|     stage_g.9.pair_g.7.csn_cmp_inst  |                                            csn_cmp_false_false_false_74 |         16 |         16 |       0 |    0 |    0 |      0 |      0 |    0 |            0 |
|     stage_g.9.pair_g.8.csn_cmp_inst  |                                            csn_cmp_false_false_false_32 |         11 |         11 |       0 |    0 |    0 |      0 |      0 |    0 |            0 |
|   lsfr_1                             |                                                                    lfsr |          1 |          1 |       0 |    0 |  221 |      0 |      0 |    0 |            0 |
|   reducer_1                          |                                                                 reducer |         74 |         74 |       0 |    0 |  293 |      0 |      0 |    0 |            0 |
|   shift_reg_tap_i                    |                                                     shift_reg_tap_220_1 |          0 |          0 |       0 |    0 |  220 |      0 |      0 |    0 |            0 |
|   shift_reg_tap_o                    |                                                     shift_reg_tap_256_1 |          0 |          0 |       0 |    0 |  220 |      0 |      0 |    0 |            0 |
+--------------------------------------+-------------------------------------------------------------------------+------------+------------+---------+------+------+--------+--------+------+--------------+
* Note: The sum of lower-level cells may be larger than their parent cells total, due to cross-hierarchy LUT combining


