Copyright 1986-2018 Xilinx, Inc. All Rights Reserved.
-------------------------------------------------------------------------------------------------
| Tool Version      : Vivado v.2018.2 (win64) Build 2258646 Thu Jun 14 20:03:12 MDT 2018
| Date              : Tue Mar  5 23:26:57 2019
| Host              : PCPHESEBE02 running 64-bit Service Pack 1  (build 7601)
| Command           : report_timing_summary -setup -nworst 5 -max_paths 5 -file timing_setup.txt
| Design            : wrapper_csn
| Device            : xcvu9p-flgc2104
| Speed File        : -1  PRODUCTION 1.20 05-21-2018
| Temperature Grade : E
-------------------------------------------------------------------------------------------------

Timing Summary Report

------------------------------------------------------------------------------------------------
| Timer Settings
| --------------
------------------------------------------------------------------------------------------------

  Enable Multi Corner Analysis               :  Yes
  Enable Pessimism Removal                   :  Yes
  Pessimism Removal Resolution               :  Nearest Common Node
  Enable Input Delay Default Clock           :  No
  Enable Preset / Clear Arcs                 :  No
  Disable Flight Delays                      :  No
  Ignore I/O Paths                           :  No
  Timing Early Launch at Borrowing Latches   :  false

  Corner  Analyze    Analyze    
  Name    Max Paths  Min Paths  
  ------  ---------  ---------  
  Slow    Yes        Yes        
  Fast    Yes        Yes        



check_timing report

Table of Contents
-----------------
1. checking no_clock
2. checking constant_clock
3. checking pulse_width_clock
4. checking unconstrained_internal_endpoints
5. checking no_input_delay
6. checking no_output_delay
7. checking multiple_clock
8. checking generated_clocks
9. checking loops
10. checking partial_input_delay
11. checking partial_output_delay
12. checking latch_loops

1. checking no_clock
--------------------
 There are 0 register/latch pins with no clock.


2. checking constant_clock
--------------------------
 There are 0 register/latch pins with constant_clock.


3. checking pulse_width_clock
-----------------------------
 There are 0 register/latch pins which need pulse_width check


4. checking unconstrained_internal_endpoints
--------------------------------------------
 There are 0 pins that are not constrained for maximum delay.

 There are 0 pins that are not constrained for maximum delay due to constant clock.


5. checking no_input_delay
--------------------------
 There is 1 input port with no input delay specified. (HIGH)

 There are 0 input ports with no input delay but user has a false path constraint.


6. checking no_output_delay
---------------------------
 There is 1 port with no output delay specified. (HIGH)

 There are 0 ports with no output delay but user has a false path constraint

 There are 0 ports with no output delay but with a timing clock defined on it or propagating through it


7. checking multiple_clock
--------------------------
 There are 0 register/latch pins with multiple clocks.


8. checking generated_clocks
----------------------------
 There are 0 generated clocks that are not connected to a clock source.


9. checking loops
-----------------
 There are 0 combinational loops in the design.


10. checking partial_input_delay
--------------------------------
 There are 0 input ports with partial input delay specified.


11. checking partial_output_delay
---------------------------------
 There are 0 ports with partial output delay specified.


12. checking latch_loops
------------------------
 There are 0 combinational latch loops in the design through latch input



------------------------------------------------------------------------------------------------
| Design Timing Summary
| ---------------------
------------------------------------------------------------------------------------------------

    WNS(ns)      TNS(ns)  TNS Failing Endpoints  TNS Total Endpoints     WPWS(ns)     TPWS(ns)  TPWS Failing Endpoints  TPWS Total Endpoints  
    -------      -------  ---------------------  -------------------     --------     --------  ----------------------  --------------------  
      0.323        0.000                      0                  803        1.213        0.000                       0                  1499  


All user specified timing constraints are met.


------------------------------------------------------------------------------------------------
| Clock Summary
| -------------
------------------------------------------------------------------------------------------------

Clock        Waveform(ns)         Period(ns)      Frequency(MHz)
-----        ------------         ----------      --------------
clk          {0.000 1.786}        3.572           279.955         
clk_wrapper  {0.000 500.000}      1000.000        1.000           


------------------------------------------------------------------------------------------------
| Intra Clock Table
| -----------------
------------------------------------------------------------------------------------------------

Clock             WNS(ns)      TNS(ns)  TNS Failing Endpoints  TNS Total Endpoints     WPWS(ns)     TPWS(ns)  TPWS Failing Endpoints  TPWS Total Endpoints  
-----             -------      -------  ---------------------  -------------------     --------     --------  ----------------------  --------------------  
clk                 0.323        0.000                      0                  803        1.213        0.000                       0                  1011  
clk_wrapper                                                                             498.562        0.000                       0                   488  


------------------------------------------------------------------------------------------------
| Inter Clock Table
| -----------------
------------------------------------------------------------------------------------------------

From Clock    To Clock          WNS(ns)      TNS(ns)  TNS Failing Endpoints  TNS Total Endpoints  
----------    --------          -------      -------  ---------------------  -------------------  


------------------------------------------------------------------------------------------------
| Other Path Groups Table
| -----------------------
------------------------------------------------------------------------------------------------

Path Group    From Clock    To Clock          WNS(ns)      TNS(ns)  TNS Failing Endpoints  TNS Total Endpoints  
----------    ----------    --------          -------      -------  ---------------------  -------------------  


------------------------------------------------------------------------------------------------
| Timing Details
| --------------
------------------------------------------------------------------------------------------------


---------------------------------------------------------------------------------------------------
From Clock:  clk
  To Clock:  clk

Setup :            0  Failing Endpoints,  Worst Slack        0.323ns,  Total Violation        0.000ns
Hold  :           NA  Failing Endpoints,  Worst Slack           NA  ,  Total Violation           NA
PW    :            0  Failing Endpoints,  Worst Slack        1.213ns,  Total Violation        0.000ns
---------------------------------------------------------------------------------------------------


Max Delay Paths
--------------------------------------------------------------------------------------
Slack (MET) :             0.323ns  (required time - arrival time)
  Source:                 dut_inst/ret_array_1_12.idx_ret_14_11_DOUT[0]/C
                            (rising edge-triggered cell FDRE clocked by clk  {rise@0.000ns fall@1.786ns period=3.572ns})
  Destination:            shift_reg_tap_o/sr_p.sr_1[102]/D
                            (rising edge-triggered cell FDRE clocked by clk  {rise@0.000ns fall@1.786ns period=3.572ns})
  Path Group:             clk
  Path Type:              Setup (Max at Slow Process Corner)
  Requirement:            3.572ns  (clk rise@3.572ns - clk rise@0.000ns)
  Data Path Delay:        3.116ns  (logic 1.195ns (38.350%)  route 1.921ns (61.650%))
  Logic Levels:           9  (LUT3=2 LUT5=7)
  Clock Path Skew:        -0.124ns (DCD - SCD + CPR)
    Destination Clock Delay (DCD):    2.170ns = ( 5.742 - 3.572 ) 
    Source Clock Delay      (SCD):    2.698ns
    Clock Pessimism Removal (CPR):    0.404ns
  Clock Uncertainty:      0.035ns  ((TSJ^2 + TIJ^2)^1/2 + DJ) / 2 + PE
    Total System Jitter     (TSJ):    0.071ns
    Total Input Jitter      (TIJ):    0.000ns
    Discrete Jitter          (DJ):    0.000ns
    Phase Error              (PE):    0.000ns
  Clock Net Delay (Source):      1.557ns (routing 0.616ns, distribution 0.941ns)
  Clock Net Delay (Destination): 1.340ns (routing 0.562ns, distribution 0.778ns)

    Location             Delay type                Incr(ns)  Path(ns)    Netlist Resource(s)
  -------------------------------------------------------------------    -------------------
                         (clock clk rise edge)        0.000     0.000 r  
    AV33                                              0.000     0.000 r  clk (IN)
                         net (fo=0)                   0.000     0.000    clk_ibuf_iso/I
    AV33                 INBUF (Prop_INBUF_HPIOB_M_PAD_O)
                                                      0.779     0.779 r  clk_ibuf_iso/INBUF_INST/O
                         net (fo=1, routed)           0.000     0.779    clk_ibuf_iso/OUT
    AV33                 IBUFCTRL (Prop_IBUFCTRL_HPIOB_M_I_O)
                                                      0.000     0.779 r  clk_ibuf_iso/IBUFCTRL_INST/O
                         net (fo=1, routed)           0.334     1.113    clk_ibuf_iso
    BUFGCE_X1Y224        BUFGCE (Prop_BUFCE_BUFGCE_I_O)
                                                      0.028     1.141 r  clk_ibuf/O
    X3Y9 (CLOCK_ROOT)    net (fo=1010, routed)        1.557     2.698    dut_inst/clk_c
    SLICE_X99Y555        FDRE                                         r  dut_inst/ret_array_1_12.idx_ret_14_11_DOUT[0]/C
  -------------------------------------------------------------------    -------------------
    SLICE_X99Y555        FDRE (Prop_CFF_SLICEM_C_Q)
                                                      0.095     2.793 r  dut_inst/ret_array_1_12.idx_ret_14_11_DOUT[0]/Q
                         net (fo=2, routed)           0.325     3.118    dut_inst/stage_g.0.pair_g.2.csn_cmp_inst/muon_i_o_o_o_0
    SLICE_X95Y555        LUT3 (Prop_G6LUT_SLICEM_I1_O)
                                                      0.179     3.297 r  dut_inst/stage_g.0.pair_g.2.csn_cmp_inst/a_o_comb.idx_lut6_2_o5_lut6_2_o5[7]/O
                         net (fo=2, routed)           0.121     3.418    dut_inst/stage_g.3.pair_g.2.csn_cmp_inst/idx_3[7]
    SLICE_X94Y555        LUT5 (Prop_C5LUT_SLICEL_I4_O)
                                                      0.168     3.586 r  dut_inst/stage_g.3.pair_g.2.csn_cmp_inst/b_o_comb.idx_i_m4_1_lut6_2_o5_lut6_2_o5[7]/O
                         net (fo=2, routed)           0.272     3.858    dut_inst/stage_g.3.pair_g.2.csn_cmp_inst/N_51
    SLICE_X94Y551        LUT5 (Prop_B5LUT_SLICEL_I4_O)
                                                      0.142     4.000 r  dut_inst/stage_g.3.pair_g.2.csn_cmp_inst/b_o_comb.idx_i_m4_0_lut6_2_o5_lut6_2_o5[7]/O
                         net (fo=2, routed)           0.139     4.139    dut_inst/stage_g.3.pair_g.2.csn_cmp_inst/N_67
    SLICE_X95Y551        LUT5 (Prop_D6LUT_SLICEM_I4_O)
                                                      0.062     4.201 r  dut_inst/stage_g.3.pair_g.2.csn_cmp_inst/a_o_comb.idx_i_m2_lut6_2_o5_lut6_2_o6[7]/O
                         net (fo=2, routed)           0.105     4.306    dut_inst/stage_g.4.pair_g.5.csn_cmp_inst/N_85
    SLICE_X95Y553        LUT5 (Prop_D5LUT_SLICEM_I4_O)
                                                      0.082     4.388 r  dut_inst/stage_g.4.pair_g.5.csn_cmp_inst/a_o_comb.idx_i_m2_lut6_2_o5_lut6_2_o5[7]/O
                         net (fo=2, routed)           0.205     4.593    dut_inst/stage_g.5.pair_g.3.csn_cmp_inst/N_48
    SLICE_X95Y553        LUT3 (Prop_F6LUT_SLICEM_I1_O)
                                                      0.098     4.691 r  dut_inst/stage_g.5.pair_g.3.csn_cmp_inst/a_o_comb.idx_lut6_2_o5_lut6_2_o6[7]/O
                         net (fo=2, routed)           0.364     5.055    dut_inst/stage_g.5.pair_g.3.csn_cmp_inst/idx_8[7]
    SLICE_X96Y552        LUT5 (Prop_C5LUT_SLICEL_I4_O)
                                                      0.135     5.190 f  dut_inst/stage_g.5.pair_g.3.csn_cmp_inst/b_o_comb.idx_RNIP7KN1_lut6_2_o5_lut6_2_o5[7]/O
                         net (fo=2, routed)           0.142     5.332    dut_inst/stage_g.5.pair_g.3.csn_cmp_inst/N_83_0
    SLICE_X96Y552        LUT5 (Prop_D5LUT_SLICEL_I4_O)
                                                      0.136     5.468 f  dut_inst/stage_g.5.pair_g.3.csn_cmp_inst/b_o_comb.idx_RNIIPHU2_lut6_2_o5_lut6_2_o5[7]/O
                         net (fo=2, routed)           0.188     5.656    dut_inst/stage_g.5.pair_g.3.csn_cmp_inst/N_102_0
    SLICE_X96Y552        LUT5 (Prop_F6LUT_SLICEL_I4_O)
                                                      0.098     5.754 r  dut_inst/stage_g.5.pair_g.3.csn_cmp_inst/b_o_comb.idx_RNIUFEK7_0_lut6_2_o5_lut6_2_o5[7]/O
                         net (fo=1, routed)           0.060     5.814    shift_reg_tap_o/idx_RNIUFEK7_0_lut6_2_o6_0
    SLICE_X96Y552        FDRE                                         r  shift_reg_tap_o/sr_p.sr_1[102]/D
  -------------------------------------------------------------------    -------------------

                         (clock clk rise edge)        3.572     3.572 r  
    AV33                                              0.000     3.572 r  clk (IN)
                         net (fo=0)                   0.000     3.572    clk_ibuf_iso/I
    AV33                 INBUF (Prop_INBUF_HPIOB_M_PAD_O)
                                                      0.510     4.082 r  clk_ibuf_iso/INBUF_INST/O
                         net (fo=1, routed)           0.000     4.082    clk_ibuf_iso/OUT
    AV33                 IBUFCTRL (Prop_IBUFCTRL_HPIOB_M_I_O)
                                                      0.000     4.082 r  clk_ibuf_iso/IBUFCTRL_INST/O
                         net (fo=1, routed)           0.296     4.378    clk_ibuf_iso
    BUFGCE_X1Y224        BUFGCE (Prop_BUFCE_BUFGCE_I_O)
                                                      0.024     4.402 r  clk_ibuf/O
    X3Y9 (CLOCK_ROOT)    net (fo=1010, routed)        1.340     5.742    shift_reg_tap_o/clk_c
    SLICE_X96Y552        FDRE                                         r  shift_reg_tap_o/sr_p.sr_1[102]/C
                         clock pessimism              0.404     6.146    
                         clock uncertainty           -0.035     6.111    
    SLICE_X96Y552        FDRE (Setup_FFF_SLICEL_C_D)
                                                      0.027     6.138    shift_reg_tap_o/sr_p.sr_1[102]
  -------------------------------------------------------------------
                         required time                          6.138    
                         arrival time                          -5.814    
  -------------------------------------------------------------------
                         slack                                  0.323    

Slack (MET) :             0.323ns  (required time - arrival time)
  Source:                 dut_inst/ret_array_1_12.idx_ret_14_11_DOUT[0]/C
                            (rising edge-triggered cell FDRE clocked by clk  {rise@0.000ns fall@1.786ns period=3.572ns})
  Destination:            shift_reg_tap_o/sr_p.sr_1[102]/D
                            (rising edge-triggered cell FDRE clocked by clk  {rise@0.000ns fall@1.786ns period=3.572ns})
  Path Group:             clk
  Path Type:              Setup (Max at Slow Process Corner)
  Requirement:            3.572ns  (clk rise@3.572ns - clk rise@0.000ns)
  Data Path Delay:        3.116ns  (logic 1.195ns (38.350%)  route 1.921ns (61.650%))
  Logic Levels:           9  (LUT3=2 LUT5=7)
  Clock Path Skew:        -0.124ns (DCD - SCD + CPR)
    Destination Clock Delay (DCD):    2.170ns = ( 5.742 - 3.572 ) 
    Source Clock Delay      (SCD):    2.698ns
    Clock Pessimism Removal (CPR):    0.404ns
  Clock Uncertainty:      0.035ns  ((TSJ^2 + TIJ^2)^1/2 + DJ) / 2 + PE
    Total System Jitter     (TSJ):    0.071ns
    Total Input Jitter      (TIJ):    0.000ns
    Discrete Jitter          (DJ):    0.000ns
    Phase Error              (PE):    0.000ns
  Clock Net Delay (Source):      1.557ns (routing 0.616ns, distribution 0.941ns)
  Clock Net Delay (Destination): 1.340ns (routing 0.562ns, distribution 0.778ns)

    Location             Delay type                Incr(ns)  Path(ns)    Netlist Resource(s)
  -------------------------------------------------------------------    -------------------
                         (clock clk rise edge)        0.000     0.000 r  
    AV33                                              0.000     0.000 r  clk (IN)
                         net (fo=0)                   0.000     0.000    clk_ibuf_iso/I
    AV33                 INBUF (Prop_INBUF_HPIOB_M_PAD_O)
                                                      0.779     0.779 r  clk_ibuf_iso/INBUF_INST/O
                         net (fo=1, routed)           0.000     0.779    clk_ibuf_iso/OUT
    AV33                 IBUFCTRL (Prop_IBUFCTRL_HPIOB_M_I_O)
                                                      0.000     0.779 r  clk_ibuf_iso/IBUFCTRL_INST/O
                         net (fo=1, routed)           0.334     1.113    clk_ibuf_iso
    BUFGCE_X1Y224        BUFGCE (Prop_BUFCE_BUFGCE_I_O)
                                                      0.028     1.141 r  clk_ibuf/O
    X3Y9 (CLOCK_ROOT)    net (fo=1010, routed)        1.557     2.698    dut_inst/clk_c
    SLICE_X99Y555        FDRE                                         r  dut_inst/ret_array_1_12.idx_ret_14_11_DOUT[0]/C
  -------------------------------------------------------------------    -------------------
    SLICE_X99Y555        FDRE (Prop_CFF_SLICEM_C_Q)
                                                      0.095     2.793 f  dut_inst/ret_array_1_12.idx_ret_14_11_DOUT[0]/Q
                         net (fo=2, routed)           0.325     3.118    dut_inst/stage_g.0.pair_g.2.csn_cmp_inst/muon_i_o_o_o_0
    SLICE_X95Y555        LUT3 (Prop_G6LUT_SLICEM_I1_O)
                                                      0.179     3.297 f  dut_inst/stage_g.0.pair_g.2.csn_cmp_inst/a_o_comb.idx_lut6_2_o5_lut6_2_o5[7]/O
                         net (fo=2, routed)           0.121     3.418    dut_inst/stage_g.3.pair_g.2.csn_cmp_inst/idx_3[7]
    SLICE_X94Y555        LUT5 (Prop_C5LUT_SLICEL_I4_O)
                                                      0.168     3.586 f  dut_inst/stage_g.3.pair_g.2.csn_cmp_inst/b_o_comb.idx_i_m4_1_lut6_2_o5_lut6_2_o5[7]/O
                         net (fo=2, routed)           0.272     3.858    dut_inst/stage_g.3.pair_g.2.csn_cmp_inst/N_51
    SLICE_X94Y551        LUT5 (Prop_B5LUT_SLICEL_I4_O)
                                                      0.142     4.000 f  dut_inst/stage_g.3.pair_g.2.csn_cmp_inst/b_o_comb.idx_i_m4_0_lut6_2_o5_lut6_2_o5[7]/O
                         net (fo=2, routed)           0.139     4.139    dut_inst/stage_g.3.pair_g.2.csn_cmp_inst/N_67
    SLICE_X95Y551        LUT5 (Prop_D6LUT_SLICEM_I4_O)
                                                      0.062     4.201 f  dut_inst/stage_g.3.pair_g.2.csn_cmp_inst/a_o_comb.idx_i_m2_lut6_2_o5_lut6_2_o6[7]/O
                         net (fo=2, routed)           0.105     4.306    dut_inst/stage_g.4.pair_g.5.csn_cmp_inst/N_85
    SLICE_X95Y553        LUT5 (Prop_D5LUT_SLICEM_I4_O)
                                                      0.082     4.388 f  dut_inst/stage_g.4.pair_g.5.csn_cmp_inst/a_o_comb.idx_i_m2_lut6_2_o5_lut6_2_o5[7]/O
                         net (fo=2, routed)           0.205     4.593    dut_inst/stage_g.5.pair_g.3.csn_cmp_inst/N_48
    SLICE_X95Y553        LUT3 (Prop_F6LUT_SLICEM_I1_O)
                                                      0.098     4.691 f  dut_inst/stage_g.5.pair_g.3.csn_cmp_inst/a_o_comb.idx_lut6_2_o5_lut6_2_o6[7]/O
                         net (fo=2, routed)           0.364     5.055    dut_inst/stage_g.5.pair_g.3.csn_cmp_inst/idx_8[7]
    SLICE_X96Y552        LUT5 (Prop_C5LUT_SLICEL_I4_O)
                                                      0.135     5.190 r  dut_inst/stage_g.5.pair_g.3.csn_cmp_inst/b_o_comb.idx_RNIP7KN1_lut6_2_o5_lut6_2_o5[7]/O
                         net (fo=2, routed)           0.142     5.332    dut_inst/stage_g.5.pair_g.3.csn_cmp_inst/N_83_0
    SLICE_X96Y552        LUT5 (Prop_D5LUT_SLICEL_I4_O)
                                                      0.136     5.468 r  dut_inst/stage_g.5.pair_g.3.csn_cmp_inst/b_o_comb.idx_RNIIPHU2_lut6_2_o5_lut6_2_o5[7]/O
                         net (fo=2, routed)           0.188     5.656    dut_inst/stage_g.5.pair_g.3.csn_cmp_inst/N_102_0
    SLICE_X96Y552        LUT5 (Prop_F6LUT_SLICEL_I4_O)
                                                      0.098     5.754 f  dut_inst/stage_g.5.pair_g.3.csn_cmp_inst/b_o_comb.idx_RNIUFEK7_0_lut6_2_o5_lut6_2_o5[7]/O
                         net (fo=1, routed)           0.060     5.814    shift_reg_tap_o/idx_RNIUFEK7_0_lut6_2_o6_0
    SLICE_X96Y552        FDRE                                         f  shift_reg_tap_o/sr_p.sr_1[102]/D
  -------------------------------------------------------------------    -------------------

                         (clock clk rise edge)        3.572     3.572 r  
    AV33                                              0.000     3.572 r  clk (IN)
                         net (fo=0)                   0.000     3.572    clk_ibuf_iso/I
    AV33                 INBUF (Prop_INBUF_HPIOB_M_PAD_O)
                                                      0.510     4.082 r  clk_ibuf_iso/INBUF_INST/O
                         net (fo=1, routed)           0.000     4.082    clk_ibuf_iso/OUT
    AV33                 IBUFCTRL (Prop_IBUFCTRL_HPIOB_M_I_O)
                                                      0.000     4.082 r  clk_ibuf_iso/IBUFCTRL_INST/O
                         net (fo=1, routed)           0.296     4.378    clk_ibuf_iso
    BUFGCE_X1Y224        BUFGCE (Prop_BUFCE_BUFGCE_I_O)
                                                      0.024     4.402 r  clk_ibuf/O
    X3Y9 (CLOCK_ROOT)    net (fo=1010, routed)        1.340     5.742    shift_reg_tap_o/clk_c
    SLICE_X96Y552        FDRE                                         r  shift_reg_tap_o/sr_p.sr_1[102]/C
                         clock pessimism              0.404     6.146    
                         clock uncertainty           -0.035     6.111    
    SLICE_X96Y552        FDRE (Setup_FFF_SLICEL_C_D)
                                                      0.027     6.138    shift_reg_tap_o/sr_p.sr_1[102]
  -------------------------------------------------------------------
                         required time                          6.138    
                         arrival time                          -5.814    
  -------------------------------------------------------------------
                         slack                                  0.323    

Slack (MET) :             0.325ns  (required time - arrival time)
  Source:                 dut_inst/ret_array_1_12.idx_ret_14_11_DOUT[0]/C
                            (rising edge-triggered cell FDRE clocked by clk  {rise@0.000ns fall@1.786ns period=3.572ns})
  Destination:            shift_reg_tap_o/sr_p.sr_1[115]/D
                            (rising edge-triggered cell FDRE clocked by clk  {rise@0.000ns fall@1.786ns period=3.572ns})
  Path Group:             clk
  Path Type:              Setup (Max at Slow Process Corner)
  Requirement:            3.572ns  (clk rise@3.572ns - clk rise@0.000ns)
  Data Path Delay:        3.114ns  (logic 1.226ns (39.371%)  route 1.888ns (60.629%))
  Logic Levels:           9  (LUT3=2 LUT5=7)
  Clock Path Skew:        -0.124ns (DCD - SCD + CPR)
    Destination Clock Delay (DCD):    2.170ns = ( 5.742 - 3.572 ) 
    Source Clock Delay      (SCD):    2.698ns
    Clock Pessimism Removal (CPR):    0.404ns
  Clock Uncertainty:      0.035ns  ((TSJ^2 + TIJ^2)^1/2 + DJ) / 2 + PE
    Total System Jitter     (TSJ):    0.071ns
    Total Input Jitter      (TIJ):    0.000ns
    Discrete Jitter          (DJ):    0.000ns
    Phase Error              (PE):    0.000ns
  Clock Net Delay (Source):      1.557ns (routing 0.616ns, distribution 0.941ns)
  Clock Net Delay (Destination): 1.340ns (routing 0.562ns, distribution 0.778ns)

    Location             Delay type                Incr(ns)  Path(ns)    Netlist Resource(s)
  -------------------------------------------------------------------    -------------------
                         (clock clk rise edge)        0.000     0.000 r  
    AV33                                              0.000     0.000 r  clk (IN)
                         net (fo=0)                   0.000     0.000    clk_ibuf_iso/I
    AV33                 INBUF (Prop_INBUF_HPIOB_M_PAD_O)
                                                      0.779     0.779 r  clk_ibuf_iso/INBUF_INST/O
                         net (fo=1, routed)           0.000     0.779    clk_ibuf_iso/OUT
    AV33                 IBUFCTRL (Prop_IBUFCTRL_HPIOB_M_I_O)
                                                      0.000     0.779 r  clk_ibuf_iso/IBUFCTRL_INST/O
                         net (fo=1, routed)           0.334     1.113    clk_ibuf_iso
    BUFGCE_X1Y224        BUFGCE (Prop_BUFCE_BUFGCE_I_O)
                                                      0.028     1.141 r  clk_ibuf/O
    X3Y9 (CLOCK_ROOT)    net (fo=1010, routed)        1.557     2.698    dut_inst/clk_c
    SLICE_X99Y555        FDRE                                         r  dut_inst/ret_array_1_12.idx_ret_14_11_DOUT[0]/C
  -------------------------------------------------------------------    -------------------
    SLICE_X99Y555        FDRE (Prop_CFF_SLICEM_C_Q)
                                                      0.095     2.793 r  dut_inst/ret_array_1_12.idx_ret_14_11_DOUT[0]/Q
                         net (fo=2, routed)           0.325     3.118    dut_inst/stage_g.0.pair_g.2.csn_cmp_inst/muon_i_o_o_o_0
    SLICE_X95Y555        LUT3 (Prop_G6LUT_SLICEM_I1_O)
                                                      0.179     3.297 r  dut_inst/stage_g.0.pair_g.2.csn_cmp_inst/a_o_comb.idx_lut6_2_o5_lut6_2_o5[7]/O
                         net (fo=2, routed)           0.121     3.418    dut_inst/stage_g.3.pair_g.2.csn_cmp_inst/idx_3[7]
    SLICE_X94Y555        LUT5 (Prop_C5LUT_SLICEL_I4_O)
                                                      0.168     3.586 r  dut_inst/stage_g.3.pair_g.2.csn_cmp_inst/b_o_comb.idx_i_m4_1_lut6_2_o5_lut6_2_o5[7]/O
                         net (fo=2, routed)           0.272     3.858    dut_inst/stage_g.3.pair_g.2.csn_cmp_inst/N_51
    SLICE_X94Y551        LUT5 (Prop_B5LUT_SLICEL_I4_O)
                                                      0.142     4.000 r  dut_inst/stage_g.3.pair_g.2.csn_cmp_inst/b_o_comb.idx_i_m4_0_lut6_2_o5_lut6_2_o5[7]/O
                         net (fo=2, routed)           0.139     4.139    dut_inst/stage_g.3.pair_g.2.csn_cmp_inst/N_67
    SLICE_X95Y551        LUT5 (Prop_D6LUT_SLICEM_I4_O)
                                                      0.062     4.201 r  dut_inst/stage_g.3.pair_g.2.csn_cmp_inst/a_o_comb.idx_i_m2_lut6_2_o5_lut6_2_o6[7]/O
                         net (fo=2, routed)           0.105     4.306    dut_inst/stage_g.4.pair_g.5.csn_cmp_inst/N_85
    SLICE_X95Y553        LUT5 (Prop_D5LUT_SLICEM_I4_O)
                                                      0.082     4.388 r  dut_inst/stage_g.4.pair_g.5.csn_cmp_inst/a_o_comb.idx_i_m2_lut6_2_o5_lut6_2_o5[7]/O
                         net (fo=2, routed)           0.205     4.593    dut_inst/stage_g.5.pair_g.3.csn_cmp_inst/N_48
    SLICE_X95Y553        LUT3 (Prop_F6LUT_SLICEM_I1_O)
                                                      0.098     4.691 r  dut_inst/stage_g.5.pair_g.3.csn_cmp_inst/a_o_comb.idx_lut6_2_o5_lut6_2_o6[7]/O
                         net (fo=2, routed)           0.364     5.055    dut_inst/stage_g.5.pair_g.3.csn_cmp_inst/idx_8[7]
    SLICE_X96Y552        LUT5 (Prop_C5LUT_SLICEL_I4_O)
                                                      0.135     5.190 f  dut_inst/stage_g.5.pair_g.3.csn_cmp_inst/b_o_comb.idx_RNIP7KN1_lut6_2_o5_lut6_2_o5[7]/O
                         net (fo=2, routed)           0.142     5.332    dut_inst/stage_g.5.pair_g.3.csn_cmp_inst/N_83_0
    SLICE_X96Y552        LUT5 (Prop_D5LUT_SLICEL_I4_O)
                                                      0.136     5.468 f  dut_inst/stage_g.5.pair_g.3.csn_cmp_inst/b_o_comb.idx_RNIIPHU2_lut6_2_o5_lut6_2_o5[7]/O
                         net (fo=2, routed)           0.188     5.656    dut_inst/stage_g.5.pair_g.3.csn_cmp_inst/N_102_0
    SLICE_X96Y552        LUT5 (Prop_F5LUT_SLICEL_I4_O)
                                                      0.129     5.785 r  dut_inst/stage_g.5.pair_g.3.csn_cmp_inst/b_o_comb.idx_RNIUFEK7_0_lut6_2_o5_lut6_2_o6[7]/O
                         net (fo=1, routed)           0.027     5.812    shift_reg_tap_o/idx_RNIUFEK7_0_lut6_2_o5_0
    SLICE_X96Y552        FDRE                                         r  shift_reg_tap_o/sr_p.sr_1[115]/D
  -------------------------------------------------------------------    -------------------

                         (clock clk rise edge)        3.572     3.572 r  
    AV33                                              0.000     3.572 r  clk (IN)
                         net (fo=0)                   0.000     3.572    clk_ibuf_iso/I
    AV33                 INBUF (Prop_INBUF_HPIOB_M_PAD_O)
                                                      0.510     4.082 r  clk_ibuf_iso/INBUF_INST/O
                         net (fo=1, routed)           0.000     4.082    clk_ibuf_iso/OUT
    AV33                 IBUFCTRL (Prop_IBUFCTRL_HPIOB_M_I_O)
                                                      0.000     4.082 r  clk_ibuf_iso/IBUFCTRL_INST/O
                         net (fo=1, routed)           0.296     4.378    clk_ibuf_iso
    BUFGCE_X1Y224        BUFGCE (Prop_BUFCE_BUFGCE_I_O)
                                                      0.024     4.402 r  clk_ibuf/O
    X3Y9 (CLOCK_ROOT)    net (fo=1010, routed)        1.340     5.742    shift_reg_tap_o/clk_c
    SLICE_X96Y552        FDRE                                         r  shift_reg_tap_o/sr_p.sr_1[115]/C
                         clock pessimism              0.404     6.146    
                         clock uncertainty           -0.035     6.111    
    SLICE_X96Y552        FDRE (Setup_FFF2_SLICEL_C_D)
                                                      0.027     6.138    shift_reg_tap_o/sr_p.sr_1[115]
  -------------------------------------------------------------------
                         required time                          6.138    
                         arrival time                          -5.812    
  -------------------------------------------------------------------
                         slack                                  0.325    

Slack (MET) :             0.325ns  (required time - arrival time)
  Source:                 dut_inst/ret_array_1_12.idx_ret_14_11_DOUT[0]/C
                            (rising edge-triggered cell FDRE clocked by clk  {rise@0.000ns fall@1.786ns period=3.572ns})
  Destination:            shift_reg_tap_o/sr_p.sr_1[102]/D
                            (rising edge-triggered cell FDRE clocked by clk  {rise@0.000ns fall@1.786ns period=3.572ns})
  Path Group:             clk
  Path Type:              Setup (Max at Slow Process Corner)
  Requirement:            3.572ns  (clk rise@3.572ns - clk rise@0.000ns)
  Data Path Delay:        3.114ns  (logic 1.224ns (39.306%)  route 1.890ns (60.694%))
  Logic Levels:           9  (LUT3=2 LUT5=7)
  Clock Path Skew:        -0.124ns (DCD - SCD + CPR)
    Destination Clock Delay (DCD):    2.170ns = ( 5.742 - 3.572 ) 
    Source Clock Delay      (SCD):    2.698ns
    Clock Pessimism Removal (CPR):    0.404ns
  Clock Uncertainty:      0.035ns  ((TSJ^2 + TIJ^2)^1/2 + DJ) / 2 + PE
    Total System Jitter     (TSJ):    0.071ns
    Total Input Jitter      (TIJ):    0.000ns
    Discrete Jitter          (DJ):    0.000ns
    Phase Error              (PE):    0.000ns
  Clock Net Delay (Source):      1.557ns (routing 0.616ns, distribution 0.941ns)
  Clock Net Delay (Destination): 1.340ns (routing 0.562ns, distribution 0.778ns)

    Location             Delay type                Incr(ns)  Path(ns)    Netlist Resource(s)
  -------------------------------------------------------------------    -------------------
                         (clock clk rise edge)        0.000     0.000 r  
    AV33                                              0.000     0.000 r  clk (IN)
                         net (fo=0)                   0.000     0.000    clk_ibuf_iso/I
    AV33                 INBUF (Prop_INBUF_HPIOB_M_PAD_O)
                                                      0.779     0.779 r  clk_ibuf_iso/INBUF_INST/O
                         net (fo=1, routed)           0.000     0.779    clk_ibuf_iso/OUT
    AV33                 IBUFCTRL (Prop_IBUFCTRL_HPIOB_M_I_O)
                                                      0.000     0.779 r  clk_ibuf_iso/IBUFCTRL_INST/O
                         net (fo=1, routed)           0.334     1.113    clk_ibuf_iso
    BUFGCE_X1Y224        BUFGCE (Prop_BUFCE_BUFGCE_I_O)
                                                      0.028     1.141 r  clk_ibuf/O
    X3Y9 (CLOCK_ROOT)    net (fo=1010, routed)        1.557     2.698    dut_inst/clk_c
    SLICE_X99Y555        FDRE                                         r  dut_inst/ret_array_1_12.idx_ret_14_11_DOUT[0]/C
  -------------------------------------------------------------------    -------------------
    SLICE_X99Y555        FDRE (Prop_CFF_SLICEM_C_Q)
                                                      0.095     2.793 r  dut_inst/ret_array_1_12.idx_ret_14_11_DOUT[0]/Q
                         net (fo=2, routed)           0.325     3.118    dut_inst/stage_g.0.pair_g.2.csn_cmp_inst/muon_i_o_o_o_0
    SLICE_X95Y555        LUT3 (Prop_G6LUT_SLICEM_I1_O)
                                                      0.179     3.297 r  dut_inst/stage_g.0.pair_g.2.csn_cmp_inst/a_o_comb.idx_lut6_2_o5_lut6_2_o5[7]/O
                         net (fo=2, routed)           0.121     3.418    dut_inst/stage_g.3.pair_g.2.csn_cmp_inst/idx_3[7]
    SLICE_X94Y555        LUT5 (Prop_C5LUT_SLICEL_I4_O)
                                                      0.168     3.586 r  dut_inst/stage_g.3.pair_g.2.csn_cmp_inst/b_o_comb.idx_i_m4_1_lut6_2_o5_lut6_2_o5[7]/O
                         net (fo=2, routed)           0.272     3.858    dut_inst/stage_g.3.pair_g.2.csn_cmp_inst/N_51
    SLICE_X94Y551        LUT5 (Prop_B6LUT_SLICEL_I4_O)
                                                      0.115     3.973 r  dut_inst/stage_g.3.pair_g.2.csn_cmp_inst/b_o_comb.idx_i_m4_0_lut6_2_o5_lut6_2_o6[7]/O
                         net (fo=2, routed)           0.109     4.082    dut_inst/stage_g.5.pair_g.6.csn_cmp_inst/N_53
    SLICE_X95Y551        LUT5 (Prop_A6LUT_SLICEM_I4_O)
                                                      0.100     4.182 r  dut_inst/stage_g.5.pair_g.6.csn_cmp_inst/b_o_comb.idx_i_m4_2_lut6_2_o5_lut6_2_o6[7]/O
                         net (fo=2, routed)           0.116     4.298    dut_inst/stage_g.4.pair_g.6.csn_cmp_inst/N_68
    SLICE_X95Y553        LUT5 (Prop_C5LUT_SLICEM_I4_O)
                                                      0.136     4.434 r  dut_inst/stage_g.4.pair_g.6.csn_cmp_inst/a_o_comb.idx_i_m2_lut6_2_o5_lut6_2_o6[7]/O
                         net (fo=2, routed)           0.193     4.627    dut_inst/stage_g.5.pair_g.3.csn_cmp_inst/N_87
    SLICE_X95Y553        LUT3 (Prop_F6LUT_SLICEM_I2_O)
                                                      0.062     4.689 r  dut_inst/stage_g.5.pair_g.3.csn_cmp_inst/a_o_comb.idx_lut6_2_o5_lut6_2_o6[7]/O
                         net (fo=2, routed)           0.364     5.053    dut_inst/stage_g.5.pair_g.3.csn_cmp_inst/idx_8[7]
    SLICE_X96Y552        LUT5 (Prop_C5LUT_SLICEL_I4_O)
                                                      0.135     5.188 f  dut_inst/stage_g.5.pair_g.3.csn_cmp_inst/b_o_comb.idx_RNIP7KN1_lut6_2_o5_lut6_2_o5[7]/O
                         net (fo=2, routed)           0.142     5.330    dut_inst/stage_g.5.pair_g.3.csn_cmp_inst/N_83_0
    SLICE_X96Y552        LUT5 (Prop_D5LUT_SLICEL_I4_O)
                                                      0.136     5.466 f  dut_inst/stage_g.5.pair_g.3.csn_cmp_inst/b_o_comb.idx_RNIIPHU2_lut6_2_o5_lut6_2_o5[7]/O
                         net (fo=2, routed)           0.188     5.654    dut_inst/stage_g.5.pair_g.3.csn_cmp_inst/N_102_0
    SLICE_X96Y552        LUT5 (Prop_F6LUT_SLICEL_I4_O)
                                                      0.098     5.752 r  dut_inst/stage_g.5.pair_g.3.csn_cmp_inst/b_o_comb.idx_RNIUFEK7_0_lut6_2_o5_lut6_2_o5[7]/O
                         net (fo=1, routed)           0.060     5.812    shift_reg_tap_o/idx_RNIUFEK7_0_lut6_2_o6_0
    SLICE_X96Y552        FDRE                                         r  shift_reg_tap_o/sr_p.sr_1[102]/D
  -------------------------------------------------------------------    -------------------

                         (clock clk rise edge)        3.572     3.572 r  
    AV33                                              0.000     3.572 r  clk (IN)
                         net (fo=0)                   0.000     3.572    clk_ibuf_iso/I
    AV33                 INBUF (Prop_INBUF_HPIOB_M_PAD_O)
                                                      0.510     4.082 r  clk_ibuf_iso/INBUF_INST/O
                         net (fo=1, routed)           0.000     4.082    clk_ibuf_iso/OUT
    AV33                 IBUFCTRL (Prop_IBUFCTRL_HPIOB_M_I_O)
                                                      0.000     4.082 r  clk_ibuf_iso/IBUFCTRL_INST/O
                         net (fo=1, routed)           0.296     4.378    clk_ibuf_iso
    BUFGCE_X1Y224        BUFGCE (Prop_BUFCE_BUFGCE_I_O)
                                                      0.024     4.402 r  clk_ibuf/O
    X3Y9 (CLOCK_ROOT)    net (fo=1010, routed)        1.340     5.742    shift_reg_tap_o/clk_c
    SLICE_X96Y552        FDRE                                         r  shift_reg_tap_o/sr_p.sr_1[102]/C
                         clock pessimism              0.404     6.146    
                         clock uncertainty           -0.035     6.111    
    SLICE_X96Y552        FDRE (Setup_FFF_SLICEL_C_D)
                                                      0.027     6.138    shift_reg_tap_o/sr_p.sr_1[102]
  -------------------------------------------------------------------
                         required time                          6.138    
                         arrival time                          -5.812    
  -------------------------------------------------------------------
                         slack                                  0.325    

Slack (MET) :             0.325ns  (required time - arrival time)
  Source:                 dut_inst/ret_array_1_12.idx_ret_14_11_DOUT[0]/C
                            (rising edge-triggered cell FDRE clocked by clk  {rise@0.000ns fall@1.786ns period=3.572ns})
  Destination:            shift_reg_tap_o/sr_p.sr_1[102]/D
                            (rising edge-triggered cell FDRE clocked by clk  {rise@0.000ns fall@1.786ns period=3.572ns})
  Path Group:             clk
  Path Type:              Setup (Max at Slow Process Corner)
  Requirement:            3.572ns  (clk rise@3.572ns - clk rise@0.000ns)
  Data Path Delay:        3.114ns  (logic 1.224ns (39.306%)  route 1.890ns (60.694%))
  Logic Levels:           9  (LUT3=2 LUT5=7)
  Clock Path Skew:        -0.124ns (DCD - SCD + CPR)
    Destination Clock Delay (DCD):    2.170ns = ( 5.742 - 3.572 ) 
    Source Clock Delay      (SCD):    2.698ns
    Clock Pessimism Removal (CPR):    0.404ns
  Clock Uncertainty:      0.035ns  ((TSJ^2 + TIJ^2)^1/2 + DJ) / 2 + PE
    Total System Jitter     (TSJ):    0.071ns
    Total Input Jitter      (TIJ):    0.000ns
    Discrete Jitter          (DJ):    0.000ns
    Phase Error              (PE):    0.000ns
  Clock Net Delay (Source):      1.557ns (routing 0.616ns, distribution 0.941ns)
  Clock Net Delay (Destination): 1.340ns (routing 0.562ns, distribution 0.778ns)

    Location             Delay type                Incr(ns)  Path(ns)    Netlist Resource(s)
  -------------------------------------------------------------------    -------------------
                         (clock clk rise edge)        0.000     0.000 r  
    AV33                                              0.000     0.000 r  clk (IN)
                         net (fo=0)                   0.000     0.000    clk_ibuf_iso/I
    AV33                 INBUF (Prop_INBUF_HPIOB_M_PAD_O)
                                                      0.779     0.779 r  clk_ibuf_iso/INBUF_INST/O
                         net (fo=1, routed)           0.000     0.779    clk_ibuf_iso/OUT
    AV33                 IBUFCTRL (Prop_IBUFCTRL_HPIOB_M_I_O)
                                                      0.000     0.779 r  clk_ibuf_iso/IBUFCTRL_INST/O
                         net (fo=1, routed)           0.334     1.113    clk_ibuf_iso
    BUFGCE_X1Y224        BUFGCE (Prop_BUFCE_BUFGCE_I_O)
                                                      0.028     1.141 r  clk_ibuf/O
    X3Y9 (CLOCK_ROOT)    net (fo=1010, routed)        1.557     2.698    dut_inst/clk_c
    SLICE_X99Y555        FDRE                                         r  dut_inst/ret_array_1_12.idx_ret_14_11_DOUT[0]/C
  -------------------------------------------------------------------    -------------------
    SLICE_X99Y555        FDRE (Prop_CFF_SLICEM_C_Q)
                                                      0.095     2.793 f  dut_inst/ret_array_1_12.idx_ret_14_11_DOUT[0]/Q
                         net (fo=2, routed)           0.325     3.118    dut_inst/stage_g.0.pair_g.2.csn_cmp_inst/muon_i_o_o_o_0
    SLICE_X95Y555        LUT3 (Prop_G6LUT_SLICEM_I1_O)
                                                      0.179     3.297 f  dut_inst/stage_g.0.pair_g.2.csn_cmp_inst/a_o_comb.idx_lut6_2_o5_lut6_2_o5[7]/O
                         net (fo=2, routed)           0.121     3.418    dut_inst/stage_g.3.pair_g.2.csn_cmp_inst/idx_3[7]
    SLICE_X94Y555        LUT5 (Prop_C5LUT_SLICEL_I4_O)
                                                      0.168     3.586 f  dut_inst/stage_g.3.pair_g.2.csn_cmp_inst/b_o_comb.idx_i_m4_1_lut6_2_o5_lut6_2_o5[7]/O
                         net (fo=2, routed)           0.272     3.858    dut_inst/stage_g.3.pair_g.2.csn_cmp_inst/N_51
    SLICE_X94Y551        LUT5 (Prop_B6LUT_SLICEL_I4_O)
                                                      0.115     3.973 f  dut_inst/stage_g.3.pair_g.2.csn_cmp_inst/b_o_comb.idx_i_m4_0_lut6_2_o5_lut6_2_o6[7]/O
                         net (fo=2, routed)           0.109     4.082    dut_inst/stage_g.5.pair_g.6.csn_cmp_inst/N_53
    SLICE_X95Y551        LUT5 (Prop_A6LUT_SLICEM_I4_O)
                                                      0.100     4.182 f  dut_inst/stage_g.5.pair_g.6.csn_cmp_inst/b_o_comb.idx_i_m4_2_lut6_2_o5_lut6_2_o6[7]/O
                         net (fo=2, routed)           0.116     4.298    dut_inst/stage_g.4.pair_g.6.csn_cmp_inst/N_68
    SLICE_X95Y553        LUT5 (Prop_C5LUT_SLICEM_I4_O)
                                                      0.136     4.434 f  dut_inst/stage_g.4.pair_g.6.csn_cmp_inst/a_o_comb.idx_i_m2_lut6_2_o5_lut6_2_o6[7]/O
                         net (fo=2, routed)           0.193     4.627    dut_inst/stage_g.5.pair_g.3.csn_cmp_inst/N_87
    SLICE_X95Y553        LUT3 (Prop_F6LUT_SLICEM_I2_O)
                                                      0.062     4.689 f  dut_inst/stage_g.5.pair_g.3.csn_cmp_inst/a_o_comb.idx_lut6_2_o5_lut6_2_o6[7]/O
                         net (fo=2, routed)           0.364     5.053    dut_inst/stage_g.5.pair_g.3.csn_cmp_inst/idx_8[7]
    SLICE_X96Y552        LUT5 (Prop_C5LUT_SLICEL_I4_O)
                                                      0.135     5.188 r  dut_inst/stage_g.5.pair_g.3.csn_cmp_inst/b_o_comb.idx_RNIP7KN1_lut6_2_o5_lut6_2_o5[7]/O
                         net (fo=2, routed)           0.142     5.330    dut_inst/stage_g.5.pair_g.3.csn_cmp_inst/N_83_0
    SLICE_X96Y552        LUT5 (Prop_D5LUT_SLICEL_I4_O)
                                                      0.136     5.466 r  dut_inst/stage_g.5.pair_g.3.csn_cmp_inst/b_o_comb.idx_RNIIPHU2_lut6_2_o5_lut6_2_o5[7]/O
                         net (fo=2, routed)           0.188     5.654    dut_inst/stage_g.5.pair_g.3.csn_cmp_inst/N_102_0
    SLICE_X96Y552        LUT5 (Prop_F6LUT_SLICEL_I4_O)
                                                      0.098     5.752 f  dut_inst/stage_g.5.pair_g.3.csn_cmp_inst/b_o_comb.idx_RNIUFEK7_0_lut6_2_o5_lut6_2_o5[7]/O
                         net (fo=1, routed)           0.060     5.812    shift_reg_tap_o/idx_RNIUFEK7_0_lut6_2_o6_0
    SLICE_X96Y552        FDRE                                         f  shift_reg_tap_o/sr_p.sr_1[102]/D
  -------------------------------------------------------------------    -------------------

                         (clock clk rise edge)        3.572     3.572 r  
    AV33                                              0.000     3.572 r  clk (IN)
                         net (fo=0)                   0.000     3.572    clk_ibuf_iso/I
    AV33                 INBUF (Prop_INBUF_HPIOB_M_PAD_O)
                                                      0.510     4.082 r  clk_ibuf_iso/INBUF_INST/O
                         net (fo=1, routed)           0.000     4.082    clk_ibuf_iso/OUT
    AV33                 IBUFCTRL (Prop_IBUFCTRL_HPIOB_M_I_O)
                                                      0.000     4.082 r  clk_ibuf_iso/IBUFCTRL_INST/O
                         net (fo=1, routed)           0.296     4.378    clk_ibuf_iso
    BUFGCE_X1Y224        BUFGCE (Prop_BUFCE_BUFGCE_I_O)
                                                      0.024     4.402 r  clk_ibuf/O
    X3Y9 (CLOCK_ROOT)    net (fo=1010, routed)        1.340     5.742    shift_reg_tap_o/clk_c
    SLICE_X96Y552        FDRE                                         r  shift_reg_tap_o/sr_p.sr_1[102]/C
                         clock pessimism              0.404     6.146    
                         clock uncertainty           -0.035     6.111    
    SLICE_X96Y552        FDRE (Setup_FFF_SLICEL_C_D)
                                                      0.027     6.138    shift_reg_tap_o/sr_p.sr_1[102]
  -------------------------------------------------------------------
                         required time                          6.138    
                         arrival time                          -5.812    
  -------------------------------------------------------------------
                         slack                                  0.325    





Pulse Width Checks
--------------------------------------------------------------------------------------
Clock Name:         clk
Waveform(ns):       { 0.000 1.786 }
Period(ns):         3.572
Sources:            { clk }

Check Type        Corner  Lib Pin     Reference Pin  Required(ns)  Actual(ns)  Slack(ns)  Location       Pin
Min Period        n/a     BUFGCE/I    n/a            1.499         3.572       2.073      BUFGCE_X1Y224  clk_ibuf/I
Min Period        n/a     SRL16E/CLK  n/a            1.146         3.572       2.426      SLICE_X97Y545  dut_inst/ret_array_1_12.idx_ret_0_0_ret_array_1_12.idx_ret_1/CLK
Min Period        n/a     SRL16E/CLK  n/a            1.146         3.572       2.426      SLICE_X95Y548  dut_inst/ret_array_1_12.idx_ret_0_10_ret_array_1_12.idx_ret_1/CLK
Min Period        n/a     SRL16E/CLK  n/a            1.146         3.572       2.426      SLICE_X99Y548  dut_inst/ret_array_1_12.idx_ret_0_11_ret_array_1_12.idx_ret_1/CLK
Min Period        n/a     SRL16E/CLK  n/a            1.146         3.572       2.426      SLICE_X97Y542  dut_inst/ret_array_1_12.idx_ret_0_12_ret_array_1_12.idx_ret_1/CLK
Low Pulse Width   Slow    SRL16E/CLK  n/a            0.573         1.786       1.213      SLICE_X97Y545  dut_inst/ret_array_1_12.idx_ret_0_0_ret_array_1_12.idx_ret_1/CLK
Low Pulse Width   Slow    SRL16E/CLK  n/a            0.573         1.786       1.213      SLICE_X97Y542  dut_inst/ret_array_1_12.idx_ret_0_12_ret_array_1_12.idx_ret_1/CLK
Low Pulse Width   Slow    SRL16E/CLK  n/a            0.573         1.786       1.213      SLICE_X99Y552  dut_inst/ret_array_1_12.idx_ret_13_1_ret_array_1_12.idx_ret_1/CLK
Low Pulse Width   Slow    SRL16E/CLK  n/a            0.573         1.786       1.213      SLICE_X99Y552  dut_inst/ret_array_1_12.idx_ret_2_2_ret_array_1_12.idx_ret_1/CLK
Low Pulse Width   Slow    SRL16E/CLK  n/a            0.573         1.786       1.213      SLICE_X97Y542  dut_inst/ret_array_1_12.idx_ret_2_4_ret_array_1_12.idx_ret_1/CLK
High Pulse Width  Fast    SRL16E/CLK  n/a            0.573         1.786       1.213      SLICE_X95Y548  dut_inst/ret_array_1_12.idx_ret_0_10_ret_array_1_12.idx_ret_1/CLK
High Pulse Width  Slow    SRL16E/CLK  n/a            0.573         1.786       1.213      SLICE_X99Y548  dut_inst/ret_array_1_12.idx_ret_0_11_ret_array_1_12.idx_ret_1/CLK
High Pulse Width  Fast    SRL16E/CLK  n/a            0.573         1.786       1.213      SLICE_X97Y542  dut_inst/ret_array_1_12.idx_ret_0_12_ret_array_1_12.idx_ret_1/CLK
High Pulse Width  Fast    SRL16E/CLK  n/a            0.573         1.786       1.213      SLICE_X99Y542  dut_inst/ret_array_1_12.idx_ret_0_13_ret_array_1_12.idx_ret_1/CLK
High Pulse Width  Fast    SRL16E/CLK  n/a            0.573         1.786       1.213      SLICE_X97Y556  dut_inst/ret_array_1_12.idx_ret_13_16_ret_array_1_12.idx_ret_1/CLK



---------------------------------------------------------------------------------------------------
From Clock:  clk_wrapper
  To Clock:  clk_wrapper

Setup :           NA  Failing Endpoints,  Worst Slack           NA  ,  Total Violation           NA
Hold  :           NA  Failing Endpoints,  Worst Slack           NA  ,  Total Violation           NA
PW    :            0  Failing Endpoints,  Worst Slack      498.562ns,  Total Violation        0.000ns
---------------------------------------------------------------------------------------------------


Pulse Width Checks
--------------------------------------------------------------------------------------
Clock Name:         clk_wrapper
Waveform(ns):       { 0.000 500.000 }
Period(ns):         1000.000
Sources:            { clk_wrapper }

Check Type        Corner  Lib Pin   Reference Pin  Required(ns)  Actual(ns)  Slack(ns)  Location               Pin
Min Period        n/a     FDRE/C    n/a            3.195         1000.000    996.805    BITSLICE_RX_TX_X1Y483  reducer_1/delay_block[4][0]/C
Min Period        n/a     BUFGCE/I  n/a            1.499         1000.000    998.501    BUFGCE_X1Y230          clk_wrapper_ibuf/I
Min Period        n/a     FDRE/C    n/a            0.550         1000.000    999.450    SLICE_X95Y547          lsfr_1/shiftreg_vector[115]/C
Min Period        n/a     FDRE/C    n/a            0.550         1000.000    999.450    SLICE_X93Y549          lsfr_1/shiftreg_vector[116]/C
Min Period        n/a     FDRE/C    n/a            0.550         1000.000    999.450    SLICE_X93Y549          lsfr_1/shiftreg_vector[117]/C
Low Pulse Width   Slow    FDRE/C    n/a            1.438         500.000     498.562    BITSLICE_RX_TX_X1Y483  reducer_1/delay_block[4][0]/C
Low Pulse Width   Fast    FDRE/C    n/a            1.438         500.000     498.562    BITSLICE_RX_TX_X1Y483  reducer_1/delay_block[4][0]/C
Low Pulse Width   Slow    FDRE/C    n/a            0.275         500.000     499.725    SLICE_X95Y547          lsfr_1/shiftreg_vector[115]/C
Low Pulse Width   Slow    FDRE/C    n/a            0.275         500.000     499.725    SLICE_X93Y549          lsfr_1/shiftreg_vector[116]/C
Low Pulse Width   Slow    FDRE/C    n/a            0.275         500.000     499.725    SLICE_X93Y549          lsfr_1/shiftreg_vector[117]/C
High Pulse Width  Fast    FDRE/C    n/a            1.438         500.000     498.562    BITSLICE_RX_TX_X1Y483  reducer_1/delay_block[4][0]/C
High Pulse Width  Slow    FDRE/C    n/a            1.438         500.000     498.562    BITSLICE_RX_TX_X1Y483  reducer_1/delay_block[4][0]/C
High Pulse Width  Fast    FDRE/C    n/a            0.275         500.000     499.725    SLICE_X93Y549          lsfr_1/shiftreg_vector[116]/C
High Pulse Width  Fast    FDRE/C    n/a            0.275         500.000     499.725    SLICE_X93Y549          lsfr_1/shiftreg_vector[117]/C
High Pulse Width  Fast    FDRE/C    n/a            0.275         500.000     499.725    SLICE_X93Y549          lsfr_1/shiftreg_vector[118]/C



