Copyright 1986-2018 Xilinx, Inc. All Rights Reserved.
-------------------------------------------------------------------------------------------------
| Tool Version      : Vivado v.2018.2 (win64) Build 2258646 Thu Jun 14 20:03:12 MDT 2018
| Date              : Wed Mar  6 15:11:24 2019
| Host              : PCPHESEBE02 running 64-bit Service Pack 1  (build 7601)
| Command           : report_timing_summary -setup -nworst 5 -max_paths 5 -file timing_setup.txt
| Design            : wrapper_csn
| Device            : xcvu9p-flgc2104
| Speed File        : -1  PRODUCTION 1.20 05-21-2018
| Temperature Grade : E
-------------------------------------------------------------------------------------------------

Timing Summary Report

------------------------------------------------------------------------------------------------
| Timer Settings
| --------------
------------------------------------------------------------------------------------------------

  Enable Multi Corner Analysis               :  Yes
  Enable Pessimism Removal                   :  Yes
  Pessimism Removal Resolution               :  Nearest Common Node
  Enable Input Delay Default Clock           :  No
  Enable Preset / Clear Arcs                 :  No
  Disable Flight Delays                      :  No
  Ignore I/O Paths                           :  No
  Timing Early Launch at Borrowing Latches   :  false

  Corner  Analyze    Analyze    
  Name    Max Paths  Min Paths  
  ------  ---------  ---------  
  Slow    Yes        Yes        
  Fast    Yes        Yes        



check_timing report

Table of Contents
-----------------
1. checking no_clock
2. checking constant_clock
3. checking pulse_width_clock
4. checking unconstrained_internal_endpoints
5. checking no_input_delay
6. checking no_output_delay
7. checking multiple_clock
8. checking generated_clocks
9. checking loops
10. checking partial_input_delay
11. checking partial_output_delay
12. checking latch_loops

1. checking no_clock
--------------------
 There are 0 register/latch pins with no clock.


2. checking constant_clock
--------------------------
 There are 0 register/latch pins with constant_clock.


3. checking pulse_width_clock
-----------------------------
 There are 0 register/latch pins which need pulse_width check


4. checking unconstrained_internal_endpoints
--------------------------------------------
 There are 0 pins that are not constrained for maximum delay.

 There are 0 pins that are not constrained for maximum delay due to constant clock.


5. checking no_input_delay
--------------------------
 There is 1 input port with no input delay specified. (HIGH)

 There are 0 input ports with no input delay but user has a false path constraint.


6. checking no_output_delay
---------------------------
 There is 1 port with no output delay specified. (HIGH)

 There are 0 ports with no output delay but user has a false path constraint

 There are 0 ports with no output delay but with a timing clock defined on it or propagating through it


7. checking multiple_clock
--------------------------
 There are 0 register/latch pins with multiple clocks.


8. checking generated_clocks
----------------------------
 There are 0 generated clocks that are not connected to a clock source.


9. checking loops
-----------------
 There are 0 combinational loops in the design.


10. checking partial_input_delay
--------------------------------
 There are 0 input ports with partial input delay specified.


11. checking partial_output_delay
---------------------------------
 There are 0 ports with partial output delay specified.


12. checking latch_loops
------------------------
 There are 0 combinational latch loops in the design through latch input



------------------------------------------------------------------------------------------------
| Design Timing Summary
| ---------------------
------------------------------------------------------------------------------------------------

    WNS(ns)      TNS(ns)  TNS Failing Endpoints  TNS Total Endpoints     WPWS(ns)     TPWS(ns)  TPWS Failing Endpoints  TPWS Total Endpoints  
    -------      -------  ---------------------  -------------------     --------     --------  ----------------------  --------------------  
      0.436        0.000                      0                  994        1.213        0.000                       0                  1691  


All user specified timing constraints are met.


------------------------------------------------------------------------------------------------
| Clock Summary
| -------------
------------------------------------------------------------------------------------------------

Clock        Waveform(ns)         Period(ns)      Frequency(MHz)
-----        ------------         ----------      --------------
clk          {0.000 1.786}        3.572           279.955         
clk_wrapper  {0.000 500.000}      1000.000        1.000           


------------------------------------------------------------------------------------------------
| Intra Clock Table
| -----------------
------------------------------------------------------------------------------------------------

Clock             WNS(ns)      TNS(ns)  TNS Failing Endpoints  TNS Total Endpoints     WPWS(ns)     TPWS(ns)  TPWS Failing Endpoints  TPWS Total Endpoints  
-----             -------      -------  ---------------------  -------------------     --------     --------  ----------------------  --------------------  
clk                 0.436        0.000                      0                  994        1.213        0.000                       0                  1203  
clk_wrapper                                                                             498.562        0.000                       0                   488  


------------------------------------------------------------------------------------------------
| Inter Clock Table
| -----------------
------------------------------------------------------------------------------------------------

From Clock    To Clock          WNS(ns)      TNS(ns)  TNS Failing Endpoints  TNS Total Endpoints  
----------    --------          -------      -------  ---------------------  -------------------  


------------------------------------------------------------------------------------------------
| Other Path Groups Table
| -----------------------
------------------------------------------------------------------------------------------------

Path Group    From Clock    To Clock          WNS(ns)      TNS(ns)  TNS Failing Endpoints  TNS Total Endpoints  
----------    ----------    --------          -------      -------  ---------------------  -------------------  


------------------------------------------------------------------------------------------------
| Timing Details
| --------------
------------------------------------------------------------------------------------------------


---------------------------------------------------------------------------------------------------
From Clock:  clk
  To Clock:  clk

Setup :            0  Failing Endpoints,  Worst Slack        0.436ns,  Total Violation        0.000ns
Hold  :           NA  Failing Endpoints,  Worst Slack           NA  ,  Total Violation           NA
PW    :            0  Failing Endpoints,  Worst Slack        1.213ns,  Total Violation        0.000ns
---------------------------------------------------------------------------------------------------


Max Delay Paths
--------------------------------------------------------------------------------------
Slack (MET) :             0.436ns  (required time - arrival time)
  Source:                 shift_reg_tap_i/sr_p.sr_1[143]/C
                            (rising edge-triggered cell FDRE clocked by clk  {rise@0.000ns fall@1.786ns period=3.572ns})
  Destination:            dut_inst/ret_array_1_8.idx_ret_115[0]/D
                            (rising edge-triggered cell FDRE clocked by clk  {rise@0.000ns fall@1.786ns period=3.572ns})
  Path Group:             clk
  Path Type:              Setup (Max at Slow Process Corner)
  Requirement:            3.572ns  (clk rise@3.572ns - clk rise@0.000ns)
  Data Path Delay:        3.040ns  (logic 1.159ns (38.125%)  route 1.881ns (61.875%))
  Logic Levels:           9  (LUT3=2 LUT4=1 LUT5=5 LUT6=1)
  Clock Path Skew:        -0.088ns (DCD - SCD + CPR)
    Destination Clock Delay (DCD):    2.153ns = ( 5.725 - 3.572 ) 
    Source Clock Delay      (SCD):    2.645ns
    Clock Pessimism Removal (CPR):    0.404ns
  Clock Uncertainty:      0.035ns  ((TSJ^2 + TIJ^2)^1/2 + DJ) / 2 + PE
    Total System Jitter     (TSJ):    0.071ns
    Total Input Jitter      (TIJ):    0.000ns
    Discrete Jitter          (DJ):    0.000ns
    Phase Error              (PE):    0.000ns
  Clock Net Delay (Source):      1.504ns (routing 0.616ns, distribution 0.888ns)
  Clock Net Delay (Destination): 1.323ns (routing 0.562ns, distribution 0.761ns)

    Location             Delay type                Incr(ns)  Path(ns)    Netlist Resource(s)
  -------------------------------------------------------------------    -------------------
                         (clock clk rise edge)        0.000     0.000 r  
    AV33                                              0.000     0.000 r  clk (IN)
                         net (fo=0)                   0.000     0.000    clk_ibuf_iso/I
    AV33                 INBUF (Prop_INBUF_HPIOB_M_PAD_O)
                                                      0.779     0.779 r  clk_ibuf_iso/INBUF_INST/O
                         net (fo=1, routed)           0.000     0.779    clk_ibuf_iso/OUT
    AV33                 IBUFCTRL (Prop_IBUFCTRL_HPIOB_M_I_O)
                                                      0.000     0.779 r  clk_ibuf_iso/IBUFCTRL_INST/O
                         net (fo=1, routed)           0.334     1.113    clk_ibuf_iso
    BUFGCE_X1Y224        BUFGCE (Prop_BUFCE_BUFGCE_I_O)
                                                      0.028     1.141 r  clk_ibuf/O
    X3Y9 (CLOCK_ROOT)    net (fo=1202, routed)        1.504     2.645    shift_reg_tap_i/clk_c
    SLICE_X92Y589        FDRE                                         r  shift_reg_tap_i/sr_p.sr_1[143]/C
  -------------------------------------------------------------------    -------------------
    SLICE_X92Y589        FDRE (Prop_DFF2_SLICEM_C_Q)
                                                      0.098     2.743 f  shift_reg_tap_i/sr_p.sr_1[143]/Q
                         net (fo=7, routed)           0.274     3.017    dut_inst/stage_g.0.pair_g.5.csn_cmp_inst/input_slr_13
    SLICE_X92Y589        LUT4 (Prop_H5LUT_SLICEM_I1_O)
                                                      0.135     3.152 r  dut_inst/stage_g.0.pair_g.5.csn_cmp_inst/un1_b_i_c2_lut6_2_o5_lut6_2_o5/O
                         net (fo=1, routed)           0.271     3.423    dut_inst/stage_g.0.pair_g.5.csn_cmp_inst/un1_b_i_c2_lut6_2_o6_0
    SLICE_X92Y589        LUT5 (Prop_G5LUT_SLICEM_I4_O)
                                                      0.201     3.624 r  dut_inst/stage_g.0.pair_g.5.csn_cmp_inst/un1_b_i_c4_lut6_2_o5_lut6_2_o5/O
                         net (fo=9, routed)           0.321     3.945    dut_inst/stage_g.0.pair_g.5.csn_cmp_inst/un1_b_i_10
    SLICE_X92Y589        LUT3 (Prop_H6LUT_SLICEM_I2_O)
                                                      0.100     4.045 f  dut_inst/stage_g.0.pair_g.5.csn_cmp_inst/un1_b_i_c2_lut6_2_o5_lut6_2_o6/O
                         net (fo=3, routed)           0.057     4.102    dut_inst/stage_g.1.pair_g.4.csn_cmp_inst/pt_97_0
    SLICE_X92Y589        LUT6 (Prop_E6LUT_SLICEM_I5_O)
                                                      0.101     4.203 r  dut_inst/stage_g.1.pair_g.4.csn_cmp_inst/un1_b_i_c2/O
                         net (fo=1, routed)           0.048     4.251    dut_inst/stage_g.1.pair_g.4.csn_cmp_inst/un1_b_i_c2_16
    SLICE_X92Y589        LUT5 (Prop_C6LUT_SLICEM_I4_O)
                                                      0.038     4.289 r  dut_inst/stage_g.1.pair_g.4.csn_cmp_inst/un1_b_i_c3/O
                         net (fo=3, routed)           0.204     4.493    dut_inst/stage_g.1.pair_g.4.csn_cmp_inst/un1_b_i_c3_3
    SLICE_X91Y589        LUT5 (Prop_D5LUT_SLICEL_I4_O)
                                                      0.164     4.657 r  dut_inst/stage_g.1.pair_g.4.csn_cmp_inst/un1_b_i_c4_lut6_2_o5_lut6_2_o5/O
                         net (fo=5, routed)           0.153     4.810    dut_inst/stage_g.1.pair_g.4.csn_cmp_inst/un1_b_i_25
    SLICE_X92Y589        LUT5 (Prop_D5LUT_SLICEM_I4_O)
                                                      0.136     4.946 r  dut_inst/stage_g.1.pair_g.4.csn_cmp_inst/a_o_comb.pt_lut6_2_o5_lut6_2_o5[2]/O
                         net (fo=3, routed)           0.325     5.271    dut_inst/stage_g.2.pair_g.4.csn_cmp_inst/pt_79_0
    SLICE_X95Y589        LUT5 (Prop_E6LUT_SLICEM_I2_O)
                                                      0.148     5.419 r  dut_inst/stage_g.2.pair_g.4.csn_cmp_inst/un1_b_i_c4/O
                         net (fo=5, routed)           0.169     5.588    dut_inst/stage_g.2.pair_g.4.csn_cmp_inst/un1_b_i_34
    SLICE_X94Y590        LUT3 (Prop_C6LUT_SLICEL_I2_O)
                                                      0.038     5.626 r  dut_inst/stage_g.2.pair_g.4.csn_cmp_inst/b_o_comb.pt[0]/O
                         net (fo=1, routed)           0.059     5.685    dut_inst/pt_23[0]
    SLICE_X94Y590        FDRE                                         r  dut_inst/ret_array_1_8.idx_ret_115[0]/D
  -------------------------------------------------------------------    -------------------

                         (clock clk rise edge)        3.572     3.572 r  
    AV33                                              0.000     3.572 r  clk (IN)
                         net (fo=0)                   0.000     3.572    clk_ibuf_iso/I
    AV33                 INBUF (Prop_INBUF_HPIOB_M_PAD_O)
                                                      0.510     4.082 r  clk_ibuf_iso/INBUF_INST/O
                         net (fo=1, routed)           0.000     4.082    clk_ibuf_iso/OUT
    AV33                 IBUFCTRL (Prop_IBUFCTRL_HPIOB_M_I_O)
                                                      0.000     4.082 r  clk_ibuf_iso/IBUFCTRL_INST/O
                         net (fo=1, routed)           0.296     4.378    clk_ibuf_iso
    BUFGCE_X1Y224        BUFGCE (Prop_BUFCE_BUFGCE_I_O)
                                                      0.024     4.402 r  clk_ibuf/O
    X3Y9 (CLOCK_ROOT)    net (fo=1202, routed)        1.323     5.725    dut_inst/clk_c
    SLICE_X94Y590        FDRE                                         r  dut_inst/ret_array_1_8.idx_ret_115[0]/C
                         clock pessimism              0.404     6.129    
                         clock uncertainty           -0.035     6.094    
    SLICE_X94Y590        FDRE (Setup_CFF_SLICEL_C_D)
                                                      0.027     6.121    dut_inst/ret_array_1_8.idx_ret_115[0]
  -------------------------------------------------------------------
                         required time                          6.121    
                         arrival time                          -5.685    
  -------------------------------------------------------------------
                         slack                                  0.436    

Slack (MET) :             0.436ns  (required time - arrival time)
  Source:                 shift_reg_tap_i/sr_p.sr_1[143]/C
                            (rising edge-triggered cell FDRE clocked by clk  {rise@0.000ns fall@1.786ns period=3.572ns})
  Destination:            dut_inst/ret_array_1_8.idx_ret_115[0]/D
                            (rising edge-triggered cell FDRE clocked by clk  {rise@0.000ns fall@1.786ns period=3.572ns})
  Path Group:             clk
  Path Type:              Setup (Max at Slow Process Corner)
  Requirement:            3.572ns  (clk rise@3.572ns - clk rise@0.000ns)
  Data Path Delay:        3.040ns  (logic 1.159ns (38.125%)  route 1.881ns (61.875%))
  Logic Levels:           9  (LUT3=2 LUT4=1 LUT5=5 LUT6=1)
  Clock Path Skew:        -0.088ns (DCD - SCD + CPR)
    Destination Clock Delay (DCD):    2.153ns = ( 5.725 - 3.572 ) 
    Source Clock Delay      (SCD):    2.645ns
    Clock Pessimism Removal (CPR):    0.404ns
  Clock Uncertainty:      0.035ns  ((TSJ^2 + TIJ^2)^1/2 + DJ) / 2 + PE
    Total System Jitter     (TSJ):    0.071ns
    Total Input Jitter      (TIJ):    0.000ns
    Discrete Jitter          (DJ):    0.000ns
    Phase Error              (PE):    0.000ns
  Clock Net Delay (Source):      1.504ns (routing 0.616ns, distribution 0.888ns)
  Clock Net Delay (Destination): 1.323ns (routing 0.562ns, distribution 0.761ns)

    Location             Delay type                Incr(ns)  Path(ns)    Netlist Resource(s)
  -------------------------------------------------------------------    -------------------
                         (clock clk rise edge)        0.000     0.000 r  
    AV33                                              0.000     0.000 r  clk (IN)
                         net (fo=0)                   0.000     0.000    clk_ibuf_iso/I
    AV33                 INBUF (Prop_INBUF_HPIOB_M_PAD_O)
                                                      0.779     0.779 r  clk_ibuf_iso/INBUF_INST/O
                         net (fo=1, routed)           0.000     0.779    clk_ibuf_iso/OUT
    AV33                 IBUFCTRL (Prop_IBUFCTRL_HPIOB_M_I_O)
                                                      0.000     0.779 r  clk_ibuf_iso/IBUFCTRL_INST/O
                         net (fo=1, routed)           0.334     1.113    clk_ibuf_iso
    BUFGCE_X1Y224        BUFGCE (Prop_BUFCE_BUFGCE_I_O)
                                                      0.028     1.141 r  clk_ibuf/O
    X3Y9 (CLOCK_ROOT)    net (fo=1202, routed)        1.504     2.645    shift_reg_tap_i/clk_c
    SLICE_X92Y589        FDRE                                         r  shift_reg_tap_i/sr_p.sr_1[143]/C
  -------------------------------------------------------------------    -------------------
    SLICE_X92Y589        FDRE (Prop_DFF2_SLICEM_C_Q)
                                                      0.098     2.743 f  shift_reg_tap_i/sr_p.sr_1[143]/Q
                         net (fo=7, routed)           0.274     3.017    dut_inst/stage_g.0.pair_g.5.csn_cmp_inst/input_slr_13
    SLICE_X92Y589        LUT4 (Prop_H5LUT_SLICEM_I1_O)
                                                      0.135     3.152 r  dut_inst/stage_g.0.pair_g.5.csn_cmp_inst/un1_b_i_c2_lut6_2_o5_lut6_2_o5/O
                         net (fo=1, routed)           0.271     3.423    dut_inst/stage_g.0.pair_g.5.csn_cmp_inst/un1_b_i_c2_lut6_2_o6_0
    SLICE_X92Y589        LUT5 (Prop_G5LUT_SLICEM_I4_O)
                                                      0.201     3.624 r  dut_inst/stage_g.0.pair_g.5.csn_cmp_inst/un1_b_i_c4_lut6_2_o5_lut6_2_o5/O
                         net (fo=9, routed)           0.321     3.945    dut_inst/stage_g.0.pair_g.5.csn_cmp_inst/un1_b_i_10
    SLICE_X92Y589        LUT3 (Prop_H6LUT_SLICEM_I2_O)
                                                      0.100     4.045 r  dut_inst/stage_g.0.pair_g.5.csn_cmp_inst/un1_b_i_c2_lut6_2_o5_lut6_2_o6/O
                         net (fo=3, routed)           0.057     4.102    dut_inst/stage_g.1.pair_g.4.csn_cmp_inst/pt_97_0
    SLICE_X92Y589        LUT6 (Prop_E6LUT_SLICEM_I5_O)
                                                      0.101     4.203 f  dut_inst/stage_g.1.pair_g.4.csn_cmp_inst/un1_b_i_c2/O
                         net (fo=1, routed)           0.048     4.251    dut_inst/stage_g.1.pair_g.4.csn_cmp_inst/un1_b_i_c2_16
    SLICE_X92Y589        LUT5 (Prop_C6LUT_SLICEM_I4_O)
                                                      0.038     4.289 f  dut_inst/stage_g.1.pair_g.4.csn_cmp_inst/un1_b_i_c3/O
                         net (fo=3, routed)           0.204     4.493    dut_inst/stage_g.1.pair_g.4.csn_cmp_inst/un1_b_i_c3_3
    SLICE_X91Y589        LUT5 (Prop_D5LUT_SLICEL_I4_O)
                                                      0.164     4.657 f  dut_inst/stage_g.1.pair_g.4.csn_cmp_inst/un1_b_i_c4_lut6_2_o5_lut6_2_o5/O
                         net (fo=5, routed)           0.153     4.810    dut_inst/stage_g.1.pair_g.4.csn_cmp_inst/un1_b_i_25
    SLICE_X92Y589        LUT5 (Prop_D5LUT_SLICEM_I4_O)
                                                      0.136     4.946 r  dut_inst/stage_g.1.pair_g.4.csn_cmp_inst/a_o_comb.pt_lut6_2_o5_lut6_2_o5[2]/O
                         net (fo=3, routed)           0.325     5.271    dut_inst/stage_g.2.pair_g.4.csn_cmp_inst/pt_79_0
    SLICE_X95Y589        LUT5 (Prop_E6LUT_SLICEM_I2_O)
                                                      0.148     5.419 r  dut_inst/stage_g.2.pair_g.4.csn_cmp_inst/un1_b_i_c4/O
                         net (fo=5, routed)           0.169     5.588    dut_inst/stage_g.2.pair_g.4.csn_cmp_inst/un1_b_i_34
    SLICE_X94Y590        LUT3 (Prop_C6LUT_SLICEL_I2_O)
                                                      0.038     5.626 r  dut_inst/stage_g.2.pair_g.4.csn_cmp_inst/b_o_comb.pt[0]/O
                         net (fo=1, routed)           0.059     5.685    dut_inst/pt_23[0]
    SLICE_X94Y590        FDRE                                         r  dut_inst/ret_array_1_8.idx_ret_115[0]/D
  -------------------------------------------------------------------    -------------------

                         (clock clk rise edge)        3.572     3.572 r  
    AV33                                              0.000     3.572 r  clk (IN)
                         net (fo=0)                   0.000     3.572    clk_ibuf_iso/I
    AV33                 INBUF (Prop_INBUF_HPIOB_M_PAD_O)
                                                      0.510     4.082 r  clk_ibuf_iso/INBUF_INST/O
                         net (fo=1, routed)           0.000     4.082    clk_ibuf_iso/OUT
    AV33                 IBUFCTRL (Prop_IBUFCTRL_HPIOB_M_I_O)
                                                      0.000     4.082 r  clk_ibuf_iso/IBUFCTRL_INST/O
                         net (fo=1, routed)           0.296     4.378    clk_ibuf_iso
    BUFGCE_X1Y224        BUFGCE (Prop_BUFCE_BUFGCE_I_O)
                                                      0.024     4.402 r  clk_ibuf/O
    X3Y9 (CLOCK_ROOT)    net (fo=1202, routed)        1.323     5.725    dut_inst/clk_c
    SLICE_X94Y590        FDRE                                         r  dut_inst/ret_array_1_8.idx_ret_115[0]/C
                         clock pessimism              0.404     6.129    
                         clock uncertainty           -0.035     6.094    
    SLICE_X94Y590        FDRE (Setup_CFF_SLICEL_C_D)
                                                      0.027     6.121    dut_inst/ret_array_1_8.idx_ret_115[0]
  -------------------------------------------------------------------
                         required time                          6.121    
                         arrival time                          -5.685    
  -------------------------------------------------------------------
                         slack                                  0.436    

Slack (MET) :             0.436ns  (required time - arrival time)
  Source:                 shift_reg_tap_i/sr_p.sr_1[143]/C
                            (rising edge-triggered cell FDRE clocked by clk  {rise@0.000ns fall@1.786ns period=3.572ns})
  Destination:            dut_inst/ret_array_1_8.idx_ret_115[0]/D
                            (rising edge-triggered cell FDRE clocked by clk  {rise@0.000ns fall@1.786ns period=3.572ns})
  Path Group:             clk
  Path Type:              Setup (Max at Slow Process Corner)
  Requirement:            3.572ns  (clk rise@3.572ns - clk rise@0.000ns)
  Data Path Delay:        3.040ns  (logic 1.159ns (38.125%)  route 1.881ns (61.875%))
  Logic Levels:           9  (LUT3=2 LUT4=1 LUT5=5 LUT6=1)
  Clock Path Skew:        -0.088ns (DCD - SCD + CPR)
    Destination Clock Delay (DCD):    2.153ns = ( 5.725 - 3.572 ) 
    Source Clock Delay      (SCD):    2.645ns
    Clock Pessimism Removal (CPR):    0.404ns
  Clock Uncertainty:      0.035ns  ((TSJ^2 + TIJ^2)^1/2 + DJ) / 2 + PE
    Total System Jitter     (TSJ):    0.071ns
    Total Input Jitter      (TIJ):    0.000ns
    Discrete Jitter          (DJ):    0.000ns
    Phase Error              (PE):    0.000ns
  Clock Net Delay (Source):      1.504ns (routing 0.616ns, distribution 0.888ns)
  Clock Net Delay (Destination): 1.323ns (routing 0.562ns, distribution 0.761ns)

    Location             Delay type                Incr(ns)  Path(ns)    Netlist Resource(s)
  -------------------------------------------------------------------    -------------------
                         (clock clk rise edge)        0.000     0.000 r  
    AV33                                              0.000     0.000 r  clk (IN)
                         net (fo=0)                   0.000     0.000    clk_ibuf_iso/I
    AV33                 INBUF (Prop_INBUF_HPIOB_M_PAD_O)
                                                      0.779     0.779 r  clk_ibuf_iso/INBUF_INST/O
                         net (fo=1, routed)           0.000     0.779    clk_ibuf_iso/OUT
    AV33                 IBUFCTRL (Prop_IBUFCTRL_HPIOB_M_I_O)
                                                      0.000     0.779 r  clk_ibuf_iso/IBUFCTRL_INST/O
                         net (fo=1, routed)           0.334     1.113    clk_ibuf_iso
    BUFGCE_X1Y224        BUFGCE (Prop_BUFCE_BUFGCE_I_O)
                                                      0.028     1.141 r  clk_ibuf/O
    X3Y9 (CLOCK_ROOT)    net (fo=1202, routed)        1.504     2.645    shift_reg_tap_i/clk_c
    SLICE_X92Y589        FDRE                                         r  shift_reg_tap_i/sr_p.sr_1[143]/C
  -------------------------------------------------------------------    -------------------
    SLICE_X92Y589        FDRE (Prop_DFF2_SLICEM_C_Q)
                                                      0.098     2.743 r  shift_reg_tap_i/sr_p.sr_1[143]/Q
                         net (fo=7, routed)           0.274     3.017    dut_inst/stage_g.0.pair_g.5.csn_cmp_inst/input_slr_13
    SLICE_X92Y589        LUT4 (Prop_H5LUT_SLICEM_I1_O)
                                                      0.135     3.152 f  dut_inst/stage_g.0.pair_g.5.csn_cmp_inst/un1_b_i_c2_lut6_2_o5_lut6_2_o5/O
                         net (fo=1, routed)           0.271     3.423    dut_inst/stage_g.0.pair_g.5.csn_cmp_inst/un1_b_i_c2_lut6_2_o6_0
    SLICE_X92Y589        LUT5 (Prop_G5LUT_SLICEM_I4_O)
                                                      0.201     3.624 f  dut_inst/stage_g.0.pair_g.5.csn_cmp_inst/un1_b_i_c4_lut6_2_o5_lut6_2_o5/O
                         net (fo=9, routed)           0.321     3.945    dut_inst/stage_g.0.pair_g.5.csn_cmp_inst/un1_b_i_10
    SLICE_X92Y589        LUT3 (Prop_H6LUT_SLICEM_I2_O)
                                                      0.100     4.045 r  dut_inst/stage_g.0.pair_g.5.csn_cmp_inst/un1_b_i_c2_lut6_2_o5_lut6_2_o6/O
                         net (fo=3, routed)           0.057     4.102    dut_inst/stage_g.1.pair_g.4.csn_cmp_inst/pt_97_0
    SLICE_X92Y589        LUT6 (Prop_E6LUT_SLICEM_I5_O)
                                                      0.101     4.203 f  dut_inst/stage_g.1.pair_g.4.csn_cmp_inst/un1_b_i_c2/O
                         net (fo=1, routed)           0.048     4.251    dut_inst/stage_g.1.pair_g.4.csn_cmp_inst/un1_b_i_c2_16
    SLICE_X92Y589        LUT5 (Prop_C6LUT_SLICEM_I4_O)
                                                      0.038     4.289 f  dut_inst/stage_g.1.pair_g.4.csn_cmp_inst/un1_b_i_c3/O
                         net (fo=3, routed)           0.204     4.493    dut_inst/stage_g.1.pair_g.4.csn_cmp_inst/un1_b_i_c3_3
    SLICE_X91Y589        LUT5 (Prop_D5LUT_SLICEL_I4_O)
                                                      0.164     4.657 f  dut_inst/stage_g.1.pair_g.4.csn_cmp_inst/un1_b_i_c4_lut6_2_o5_lut6_2_o5/O
                         net (fo=5, routed)           0.153     4.810    dut_inst/stage_g.1.pair_g.4.csn_cmp_inst/un1_b_i_25
    SLICE_X92Y589        LUT5 (Prop_D5LUT_SLICEM_I4_O)
                                                      0.136     4.946 r  dut_inst/stage_g.1.pair_g.4.csn_cmp_inst/a_o_comb.pt_lut6_2_o5_lut6_2_o5[2]/O
                         net (fo=3, routed)           0.325     5.271    dut_inst/stage_g.2.pair_g.4.csn_cmp_inst/pt_79_0
    SLICE_X95Y589        LUT5 (Prop_E6LUT_SLICEM_I2_O)
                                                      0.148     5.419 r  dut_inst/stage_g.2.pair_g.4.csn_cmp_inst/un1_b_i_c4/O
                         net (fo=5, routed)           0.169     5.588    dut_inst/stage_g.2.pair_g.4.csn_cmp_inst/un1_b_i_34
    SLICE_X94Y590        LUT3 (Prop_C6LUT_SLICEL_I2_O)
                                                      0.038     5.626 r  dut_inst/stage_g.2.pair_g.4.csn_cmp_inst/b_o_comb.pt[0]/O
                         net (fo=1, routed)           0.059     5.685    dut_inst/pt_23[0]
    SLICE_X94Y590        FDRE                                         r  dut_inst/ret_array_1_8.idx_ret_115[0]/D
  -------------------------------------------------------------------    -------------------

                         (clock clk rise edge)        3.572     3.572 r  
    AV33                                              0.000     3.572 r  clk (IN)
                         net (fo=0)                   0.000     3.572    clk_ibuf_iso/I
    AV33                 INBUF (Prop_INBUF_HPIOB_M_PAD_O)
                                                      0.510     4.082 r  clk_ibuf_iso/INBUF_INST/O
                         net (fo=1, routed)           0.000     4.082    clk_ibuf_iso/OUT
    AV33                 IBUFCTRL (Prop_IBUFCTRL_HPIOB_M_I_O)
                                                      0.000     4.082 r  clk_ibuf_iso/IBUFCTRL_INST/O
                         net (fo=1, routed)           0.296     4.378    clk_ibuf_iso
    BUFGCE_X1Y224        BUFGCE (Prop_BUFCE_BUFGCE_I_O)
                                                      0.024     4.402 r  clk_ibuf/O
    X3Y9 (CLOCK_ROOT)    net (fo=1202, routed)        1.323     5.725    dut_inst/clk_c
    SLICE_X94Y590        FDRE                                         r  dut_inst/ret_array_1_8.idx_ret_115[0]/C
                         clock pessimism              0.404     6.129    
                         clock uncertainty           -0.035     6.094    
    SLICE_X94Y590        FDRE (Setup_CFF_SLICEL_C_D)
                                                      0.027     6.121    dut_inst/ret_array_1_8.idx_ret_115[0]
  -------------------------------------------------------------------
                         required time                          6.121    
                         arrival time                          -5.685    
  -------------------------------------------------------------------
                         slack                                  0.436    

Slack (MET) :             0.436ns  (required time - arrival time)
  Source:                 shift_reg_tap_i/sr_p.sr_1[143]/C
                            (rising edge-triggered cell FDRE clocked by clk  {rise@0.000ns fall@1.786ns period=3.572ns})
  Destination:            dut_inst/ret_array_1_8.idx_ret_115[0]/D
                            (rising edge-triggered cell FDRE clocked by clk  {rise@0.000ns fall@1.786ns period=3.572ns})
  Path Group:             clk
  Path Type:              Setup (Max at Slow Process Corner)
  Requirement:            3.572ns  (clk rise@3.572ns - clk rise@0.000ns)
  Data Path Delay:        3.040ns  (logic 1.159ns (38.125%)  route 1.881ns (61.875%))
  Logic Levels:           9  (LUT3=2 LUT4=1 LUT5=5 LUT6=1)
  Clock Path Skew:        -0.088ns (DCD - SCD + CPR)
    Destination Clock Delay (DCD):    2.153ns = ( 5.725 - 3.572 ) 
    Source Clock Delay      (SCD):    2.645ns
    Clock Pessimism Removal (CPR):    0.404ns
  Clock Uncertainty:      0.035ns  ((TSJ^2 + TIJ^2)^1/2 + DJ) / 2 + PE
    Total System Jitter     (TSJ):    0.071ns
    Total Input Jitter      (TIJ):    0.000ns
    Discrete Jitter          (DJ):    0.000ns
    Phase Error              (PE):    0.000ns
  Clock Net Delay (Source):      1.504ns (routing 0.616ns, distribution 0.888ns)
  Clock Net Delay (Destination): 1.323ns (routing 0.562ns, distribution 0.761ns)

    Location             Delay type                Incr(ns)  Path(ns)    Netlist Resource(s)
  -------------------------------------------------------------------    -------------------
                         (clock clk rise edge)        0.000     0.000 r  
    AV33                                              0.000     0.000 r  clk (IN)
                         net (fo=0)                   0.000     0.000    clk_ibuf_iso/I
    AV33                 INBUF (Prop_INBUF_HPIOB_M_PAD_O)
                                                      0.779     0.779 r  clk_ibuf_iso/INBUF_INST/O
                         net (fo=1, routed)           0.000     0.779    clk_ibuf_iso/OUT
    AV33                 IBUFCTRL (Prop_IBUFCTRL_HPIOB_M_I_O)
                                                      0.000     0.779 r  clk_ibuf_iso/IBUFCTRL_INST/O
                         net (fo=1, routed)           0.334     1.113    clk_ibuf_iso
    BUFGCE_X1Y224        BUFGCE (Prop_BUFCE_BUFGCE_I_O)
                                                      0.028     1.141 r  clk_ibuf/O
    X3Y9 (CLOCK_ROOT)    net (fo=1202, routed)        1.504     2.645    shift_reg_tap_i/clk_c
    SLICE_X92Y589        FDRE                                         r  shift_reg_tap_i/sr_p.sr_1[143]/C
  -------------------------------------------------------------------    -------------------
    SLICE_X92Y589        FDRE (Prop_DFF2_SLICEM_C_Q)
                                                      0.098     2.743 f  shift_reg_tap_i/sr_p.sr_1[143]/Q
                         net (fo=7, routed)           0.274     3.017    dut_inst/stage_g.0.pair_g.5.csn_cmp_inst/input_slr_13
    SLICE_X92Y589        LUT4 (Prop_H5LUT_SLICEM_I1_O)
                                                      0.135     3.152 r  dut_inst/stage_g.0.pair_g.5.csn_cmp_inst/un1_b_i_c2_lut6_2_o5_lut6_2_o5/O
                         net (fo=1, routed)           0.271     3.423    dut_inst/stage_g.0.pair_g.5.csn_cmp_inst/un1_b_i_c2_lut6_2_o6_0
    SLICE_X92Y589        LUT5 (Prop_G5LUT_SLICEM_I4_O)
                                                      0.201     3.624 r  dut_inst/stage_g.0.pair_g.5.csn_cmp_inst/un1_b_i_c4_lut6_2_o5_lut6_2_o5/O
                         net (fo=9, routed)           0.321     3.945    dut_inst/stage_g.0.pair_g.5.csn_cmp_inst/un1_b_i_10
    SLICE_X92Y589        LUT3 (Prop_H6LUT_SLICEM_I2_O)
                                                      0.100     4.045 f  dut_inst/stage_g.0.pair_g.5.csn_cmp_inst/un1_b_i_c2_lut6_2_o5_lut6_2_o6/O
                         net (fo=3, routed)           0.057     4.102    dut_inst/stage_g.1.pair_g.4.csn_cmp_inst/pt_97_0
    SLICE_X92Y589        LUT6 (Prop_E6LUT_SLICEM_I5_O)
                                                      0.101     4.203 r  dut_inst/stage_g.1.pair_g.4.csn_cmp_inst/un1_b_i_c2/O
                         net (fo=1, routed)           0.048     4.251    dut_inst/stage_g.1.pair_g.4.csn_cmp_inst/un1_b_i_c2_16
    SLICE_X92Y589        LUT5 (Prop_C6LUT_SLICEM_I4_O)
                                                      0.038     4.289 r  dut_inst/stage_g.1.pair_g.4.csn_cmp_inst/un1_b_i_c3/O
                         net (fo=3, routed)           0.204     4.493    dut_inst/stage_g.1.pair_g.4.csn_cmp_inst/un1_b_i_c3_3
    SLICE_X91Y589        LUT5 (Prop_D5LUT_SLICEL_I4_O)
                                                      0.164     4.657 r  dut_inst/stage_g.1.pair_g.4.csn_cmp_inst/un1_b_i_c4_lut6_2_o5_lut6_2_o5/O
                         net (fo=5, routed)           0.153     4.810    dut_inst/stage_g.1.pair_g.4.csn_cmp_inst/un1_b_i_25
    SLICE_X92Y589        LUT5 (Prop_D5LUT_SLICEM_I4_O)
                                                      0.136     4.946 f  dut_inst/stage_g.1.pair_g.4.csn_cmp_inst/a_o_comb.pt_lut6_2_o5_lut6_2_o5[2]/O
                         net (fo=3, routed)           0.325     5.271    dut_inst/stage_g.2.pair_g.4.csn_cmp_inst/pt_79_0
    SLICE_X95Y589        LUT5 (Prop_E6LUT_SLICEM_I2_O)
                                                      0.148     5.419 f  dut_inst/stage_g.2.pair_g.4.csn_cmp_inst/un1_b_i_c4/O
                         net (fo=5, routed)           0.169     5.588    dut_inst/stage_g.2.pair_g.4.csn_cmp_inst/un1_b_i_34
    SLICE_X94Y590        LUT3 (Prop_C6LUT_SLICEL_I2_O)
                                                      0.038     5.626 r  dut_inst/stage_g.2.pair_g.4.csn_cmp_inst/b_o_comb.pt[0]/O
                         net (fo=1, routed)           0.059     5.685    dut_inst/pt_23[0]
    SLICE_X94Y590        FDRE                                         r  dut_inst/ret_array_1_8.idx_ret_115[0]/D
  -------------------------------------------------------------------    -------------------

                         (clock clk rise edge)        3.572     3.572 r  
    AV33                                              0.000     3.572 r  clk (IN)
                         net (fo=0)                   0.000     3.572    clk_ibuf_iso/I
    AV33                 INBUF (Prop_INBUF_HPIOB_M_PAD_O)
                                                      0.510     4.082 r  clk_ibuf_iso/INBUF_INST/O
                         net (fo=1, routed)           0.000     4.082    clk_ibuf_iso/OUT
    AV33                 IBUFCTRL (Prop_IBUFCTRL_HPIOB_M_I_O)
                                                      0.000     4.082 r  clk_ibuf_iso/IBUFCTRL_INST/O
                         net (fo=1, routed)           0.296     4.378    clk_ibuf_iso
    BUFGCE_X1Y224        BUFGCE (Prop_BUFCE_BUFGCE_I_O)
                                                      0.024     4.402 r  clk_ibuf/O
    X3Y9 (CLOCK_ROOT)    net (fo=1202, routed)        1.323     5.725    dut_inst/clk_c
    SLICE_X94Y590        FDRE                                         r  dut_inst/ret_array_1_8.idx_ret_115[0]/C
                         clock pessimism              0.404     6.129    
                         clock uncertainty           -0.035     6.094    
    SLICE_X94Y590        FDRE (Setup_CFF_SLICEL_C_D)
                                                      0.027     6.121    dut_inst/ret_array_1_8.idx_ret_115[0]
  -------------------------------------------------------------------
                         required time                          6.121    
                         arrival time                          -5.685    
  -------------------------------------------------------------------
                         slack                                  0.436    

Slack (MET) :             0.436ns  (required time - arrival time)
  Source:                 shift_reg_tap_i/sr_p.sr_1[143]/C
                            (rising edge-triggered cell FDRE clocked by clk  {rise@0.000ns fall@1.786ns period=3.572ns})
  Destination:            dut_inst/ret_array_1_8.idx_ret_115[0]/D
                            (rising edge-triggered cell FDRE clocked by clk  {rise@0.000ns fall@1.786ns period=3.572ns})
  Path Group:             clk
  Path Type:              Setup (Max at Slow Process Corner)
  Requirement:            3.572ns  (clk rise@3.572ns - clk rise@0.000ns)
  Data Path Delay:        3.040ns  (logic 1.159ns (38.125%)  route 1.881ns (61.875%))
  Logic Levels:           9  (LUT3=2 LUT4=1 LUT5=5 LUT6=1)
  Clock Path Skew:        -0.088ns (DCD - SCD + CPR)
    Destination Clock Delay (DCD):    2.153ns = ( 5.725 - 3.572 ) 
    Source Clock Delay      (SCD):    2.645ns
    Clock Pessimism Removal (CPR):    0.404ns
  Clock Uncertainty:      0.035ns  ((TSJ^2 + TIJ^2)^1/2 + DJ) / 2 + PE
    Total System Jitter     (TSJ):    0.071ns
    Total Input Jitter      (TIJ):    0.000ns
    Discrete Jitter          (DJ):    0.000ns
    Phase Error              (PE):    0.000ns
  Clock Net Delay (Source):      1.504ns (routing 0.616ns, distribution 0.888ns)
  Clock Net Delay (Destination): 1.323ns (routing 0.562ns, distribution 0.761ns)

    Location             Delay type                Incr(ns)  Path(ns)    Netlist Resource(s)
  -------------------------------------------------------------------    -------------------
                         (clock clk rise edge)        0.000     0.000 r  
    AV33                                              0.000     0.000 r  clk (IN)
                         net (fo=0)                   0.000     0.000    clk_ibuf_iso/I
    AV33                 INBUF (Prop_INBUF_HPIOB_M_PAD_O)
                                                      0.779     0.779 r  clk_ibuf_iso/INBUF_INST/O
                         net (fo=1, routed)           0.000     0.779    clk_ibuf_iso/OUT
    AV33                 IBUFCTRL (Prop_IBUFCTRL_HPIOB_M_I_O)
                                                      0.000     0.779 r  clk_ibuf_iso/IBUFCTRL_INST/O
                         net (fo=1, routed)           0.334     1.113    clk_ibuf_iso
    BUFGCE_X1Y224        BUFGCE (Prop_BUFCE_BUFGCE_I_O)
                                                      0.028     1.141 r  clk_ibuf/O
    X3Y9 (CLOCK_ROOT)    net (fo=1202, routed)        1.504     2.645    shift_reg_tap_i/clk_c
    SLICE_X92Y589        FDRE                                         r  shift_reg_tap_i/sr_p.sr_1[143]/C
  -------------------------------------------------------------------    -------------------
    SLICE_X92Y589        FDRE (Prop_DFF2_SLICEM_C_Q)
                                                      0.098     2.743 f  shift_reg_tap_i/sr_p.sr_1[143]/Q
                         net (fo=7, routed)           0.274     3.017    dut_inst/stage_g.0.pair_g.5.csn_cmp_inst/input_slr_13
    SLICE_X92Y589        LUT4 (Prop_H5LUT_SLICEM_I1_O)
                                                      0.135     3.152 r  dut_inst/stage_g.0.pair_g.5.csn_cmp_inst/un1_b_i_c2_lut6_2_o5_lut6_2_o5/O
                         net (fo=1, routed)           0.271     3.423    dut_inst/stage_g.0.pair_g.5.csn_cmp_inst/un1_b_i_c2_lut6_2_o6_0
    SLICE_X92Y589        LUT5 (Prop_G5LUT_SLICEM_I4_O)
                                                      0.201     3.624 r  dut_inst/stage_g.0.pair_g.5.csn_cmp_inst/un1_b_i_c4_lut6_2_o5_lut6_2_o5/O
                         net (fo=9, routed)           0.321     3.945    dut_inst/stage_g.0.pair_g.5.csn_cmp_inst/un1_b_i_10
    SLICE_X92Y589        LUT3 (Prop_H6LUT_SLICEM_I2_O)
                                                      0.100     4.045 r  dut_inst/stage_g.0.pair_g.5.csn_cmp_inst/un1_b_i_c2_lut6_2_o5_lut6_2_o6/O
                         net (fo=3, routed)           0.057     4.102    dut_inst/stage_g.1.pair_g.4.csn_cmp_inst/pt_97_0
    SLICE_X92Y589        LUT6 (Prop_E6LUT_SLICEM_I5_O)
                                                      0.101     4.203 f  dut_inst/stage_g.1.pair_g.4.csn_cmp_inst/un1_b_i_c2/O
                         net (fo=1, routed)           0.048     4.251    dut_inst/stage_g.1.pair_g.4.csn_cmp_inst/un1_b_i_c2_16
    SLICE_X92Y589        LUT5 (Prop_C6LUT_SLICEM_I4_O)
                                                      0.038     4.289 f  dut_inst/stage_g.1.pair_g.4.csn_cmp_inst/un1_b_i_c3/O
                         net (fo=3, routed)           0.204     4.493    dut_inst/stage_g.1.pair_g.4.csn_cmp_inst/un1_b_i_c3_3
    SLICE_X91Y589        LUT5 (Prop_D5LUT_SLICEL_I4_O)
                                                      0.164     4.657 f  dut_inst/stage_g.1.pair_g.4.csn_cmp_inst/un1_b_i_c4_lut6_2_o5_lut6_2_o5/O
                         net (fo=5, routed)           0.153     4.810    dut_inst/stage_g.1.pair_g.4.csn_cmp_inst/un1_b_i_25
    SLICE_X92Y589        LUT5 (Prop_D5LUT_SLICEM_I4_O)
                                                      0.136     4.946 f  dut_inst/stage_g.1.pair_g.4.csn_cmp_inst/a_o_comb.pt_lut6_2_o5_lut6_2_o5[2]/O
                         net (fo=3, routed)           0.325     5.271    dut_inst/stage_g.2.pair_g.4.csn_cmp_inst/pt_79_0
    SLICE_X95Y589        LUT5 (Prop_E6LUT_SLICEM_I2_O)
                                                      0.148     5.419 f  dut_inst/stage_g.2.pair_g.4.csn_cmp_inst/un1_b_i_c4/O
                         net (fo=5, routed)           0.169     5.588    dut_inst/stage_g.2.pair_g.4.csn_cmp_inst/un1_b_i_34
    SLICE_X94Y590        LUT3 (Prop_C6LUT_SLICEL_I2_O)
                                                      0.038     5.626 r  dut_inst/stage_g.2.pair_g.4.csn_cmp_inst/b_o_comb.pt[0]/O
                         net (fo=1, routed)           0.059     5.685    dut_inst/pt_23[0]
    SLICE_X94Y590        FDRE                                         r  dut_inst/ret_array_1_8.idx_ret_115[0]/D
  -------------------------------------------------------------------    -------------------

                         (clock clk rise edge)        3.572     3.572 r  
    AV33                                              0.000     3.572 r  clk (IN)
                         net (fo=0)                   0.000     3.572    clk_ibuf_iso/I
    AV33                 INBUF (Prop_INBUF_HPIOB_M_PAD_O)
                                                      0.510     4.082 r  clk_ibuf_iso/INBUF_INST/O
                         net (fo=1, routed)           0.000     4.082    clk_ibuf_iso/OUT
    AV33                 IBUFCTRL (Prop_IBUFCTRL_HPIOB_M_I_O)
                                                      0.000     4.082 r  clk_ibuf_iso/IBUFCTRL_INST/O
                         net (fo=1, routed)           0.296     4.378    clk_ibuf_iso
    BUFGCE_X1Y224        BUFGCE (Prop_BUFCE_BUFGCE_I_O)
                                                      0.024     4.402 r  clk_ibuf/O
    X3Y9 (CLOCK_ROOT)    net (fo=1202, routed)        1.323     5.725    dut_inst/clk_c
    SLICE_X94Y590        FDRE                                         r  dut_inst/ret_array_1_8.idx_ret_115[0]/C
                         clock pessimism              0.404     6.129    
                         clock uncertainty           -0.035     6.094    
    SLICE_X94Y590        FDRE (Setup_CFF_SLICEL_C_D)
                                                      0.027     6.121    dut_inst/ret_array_1_8.idx_ret_115[0]
  -------------------------------------------------------------------
                         required time                          6.121    
                         arrival time                          -5.685    
  -------------------------------------------------------------------
                         slack                                  0.436    





Pulse Width Checks
--------------------------------------------------------------------------------------
Clock Name:         clk
Waveform(ns):       { 0.000 1.786 }
Period(ns):         3.572
Sources:            { clk }

Check Type        Corner  Lib Pin     Reference Pin  Required(ns)  Actual(ns)  Slack(ns)  Location        Pin
Min Period        n/a     BUFGCE/I    n/a            1.499         3.572       2.073      BUFGCE_X1Y224   clk_ibuf/I
Min Period        n/a     SRL16E/CLK  n/a            1.146         3.572       2.426      SLICE_X107Y577  dut_inst/ret_array_5_6.idx_0_idx_1/CLK
Min Period        n/a     SRL16E/CLK  n/a            1.146         3.572       2.426      SLICE_X107Y581  dut_inst/ret_array_5_6.idx_1_idx_1/CLK
Min Period        n/a     SRL16E/CLK  n/a            1.146         3.572       2.426      SLICE_X107Y577  dut_inst/ret_array_5_6.idx_2_idx_1/CLK
Min Period        n/a     SRL16E/CLK  n/a            1.146         3.572       2.426      SLICE_X107Y574  dut_inst/ret_array_5_6.idx_3_idx_1/CLK
Low Pulse Width   Slow    SRL16E/CLK  n/a            0.573         1.786       1.213      SLICE_X107Y581  dut_inst/ret_array_5_6.idx_1_idx_1/CLK
Low Pulse Width   Slow    SRL16E/CLK  n/a            0.573         1.786       1.213      SLICE_X107Y574  dut_inst/ret_array_5_6.idx_3_idx_1/CLK
Low Pulse Width   Slow    SRL16E/CLK  n/a            0.573         1.786       1.213      SLICE_X107Y574  dut_inst/ret_array_5_6.idx_5_idx_1/CLK
Low Pulse Width   Slow    SRL16E/CLK  n/a            0.573         1.786       1.213      SLICE_X107Y574  dut_inst/ret_array_5_6.idx_7_idx_1/CLK
Low Pulse Width   Slow    SRL16E/CLK  n/a            0.573         1.786       1.213      SLICE_X107Y581  dut_inst/ret_array_5_6.pt_idx_1/CLK
High Pulse Width  Fast    SRL16E/CLK  n/a            0.573         1.786       1.213      SLICE_X107Y577  dut_inst/ret_array_5_6.idx_0_idx_1/CLK
High Pulse Width  Fast    SRL16E/CLK  n/a            0.573         1.786       1.213      SLICE_X107Y581  dut_inst/ret_array_5_6.idx_1_idx_1/CLK
High Pulse Width  Fast    SRL16E/CLK  n/a            0.573         1.786       1.213      SLICE_X107Y577  dut_inst/ret_array_5_6.idx_2_idx_1/CLK
High Pulse Width  Fast    SRL16E/CLK  n/a            0.573         1.786       1.213      SLICE_X107Y577  dut_inst/ret_array_5_6.idx_4_idx_1/CLK
High Pulse Width  Fast    SRL16E/CLK  n/a            0.573         1.786       1.213      SLICE_X107Y577  dut_inst/ret_array_5_6.idx_6_idx_1/CLK



---------------------------------------------------------------------------------------------------
From Clock:  clk_wrapper
  To Clock:  clk_wrapper

Setup :           NA  Failing Endpoints,  Worst Slack           NA  ,  Total Violation           NA
Hold  :           NA  Failing Endpoints,  Worst Slack           NA  ,  Total Violation           NA
PW    :            0  Failing Endpoints,  Worst Slack      498.562ns,  Total Violation        0.000ns
---------------------------------------------------------------------------------------------------


Pulse Width Checks
--------------------------------------------------------------------------------------
Clock Name:         clk_wrapper
Waveform(ns):       { 0.000 500.000 }
Period(ns):         1000.000
Sources:            { clk_wrapper }

Check Type        Corner  Lib Pin   Reference Pin  Required(ns)  Actual(ns)  Slack(ns)  Location               Pin
Min Period        n/a     FDRE/C    n/a            3.195         1000.000    996.805    BITSLICE_RX_TX_X1Y483  reducer_1/delay_block[4][0]/C
Min Period        n/a     BUFGCE/I  n/a            1.499         1000.000    998.501    BUFGCE_X1Y230          clk_wrapper_ibuf/I
Min Period        n/a     FDRE/C    n/a            0.550         1000.000    999.450    SLICE_X101Y590         lsfr_1/shiftreg_vector[17]/C
Min Period        n/a     FDRE/C    n/a            0.550         1000.000    999.450    SLICE_X96Y589          lsfr_1/shiftreg_vector[180]/C
Min Period        n/a     FDRE/C    n/a            0.550         1000.000    999.450    SLICE_X96Y589          lsfr_1/shiftreg_vector[181]/C
Low Pulse Width   Slow    FDRE/C    n/a            1.438         500.000     498.562    BITSLICE_RX_TX_X1Y483  reducer_1/delay_block[4][0]/C
Low Pulse Width   Fast    FDRE/C    n/a            1.438         500.000     498.562    BITSLICE_RX_TX_X1Y483  reducer_1/delay_block[4][0]/C
Low Pulse Width   Slow    FDRE/C    n/a            0.275         500.000     499.725    SLICE_X96Y585          lsfr_1/shiftreg_vector[189]/C
Low Pulse Width   Slow    FDRE/C    n/a            0.275         500.000     499.725    SLICE_X96Y586          lsfr_1/shiftreg_vector[190]/C
Low Pulse Width   Slow    FDRE/C    n/a            0.275         500.000     499.725    SLICE_X96Y586          lsfr_1/shiftreg_vector[191]/C
High Pulse Width  Fast    FDRE/C    n/a            1.438         500.000     498.562    BITSLICE_RX_TX_X1Y483  reducer_1/delay_block[4][0]/C
High Pulse Width  Slow    FDRE/C    n/a            1.438         500.000     498.562    BITSLICE_RX_TX_X1Y483  reducer_1/delay_block[4][0]/C
High Pulse Width  Fast    FDRE/C    n/a            0.275         500.000     499.725    SLICE_X94Y589          lsfr_1/shiftreg_vector[183]/C
High Pulse Width  Fast    FDRE/C    n/a            0.275         500.000     499.725    SLICE_X94Y589          lsfr_1/shiftreg_vector[184]/C
High Pulse Width  Fast    FDRE/C    n/a            0.275         500.000     499.725    SLICE_X94Y589          lsfr_1/shiftreg_vector[185]/C



