Copyright 1986-2018 Xilinx, Inc. All Rights Reserved.
-------------------------------------------------------------------------------------------------
| Tool Version      : Vivado v.2018.2 (win64) Build 2258646 Thu Jun 14 20:03:12 MDT 2018
| Date              : Tue Mar  5 22:59:02 2019
| Host              : PCPHESEBE02 running 64-bit Service Pack 1  (build 7601)
| Command           : report_timing_summary -setup -nworst 5 -max_paths 5 -file timing_setup.txt
| Design            : wrapper_csn
| Device            : xcvu9p-flgc2104
| Speed File        : -1  PRODUCTION 1.20 05-21-2018
| Temperature Grade : E
-------------------------------------------------------------------------------------------------

Timing Summary Report

------------------------------------------------------------------------------------------------
| Timer Settings
| --------------
------------------------------------------------------------------------------------------------

  Enable Multi Corner Analysis               :  Yes
  Enable Pessimism Removal                   :  Yes
  Pessimism Removal Resolution               :  Nearest Common Node
  Enable Input Delay Default Clock           :  No
  Enable Preset / Clear Arcs                 :  No
  Disable Flight Delays                      :  No
  Ignore I/O Paths                           :  No
  Timing Early Launch at Borrowing Latches   :  false

  Corner  Analyze    Analyze    
  Name    Max Paths  Min Paths  
  ------  ---------  ---------  
  Slow    Yes        Yes        
  Fast    Yes        Yes        



check_timing report

Table of Contents
-----------------
1. checking no_clock
2. checking constant_clock
3. checking pulse_width_clock
4. checking unconstrained_internal_endpoints
5. checking no_input_delay
6. checking no_output_delay
7. checking multiple_clock
8. checking generated_clocks
9. checking loops
10. checking partial_input_delay
11. checking partial_output_delay
12. checking latch_loops

1. checking no_clock
--------------------
 There are 0 register/latch pins with no clock.


2. checking constant_clock
--------------------------
 There are 0 register/latch pins with constant_clock.


3. checking pulse_width_clock
-----------------------------
 There are 0 register/latch pins which need pulse_width check


4. checking unconstrained_internal_endpoints
--------------------------------------------
 There are 0 pins that are not constrained for maximum delay.

 There are 0 pins that are not constrained for maximum delay due to constant clock.


5. checking no_input_delay
--------------------------
 There is 1 input port with no input delay specified. (HIGH)

 There are 0 input ports with no input delay but user has a false path constraint.


6. checking no_output_delay
---------------------------
 There is 1 port with no output delay specified. (HIGH)

 There are 0 ports with no output delay but user has a false path constraint

 There are 0 ports with no output delay but with a timing clock defined on it or propagating through it


7. checking multiple_clock
--------------------------
 There are 0 register/latch pins with multiple clocks.


8. checking generated_clocks
----------------------------
 There are 0 generated clocks that are not connected to a clock source.


9. checking loops
-----------------
 There are 0 combinational loops in the design.


10. checking partial_input_delay
--------------------------------
 There are 0 input ports with partial input delay specified.


11. checking partial_output_delay
---------------------------------
 There are 0 ports with partial output delay specified.


12. checking latch_loops
------------------------
 There are 0 combinational latch loops in the design through latch input



------------------------------------------------------------------------------------------------
| Design Timing Summary
| ---------------------
------------------------------------------------------------------------------------------------

    WNS(ns)      TNS(ns)  TNS Failing Endpoints  TNS Total Endpoints     WPWS(ns)     TPWS(ns)  TPWS Failing Endpoints  TPWS Total Endpoints  
    -------      -------  ---------------------  -------------------     --------     --------  ----------------------  --------------------  
      0.822        0.000                      0                  463        2.850        0.000                       0                  1160  


All user specified timing constraints are met.


------------------------------------------------------------------------------------------------
| Clock Summary
| -------------
------------------------------------------------------------------------------------------------

Clock        Waveform(ns)         Period(ns)      Frequency(MHz)
-----        ------------         ----------      --------------
clk          {0.000 3.125}        6.250           160.000         
clk_wrapper  {0.000 500.000}      1000.000        1.000           


------------------------------------------------------------------------------------------------
| Intra Clock Table
| -----------------
------------------------------------------------------------------------------------------------

Clock             WNS(ns)      TNS(ns)  TNS Failing Endpoints  TNS Total Endpoints     WPWS(ns)     TPWS(ns)  TPWS Failing Endpoints  TPWS Total Endpoints  
-----             -------      -------  ---------------------  -------------------     --------     --------  ----------------------  --------------------  
clk                 0.822        0.000                      0                  463        2.850        0.000                       0                   672  
clk_wrapper                                                                             498.562        0.000                       0                   488  


------------------------------------------------------------------------------------------------
| Inter Clock Table
| -----------------
------------------------------------------------------------------------------------------------

From Clock    To Clock          WNS(ns)      TNS(ns)  TNS Failing Endpoints  TNS Total Endpoints  
----------    --------          -------      -------  ---------------------  -------------------  


------------------------------------------------------------------------------------------------
| Other Path Groups Table
| -----------------------
------------------------------------------------------------------------------------------------

Path Group    From Clock    To Clock          WNS(ns)      TNS(ns)  TNS Failing Endpoints  TNS Total Endpoints  
----------    ----------    --------          -------      -------  ---------------------  -------------------  


------------------------------------------------------------------------------------------------
| Timing Details
| --------------
------------------------------------------------------------------------------------------------


---------------------------------------------------------------------------------------------------
From Clock:  clk
  To Clock:  clk

Setup :            0  Failing Endpoints,  Worst Slack        0.822ns,  Total Violation        0.000ns
Hold  :           NA  Failing Endpoints,  Worst Slack           NA  ,  Total Violation           NA
PW    :            0  Failing Endpoints,  Worst Slack        2.850ns,  Total Violation        0.000ns
---------------------------------------------------------------------------------------------------


Max Delay Paths
--------------------------------------------------------------------------------------
Slack (MET) :             0.822ns  (required time - arrival time)
  Source:                 shift_reg_tap_i/sr_p.sr_1[118]/C
                            (rising edge-triggered cell FDRE clocked by clk  {rise@0.000ns fall@3.125ns period=6.250ns})
  Destination:            dut_inst/ret_array_1_12.idx_ret_20/D
                            (rising edge-triggered cell FDRE clocked by clk  {rise@0.000ns fall@3.125ns period=6.250ns})
  Path Group:             clk
  Path Type:              Setup (Max at Slow Process Corner)
  Requirement:            6.250ns  (clk rise@6.250ns - clk rise@0.000ns)
  Data Path Delay:        5.385ns  (logic 1.414ns (26.258%)  route 3.971ns (73.742%))
  Logic Levels:           15  (LUT3=1 LUT4=2 LUT5=9 LUT6=3)
  Clock Path Skew:        -0.034ns (DCD - SCD + CPR)
    Destination Clock Delay (DCD):    2.713ns = ( 8.963 - 6.250 ) 
    Source Clock Delay      (SCD):    3.264ns
    Clock Pessimism Removal (CPR):    0.517ns
  Clock Uncertainty:      0.035ns  ((TSJ^2 + TIJ^2)^1/2 + DJ) / 2 + PE
    Total System Jitter     (TSJ):    0.071ns
    Total Input Jitter      (TIJ):    0.000ns
    Discrete Jitter          (DJ):    0.000ns
    Phase Error              (PE):    0.000ns
  Clock Net Delay (Source):      2.123ns (routing 1.237ns, distribution 0.886ns)
  Clock Net Delay (Destination): 1.883ns (routing 1.130ns, distribution 0.753ns)

    Location             Delay type                Incr(ns)  Path(ns)    Netlist Resource(s)
  -------------------------------------------------------------------    -------------------
                         (clock clk rise edge)        0.000     0.000 r  
    AV33                                              0.000     0.000 r  clk (IN)
                         net (fo=0)                   0.000     0.000    clk_ibuf_iso/I
    AV33                 INBUF (Prop_INBUF_HPIOB_M_PAD_O)
                                                      0.779     0.779 r  clk_ibuf_iso/INBUF_INST/O
                         net (fo=1, routed)           0.000     0.779    clk_ibuf_iso/OUT
    AV33                 IBUFCTRL (Prop_IBUFCTRL_HPIOB_M_I_O)
                                                      0.000     0.779 r  clk_ibuf_iso/IBUFCTRL_INST/O
                         net (fo=1, routed)           0.334     1.113    clk_ibuf_iso
    BUFGCE_X1Y224        BUFGCE (Prop_BUFCE_BUFGCE_I_O)
                                                      0.028     1.141 r  clk_ibuf/O
    X3Y7 (CLOCK_ROOT)    net (fo=671, routed)         2.123     3.264    shift_reg_tap_i/clk_c
    SLICE_X94Y471        FDRE                                         r  shift_reg_tap_i/sr_p.sr_1[118]/C
  -------------------------------------------------------------------    -------------------
    SLICE_X94Y471        FDRE (Prop_EFF2_SLICEL_C_Q)
                                                      0.099     3.363 f  shift_reg_tap_i/sr_p.sr_1[118]/Q
                         net (fo=7, routed)           0.498     3.861    dut_inst/stage_g.0.pair_g.4.csn_cmp_inst/input_slr_14
    SLICE_X96Y472        LUT4 (Prop_D6LUT_SLICEL_I0_O)
                                                      0.174     4.035 r  dut_inst/stage_g.0.pair_g.4.csn_cmp_inst/un1_b_i_c2_lut6_2_o5_lut6_2_o5/O
                         net (fo=1, routed)           0.303     4.338    dut_inst/stage_g.0.pair_g.4.csn_cmp_inst/un1_b_i_c2_lut6_2_o6_1
    SLICE_X95Y471        LUT5 (Prop_C6LUT_SLICEM_I4_O)
                                                      0.062     4.400 r  dut_inst/stage_g.0.pair_g.4.csn_cmp_inst/b_o_comb.pt_lut6_2_o5_lut6_2_o6[2]/O
                         net (fo=10, routed)          0.342     4.742    dut_inst/stage_g.1.pair_g.4.csn_cmp_inst/un1_b_i_3
    SLICE_X96Y471        LUT3 (Prop_H6LUT_SLICEL_I2_O)
                                                      0.100     4.842 r  dut_inst/stage_g.1.pair_g.4.csn_cmp_inst/b_o_comb.pt_lut6_2_o5_lut6_2_o6[0]/O
                         net (fo=5, routed)           0.284     5.126    dut_inst/stage_g.1.pair_g.5.csn_cmp_inst/pt_47[0]
    SLICE_X95Y471        LUT6 (Prop_H6LUT_SLICEM_I3_O)
                                                      0.066     5.192 r  dut_inst/stage_g.1.pair_g.5.csn_cmp_inst/un1_b_i_c2/O
                         net (fo=1, routed)           0.050     5.242    dut_inst/stage_g.1.pair_g.5.csn_cmp_inst/un1_b_i_c2_4
    SLICE_X95Y471        LUT5 (Prop_G6LUT_SLICEM_I4_O)
                                                      0.039     5.281 r  dut_inst/stage_g.1.pair_g.5.csn_cmp_inst/un1_b_i_c3/O
                         net (fo=2, routed)           0.321     5.602    dut_inst/stage_g.1.pair_g.5.csn_cmp_inst/un1_b_i_c3_4
    SLICE_X98Y471        LUT5 (Prop_C6LUT_SLICEL_I4_O)
                                                      0.063     5.665 r  dut_inst/stage_g.1.pair_g.5.csn_cmp_inst/un1_b_i_c4_lut6_2_o5_lut6_2_o5/O
                         net (fo=8, routed)           0.324     5.989    dut_inst/stage_g.1.pair_g.5.csn_cmp_inst/un1_b_i_21
    SLICE_X95Y471        LUT5 (Prop_A6LUT_SLICEM_I4_O)
                                                      0.064     6.053 r  dut_inst/stage_g.1.pair_g.5.csn_cmp_inst/b_o_comb.pt_lut6_2_o5_lut6_2_o6[2]/O
                         net (fo=3, routed)           0.330     6.383    dut_inst/stage_g.2.pair_g.5.csn_cmp_inst/pt_46_2
    SLICE_X96Y469        LUT5 (Prop_D5LUT_SLICEL_I2_O)
                                                      0.136     6.519 r  dut_inst/stage_g.2.pair_g.5.csn_cmp_inst/b_o_comb.pt_lut6_2_o5_lut6_2_o6[2]/O
                         net (fo=7, routed)           0.270     6.789    dut_inst/stage_g.2.pair_g.5.csn_cmp_inst/un1_b_i_12
    SLICE_X97Y471        LUT5 (Prop_C6LUT_SLICEM_I4_O)
                                                      0.062     6.851 f  dut_inst/stage_g.2.pair_g.5.csn_cmp_inst/b_o_comb.pt_lut6_2_o5_lut6_2_o5[0]/O
                         net (fo=4, routed)           0.246     7.097    dut_inst/stage_g.3.pair_g.5.csn_cmp_inst/pt_32[0]
    SLICE_X96Y465        LUT6 (Prop_H6LUT_SLICEL_I5_O)
                                                      0.040     7.137 r  dut_inst/stage_g.3.pair_g.5.csn_cmp_inst/un1_b_i_c2/O
                         net (fo=1, routed)           0.159     7.296    dut_inst/stage_g.3.pair_g.5.csn_cmp_inst/un1_b_i_c2_1
    SLICE_X96Y466        LUT5 (Prop_G6LUT_SLICEL_I4_O)
                                                      0.063     7.359 r  dut_inst/stage_g.3.pair_g.5.csn_cmp_inst/un1_b_i_c3/O
                         net (fo=3, routed)           0.066     7.425    dut_inst/stage_g.3.pair_g.5.csn_cmp_inst/un1_b_i_c3_1
    SLICE_X96Y466        LUT4 (Prop_A6LUT_SLICEL_I3_O)
                                                      0.149     7.574 r  dut_inst/stage_g.3.pair_g.5.csn_cmp_inst/un1_b_i_c4/O
                         net (fo=6, routed)           0.128     7.702    dut_inst/stage_g.3.pair_g.5.csn_cmp_inst/un1_b_i_30
    SLICE_X96Y466        LUT5 (Prop_C5LUT_SLICEL_I4_O)
                                                      0.195     7.897 r  dut_inst/stage_g.3.pair_g.5.csn_cmp_inst/b_o_comb.pt_lut6_2_o5_lut6_2_o5[1]/O
                         net (fo=2, routed)           0.257     8.154    dut_inst/stage_g.4.pair_g.2.csn_cmp_inst/pt_7[1]
    SLICE_X96Y466        LUT6 (Prop_H6LUT_SLICEL_I5_O)
                                                      0.064     8.218 r  dut_inst/stage_g.4.pair_g.2.csn_cmp_inst/un1_b_i_c2/O
                         net (fo=1, routed)           0.334     8.552    dut_inst/stage_g.4.pair_g.2.csn_cmp_inst/un1_b_i_c2_37
    SLICE_X94Y466        LUT5 (Prop_C6LUT_SLICEL_I4_O)
                                                      0.038     8.590 r  dut_inst/stage_g.4.pair_g.2.csn_cmp_inst/un1_b_i_c4/O
                         net (fo=1, routed)           0.059     8.649    dut_inst/un1_b_i_29
    SLICE_X94Y466        FDRE                                         r  dut_inst/ret_array_1_12.idx_ret_20/D
  -------------------------------------------------------------------    -------------------

                         (clock clk rise edge)        6.250     6.250 r  
    AV33                                              0.000     6.250 r  clk (IN)
                         net (fo=0)                   0.000     6.250    clk_ibuf_iso/I
    AV33                 INBUF (Prop_INBUF_HPIOB_M_PAD_O)
                                                      0.510     6.760 r  clk_ibuf_iso/INBUF_INST/O
                         net (fo=1, routed)           0.000     6.760    clk_ibuf_iso/OUT
    AV33                 IBUFCTRL (Prop_IBUFCTRL_HPIOB_M_I_O)
                                                      0.000     6.760 r  clk_ibuf_iso/IBUFCTRL_INST/O
                         net (fo=1, routed)           0.296     7.056    clk_ibuf_iso
    BUFGCE_X1Y224        BUFGCE (Prop_BUFCE_BUFGCE_I_O)
                                                      0.024     7.080 r  clk_ibuf/O
    X3Y7 (CLOCK_ROOT)    net (fo=671, routed)         1.883     8.963    dut_inst/clk_c
    SLICE_X94Y466        FDRE                                         r  dut_inst/ret_array_1_12.idx_ret_20/C
                         clock pessimism              0.517     9.480    
                         clock uncertainty           -0.035     9.444    
    SLICE_X94Y466        FDRE (Setup_CFF_SLICEL_C_D)
                                                      0.027     9.471    dut_inst/ret_array_1_12.idx_ret_20
  -------------------------------------------------------------------
                         required time                          9.471    
                         arrival time                          -8.649    
  -------------------------------------------------------------------
                         slack                                  0.822    

Slack (MET) :             0.822ns  (required time - arrival time)
  Source:                 shift_reg_tap_i/sr_p.sr_1[118]/C
                            (rising edge-triggered cell FDRE clocked by clk  {rise@0.000ns fall@3.125ns period=6.250ns})
  Destination:            dut_inst/ret_array_1_12.idx_ret_20/D
                            (rising edge-triggered cell FDRE clocked by clk  {rise@0.000ns fall@3.125ns period=6.250ns})
  Path Group:             clk
  Path Type:              Setup (Max at Slow Process Corner)
  Requirement:            6.250ns  (clk rise@6.250ns - clk rise@0.000ns)
  Data Path Delay:        5.385ns  (logic 1.414ns (26.258%)  route 3.971ns (73.742%))
  Logic Levels:           15  (LUT3=1 LUT4=2 LUT5=9 LUT6=3)
  Clock Path Skew:        -0.034ns (DCD - SCD + CPR)
    Destination Clock Delay (DCD):    2.713ns = ( 8.963 - 6.250 ) 
    Source Clock Delay      (SCD):    3.264ns
    Clock Pessimism Removal (CPR):    0.517ns
  Clock Uncertainty:      0.035ns  ((TSJ^2 + TIJ^2)^1/2 + DJ) / 2 + PE
    Total System Jitter     (TSJ):    0.071ns
    Total Input Jitter      (TIJ):    0.000ns
    Discrete Jitter          (DJ):    0.000ns
    Phase Error              (PE):    0.000ns
  Clock Net Delay (Source):      2.123ns (routing 1.237ns, distribution 0.886ns)
  Clock Net Delay (Destination): 1.883ns (routing 1.130ns, distribution 0.753ns)

    Location             Delay type                Incr(ns)  Path(ns)    Netlist Resource(s)
  -------------------------------------------------------------------    -------------------
                         (clock clk rise edge)        0.000     0.000 r  
    AV33                                              0.000     0.000 r  clk (IN)
                         net (fo=0)                   0.000     0.000    clk_ibuf_iso/I
    AV33                 INBUF (Prop_INBUF_HPIOB_M_PAD_O)
                                                      0.779     0.779 r  clk_ibuf_iso/INBUF_INST/O
                         net (fo=1, routed)           0.000     0.779    clk_ibuf_iso/OUT
    AV33                 IBUFCTRL (Prop_IBUFCTRL_HPIOB_M_I_O)
                                                      0.000     0.779 r  clk_ibuf_iso/IBUFCTRL_INST/O
                         net (fo=1, routed)           0.334     1.113    clk_ibuf_iso
    BUFGCE_X1Y224        BUFGCE (Prop_BUFCE_BUFGCE_I_O)
                                                      0.028     1.141 r  clk_ibuf/O
    X3Y7 (CLOCK_ROOT)    net (fo=671, routed)         2.123     3.264    shift_reg_tap_i/clk_c
    SLICE_X94Y471        FDRE                                         r  shift_reg_tap_i/sr_p.sr_1[118]/C
  -------------------------------------------------------------------    -------------------
    SLICE_X94Y471        FDRE (Prop_EFF2_SLICEL_C_Q)
                                                      0.099     3.363 r  shift_reg_tap_i/sr_p.sr_1[118]/Q
                         net (fo=7, routed)           0.498     3.861    dut_inst/stage_g.0.pair_g.4.csn_cmp_inst/input_slr_14
    SLICE_X96Y472        LUT4 (Prop_D6LUT_SLICEL_I0_O)
                                                      0.174     4.035 f  dut_inst/stage_g.0.pair_g.4.csn_cmp_inst/un1_b_i_c2_lut6_2_o5_lut6_2_o5/O
                         net (fo=1, routed)           0.303     4.338    dut_inst/stage_g.0.pair_g.4.csn_cmp_inst/un1_b_i_c2_lut6_2_o6_1
    SLICE_X95Y471        LUT5 (Prop_C6LUT_SLICEM_I4_O)
                                                      0.062     4.400 f  dut_inst/stage_g.0.pair_g.4.csn_cmp_inst/b_o_comb.pt_lut6_2_o5_lut6_2_o6[2]/O
                         net (fo=10, routed)          0.342     4.742    dut_inst/stage_g.1.pair_g.4.csn_cmp_inst/un1_b_i_3
    SLICE_X96Y471        LUT3 (Prop_H6LUT_SLICEL_I2_O)
                                                      0.100     4.842 r  dut_inst/stage_g.1.pair_g.4.csn_cmp_inst/b_o_comb.pt_lut6_2_o5_lut6_2_o6[0]/O
                         net (fo=5, routed)           0.284     5.126    dut_inst/stage_g.1.pair_g.5.csn_cmp_inst/pt_47[0]
    SLICE_X95Y471        LUT6 (Prop_H6LUT_SLICEM_I3_O)
                                                      0.066     5.192 r  dut_inst/stage_g.1.pair_g.5.csn_cmp_inst/un1_b_i_c2/O
                         net (fo=1, routed)           0.050     5.242    dut_inst/stage_g.1.pair_g.5.csn_cmp_inst/un1_b_i_c2_4
    SLICE_X95Y471        LUT5 (Prop_G6LUT_SLICEM_I4_O)
                                                      0.039     5.281 r  dut_inst/stage_g.1.pair_g.5.csn_cmp_inst/un1_b_i_c3/O
                         net (fo=2, routed)           0.321     5.602    dut_inst/stage_g.1.pair_g.5.csn_cmp_inst/un1_b_i_c3_4
    SLICE_X98Y471        LUT5 (Prop_C6LUT_SLICEL_I4_O)
                                                      0.063     5.665 r  dut_inst/stage_g.1.pair_g.5.csn_cmp_inst/un1_b_i_c4_lut6_2_o5_lut6_2_o5/O
                         net (fo=8, routed)           0.324     5.989    dut_inst/stage_g.1.pair_g.5.csn_cmp_inst/un1_b_i_21
    SLICE_X95Y471        LUT5 (Prop_A6LUT_SLICEM_I4_O)
                                                      0.064     6.053 r  dut_inst/stage_g.1.pair_g.5.csn_cmp_inst/b_o_comb.pt_lut6_2_o5_lut6_2_o6[2]/O
                         net (fo=3, routed)           0.330     6.383    dut_inst/stage_g.2.pair_g.5.csn_cmp_inst/pt_46_2
    SLICE_X96Y469        LUT5 (Prop_D5LUT_SLICEL_I2_O)
                                                      0.136     6.519 r  dut_inst/stage_g.2.pair_g.5.csn_cmp_inst/b_o_comb.pt_lut6_2_o5_lut6_2_o6[2]/O
                         net (fo=7, routed)           0.270     6.789    dut_inst/stage_g.2.pair_g.5.csn_cmp_inst/un1_b_i_12
    SLICE_X97Y471        LUT5 (Prop_C6LUT_SLICEM_I4_O)
                                                      0.062     6.851 f  dut_inst/stage_g.2.pair_g.5.csn_cmp_inst/b_o_comb.pt_lut6_2_o5_lut6_2_o5[0]/O
                         net (fo=4, routed)           0.246     7.097    dut_inst/stage_g.3.pair_g.5.csn_cmp_inst/pt_32[0]
    SLICE_X96Y465        LUT6 (Prop_H6LUT_SLICEL_I5_O)
                                                      0.040     7.137 r  dut_inst/stage_g.3.pair_g.5.csn_cmp_inst/un1_b_i_c2/O
                         net (fo=1, routed)           0.159     7.296    dut_inst/stage_g.3.pair_g.5.csn_cmp_inst/un1_b_i_c2_1
    SLICE_X96Y466        LUT5 (Prop_G6LUT_SLICEL_I4_O)
                                                      0.063     7.359 r  dut_inst/stage_g.3.pair_g.5.csn_cmp_inst/un1_b_i_c3/O
                         net (fo=3, routed)           0.066     7.425    dut_inst/stage_g.3.pair_g.5.csn_cmp_inst/un1_b_i_c3_1
    SLICE_X96Y466        LUT4 (Prop_A6LUT_SLICEL_I3_O)
                                                      0.149     7.574 r  dut_inst/stage_g.3.pair_g.5.csn_cmp_inst/un1_b_i_c4/O
                         net (fo=6, routed)           0.128     7.702    dut_inst/stage_g.3.pair_g.5.csn_cmp_inst/un1_b_i_30
    SLICE_X96Y466        LUT5 (Prop_C5LUT_SLICEL_I4_O)
                                                      0.195     7.897 r  dut_inst/stage_g.3.pair_g.5.csn_cmp_inst/b_o_comb.pt_lut6_2_o5_lut6_2_o5[1]/O
                         net (fo=2, routed)           0.257     8.154    dut_inst/stage_g.4.pair_g.2.csn_cmp_inst/pt_7[1]
    SLICE_X96Y466        LUT6 (Prop_H6LUT_SLICEL_I5_O)
                                                      0.064     8.218 r  dut_inst/stage_g.4.pair_g.2.csn_cmp_inst/un1_b_i_c2/O
                         net (fo=1, routed)           0.334     8.552    dut_inst/stage_g.4.pair_g.2.csn_cmp_inst/un1_b_i_c2_37
    SLICE_X94Y466        LUT5 (Prop_C6LUT_SLICEL_I4_O)
                                                      0.038     8.590 r  dut_inst/stage_g.4.pair_g.2.csn_cmp_inst/un1_b_i_c4/O
                         net (fo=1, routed)           0.059     8.649    dut_inst/un1_b_i_29
    SLICE_X94Y466        FDRE                                         r  dut_inst/ret_array_1_12.idx_ret_20/D
  -------------------------------------------------------------------    -------------------

                         (clock clk rise edge)        6.250     6.250 r  
    AV33                                              0.000     6.250 r  clk (IN)
                         net (fo=0)                   0.000     6.250    clk_ibuf_iso/I
    AV33                 INBUF (Prop_INBUF_HPIOB_M_PAD_O)
                                                      0.510     6.760 r  clk_ibuf_iso/INBUF_INST/O
                         net (fo=1, routed)           0.000     6.760    clk_ibuf_iso/OUT
    AV33                 IBUFCTRL (Prop_IBUFCTRL_HPIOB_M_I_O)
                                                      0.000     6.760 r  clk_ibuf_iso/IBUFCTRL_INST/O
                         net (fo=1, routed)           0.296     7.056    clk_ibuf_iso
    BUFGCE_X1Y224        BUFGCE (Prop_BUFCE_BUFGCE_I_O)
                                                      0.024     7.080 r  clk_ibuf/O
    X3Y7 (CLOCK_ROOT)    net (fo=671, routed)         1.883     8.963    dut_inst/clk_c
    SLICE_X94Y466        FDRE                                         r  dut_inst/ret_array_1_12.idx_ret_20/C
                         clock pessimism              0.517     9.480    
                         clock uncertainty           -0.035     9.444    
    SLICE_X94Y466        FDRE (Setup_CFF_SLICEL_C_D)
                                                      0.027     9.471    dut_inst/ret_array_1_12.idx_ret_20
  -------------------------------------------------------------------
                         required time                          9.471    
                         arrival time                          -8.649    
  -------------------------------------------------------------------
                         slack                                  0.822    

Slack (MET) :             0.822ns  (required time - arrival time)
  Source:                 shift_reg_tap_i/sr_p.sr_1[118]/C
                            (rising edge-triggered cell FDRE clocked by clk  {rise@0.000ns fall@3.125ns period=6.250ns})
  Destination:            dut_inst/ret_array_1_12.idx_ret_20/D
                            (rising edge-triggered cell FDRE clocked by clk  {rise@0.000ns fall@3.125ns period=6.250ns})
  Path Group:             clk
  Path Type:              Setup (Max at Slow Process Corner)
  Requirement:            6.250ns  (clk rise@6.250ns - clk rise@0.000ns)
  Data Path Delay:        5.385ns  (logic 1.414ns (26.258%)  route 3.971ns (73.742%))
  Logic Levels:           15  (LUT3=1 LUT4=2 LUT5=9 LUT6=3)
  Clock Path Skew:        -0.034ns (DCD - SCD + CPR)
    Destination Clock Delay (DCD):    2.713ns = ( 8.963 - 6.250 ) 
    Source Clock Delay      (SCD):    3.264ns
    Clock Pessimism Removal (CPR):    0.517ns
  Clock Uncertainty:      0.035ns  ((TSJ^2 + TIJ^2)^1/2 + DJ) / 2 + PE
    Total System Jitter     (TSJ):    0.071ns
    Total Input Jitter      (TIJ):    0.000ns
    Discrete Jitter          (DJ):    0.000ns
    Phase Error              (PE):    0.000ns
  Clock Net Delay (Source):      2.123ns (routing 1.237ns, distribution 0.886ns)
  Clock Net Delay (Destination): 1.883ns (routing 1.130ns, distribution 0.753ns)

    Location             Delay type                Incr(ns)  Path(ns)    Netlist Resource(s)
  -------------------------------------------------------------------    -------------------
                         (clock clk rise edge)        0.000     0.000 r  
    AV33                                              0.000     0.000 r  clk (IN)
                         net (fo=0)                   0.000     0.000    clk_ibuf_iso/I
    AV33                 INBUF (Prop_INBUF_HPIOB_M_PAD_O)
                                                      0.779     0.779 r  clk_ibuf_iso/INBUF_INST/O
                         net (fo=1, routed)           0.000     0.779    clk_ibuf_iso/OUT
    AV33                 IBUFCTRL (Prop_IBUFCTRL_HPIOB_M_I_O)
                                                      0.000     0.779 r  clk_ibuf_iso/IBUFCTRL_INST/O
                         net (fo=1, routed)           0.334     1.113    clk_ibuf_iso
    BUFGCE_X1Y224        BUFGCE (Prop_BUFCE_BUFGCE_I_O)
                                                      0.028     1.141 r  clk_ibuf/O
    X3Y7 (CLOCK_ROOT)    net (fo=671, routed)         2.123     3.264    shift_reg_tap_i/clk_c
    SLICE_X94Y471        FDRE                                         r  shift_reg_tap_i/sr_p.sr_1[118]/C
  -------------------------------------------------------------------    -------------------
    SLICE_X94Y471        FDRE (Prop_EFF2_SLICEL_C_Q)
                                                      0.099     3.363 f  shift_reg_tap_i/sr_p.sr_1[118]/Q
                         net (fo=7, routed)           0.498     3.861    dut_inst/stage_g.0.pair_g.4.csn_cmp_inst/input_slr_14
    SLICE_X96Y472        LUT4 (Prop_D6LUT_SLICEL_I0_O)
                                                      0.174     4.035 r  dut_inst/stage_g.0.pair_g.4.csn_cmp_inst/un1_b_i_c2_lut6_2_o5_lut6_2_o5/O
                         net (fo=1, routed)           0.303     4.338    dut_inst/stage_g.0.pair_g.4.csn_cmp_inst/un1_b_i_c2_lut6_2_o6_1
    SLICE_X95Y471        LUT5 (Prop_C6LUT_SLICEM_I4_O)
                                                      0.062     4.400 r  dut_inst/stage_g.0.pair_g.4.csn_cmp_inst/b_o_comb.pt_lut6_2_o5_lut6_2_o6[2]/O
                         net (fo=10, routed)          0.342     4.742    dut_inst/stage_g.1.pair_g.4.csn_cmp_inst/un1_b_i_3
    SLICE_X96Y471        LUT3 (Prop_H6LUT_SLICEL_I2_O)
                                                      0.100     4.842 r  dut_inst/stage_g.1.pair_g.4.csn_cmp_inst/b_o_comb.pt_lut6_2_o5_lut6_2_o6[0]/O
                         net (fo=5, routed)           0.284     5.126    dut_inst/stage_g.1.pair_g.5.csn_cmp_inst/pt_47[0]
    SLICE_X95Y471        LUT6 (Prop_H6LUT_SLICEM_I3_O)
                                                      0.066     5.192 r  dut_inst/stage_g.1.pair_g.5.csn_cmp_inst/un1_b_i_c2/O
                         net (fo=1, routed)           0.050     5.242    dut_inst/stage_g.1.pair_g.5.csn_cmp_inst/un1_b_i_c2_4
    SLICE_X95Y471        LUT5 (Prop_G6LUT_SLICEM_I4_O)
                                                      0.039     5.281 r  dut_inst/stage_g.1.pair_g.5.csn_cmp_inst/un1_b_i_c3/O
                         net (fo=2, routed)           0.321     5.602    dut_inst/stage_g.1.pair_g.5.csn_cmp_inst/un1_b_i_c3_4
    SLICE_X98Y471        LUT5 (Prop_C6LUT_SLICEL_I4_O)
                                                      0.063     5.665 r  dut_inst/stage_g.1.pair_g.5.csn_cmp_inst/un1_b_i_c4_lut6_2_o5_lut6_2_o5/O
                         net (fo=8, routed)           0.324     5.989    dut_inst/stage_g.1.pair_g.5.csn_cmp_inst/un1_b_i_21
    SLICE_X95Y471        LUT5 (Prop_A6LUT_SLICEM_I4_O)
                                                      0.064     6.053 f  dut_inst/stage_g.1.pair_g.5.csn_cmp_inst/b_o_comb.pt_lut6_2_o5_lut6_2_o6[2]/O
                         net (fo=3, routed)           0.330     6.383    dut_inst/stage_g.2.pair_g.5.csn_cmp_inst/pt_46_2
    SLICE_X96Y469        LUT5 (Prop_D5LUT_SLICEL_I2_O)
                                                      0.136     6.519 f  dut_inst/stage_g.2.pair_g.5.csn_cmp_inst/b_o_comb.pt_lut6_2_o5_lut6_2_o6[2]/O
                         net (fo=7, routed)           0.270     6.789    dut_inst/stage_g.2.pair_g.5.csn_cmp_inst/un1_b_i_12
    SLICE_X97Y471        LUT5 (Prop_C6LUT_SLICEM_I4_O)
                                                      0.062     6.851 f  dut_inst/stage_g.2.pair_g.5.csn_cmp_inst/b_o_comb.pt_lut6_2_o5_lut6_2_o5[0]/O
                         net (fo=4, routed)           0.246     7.097    dut_inst/stage_g.3.pair_g.5.csn_cmp_inst/pt_32[0]
    SLICE_X96Y465        LUT6 (Prop_H6LUT_SLICEL_I5_O)
                                                      0.040     7.137 r  dut_inst/stage_g.3.pair_g.5.csn_cmp_inst/un1_b_i_c2/O
                         net (fo=1, routed)           0.159     7.296    dut_inst/stage_g.3.pair_g.5.csn_cmp_inst/un1_b_i_c2_1
    SLICE_X96Y466        LUT5 (Prop_G6LUT_SLICEL_I4_O)
                                                      0.063     7.359 r  dut_inst/stage_g.3.pair_g.5.csn_cmp_inst/un1_b_i_c3/O
                         net (fo=3, routed)           0.066     7.425    dut_inst/stage_g.3.pair_g.5.csn_cmp_inst/un1_b_i_c3_1
    SLICE_X96Y466        LUT4 (Prop_A6LUT_SLICEL_I3_O)
                                                      0.149     7.574 r  dut_inst/stage_g.3.pair_g.5.csn_cmp_inst/un1_b_i_c4/O
                         net (fo=6, routed)           0.128     7.702    dut_inst/stage_g.3.pair_g.5.csn_cmp_inst/un1_b_i_30
    SLICE_X96Y466        LUT5 (Prop_C5LUT_SLICEL_I4_O)
                                                      0.195     7.897 r  dut_inst/stage_g.3.pair_g.5.csn_cmp_inst/b_o_comb.pt_lut6_2_o5_lut6_2_o5[1]/O
                         net (fo=2, routed)           0.257     8.154    dut_inst/stage_g.4.pair_g.2.csn_cmp_inst/pt_7[1]
    SLICE_X96Y466        LUT6 (Prop_H6LUT_SLICEL_I5_O)
                                                      0.064     8.218 r  dut_inst/stage_g.4.pair_g.2.csn_cmp_inst/un1_b_i_c2/O
                         net (fo=1, routed)           0.334     8.552    dut_inst/stage_g.4.pair_g.2.csn_cmp_inst/un1_b_i_c2_37
    SLICE_X94Y466        LUT5 (Prop_C6LUT_SLICEL_I4_O)
                                                      0.038     8.590 r  dut_inst/stage_g.4.pair_g.2.csn_cmp_inst/un1_b_i_c4/O
                         net (fo=1, routed)           0.059     8.649    dut_inst/un1_b_i_29
    SLICE_X94Y466        FDRE                                         r  dut_inst/ret_array_1_12.idx_ret_20/D
  -------------------------------------------------------------------    -------------------

                         (clock clk rise edge)        6.250     6.250 r  
    AV33                                              0.000     6.250 r  clk (IN)
                         net (fo=0)                   0.000     6.250    clk_ibuf_iso/I
    AV33                 INBUF (Prop_INBUF_HPIOB_M_PAD_O)
                                                      0.510     6.760 r  clk_ibuf_iso/INBUF_INST/O
                         net (fo=1, routed)           0.000     6.760    clk_ibuf_iso/OUT
    AV33                 IBUFCTRL (Prop_IBUFCTRL_HPIOB_M_I_O)
                                                      0.000     6.760 r  clk_ibuf_iso/IBUFCTRL_INST/O
                         net (fo=1, routed)           0.296     7.056    clk_ibuf_iso
    BUFGCE_X1Y224        BUFGCE (Prop_BUFCE_BUFGCE_I_O)
                                                      0.024     7.080 r  clk_ibuf/O
    X3Y7 (CLOCK_ROOT)    net (fo=671, routed)         1.883     8.963    dut_inst/clk_c
    SLICE_X94Y466        FDRE                                         r  dut_inst/ret_array_1_12.idx_ret_20/C
                         clock pessimism              0.517     9.480    
                         clock uncertainty           -0.035     9.444    
    SLICE_X94Y466        FDRE (Setup_CFF_SLICEL_C_D)
                                                      0.027     9.471    dut_inst/ret_array_1_12.idx_ret_20
  -------------------------------------------------------------------
                         required time                          9.471    
                         arrival time                          -8.649    
  -------------------------------------------------------------------
                         slack                                  0.822    

Slack (MET) :             0.822ns  (required time - arrival time)
  Source:                 shift_reg_tap_i/sr_p.sr_1[118]/C
                            (rising edge-triggered cell FDRE clocked by clk  {rise@0.000ns fall@3.125ns period=6.250ns})
  Destination:            dut_inst/ret_array_1_12.idx_ret_20/D
                            (rising edge-triggered cell FDRE clocked by clk  {rise@0.000ns fall@3.125ns period=6.250ns})
  Path Group:             clk
  Path Type:              Setup (Max at Slow Process Corner)
  Requirement:            6.250ns  (clk rise@6.250ns - clk rise@0.000ns)
  Data Path Delay:        5.385ns  (logic 1.414ns (26.258%)  route 3.971ns (73.742%))
  Logic Levels:           15  (LUT3=1 LUT4=2 LUT5=9 LUT6=3)
  Clock Path Skew:        -0.034ns (DCD - SCD + CPR)
    Destination Clock Delay (DCD):    2.713ns = ( 8.963 - 6.250 ) 
    Source Clock Delay      (SCD):    3.264ns
    Clock Pessimism Removal (CPR):    0.517ns
  Clock Uncertainty:      0.035ns  ((TSJ^2 + TIJ^2)^1/2 + DJ) / 2 + PE
    Total System Jitter     (TSJ):    0.071ns
    Total Input Jitter      (TIJ):    0.000ns
    Discrete Jitter          (DJ):    0.000ns
    Phase Error              (PE):    0.000ns
  Clock Net Delay (Source):      2.123ns (routing 1.237ns, distribution 0.886ns)
  Clock Net Delay (Destination): 1.883ns (routing 1.130ns, distribution 0.753ns)

    Location             Delay type                Incr(ns)  Path(ns)    Netlist Resource(s)
  -------------------------------------------------------------------    -------------------
                         (clock clk rise edge)        0.000     0.000 r  
    AV33                                              0.000     0.000 r  clk (IN)
                         net (fo=0)                   0.000     0.000    clk_ibuf_iso/I
    AV33                 INBUF (Prop_INBUF_HPIOB_M_PAD_O)
                                                      0.779     0.779 r  clk_ibuf_iso/INBUF_INST/O
                         net (fo=1, routed)           0.000     0.779    clk_ibuf_iso/OUT
    AV33                 IBUFCTRL (Prop_IBUFCTRL_HPIOB_M_I_O)
                                                      0.000     0.779 r  clk_ibuf_iso/IBUFCTRL_INST/O
                         net (fo=1, routed)           0.334     1.113    clk_ibuf_iso
    BUFGCE_X1Y224        BUFGCE (Prop_BUFCE_BUFGCE_I_O)
                                                      0.028     1.141 r  clk_ibuf/O
    X3Y7 (CLOCK_ROOT)    net (fo=671, routed)         2.123     3.264    shift_reg_tap_i/clk_c
    SLICE_X94Y471        FDRE                                         r  shift_reg_tap_i/sr_p.sr_1[118]/C
  -------------------------------------------------------------------    -------------------
    SLICE_X94Y471        FDRE (Prop_EFF2_SLICEL_C_Q)
                                                      0.099     3.363 r  shift_reg_tap_i/sr_p.sr_1[118]/Q
                         net (fo=7, routed)           0.498     3.861    dut_inst/stage_g.0.pair_g.4.csn_cmp_inst/input_slr_14
    SLICE_X96Y472        LUT4 (Prop_D6LUT_SLICEL_I0_O)
                                                      0.174     4.035 f  dut_inst/stage_g.0.pair_g.4.csn_cmp_inst/un1_b_i_c2_lut6_2_o5_lut6_2_o5/O
                         net (fo=1, routed)           0.303     4.338    dut_inst/stage_g.0.pair_g.4.csn_cmp_inst/un1_b_i_c2_lut6_2_o6_1
    SLICE_X95Y471        LUT5 (Prop_C6LUT_SLICEM_I4_O)
                                                      0.062     4.400 f  dut_inst/stage_g.0.pair_g.4.csn_cmp_inst/b_o_comb.pt_lut6_2_o5_lut6_2_o6[2]/O
                         net (fo=10, routed)          0.342     4.742    dut_inst/stage_g.1.pair_g.4.csn_cmp_inst/un1_b_i_3
    SLICE_X96Y471        LUT3 (Prop_H6LUT_SLICEL_I2_O)
                                                      0.100     4.842 r  dut_inst/stage_g.1.pair_g.4.csn_cmp_inst/b_o_comb.pt_lut6_2_o5_lut6_2_o6[0]/O
                         net (fo=5, routed)           0.284     5.126    dut_inst/stage_g.1.pair_g.5.csn_cmp_inst/pt_47[0]
    SLICE_X95Y471        LUT6 (Prop_H6LUT_SLICEM_I3_O)
                                                      0.066     5.192 r  dut_inst/stage_g.1.pair_g.5.csn_cmp_inst/un1_b_i_c2/O
                         net (fo=1, routed)           0.050     5.242    dut_inst/stage_g.1.pair_g.5.csn_cmp_inst/un1_b_i_c2_4
    SLICE_X95Y471        LUT5 (Prop_G6LUT_SLICEM_I4_O)
                                                      0.039     5.281 r  dut_inst/stage_g.1.pair_g.5.csn_cmp_inst/un1_b_i_c3/O
                         net (fo=2, routed)           0.321     5.602    dut_inst/stage_g.1.pair_g.5.csn_cmp_inst/un1_b_i_c3_4
    SLICE_X98Y471        LUT5 (Prop_C6LUT_SLICEL_I4_O)
                                                      0.063     5.665 r  dut_inst/stage_g.1.pair_g.5.csn_cmp_inst/un1_b_i_c4_lut6_2_o5_lut6_2_o5/O
                         net (fo=8, routed)           0.324     5.989    dut_inst/stage_g.1.pair_g.5.csn_cmp_inst/un1_b_i_21
    SLICE_X95Y471        LUT5 (Prop_A6LUT_SLICEM_I4_O)
                                                      0.064     6.053 f  dut_inst/stage_g.1.pair_g.5.csn_cmp_inst/b_o_comb.pt_lut6_2_o5_lut6_2_o6[2]/O
                         net (fo=3, routed)           0.330     6.383    dut_inst/stage_g.2.pair_g.5.csn_cmp_inst/pt_46_2
    SLICE_X96Y469        LUT5 (Prop_D5LUT_SLICEL_I2_O)
                                                      0.136     6.519 f  dut_inst/stage_g.2.pair_g.5.csn_cmp_inst/b_o_comb.pt_lut6_2_o5_lut6_2_o6[2]/O
                         net (fo=7, routed)           0.270     6.789    dut_inst/stage_g.2.pair_g.5.csn_cmp_inst/un1_b_i_12
    SLICE_X97Y471        LUT5 (Prop_C6LUT_SLICEM_I4_O)
                                                      0.062     6.851 f  dut_inst/stage_g.2.pair_g.5.csn_cmp_inst/b_o_comb.pt_lut6_2_o5_lut6_2_o5[0]/O
                         net (fo=4, routed)           0.246     7.097    dut_inst/stage_g.3.pair_g.5.csn_cmp_inst/pt_32[0]
    SLICE_X96Y465        LUT6 (Prop_H6LUT_SLICEL_I5_O)
                                                      0.040     7.137 r  dut_inst/stage_g.3.pair_g.5.csn_cmp_inst/un1_b_i_c2/O
                         net (fo=1, routed)           0.159     7.296    dut_inst/stage_g.3.pair_g.5.csn_cmp_inst/un1_b_i_c2_1
    SLICE_X96Y466        LUT5 (Prop_G6LUT_SLICEL_I4_O)
                                                      0.063     7.359 r  dut_inst/stage_g.3.pair_g.5.csn_cmp_inst/un1_b_i_c3/O
                         net (fo=3, routed)           0.066     7.425    dut_inst/stage_g.3.pair_g.5.csn_cmp_inst/un1_b_i_c3_1
    SLICE_X96Y466        LUT4 (Prop_A6LUT_SLICEL_I3_O)
                                                      0.149     7.574 r  dut_inst/stage_g.3.pair_g.5.csn_cmp_inst/un1_b_i_c4/O
                         net (fo=6, routed)           0.128     7.702    dut_inst/stage_g.3.pair_g.5.csn_cmp_inst/un1_b_i_30
    SLICE_X96Y466        LUT5 (Prop_C5LUT_SLICEL_I4_O)
                                                      0.195     7.897 r  dut_inst/stage_g.3.pair_g.5.csn_cmp_inst/b_o_comb.pt_lut6_2_o5_lut6_2_o5[1]/O
                         net (fo=2, routed)           0.257     8.154    dut_inst/stage_g.4.pair_g.2.csn_cmp_inst/pt_7[1]
    SLICE_X96Y466        LUT6 (Prop_H6LUT_SLICEL_I5_O)
                                                      0.064     8.218 r  dut_inst/stage_g.4.pair_g.2.csn_cmp_inst/un1_b_i_c2/O
                         net (fo=1, routed)           0.334     8.552    dut_inst/stage_g.4.pair_g.2.csn_cmp_inst/un1_b_i_c2_37
    SLICE_X94Y466        LUT5 (Prop_C6LUT_SLICEL_I4_O)
                                                      0.038     8.590 r  dut_inst/stage_g.4.pair_g.2.csn_cmp_inst/un1_b_i_c4/O
                         net (fo=1, routed)           0.059     8.649    dut_inst/un1_b_i_29
    SLICE_X94Y466        FDRE                                         r  dut_inst/ret_array_1_12.idx_ret_20/D
  -------------------------------------------------------------------    -------------------

                         (clock clk rise edge)        6.250     6.250 r  
    AV33                                              0.000     6.250 r  clk (IN)
                         net (fo=0)                   0.000     6.250    clk_ibuf_iso/I
    AV33                 INBUF (Prop_INBUF_HPIOB_M_PAD_O)
                                                      0.510     6.760 r  clk_ibuf_iso/INBUF_INST/O
                         net (fo=1, routed)           0.000     6.760    clk_ibuf_iso/OUT
    AV33                 IBUFCTRL (Prop_IBUFCTRL_HPIOB_M_I_O)
                                                      0.000     6.760 r  clk_ibuf_iso/IBUFCTRL_INST/O
                         net (fo=1, routed)           0.296     7.056    clk_ibuf_iso
    BUFGCE_X1Y224        BUFGCE (Prop_BUFCE_BUFGCE_I_O)
                                                      0.024     7.080 r  clk_ibuf/O
    X3Y7 (CLOCK_ROOT)    net (fo=671, routed)         1.883     8.963    dut_inst/clk_c
    SLICE_X94Y466        FDRE                                         r  dut_inst/ret_array_1_12.idx_ret_20/C
                         clock pessimism              0.517     9.480    
                         clock uncertainty           -0.035     9.444    
    SLICE_X94Y466        FDRE (Setup_CFF_SLICEL_C_D)
                                                      0.027     9.471    dut_inst/ret_array_1_12.idx_ret_20
  -------------------------------------------------------------------
                         required time                          9.471    
                         arrival time                          -8.649    
  -------------------------------------------------------------------
                         slack                                  0.822    

Slack (MET) :             0.822ns  (required time - arrival time)
  Source:                 shift_reg_tap_i/sr_p.sr_1[118]/C
                            (rising edge-triggered cell FDRE clocked by clk  {rise@0.000ns fall@3.125ns period=6.250ns})
  Destination:            dut_inst/ret_array_1_12.idx_ret_20/D
                            (rising edge-triggered cell FDRE clocked by clk  {rise@0.000ns fall@3.125ns period=6.250ns})
  Path Group:             clk
  Path Type:              Setup (Max at Slow Process Corner)
  Requirement:            6.250ns  (clk rise@6.250ns - clk rise@0.000ns)
  Data Path Delay:        5.385ns  (logic 1.414ns (26.258%)  route 3.971ns (73.742%))
  Logic Levels:           15  (LUT3=1 LUT4=2 LUT5=9 LUT6=3)
  Clock Path Skew:        -0.034ns (DCD - SCD + CPR)
    Destination Clock Delay (DCD):    2.713ns = ( 8.963 - 6.250 ) 
    Source Clock Delay      (SCD):    3.264ns
    Clock Pessimism Removal (CPR):    0.517ns
  Clock Uncertainty:      0.035ns  ((TSJ^2 + TIJ^2)^1/2 + DJ) / 2 + PE
    Total System Jitter     (TSJ):    0.071ns
    Total Input Jitter      (TIJ):    0.000ns
    Discrete Jitter          (DJ):    0.000ns
    Phase Error              (PE):    0.000ns
  Clock Net Delay (Source):      2.123ns (routing 1.237ns, distribution 0.886ns)
  Clock Net Delay (Destination): 1.883ns (routing 1.130ns, distribution 0.753ns)

    Location             Delay type                Incr(ns)  Path(ns)    Netlist Resource(s)
  -------------------------------------------------------------------    -------------------
                         (clock clk rise edge)        0.000     0.000 r  
    AV33                                              0.000     0.000 r  clk (IN)
                         net (fo=0)                   0.000     0.000    clk_ibuf_iso/I
    AV33                 INBUF (Prop_INBUF_HPIOB_M_PAD_O)
                                                      0.779     0.779 r  clk_ibuf_iso/INBUF_INST/O
                         net (fo=1, routed)           0.000     0.779    clk_ibuf_iso/OUT
    AV33                 IBUFCTRL (Prop_IBUFCTRL_HPIOB_M_I_O)
                                                      0.000     0.779 r  clk_ibuf_iso/IBUFCTRL_INST/O
                         net (fo=1, routed)           0.334     1.113    clk_ibuf_iso
    BUFGCE_X1Y224        BUFGCE (Prop_BUFCE_BUFGCE_I_O)
                                                      0.028     1.141 r  clk_ibuf/O
    X3Y7 (CLOCK_ROOT)    net (fo=671, routed)         2.123     3.264    shift_reg_tap_i/clk_c
    SLICE_X94Y471        FDRE                                         r  shift_reg_tap_i/sr_p.sr_1[118]/C
  -------------------------------------------------------------------    -------------------
    SLICE_X94Y471        FDRE (Prop_EFF2_SLICEL_C_Q)
                                                      0.099     3.363 f  shift_reg_tap_i/sr_p.sr_1[118]/Q
                         net (fo=7, routed)           0.498     3.861    dut_inst/stage_g.0.pair_g.4.csn_cmp_inst/input_slr_14
    SLICE_X96Y472        LUT4 (Prop_D6LUT_SLICEL_I0_O)
                                                      0.174     4.035 r  dut_inst/stage_g.0.pair_g.4.csn_cmp_inst/un1_b_i_c2_lut6_2_o5_lut6_2_o5/O
                         net (fo=1, routed)           0.303     4.338    dut_inst/stage_g.0.pair_g.4.csn_cmp_inst/un1_b_i_c2_lut6_2_o6_1
    SLICE_X95Y471        LUT5 (Prop_C6LUT_SLICEM_I4_O)
                                                      0.062     4.400 r  dut_inst/stage_g.0.pair_g.4.csn_cmp_inst/b_o_comb.pt_lut6_2_o5_lut6_2_o6[2]/O
                         net (fo=10, routed)          0.342     4.742    dut_inst/stage_g.1.pair_g.4.csn_cmp_inst/un1_b_i_3
    SLICE_X96Y471        LUT3 (Prop_H6LUT_SLICEL_I2_O)
                                                      0.100     4.842 r  dut_inst/stage_g.1.pair_g.4.csn_cmp_inst/b_o_comb.pt_lut6_2_o5_lut6_2_o6[0]/O
                         net (fo=5, routed)           0.284     5.126    dut_inst/stage_g.1.pair_g.5.csn_cmp_inst/pt_47[0]
    SLICE_X95Y471        LUT6 (Prop_H6LUT_SLICEM_I3_O)
                                                      0.066     5.192 r  dut_inst/stage_g.1.pair_g.5.csn_cmp_inst/un1_b_i_c2/O
                         net (fo=1, routed)           0.050     5.242    dut_inst/stage_g.1.pair_g.5.csn_cmp_inst/un1_b_i_c2_4
    SLICE_X95Y471        LUT5 (Prop_G6LUT_SLICEM_I4_O)
                                                      0.039     5.281 r  dut_inst/stage_g.1.pair_g.5.csn_cmp_inst/un1_b_i_c3/O
                         net (fo=2, routed)           0.321     5.602    dut_inst/stage_g.1.pair_g.5.csn_cmp_inst/un1_b_i_c3_4
    SLICE_X98Y471        LUT5 (Prop_C6LUT_SLICEL_I4_O)
                                                      0.063     5.665 r  dut_inst/stage_g.1.pair_g.5.csn_cmp_inst/un1_b_i_c4_lut6_2_o5_lut6_2_o5/O
                         net (fo=8, routed)           0.324     5.989    dut_inst/stage_g.1.pair_g.5.csn_cmp_inst/un1_b_i_21
    SLICE_X95Y471        LUT5 (Prop_A6LUT_SLICEM_I4_O)
                                                      0.064     6.053 r  dut_inst/stage_g.1.pair_g.5.csn_cmp_inst/b_o_comb.pt_lut6_2_o5_lut6_2_o6[2]/O
                         net (fo=3, routed)           0.330     6.383    dut_inst/stage_g.2.pair_g.5.csn_cmp_inst/pt_46_2
    SLICE_X96Y469        LUT5 (Prop_D5LUT_SLICEL_I2_O)
                                                      0.136     6.519 r  dut_inst/stage_g.2.pair_g.5.csn_cmp_inst/b_o_comb.pt_lut6_2_o5_lut6_2_o6[2]/O
                         net (fo=7, routed)           0.270     6.789    dut_inst/stage_g.2.pair_g.5.csn_cmp_inst/un1_b_i_12
    SLICE_X97Y471        LUT5 (Prop_C6LUT_SLICEM_I4_O)
                                                      0.062     6.851 r  dut_inst/stage_g.2.pair_g.5.csn_cmp_inst/b_o_comb.pt_lut6_2_o5_lut6_2_o5[0]/O
                         net (fo=4, routed)           0.246     7.097    dut_inst/stage_g.3.pair_g.5.csn_cmp_inst/pt_32[0]
    SLICE_X96Y465        LUT6 (Prop_H6LUT_SLICEL_I5_O)
                                                      0.040     7.137 f  dut_inst/stage_g.3.pair_g.5.csn_cmp_inst/un1_b_i_c2/O
                         net (fo=1, routed)           0.159     7.296    dut_inst/stage_g.3.pair_g.5.csn_cmp_inst/un1_b_i_c2_1
    SLICE_X96Y466        LUT5 (Prop_G6LUT_SLICEL_I4_O)
                                                      0.063     7.359 f  dut_inst/stage_g.3.pair_g.5.csn_cmp_inst/un1_b_i_c3/O
                         net (fo=3, routed)           0.066     7.425    dut_inst/stage_g.3.pair_g.5.csn_cmp_inst/un1_b_i_c3_1
    SLICE_X96Y466        LUT4 (Prop_A6LUT_SLICEL_I3_O)
                                                      0.149     7.574 f  dut_inst/stage_g.3.pair_g.5.csn_cmp_inst/un1_b_i_c4/O
                         net (fo=6, routed)           0.128     7.702    dut_inst/stage_g.3.pair_g.5.csn_cmp_inst/un1_b_i_30
    SLICE_X96Y466        LUT5 (Prop_C5LUT_SLICEL_I4_O)
                                                      0.195     7.897 r  dut_inst/stage_g.3.pair_g.5.csn_cmp_inst/b_o_comb.pt_lut6_2_o5_lut6_2_o5[1]/O
                         net (fo=2, routed)           0.257     8.154    dut_inst/stage_g.4.pair_g.2.csn_cmp_inst/pt_7[1]
    SLICE_X96Y466        LUT6 (Prop_H6LUT_SLICEL_I5_O)
                                                      0.064     8.218 r  dut_inst/stage_g.4.pair_g.2.csn_cmp_inst/un1_b_i_c2/O
                         net (fo=1, routed)           0.334     8.552    dut_inst/stage_g.4.pair_g.2.csn_cmp_inst/un1_b_i_c2_37
    SLICE_X94Y466        LUT5 (Prop_C6LUT_SLICEL_I4_O)
                                                      0.038     8.590 r  dut_inst/stage_g.4.pair_g.2.csn_cmp_inst/un1_b_i_c4/O
                         net (fo=1, routed)           0.059     8.649    dut_inst/un1_b_i_29
    SLICE_X94Y466        FDRE                                         r  dut_inst/ret_array_1_12.idx_ret_20/D
  -------------------------------------------------------------------    -------------------

                         (clock clk rise edge)        6.250     6.250 r  
    AV33                                              0.000     6.250 r  clk (IN)
                         net (fo=0)                   0.000     6.250    clk_ibuf_iso/I
    AV33                 INBUF (Prop_INBUF_HPIOB_M_PAD_O)
                                                      0.510     6.760 r  clk_ibuf_iso/INBUF_INST/O
                         net (fo=1, routed)           0.000     6.760    clk_ibuf_iso/OUT
    AV33                 IBUFCTRL (Prop_IBUFCTRL_HPIOB_M_I_O)
                                                      0.000     6.760 r  clk_ibuf_iso/IBUFCTRL_INST/O
                         net (fo=1, routed)           0.296     7.056    clk_ibuf_iso
    BUFGCE_X1Y224        BUFGCE (Prop_BUFCE_BUFGCE_I_O)
                                                      0.024     7.080 r  clk_ibuf/O
    X3Y7 (CLOCK_ROOT)    net (fo=671, routed)         1.883     8.963    dut_inst/clk_c
    SLICE_X94Y466        FDRE                                         r  dut_inst/ret_array_1_12.idx_ret_20/C
                         clock pessimism              0.517     9.480    
                         clock uncertainty           -0.035     9.444    
    SLICE_X94Y466        FDRE (Setup_CFF_SLICEL_C_D)
                                                      0.027     9.471    dut_inst/ret_array_1_12.idx_ret_20
  -------------------------------------------------------------------
                         required time                          9.471    
                         arrival time                          -8.649    
  -------------------------------------------------------------------
                         slack                                  0.822    





Pulse Width Checks
--------------------------------------------------------------------------------------
Clock Name:         clk
Waveform(ns):       { 0.000 3.125 }
Period(ns):         6.250
Sources:            { clk }

Check Type        Corner  Lib Pin   Reference Pin  Required(ns)  Actual(ns)  Slack(ns)  Location       Pin
Min Period        n/a     BUFGCE/I  n/a            1.499         6.250       4.751      BUFGCE_X1Y224  clk_ibuf/I
Min Period        n/a     FDRE/C    n/a            0.550         6.250       5.700      SLICE_X97Y459  dut_inst/ret_array_1_0.idx_ret_17/C
Min Period        n/a     FDRE/C    n/a            0.550         6.250       5.700      SLICE_X95Y459  dut_inst/ret_array_1_0.pt_ret[0]/C
Min Period        n/a     FDRE/C    n/a            0.550         6.250       5.700      SLICE_X95Y459  dut_inst/ret_array_1_0.pt_ret[1]/C
Min Period        n/a     FDRE/C    n/a            0.550         6.250       5.700      SLICE_X96Y460  dut_inst/ret_array_1_0.pt_ret[2]/C
Low Pulse Width   Fast    FDRE/C    n/a            0.275         3.125       2.850      SLICE_X94Y468  dut_inst/ret_array_1_15.pt_ret[1]/C
Low Pulse Width   Fast    FDRE/C    n/a            0.275         3.125       2.850      SLICE_X95Y459  dut_inst/ret_array_1_0.pt_ret_3[0]/C
Low Pulse Width   Slow    FDRE/C    n/a            0.275         3.125       2.850      SLICE_X96Y473  dut_inst/ret_array_1_12.idx_ret_1[9]/C
Low Pulse Width   Fast    FDRE/C    n/a            0.275         3.125       2.850      SLICE_X95Y472  dut_inst/ret_array_1_12.idx_ret_2[0]/C
Low Pulse Width   Fast    FDRE/C    n/a            0.275         3.125       2.850      SLICE_X98Y471  dut_inst/ret_array_1_12.idx_ret_2[14]/C
High Pulse Width  Slow    FDRE/C    n/a            0.275         3.125       2.850      SLICE_X95Y459  dut_inst/ret_array_1_0.pt_ret[0]/C
High Pulse Width  Slow    FDRE/C    n/a            0.275         3.125       2.850      SLICE_X95Y459  dut_inst/ret_array_1_0.pt_ret[1]/C
High Pulse Width  Slow    FDRE/C    n/a            0.275         3.125       2.850      SLICE_X95Y459  dut_inst/ret_array_1_0.pt_ret_3[0]/C
High Pulse Width  Slow    FDRE/C    n/a            0.275         3.125       2.850      SLICE_X95Y459  dut_inst/ret_array_1_0.pt_ret_3[1]/C
High Pulse Width  Slow    FDRE/C    n/a            0.275         3.125       2.850      SLICE_X94Y466  dut_inst/ret_array_1_12.idx_ret_20/C



---------------------------------------------------------------------------------------------------
From Clock:  clk_wrapper
  To Clock:  clk_wrapper

Setup :           NA  Failing Endpoints,  Worst Slack           NA  ,  Total Violation           NA
Hold  :           NA  Failing Endpoints,  Worst Slack           NA  ,  Total Violation           NA
PW    :            0  Failing Endpoints,  Worst Slack      498.562ns,  Total Violation        0.000ns
---------------------------------------------------------------------------------------------------


Pulse Width Checks
--------------------------------------------------------------------------------------
Clock Name:         clk_wrapper
Waveform(ns):       { 0.000 500.000 }
Period(ns):         1000.000
Sources:            { clk_wrapper }

Check Type        Corner  Lib Pin   Reference Pin  Required(ns)  Actual(ns)  Slack(ns)  Location               Pin
Min Period        n/a     FDRE/C    n/a            3.195         1000.000    996.805    BITSLICE_RX_TX_X1Y483  reducer_1/delay_block[4][0]/C
Min Period        n/a     BUFGCE/I  n/a            1.499         1000.000    998.501    BUFGCE_X1Y230          clk_wrapper_ibuf/I
Min Period        n/a     FDRE/C    n/a            0.550         1000.000    999.450    SLICE_X95Y463          lsfr_1/shiftreg_vector[102]/C
Min Period        n/a     FDRE/C    n/a            0.550         1000.000    999.450    SLICE_X95Y463          lsfr_1/shiftreg_vector[103]/C
Min Period        n/a     FDRE/C    n/a            0.550         1000.000    999.450    SLICE_X95Y463          lsfr_1/shiftreg_vector[104]/C
Low Pulse Width   Slow    FDRE/C    n/a            1.438         500.000     498.562    BITSLICE_RX_TX_X1Y483  reducer_1/delay_block[4][0]/C
Low Pulse Width   Fast    FDRE/C    n/a            1.438         500.000     498.562    BITSLICE_RX_TX_X1Y483  reducer_1/delay_block[4][0]/C
Low Pulse Width   Slow    FDRE/C    n/a            0.275         500.000     499.725    SLICE_X97Y469          lsfr_1/shiftreg_vector[111]/C
Low Pulse Width   Slow    FDRE/C    n/a            0.275         500.000     499.725    SLICE_X97Y469          lsfr_1/shiftreg_vector[112]/C
Low Pulse Width   Slow    FDRE/C    n/a            0.275         500.000     499.725    SLICE_X97Y469          lsfr_1/shiftreg_vector[113]/C
High Pulse Width  Fast    FDRE/C    n/a            1.438         500.000     498.562    BITSLICE_RX_TX_X1Y483  reducer_1/delay_block[4][0]/C
High Pulse Width  Slow    FDRE/C    n/a            1.438         500.000     498.562    BITSLICE_RX_TX_X1Y483  reducer_1/delay_block[4][0]/C
High Pulse Width  Fast    FDRE/C    n/a            0.275         500.000     499.725    SLICE_X95Y463          lsfr_1/shiftreg_vector[102]/C
High Pulse Width  Fast    FDRE/C    n/a            0.275         500.000     499.725    SLICE_X95Y463          lsfr_1/shiftreg_vector[103]/C
High Pulse Width  Fast    FDRE/C    n/a            0.275         500.000     499.725    SLICE_X95Y463          lsfr_1/shiftreg_vector[104]/C



