Copyright 1986-2018 Xilinx, Inc. All Rights Reserved.
-----------------------------------------------------------------------------------------------
| Tool Version      : Vivado v.2018.2 (win64) Build 2258646 Thu Jun 14 20:03:12 MDT 2018
| Date              : Mon Mar 11 16:34:13 2019
| Host              : PCPHESEBE02 running 64-bit Service Pack 1  (build 7601)
| Command           : report_timing_summary -hold -nworst 5 -max_paths 5 -file timing_hold.txt
| Design            : wrapper_csn
| Device            : xcvu9p-flgc2104
| Speed File        : -1  PRODUCTION 1.20 05-21-2018
| Temperature Grade : E
-----------------------------------------------------------------------------------------------

Timing Summary Report

------------------------------------------------------------------------------------------------
| Timer Settings
| --------------
------------------------------------------------------------------------------------------------

  Enable Multi Corner Analysis               :  Yes
  Enable Pessimism Removal                   :  Yes
  Pessimism Removal Resolution               :  Nearest Common Node
  Enable Input Delay Default Clock           :  No
  Enable Preset / Clear Arcs                 :  No
  Disable Flight Delays                      :  No
  Ignore I/O Paths                           :  No
  Timing Early Launch at Borrowing Latches   :  false

  Corner  Analyze    Analyze    
  Name    Max Paths  Min Paths  
  ------  ---------  ---------  
  Slow    Yes        Yes        
  Fast    Yes        Yes        



check_timing report

Table of Contents
-----------------
1. checking no_clock
2. checking constant_clock
3. checking pulse_width_clock
4. checking unconstrained_internal_endpoints
5. checking no_input_delay
6. checking no_output_delay
7. checking multiple_clock
8. checking generated_clocks
9. checking loops
10. checking partial_input_delay
11. checking partial_output_delay
12. checking latch_loops

1. checking no_clock
--------------------
 There are 0 register/latch pins with no clock.


2. checking constant_clock
--------------------------
 There are 0 register/latch pins with constant_clock.


3. checking pulse_width_clock
-----------------------------
 There are 0 register/latch pins which need pulse_width check


4. checking unconstrained_internal_endpoints
--------------------------------------------
 There are 0 pins that are not constrained for maximum delay.

 There are 0 pins that are not constrained for maximum delay due to constant clock.


5. checking no_input_delay
--------------------------
 There is 1 input port with no input delay specified. (HIGH)

 There are 0 input ports with no input delay but user has a false path constraint.


6. checking no_output_delay
---------------------------
 There is 1 port with no output delay specified. (HIGH)

 There are 0 ports with no output delay but user has a false path constraint

 There are 0 ports with no output delay but with a timing clock defined on it or propagating through it


7. checking multiple_clock
--------------------------
 There are 0 register/latch pins with multiple clocks.


8. checking generated_clocks
----------------------------
 There are 0 generated clocks that are not connected to a clock source.


9. checking loops
-----------------
 There are 0 combinational loops in the design.


10. checking partial_input_delay
--------------------------------
 There are 0 input ports with partial input delay specified.


11. checking partial_output_delay
---------------------------------
 There are 0 ports with partial output delay specified.


12. checking latch_loops
------------------------
 There are 0 combinational latch loops in the design through latch input



------------------------------------------------------------------------------------------------
| Design Timing Summary
| ---------------------
------------------------------------------------------------------------------------------------

    WHS(ns)      THS(ns)  THS Failing Endpoints  THS Total Endpoints     WPWS(ns)     TPWS(ns)  TPWS Failing Endpoints  TPWS Total Endpoints  
    -------      -------  ---------------------  -------------------     --------     --------  ----------------------  --------------------  
      0.185        0.000                      0                  220        1.511        0.000                       0                  1009  


All user specified timing constraints are met.


------------------------------------------------------------------------------------------------
| Clock Summary
| -------------
------------------------------------------------------------------------------------------------

Clock        Waveform(ns)         Period(ns)      Frequency(MHz)
-----        ------------         ----------      --------------
clk          {0.000 1.786}        3.572           279.955         
clk_wrapper  {0.000 500.000}      1000.000        1.000           


------------------------------------------------------------------------------------------------
| Intra Clock Table
| -----------------
------------------------------------------------------------------------------------------------

Clock             WHS(ns)      THS(ns)  THS Failing Endpoints  THS Total Endpoints     WPWS(ns)     TPWS(ns)  TPWS Failing Endpoints  TPWS Total Endpoints  
-----             -------      -------  ---------------------  -------------------     --------     --------  ----------------------  --------------------  
clk                 0.185        0.000                      0                  220        1.511        0.000                       0                   493  
clk_wrapper                                                                             498.562        0.000                       0                   516  


------------------------------------------------------------------------------------------------
| Inter Clock Table
| -----------------
------------------------------------------------------------------------------------------------

From Clock    To Clock          WHS(ns)      THS(ns)  THS Failing Endpoints  THS Total Endpoints  
----------    --------          -------      -------  ---------------------  -------------------  


------------------------------------------------------------------------------------------------
| Other Path Groups Table
| -----------------------
------------------------------------------------------------------------------------------------

Path Group    From Clock    To Clock          WHS(ns)      THS(ns)  THS Failing Endpoints  THS Total Endpoints  
----------    ----------    --------          -------      -------  ---------------------  -------------------  


------------------------------------------------------------------------------------------------
| Timing Details
| --------------
------------------------------------------------------------------------------------------------


---------------------------------------------------------------------------------------------------
From Clock:  clk
  To Clock:  clk

Setup :           NA  Failing Endpoints,  Worst Slack           NA  ,  Total Violation           NA
Hold  :            0  Failing Endpoints,  Worst Slack        0.185ns,  Total Violation        0.000ns
PW    :            0  Failing Endpoints,  Worst Slack        1.511ns,  Total Violation        0.000ns
---------------------------------------------------------------------------------------------------


Min Delay Paths
--------------------------------------------------------------------------------------
Slack (MET) :             0.185ns  (arrival time - required time)
  Source:                 shift_reg_tap_i/sr_p.sr_1_fast[20]/C
                            (rising edge-triggered cell FDRE clocked by clk  {rise@0.000ns fall@1.786ns period=3.572ns})
  Destination:            shift_reg_tap_o/sr_p.sr_1[10]/D
                            (rising edge-triggered cell FDRE clocked by clk  {rise@0.000ns fall@1.786ns period=3.572ns})
  Path Group:             clk
  Path Type:              Hold (Min at Fast Process Corner)
  Requirement:            0.000ns  (clk rise@0.000ns - clk rise@0.000ns)
  Data Path Delay:        0.255ns  (logic 0.134ns (52.549%)  route 0.121ns (47.451%))
  Logic Levels:           2  (LUT5=1 LUT6=1)
  Clock Path Skew:        0.024ns (DCD - SCD - CPR)
    Destination Clock Delay (DCD):    1.659ns
    Source Clock Delay      (SCD):    1.324ns
    Clock Pessimism Removal (CPR):    0.311ns
  Clock Net Delay (Source):      0.778ns (routing 0.316ns, distribution 0.462ns)
  Clock Net Delay (Destination): 0.887ns (routing 0.348ns, distribution 0.539ns)

    Location             Delay type                Incr(ns)  Path(ns)    Netlist Resource(s)
  -------------------------------------------------------------------    -------------------
                         (clock clk rise edge)        0.000     0.000 r  
    AV33                                              0.000     0.000 r  clk (IN)
                         net (fo=0)                   0.000     0.000    clk_ibuf_iso/I
    AV33                 INBUF (Prop_INBUF_HPIOB_M_PAD_O)
                                                      0.385     0.385 r  clk_ibuf_iso/INBUF_INST/O
                         net (fo=1, routed)           0.000     0.385    clk_ibuf_iso/OUT
    AV33                 IBUFCTRL (Prop_IBUFCTRL_HPIOB_M_I_O)
                                                      0.000     0.385 r  clk_ibuf_iso/IBUFCTRL_INST/O
                         net (fo=1, routed)           0.144     0.529    clk_ibuf_iso
    BUFGCE_X1Y224        BUFGCE (Prop_BUFCE_BUFGCE_I_O)
                                                      0.017     0.546 r  clk_ibuf/O
    X3Y9 (CLOCK_ROOT)    net (fo=492, routed)         0.778     1.324    shift_reg_tap_i/clk_c
    SLICE_X100Y577       FDRE                                         r  shift_reg_tap_i/sr_p.sr_1_fast[20]/C
  -------------------------------------------------------------------    -------------------
    SLICE_X100Y577       FDRE (Prop_HFF_SLICEM_C_Q)
                                                      0.039     1.363 r  shift_reg_tap_i/sr_p.sr_1_fast[20]/Q
                         net (fo=10, routed)          0.061     1.424    dut_inst/stage_g.2.pair_g.9.csn_cmp_inst/input_slr_fast_20
    SLICE_X100Y578       LUT6 (Prop_F6LUT_SLICEM_I2_O)
                                                      0.035     1.459 f  dut_inst/stage_g.2.pair_g.9.csn_cmp_inst/a_o_comb.pt_a0[0]/O
                         net (fo=27, routed)          0.039     1.498    dut_inst/stage_g.7.pair_g.9.csn_cmp_inst/pt_i_3_0
    SLICE_X100Y578       LUT5 (Prop_B6LUT_SLICEM_I0_O)
                                                      0.060     1.558 r  dut_inst/stage_g.7.pair_g.9.csn_cmp_inst/a_o_comb.pt_lut6_2_o6_0[0]/O
                         net (fo=1, routed)           0.021     1.579    shift_reg_tap_o/un1_dut_inst_0_10
    SLICE_X100Y578       FDRE                                         r  shift_reg_tap_o/sr_p.sr_1[10]/D
  -------------------------------------------------------------------    -------------------

                         (clock clk rise edge)        0.000     0.000 r  
    AV33                                              0.000     0.000 r  clk (IN)
                         net (fo=0)                   0.000     0.000    clk_ibuf_iso/I
    AV33                 INBUF (Prop_INBUF_HPIOB_M_PAD_O)
                                                      0.572     0.572 r  clk_ibuf_iso/INBUF_INST/O
                         net (fo=1, routed)           0.000     0.572    clk_ibuf_iso/OUT
    AV33                 IBUFCTRL (Prop_IBUFCTRL_HPIOB_M_I_O)
                                                      0.000     0.572 r  clk_ibuf_iso/IBUFCTRL_INST/O
                         net (fo=1, routed)           0.181     0.753    clk_ibuf_iso
    BUFGCE_X1Y224        BUFGCE (Prop_BUFCE_BUFGCE_I_O)
                                                      0.019     0.772 r  clk_ibuf/O
    X3Y9 (CLOCK_ROOT)    net (fo=492, routed)         0.887     1.659    shift_reg_tap_o/clk_c
    SLICE_X100Y578       FDRE                                         r  shift_reg_tap_o/sr_p.sr_1[10]/C
                         clock pessimism             -0.311     1.348    
    SLICE_X100Y578       FDRE (Hold_BFF_SLICEM_C_D)
                                                      0.046     1.394    shift_reg_tap_o/sr_p.sr_1[10]
  -------------------------------------------------------------------
                         required time                         -1.394    
                         arrival time                           1.579    
  -------------------------------------------------------------------
                         slack                                  0.185    

Slack (MET) :             0.185ns  (arrival time - required time)
  Source:                 shift_reg_tap_i/sr_p.sr_1_fast[20]/C
                            (rising edge-triggered cell FDRE clocked by clk  {rise@0.000ns fall@1.786ns period=3.572ns})
  Destination:            shift_reg_tap_o/sr_p.sr_1[10]/D
                            (rising edge-triggered cell FDRE clocked by clk  {rise@0.000ns fall@1.786ns period=3.572ns})
  Path Group:             clk
  Path Type:              Hold (Min at Fast Process Corner)
  Requirement:            0.000ns  (clk rise@0.000ns - clk rise@0.000ns)
  Data Path Delay:        0.255ns  (logic 0.134ns (52.549%)  route 0.121ns (47.451%))
  Logic Levels:           2  (LUT5=1 LUT6=1)
  Clock Path Skew:        0.024ns (DCD - SCD - CPR)
    Destination Clock Delay (DCD):    1.659ns
    Source Clock Delay      (SCD):    1.324ns
    Clock Pessimism Removal (CPR):    0.311ns
  Clock Net Delay (Source):      0.778ns (routing 0.316ns, distribution 0.462ns)
  Clock Net Delay (Destination): 0.887ns (routing 0.348ns, distribution 0.539ns)

    Location             Delay type                Incr(ns)  Path(ns)    Netlist Resource(s)
  -------------------------------------------------------------------    -------------------
                         (clock clk rise edge)        0.000     0.000 r  
    AV33                                              0.000     0.000 r  clk (IN)
                         net (fo=0)                   0.000     0.000    clk_ibuf_iso/I
    AV33                 INBUF (Prop_INBUF_HPIOB_M_PAD_O)
                                                      0.385     0.385 r  clk_ibuf_iso/INBUF_INST/O
                         net (fo=1, routed)           0.000     0.385    clk_ibuf_iso/OUT
    AV33                 IBUFCTRL (Prop_IBUFCTRL_HPIOB_M_I_O)
                                                      0.000     0.385 r  clk_ibuf_iso/IBUFCTRL_INST/O
                         net (fo=1, routed)           0.144     0.529    clk_ibuf_iso
    BUFGCE_X1Y224        BUFGCE (Prop_BUFCE_BUFGCE_I_O)
                                                      0.017     0.546 r  clk_ibuf/O
    X3Y9 (CLOCK_ROOT)    net (fo=492, routed)         0.778     1.324    shift_reg_tap_i/clk_c
    SLICE_X100Y577       FDRE                                         r  shift_reg_tap_i/sr_p.sr_1_fast[20]/C
  -------------------------------------------------------------------    -------------------
    SLICE_X100Y577       FDRE (Prop_HFF_SLICEM_C_Q)
                                                      0.039     1.363 f  shift_reg_tap_i/sr_p.sr_1_fast[20]/Q
                         net (fo=10, routed)          0.061     1.424    dut_inst/stage_g.2.pair_g.9.csn_cmp_inst/input_slr_fast_20
    SLICE_X100Y578       LUT6 (Prop_F6LUT_SLICEM_I2_O)
                                                      0.035     1.459 r  dut_inst/stage_g.2.pair_g.9.csn_cmp_inst/a_o_comb.pt_a0[0]/O
                         net (fo=27, routed)          0.039     1.498    dut_inst/stage_g.7.pair_g.9.csn_cmp_inst/pt_i_3_0
    SLICE_X100Y578       LUT5 (Prop_B6LUT_SLICEM_I0_O)
                                                      0.060     1.558 f  dut_inst/stage_g.7.pair_g.9.csn_cmp_inst/a_o_comb.pt_lut6_2_o6_0[0]/O
                         net (fo=1, routed)           0.021     1.579    shift_reg_tap_o/un1_dut_inst_0_10
    SLICE_X100Y578       FDRE                                         f  shift_reg_tap_o/sr_p.sr_1[10]/D
  -------------------------------------------------------------------    -------------------

                         (clock clk rise edge)        0.000     0.000 r  
    AV33                                              0.000     0.000 r  clk (IN)
                         net (fo=0)                   0.000     0.000    clk_ibuf_iso/I
    AV33                 INBUF (Prop_INBUF_HPIOB_M_PAD_O)
                                                      0.572     0.572 r  clk_ibuf_iso/INBUF_INST/O
                         net (fo=1, routed)           0.000     0.572    clk_ibuf_iso/OUT
    AV33                 IBUFCTRL (Prop_IBUFCTRL_HPIOB_M_I_O)
                                                      0.000     0.572 r  clk_ibuf_iso/IBUFCTRL_INST/O
                         net (fo=1, routed)           0.181     0.753    clk_ibuf_iso
    BUFGCE_X1Y224        BUFGCE (Prop_BUFCE_BUFGCE_I_O)
                                                      0.019     0.772 r  clk_ibuf/O
    X3Y9 (CLOCK_ROOT)    net (fo=492, routed)         0.887     1.659    shift_reg_tap_o/clk_c
    SLICE_X100Y578       FDRE                                         r  shift_reg_tap_o/sr_p.sr_1[10]/C
                         clock pessimism             -0.311     1.348    
    SLICE_X100Y578       FDRE (Hold_BFF_SLICEM_C_D)
                                                      0.046     1.394    shift_reg_tap_o/sr_p.sr_1[10]
  -------------------------------------------------------------------
                         required time                         -1.394    
                         arrival time                           1.579    
  -------------------------------------------------------------------
                         slack                                  0.185    

Slack (MET) :             0.193ns  (arrival time - required time)
  Source:                 shift_reg_tap_i/sr_p.sr_1_fast[40]/C
                            (rising edge-triggered cell FDRE clocked by clk  {rise@0.000ns fall@1.786ns period=3.572ns})
  Destination:            shift_reg_tap_o/sr_p.sr_1[10]/D
                            (rising edge-triggered cell FDRE clocked by clk  {rise@0.000ns fall@1.786ns period=3.572ns})
  Path Group:             clk
  Path Type:              Hold (Min at Fast Process Corner)
  Requirement:            0.000ns  (clk rise@0.000ns - clk rise@0.000ns)
  Data Path Delay:        0.261ns  (logic 0.121ns (46.360%)  route 0.140ns (53.640%))
  Logic Levels:           2  (LUT5=1 LUT6=1)
  Clock Path Skew:        0.022ns (DCD - SCD - CPR)
    Destination Clock Delay (DCD):    1.659ns
    Source Clock Delay      (SCD):    1.326ns
    Clock Pessimism Removal (CPR):    0.311ns
  Clock Net Delay (Source):      0.780ns (routing 0.316ns, distribution 0.464ns)
  Clock Net Delay (Destination): 0.887ns (routing 0.348ns, distribution 0.539ns)

    Location             Delay type                Incr(ns)  Path(ns)    Netlist Resource(s)
  -------------------------------------------------------------------    -------------------
                         (clock clk rise edge)        0.000     0.000 r  
    AV33                                              0.000     0.000 r  clk (IN)
                         net (fo=0)                   0.000     0.000    clk_ibuf_iso/I
    AV33                 INBUF (Prop_INBUF_HPIOB_M_PAD_O)
                                                      0.385     0.385 r  clk_ibuf_iso/INBUF_INST/O
                         net (fo=1, routed)           0.000     0.385    clk_ibuf_iso/OUT
    AV33                 IBUFCTRL (Prop_IBUFCTRL_HPIOB_M_I_O)
                                                      0.000     0.385 r  clk_ibuf_iso/IBUFCTRL_INST/O
                         net (fo=1, routed)           0.144     0.529    clk_ibuf_iso
    BUFGCE_X1Y224        BUFGCE (Prop_BUFCE_BUFGCE_I_O)
                                                      0.017     0.546 r  clk_ibuf/O
    X3Y9 (CLOCK_ROOT)    net (fo=492, routed)         0.780     1.326    shift_reg_tap_i/clk_c
    SLICE_X100Y575       FDRE                                         r  shift_reg_tap_i/sr_p.sr_1_fast[40]/C
  -------------------------------------------------------------------    -------------------
    SLICE_X100Y575       FDRE (Prop_HFF_SLICEM_C_Q)
                                                      0.039     1.365 r  shift_reg_tap_i/sr_p.sr_1_fast[40]/Q
                         net (fo=3, routed)           0.080     1.445    dut_inst/stage_g.2.pair_g.9.csn_cmp_inst/input_slr_fast_40
    SLICE_X100Y578       LUT6 (Prop_F6LUT_SLICEM_I4_O)
                                                      0.022     1.467 f  dut_inst/stage_g.2.pair_g.9.csn_cmp_inst/a_o_comb.pt_a0[0]/O
                         net (fo=27, routed)          0.039     1.506    dut_inst/stage_g.7.pair_g.9.csn_cmp_inst/pt_i_3_0
    SLICE_X100Y578       LUT5 (Prop_B6LUT_SLICEM_I0_O)
                                                      0.060     1.566 r  dut_inst/stage_g.7.pair_g.9.csn_cmp_inst/a_o_comb.pt_lut6_2_o6_0[0]/O
                         net (fo=1, routed)           0.021     1.587    shift_reg_tap_o/un1_dut_inst_0_10
    SLICE_X100Y578       FDRE                                         r  shift_reg_tap_o/sr_p.sr_1[10]/D
  -------------------------------------------------------------------    -------------------

                         (clock clk rise edge)        0.000     0.000 r  
    AV33                                              0.000     0.000 r  clk (IN)
                         net (fo=0)                   0.000     0.000    clk_ibuf_iso/I
    AV33                 INBUF (Prop_INBUF_HPIOB_M_PAD_O)
                                                      0.572     0.572 r  clk_ibuf_iso/INBUF_INST/O
                         net (fo=1, routed)           0.000     0.572    clk_ibuf_iso/OUT
    AV33                 IBUFCTRL (Prop_IBUFCTRL_HPIOB_M_I_O)
                                                      0.000     0.572 r  clk_ibuf_iso/IBUFCTRL_INST/O
                         net (fo=1, routed)           0.181     0.753    clk_ibuf_iso
    BUFGCE_X1Y224        BUFGCE (Prop_BUFCE_BUFGCE_I_O)
                                                      0.019     0.772 r  clk_ibuf/O
    X3Y9 (CLOCK_ROOT)    net (fo=492, routed)         0.887     1.659    shift_reg_tap_o/clk_c
    SLICE_X100Y578       FDRE                                         r  shift_reg_tap_o/sr_p.sr_1[10]/C
                         clock pessimism             -0.311     1.348    
    SLICE_X100Y578       FDRE (Hold_BFF_SLICEM_C_D)
                                                      0.046     1.394    shift_reg_tap_o/sr_p.sr_1[10]
  -------------------------------------------------------------------
                         required time                         -1.394    
                         arrival time                           1.587    
  -------------------------------------------------------------------
                         slack                                  0.193    

Slack (MET) :             0.193ns  (arrival time - required time)
  Source:                 shift_reg_tap_i/sr_p.sr_1_fast[40]/C
                            (rising edge-triggered cell FDRE clocked by clk  {rise@0.000ns fall@1.786ns period=3.572ns})
  Destination:            shift_reg_tap_o/sr_p.sr_1[10]/D
                            (rising edge-triggered cell FDRE clocked by clk  {rise@0.000ns fall@1.786ns period=3.572ns})
  Path Group:             clk
  Path Type:              Hold (Min at Fast Process Corner)
  Requirement:            0.000ns  (clk rise@0.000ns - clk rise@0.000ns)
  Data Path Delay:        0.261ns  (logic 0.121ns (46.360%)  route 0.140ns (53.640%))
  Logic Levels:           2  (LUT5=1 LUT6=1)
  Clock Path Skew:        0.022ns (DCD - SCD - CPR)
    Destination Clock Delay (DCD):    1.659ns
    Source Clock Delay      (SCD):    1.326ns
    Clock Pessimism Removal (CPR):    0.311ns
  Clock Net Delay (Source):      0.780ns (routing 0.316ns, distribution 0.464ns)
  Clock Net Delay (Destination): 0.887ns (routing 0.348ns, distribution 0.539ns)

    Location             Delay type                Incr(ns)  Path(ns)    Netlist Resource(s)
  -------------------------------------------------------------------    -------------------
                         (clock clk rise edge)        0.000     0.000 r  
    AV33                                              0.000     0.000 r  clk (IN)
                         net (fo=0)                   0.000     0.000    clk_ibuf_iso/I
    AV33                 INBUF (Prop_INBUF_HPIOB_M_PAD_O)
                                                      0.385     0.385 r  clk_ibuf_iso/INBUF_INST/O
                         net (fo=1, routed)           0.000     0.385    clk_ibuf_iso/OUT
    AV33                 IBUFCTRL (Prop_IBUFCTRL_HPIOB_M_I_O)
                                                      0.000     0.385 r  clk_ibuf_iso/IBUFCTRL_INST/O
                         net (fo=1, routed)           0.144     0.529    clk_ibuf_iso
    BUFGCE_X1Y224        BUFGCE (Prop_BUFCE_BUFGCE_I_O)
                                                      0.017     0.546 r  clk_ibuf/O
    X3Y9 (CLOCK_ROOT)    net (fo=492, routed)         0.780     1.326    shift_reg_tap_i/clk_c
    SLICE_X100Y575       FDRE                                         r  shift_reg_tap_i/sr_p.sr_1_fast[40]/C
  -------------------------------------------------------------------    -------------------
    SLICE_X100Y575       FDRE (Prop_HFF_SLICEM_C_Q)
                                                      0.039     1.365 r  shift_reg_tap_i/sr_p.sr_1_fast[40]/Q
                         net (fo=3, routed)           0.080     1.445    dut_inst/stage_g.2.pair_g.9.csn_cmp_inst/input_slr_fast_40
    SLICE_X100Y578       LUT6 (Prop_F6LUT_SLICEM_I4_O)
                                                      0.022     1.467 f  dut_inst/stage_g.2.pair_g.9.csn_cmp_inst/a_o_comb.pt_a0[0]/O
                         net (fo=27, routed)          0.039     1.506    dut_inst/stage_g.7.pair_g.9.csn_cmp_inst/pt_i_3_0
    SLICE_X100Y578       LUT5 (Prop_B6LUT_SLICEM_I0_O)
                                                      0.060     1.566 r  dut_inst/stage_g.7.pair_g.9.csn_cmp_inst/a_o_comb.pt_lut6_2_o6_0[0]/O
                         net (fo=1, routed)           0.021     1.587    shift_reg_tap_o/un1_dut_inst_0_10
    SLICE_X100Y578       FDRE                                         r  shift_reg_tap_o/sr_p.sr_1[10]/D
  -------------------------------------------------------------------    -------------------

                         (clock clk rise edge)        0.000     0.000 r  
    AV33                                              0.000     0.000 r  clk (IN)
                         net (fo=0)                   0.000     0.000    clk_ibuf_iso/I
    AV33                 INBUF (Prop_INBUF_HPIOB_M_PAD_O)
                                                      0.572     0.572 r  clk_ibuf_iso/INBUF_INST/O
                         net (fo=1, routed)           0.000     0.572    clk_ibuf_iso/OUT
    AV33                 IBUFCTRL (Prop_IBUFCTRL_HPIOB_M_I_O)
                                                      0.000     0.572 r  clk_ibuf_iso/IBUFCTRL_INST/O
                         net (fo=1, routed)           0.181     0.753    clk_ibuf_iso
    BUFGCE_X1Y224        BUFGCE (Prop_BUFCE_BUFGCE_I_O)
                                                      0.019     0.772 r  clk_ibuf/O
    X3Y9 (CLOCK_ROOT)    net (fo=492, routed)         0.887     1.659    shift_reg_tap_o/clk_c
    SLICE_X100Y578       FDRE                                         r  shift_reg_tap_o/sr_p.sr_1[10]/C
                         clock pessimism             -0.311     1.348    
    SLICE_X100Y578       FDRE (Hold_BFF_SLICEM_C_D)
                                                      0.046     1.394    shift_reg_tap_o/sr_p.sr_1[10]
  -------------------------------------------------------------------
                         required time                         -1.394    
                         arrival time                           1.587    
  -------------------------------------------------------------------
                         slack                                  0.193    

Slack (MET) :             0.193ns  (arrival time - required time)
  Source:                 shift_reg_tap_i/sr_p.sr_1_fast[40]/C
                            (rising edge-triggered cell FDRE clocked by clk  {rise@0.000ns fall@1.786ns period=3.572ns})
  Destination:            shift_reg_tap_o/sr_p.sr_1[10]/D
                            (rising edge-triggered cell FDRE clocked by clk  {rise@0.000ns fall@1.786ns period=3.572ns})
  Path Group:             clk
  Path Type:              Hold (Min at Fast Process Corner)
  Requirement:            0.000ns  (clk rise@0.000ns - clk rise@0.000ns)
  Data Path Delay:        0.261ns  (logic 0.121ns (46.360%)  route 0.140ns (53.640%))
  Logic Levels:           2  (LUT5=1 LUT6=1)
  Clock Path Skew:        0.022ns (DCD - SCD - CPR)
    Destination Clock Delay (DCD):    1.659ns
    Source Clock Delay      (SCD):    1.326ns
    Clock Pessimism Removal (CPR):    0.311ns
  Clock Net Delay (Source):      0.780ns (routing 0.316ns, distribution 0.464ns)
  Clock Net Delay (Destination): 0.887ns (routing 0.348ns, distribution 0.539ns)

    Location             Delay type                Incr(ns)  Path(ns)    Netlist Resource(s)
  -------------------------------------------------------------------    -------------------
                         (clock clk rise edge)        0.000     0.000 r  
    AV33                                              0.000     0.000 r  clk (IN)
                         net (fo=0)                   0.000     0.000    clk_ibuf_iso/I
    AV33                 INBUF (Prop_INBUF_HPIOB_M_PAD_O)
                                                      0.385     0.385 r  clk_ibuf_iso/INBUF_INST/O
                         net (fo=1, routed)           0.000     0.385    clk_ibuf_iso/OUT
    AV33                 IBUFCTRL (Prop_IBUFCTRL_HPIOB_M_I_O)
                                                      0.000     0.385 r  clk_ibuf_iso/IBUFCTRL_INST/O
                         net (fo=1, routed)           0.144     0.529    clk_ibuf_iso
    BUFGCE_X1Y224        BUFGCE (Prop_BUFCE_BUFGCE_I_O)
                                                      0.017     0.546 r  clk_ibuf/O
    X3Y9 (CLOCK_ROOT)    net (fo=492, routed)         0.780     1.326    shift_reg_tap_i/clk_c
    SLICE_X100Y575       FDRE                                         r  shift_reg_tap_i/sr_p.sr_1_fast[40]/C
  -------------------------------------------------------------------    -------------------
    SLICE_X100Y575       FDRE (Prop_HFF_SLICEM_C_Q)
                                                      0.039     1.365 f  shift_reg_tap_i/sr_p.sr_1_fast[40]/Q
                         net (fo=3, routed)           0.080     1.445    dut_inst/stage_g.2.pair_g.9.csn_cmp_inst/input_slr_fast_40
    SLICE_X100Y578       LUT6 (Prop_F6LUT_SLICEM_I4_O)
                                                      0.022     1.467 r  dut_inst/stage_g.2.pair_g.9.csn_cmp_inst/a_o_comb.pt_a0[0]/O
                         net (fo=27, routed)          0.039     1.506    dut_inst/stage_g.7.pair_g.9.csn_cmp_inst/pt_i_3_0
    SLICE_X100Y578       LUT5 (Prop_B6LUT_SLICEM_I0_O)
                                                      0.060     1.566 f  dut_inst/stage_g.7.pair_g.9.csn_cmp_inst/a_o_comb.pt_lut6_2_o6_0[0]/O
                         net (fo=1, routed)           0.021     1.587    shift_reg_tap_o/un1_dut_inst_0_10
    SLICE_X100Y578       FDRE                                         f  shift_reg_tap_o/sr_p.sr_1[10]/D
  -------------------------------------------------------------------    -------------------

                         (clock clk rise edge)        0.000     0.000 r  
    AV33                                              0.000     0.000 r  clk (IN)
                         net (fo=0)                   0.000     0.000    clk_ibuf_iso/I
    AV33                 INBUF (Prop_INBUF_HPIOB_M_PAD_O)
                                                      0.572     0.572 r  clk_ibuf_iso/INBUF_INST/O
                         net (fo=1, routed)           0.000     0.572    clk_ibuf_iso/OUT
    AV33                 IBUFCTRL (Prop_IBUFCTRL_HPIOB_M_I_O)
                                                      0.000     0.572 r  clk_ibuf_iso/IBUFCTRL_INST/O
                         net (fo=1, routed)           0.181     0.753    clk_ibuf_iso
    BUFGCE_X1Y224        BUFGCE (Prop_BUFCE_BUFGCE_I_O)
                                                      0.019     0.772 r  clk_ibuf/O
    X3Y9 (CLOCK_ROOT)    net (fo=492, routed)         0.887     1.659    shift_reg_tap_o/clk_c
    SLICE_X100Y578       FDRE                                         r  shift_reg_tap_o/sr_p.sr_1[10]/C
                         clock pessimism             -0.311     1.348    
    SLICE_X100Y578       FDRE (Hold_BFF_SLICEM_C_D)
                                                      0.046     1.394    shift_reg_tap_o/sr_p.sr_1[10]
  -------------------------------------------------------------------
                         required time                         -1.394    
                         arrival time                           1.587    
  -------------------------------------------------------------------
                         slack                                  0.193    





Pulse Width Checks
--------------------------------------------------------------------------------------
Clock Name:         clk
Waveform(ns):       { 0.000 1.786 }
Period(ns):         3.572
Sources:            { clk }

Check Type        Corner  Lib Pin   Reference Pin  Required(ns)  Actual(ns)  Slack(ns)  Location       Pin
Min Period        n/a     BUFGCE/I  n/a            1.499         3.572       2.073      BUFGCE_X1Y224  clk_ibuf/I
Min Period        n/a     FDRE/C    n/a            0.550         3.572       3.022      SLICE_X94Y582  shift_reg_tap_i/sr_p.sr_1[136]/C
Min Period        n/a     FDRE/C    n/a            0.550         3.572       3.022      SLICE_X99Y582  shift_reg_tap_i/sr_p.sr_1[137]/C
Min Period        n/a     FDRE/C    n/a            0.550         3.572       3.022      SLICE_X93Y581  shift_reg_tap_i/sr_p.sr_1[138]/C
Min Period        n/a     FDRE/C    n/a            0.550         3.572       3.022      SLICE_X97Y581  shift_reg_tap_i/sr_p.sr_1[139]/C
Low Pulse Width   Slow    FDRE/C    n/a            0.275         1.786       1.511      SLICE_X94Y579  shift_reg_tap_i/sr_p.sr_1[147]/C
Low Pulse Width   Slow    FDRE/C    n/a            0.275         1.786       1.511      SLICE_X96Y577  shift_reg_tap_i/sr_p.sr_1[160]/C
Low Pulse Width   Slow    FDRE/C    n/a            0.275         1.786       1.511      SLICE_X94Y579  shift_reg_tap_i/sr_p.sr_1[165]/C
Low Pulse Width   Slow    FDRE/C    n/a            0.275         1.786       1.511      SLICE_X94Y567  shift_reg_tap_o/sr_p.sr_1[187]/C
Low Pulse Width   Slow    FDRE/C    n/a            0.275         1.786       1.511      SLICE_X95Y569  shift_reg_tap_o/sr_p.sr_1[191]/C
High Pulse Width  Slow    FDRE/C    n/a            0.275         1.786       1.511      SLICE_X94Y582  shift_reg_tap_i/sr_p.sr_1[136]/C
High Pulse Width  Slow    FDRE/C    n/a            0.275         1.786       1.511      SLICE_X97Y581  shift_reg_tap_i/sr_p.sr_1[139]/C
High Pulse Width  Fast    FDRE/C    n/a            0.275         1.786       1.511      SLICE_X99Y578  shift_reg_tap_i/sr_p.sr_1[13]/C
High Pulse Width  Fast    FDRE/C    n/a            0.275         1.786       1.511      SLICE_X99Y577  shift_reg_tap_i/sr_p.sr_1[142]/C
High Pulse Width  Fast    FDRE/C    n/a            0.275         1.786       1.511      SLICE_X94Y579  shift_reg_tap_i/sr_p.sr_1[143]/C



---------------------------------------------------------------------------------------------------
From Clock:  clk_wrapper
  To Clock:  clk_wrapper

Setup :           NA  Failing Endpoints,  Worst Slack           NA  ,  Total Violation           NA
Hold  :           NA  Failing Endpoints,  Worst Slack           NA  ,  Total Violation           NA
PW    :            0  Failing Endpoints,  Worst Slack      498.562ns,  Total Violation        0.000ns
---------------------------------------------------------------------------------------------------


Pulse Width Checks
--------------------------------------------------------------------------------------
Clock Name:         clk_wrapper
Waveform(ns):       { 0.000 500.000 }
Period(ns):         1000.000
Sources:            { clk_wrapper }

Check Type        Corner  Lib Pin   Reference Pin  Required(ns)  Actual(ns)  Slack(ns)  Location               Pin
Min Period        n/a     FDRE/C    n/a            3.195         1000.000    996.805    BITSLICE_RX_TX_X1Y483  reducer_1/delay_block[4][0]/C
Min Period        n/a     BUFGCE/I  n/a            1.499         1000.000    998.501    BUFGCE_X1Y230          clk_wrapper_ibuf/I
Min Period        n/a     FDRE/C    n/a            0.550         1000.000    999.450    SLICE_X101Y581         lsfr_1/shiftreg_vector[21]/C
Min Period        n/a     FDRE/C    n/a            0.550         1000.000    999.450    SLICE_X100Y581         lsfr_1/shiftreg_vector[22]/C
Min Period        n/a     FDRE/C    n/a            0.550         1000.000    999.450    SLICE_X100Y581         lsfr_1/shiftreg_vector[23]/C
Low Pulse Width   Slow    FDRE/C    n/a            1.438         500.000     498.562    BITSLICE_RX_TX_X1Y483  reducer_1/delay_block[4][0]/C
Low Pulse Width   Fast    FDRE/C    n/a            1.438         500.000     498.562    BITSLICE_RX_TX_X1Y483  reducer_1/delay_block[4][0]/C
Low Pulse Width   Slow    FDRE/C    n/a            0.275         500.000     499.725    SLICE_X101Y581         lsfr_1/shiftreg_vector[21]/C
Low Pulse Width   Slow    FDRE/C    n/a            0.275         500.000     499.725    SLICE_X101Y581         lsfr_1/shiftreg_vector[24]/C
Low Pulse Width   Slow    FDRE/C    n/a            0.275         500.000     499.725    SLICE_X101Y581         lsfr_1/shiftreg_vector[31]/C
High Pulse Width  Fast    FDRE/C    n/a            1.438         500.000     498.562    BITSLICE_RX_TX_X1Y483  reducer_1/delay_block[4][0]/C
High Pulse Width  Slow    FDRE/C    n/a            1.438         500.000     498.562    BITSLICE_RX_TX_X1Y483  reducer_1/delay_block[4][0]/C
High Pulse Width  Fast    FDRE/C    n/a            0.275         500.000     499.725    SLICE_X101Y581         lsfr_1/shiftreg_vector[21]/C
High Pulse Width  Fast    FDRE/C    n/a            0.275         500.000     499.725    SLICE_X100Y581         lsfr_1/shiftreg_vector[22]/C
High Pulse Width  Fast    FDRE/C    n/a            0.275         500.000     499.725    SLICE_X100Y581         lsfr_1/shiftreg_vector[23]/C



