Copyright 1986-2018 Xilinx, Inc. All Rights Reserved.
-------------------------------------------------------------------------------------------------
| Tool Version      : Vivado v.2018.2 (win64) Build 2258646 Thu Jun 14 20:03:12 MDT 2018
| Date              : Sat Mar  2 21:02:45 2019
| Host              : PCPHESEBE02 running 64-bit Service Pack 1  (build 7601)
| Command           : report_timing_summary -setup -nworst 5 -max_paths 5 -file timing_setup.txt
| Design            : bitonic_sorter_16_top
| Device            : xcvu9p-flgc2104
| Speed File        : -1  PRODUCTION 1.20 05-21-2018
| Temperature Grade : E
-------------------------------------------------------------------------------------------------

Timing Summary Report

------------------------------------------------------------------------------------------------
| Timer Settings
| --------------
------------------------------------------------------------------------------------------------

  Enable Multi Corner Analysis               :  Yes
  Enable Pessimism Removal                   :  Yes
  Pessimism Removal Resolution               :  Nearest Common Node
  Enable Input Delay Default Clock           :  No
  Enable Preset / Clear Arcs                 :  No
  Disable Flight Delays                      :  No
  Ignore I/O Paths                           :  No
  Timing Early Launch at Borrowing Latches   :  false

  Corner  Analyze    Analyze    
  Name    Max Paths  Min Paths  
  ------  ---------  ---------  
  Slow    Yes        Yes        
  Fast    Yes        Yes        



check_timing report

Table of Contents
-----------------
1. checking no_clock
2. checking constant_clock
3. checking pulse_width_clock
4. checking unconstrained_internal_endpoints
5. checking no_input_delay
6. checking no_output_delay
7. checking multiple_clock
8. checking generated_clocks
9. checking loops
10. checking partial_input_delay
11. checking partial_output_delay
12. checking latch_loops

1. checking no_clock
--------------------
 There are 0 register/latch pins with no clock.


2. checking constant_clock
--------------------------
 There are 0 register/latch pins with constant_clock.


3. checking pulse_width_clock
-----------------------------
 There are 0 register/latch pins which need pulse_width check


4. checking unconstrained_internal_endpoints
--------------------------------------------
 There are 0 pins that are not constrained for maximum delay.

 There are 0 pins that are not constrained for maximum delay due to constant clock.


5. checking no_input_delay
--------------------------
 There is 1 input port with no input delay specified. (HIGH)

 There are 0 input ports with no input delay but user has a false path constraint.


6. checking no_output_delay
---------------------------
 There is 1 port with no output delay specified. (HIGH)

 There are 0 ports with no output delay but user has a false path constraint

 There are 0 ports with no output delay but with a timing clock defined on it or propagating through it


7. checking multiple_clock
--------------------------
 There are 0 register/latch pins with multiple clocks.


8. checking generated_clocks
----------------------------
 There are 0 generated clocks that are not connected to a clock source.


9. checking loops
-----------------
 There are 0 combinational loops in the design.


10. checking partial_input_delay
--------------------------------
 There are 0 input ports with partial input delay specified.


11. checking partial_output_delay
---------------------------------
 There are 0 ports with partial output delay specified.


12. checking latch_loops
------------------------
 There are 0 combinational latch loops in the design through latch input



------------------------------------------------------------------------------------------------
| Design Timing Summary
| ---------------------
------------------------------------------------------------------------------------------------

    WNS(ns)      TNS(ns)  TNS Failing Endpoints  TNS Total Endpoints     WPWS(ns)     TPWS(ns)  TPWS Failing Endpoints  TPWS Total Endpoints  
    -------      -------  ---------------------  -------------------     --------     --------  ----------------------  --------------------  
      1.728        0.000                      0                  704        2.850        0.000                       0                  1403  


All user specified timing constraints are met.


------------------------------------------------------------------------------------------------
| Clock Summary
| -------------
------------------------------------------------------------------------------------------------

Clock        Waveform(ns)         Period(ns)      Frequency(MHz)
-----        ------------         ----------      --------------
clk          {0.000 3.125}        6.250           160.000         
clk_wrapper  {0.000 500.000}      1000.000        1.000           


------------------------------------------------------------------------------------------------
| Intra Clock Table
| -----------------
------------------------------------------------------------------------------------------------

Clock             WNS(ns)      TNS(ns)  TNS Failing Endpoints  TNS Total Endpoints     WPWS(ns)     TPWS(ns)  TPWS Failing Endpoints  TPWS Total Endpoints  
-----             -------      -------  ---------------------  -------------------     --------     --------  ----------------------  --------------------  
clk                 1.728        0.000                      0                  704        2.850        0.000                       0                   913  
clk_wrapper                                                                             498.562        0.000                       0                   490  


------------------------------------------------------------------------------------------------
| Inter Clock Table
| -----------------
------------------------------------------------------------------------------------------------

From Clock    To Clock          WNS(ns)      TNS(ns)  TNS Failing Endpoints  TNS Total Endpoints  
----------    --------          -------      -------  ---------------------  -------------------  


------------------------------------------------------------------------------------------------
| Other Path Groups Table
| -----------------------
------------------------------------------------------------------------------------------------

Path Group    From Clock    To Clock          WNS(ns)      TNS(ns)  TNS Failing Endpoints  TNS Total Endpoints  
----------    ----------    --------          -------      -------  ---------------------  -------------------  


------------------------------------------------------------------------------------------------
| Timing Details
| --------------
------------------------------------------------------------------------------------------------


---------------------------------------------------------------------------------------------------
From Clock:  clk
  To Clock:  clk

Setup :            0  Failing Endpoints,  Worst Slack        1.728ns,  Total Violation        0.000ns
Hold  :           NA  Failing Endpoints,  Worst Slack           NA  ,  Total Violation           NA
PW    :            0  Failing Endpoints,  Worst Slack        2.850ns,  Total Violation        0.000ns
---------------------------------------------------------------------------------------------------


Max Delay Paths
--------------------------------------------------------------------------------------
Slack (MET) :             1.728ns  (required time - arrival time)
  Source:                 dut_inst/qdelay[2][0].idx_ret_27[1]/C
                            (rising edge-triggered cell FDRE clocked by clk  {rise@0.000ns fall@3.125ns period=6.250ns})
  Destination:            sorted_muons[14].idx[8]/D
                            (rising edge-triggered cell FDRE clocked by clk  {rise@0.000ns fall@3.125ns period=6.250ns})
  Path Group:             clk
  Path Type:              Setup (Max at Slow Process Corner)
  Requirement:            6.250ns  (clk rise@6.250ns - clk rise@0.000ns)
  Data Path Delay:        4.431ns  (logic 1.350ns (30.467%)  route 3.081ns (69.533%))
  Logic Levels:           12  (LUT3=1 LUT5=8 LUT6=3)
  Clock Path Skew:        -0.082ns (DCD - SCD + CPR)
    Destination Clock Delay (DCD):    2.582ns = ( 8.832 - 6.250 ) 
    Source Clock Delay      (SCD):    3.105ns
    Clock Pessimism Removal (CPR):    0.441ns
  Clock Uncertainty:      0.035ns  ((TSJ^2 + TIJ^2)^1/2 + DJ) / 2 + PE
    Total System Jitter     (TSJ):    0.071ns
    Total Input Jitter      (TIJ):    0.000ns
    Discrete Jitter          (DJ):    0.000ns
    Phase Error              (PE):    0.000ns
  Clock Net Delay (Source):      1.945ns (routing 1.021ns, distribution 0.924ns)
  Clock Net Delay (Destination): 1.733ns (routing 0.930ns, distribution 0.803ns)

    Location             Delay type                Incr(ns)  Path(ns)    Netlist Resource(s)
  -------------------------------------------------------------------    -------------------
                         (clock clk rise edge)        0.000     0.000 r  
    AW33                                              0.000     0.000 r  clk (IN)
                         net (fo=0)                   0.000     0.000    clk_ibuf_iso/I
    AW33                 INBUF (Prop_INBUF_HPIOB_M_PAD_O)
                                                      0.798     0.798 r  clk_ibuf_iso/INBUF_INST/O
                         net (fo=1, routed)           0.000     0.798    clk_ibuf_iso/OUT
    AW33                 IBUFCTRL (Prop_IBUFCTRL_HPIOB_M_I_O)
                                                      0.000     0.798 r  clk_ibuf_iso/IBUFCTRL_INST/O
                         net (fo=1, routed)           0.334     1.132    clk_ibuf_iso
    BUFGCE_X1Y218        BUFGCE (Prop_BUFCE_BUFGCE_I_O)
                                                      0.028     1.160 r  clk_ibuf/O
    X3Y8 (CLOCK_ROOT)    net (fo=912, routed)         1.945     3.105    dut_inst/clk_c
    SLICE_X99Y509        FDRE                                         r  dut_inst/qdelay[2][0].idx_ret_27[1]/C
  -------------------------------------------------------------------    -------------------
    SLICE_X99Y509        FDRE (Prop_BFF_SLICEM_C_Q)
                                                      0.095     3.200 f  dut_inst/qdelay[2][0].idx_ret_27[1]/Q
                         net (fo=6, routed)           0.278     3.478    dut_inst/sorter_inst/genblk1.bitonic_merge_i/genblk1.cmp_g[4].compare_i/un1_bitonic_sort_low_o_2
    SLICE_X98Y504        LUT3 (Prop_H5LUT_SLICEL_I1_O)
                                                      0.195     3.673 f  dut_inst/sorter_inst/genblk1.bitonic_merge_i/genblk1.cmp_g[4].compare_i/s1.pt_lut6_2_o5_lut6_2_o5[1]/O
                         net (fo=3, routed)           0.236     3.909    dut_inst/sorter_inst/genblk1.bitonic_merge_i/genblk1.bitonic_merge_high/genblk1.cmp_g[0].compare_i/pt_lut6_2_o6_12_0
    SLICE_X98Y504        LUT6 (Prop_A6LUT_SLICEL_I5_O)
                                                      0.100     4.009 r  dut_inst/sorter_inst/genblk1.bitonic_merge_i/genblk1.bitonic_merge_high/genblk1.cmp_g[0].compare_i/s0.idx2_c2/O
                         net (fo=1, routed)           0.311     4.320    dut_inst/sorter_inst/genblk1.bitonic_merge_i/genblk1.bitonic_merge_high/genblk1.cmp_g[2].compare_i/idx2_c2
    SLICE_X95Y504        LUT5 (Prop_C6LUT_SLICEM_I4_O)
                                                      0.113     4.433 r  dut_inst/sorter_inst/genblk1.bitonic_merge_i/genblk1.bitonic_merge_high/genblk1.cmp_g[2].compare_i/m205_lut6_2_o5_lut6_2_o6/O
                         net (fo=1, routed)           0.106     4.539    dut_inst/sorter_inst/genblk1.bitonic_merge_i/genblk1.bitonic_merge_high/genblk1.cmp_g[0].compare_i/idx2_c3_0
    SLICE_X95Y504        LUT5 (Prop_H6LUT_SLICEM_I4_O)
                                                      0.100     4.639 r  dut_inst/sorter_inst/genblk1.bitonic_merge_i/genblk1.bitonic_merge_high/genblk1.cmp_g[0].compare_i/s0.idx2_c4/O
                         net (fo=29, routed)          0.334     4.973    dut_inst/sorter_inst/genblk1.bitonic_merge_i/genblk1.bitonic_merge_high/genblk1.cmp_g[0].compare_i/idx2_16
    SLICE_X98Y504        LUT5 (Prop_C5LUT_SLICEL_I4_O)
                                                      0.168     5.141 r  dut_inst/sorter_inst/genblk1.bitonic_merge_i/genblk1.bitonic_merge_high/genblk1.cmp_g[0].compare_i/s1.pt_lut6_2_o5_lut6_2_o5[0]/O
                         net (fo=3, routed)           0.275     5.416    dut_inst/sorter_inst/genblk1.bitonic_merge_i/genblk1.bitonic_merge_high/genblk1.bitonic_merge_high/genblk1.cmp_g[0].compare_i/pt_lut6_2_o6_20_0
    SLICE_X97Y501        LUT6 (Prop_A6LUT_SLICEM_I3_O)
                                                      0.064     5.480 r  dut_inst/sorter_inst/genblk1.bitonic_merge_i/genblk1.bitonic_merge_high/genblk1.bitonic_merge_high/genblk1.cmp_g[0].compare_i/s0.idx2_c2/O
                         net (fo=1, routed)           0.183     5.663    dut_inst/sorter_inst/genblk1.bitonic_merge_i/genblk1.bitonic_merge_high/genblk1.bitonic_merge_high/genblk1.cmp_g[0].compare_i/idx2_c2
    SLICE_X96Y501        LUT5 (Prop_E6LUT_SLICEL_I4_O)
                                                      0.064     5.727 r  dut_inst/sorter_inst/genblk1.bitonic_merge_i/genblk1.bitonic_merge_high/genblk1.bitonic_merge_high/genblk1.cmp_g[0].compare_i/s0.idx2_c4/O
                         net (fo=45, routed)          0.128     5.855    dut_inst/sorter_inst/genblk1.bitonic_merge_i/genblk1.bitonic_merge_high/genblk1.bitonic_merge_high/genblk1.cmp_g[0].compare_i/idx2_15
    SLICE_X97Y501        LUT5 (Prop_C5LUT_SLICEM_I4_O)
                                                      0.084     5.939 r  dut_inst/sorter_inst/genblk1.bitonic_merge_i/genblk1.bitonic_merge_high/genblk1.bitonic_merge_high/genblk1.cmp_g[0].compare_i/s1.pt_lut6_2_o5_lut6_2_o5[0]/O
                         net (fo=3, routed)           0.215     6.154    dut_inst/sorter_inst/genblk1.bitonic_merge_i/genblk1.bitonic_merge_high/genblk1.bitonic_merge_high/genblk1.bitonic_merge_high/genblk1.cmp_g[0].compare_i/pt_lut6_2_o6_18_0
    SLICE_X97Y501        LUT6 (Prop_B6LUT_SLICEM_I4_O)
                                                      0.063     6.217 r  dut_inst/sorter_inst/genblk1.bitonic_merge_i/genblk1.bitonic_merge_high/genblk1.bitonic_merge_high/genblk1.bitonic_merge_high/genblk1.cmp_g[0].compare_i/s0.idx2_c2/O
                         net (fo=1, routed)           0.274     6.491    dut_inst/sorter_inst/genblk1.bitonic_merge_i/genblk1.bitonic_merge_high/genblk1.bitonic_merge_high/genblk1.bitonic_merge_high/genblk1.cmp_g[0].compare_i/idx2_c2
    SLICE_X95Y501        LUT5 (Prop_H6LUT_SLICEM_I4_O)
                                                      0.117     6.608 r  dut_inst/sorter_inst/genblk1.bitonic_merge_i/genblk1.bitonic_merge_high/genblk1.bitonic_merge_high/genblk1.bitonic_merge_high/genblk1.cmp_g[0].compare_i/s0.idx2_c3/O
                         net (fo=1, routed)           0.252     6.860    dut_inst/sorter_inst/genblk1.bitonic_merge_i/genblk1.bitonic_merge_high/genblk1.bitonic_merge_high/genblk1.bitonic_merge_high/genblk1.cmp_g[0].compare_i/idx2_c3
    SLICE_X96Y501        LUT5 (Prop_H6LUT_SLICEL_I4_O)
                                                      0.040     6.900 r  dut_inst/sorter_inst/genblk1.bitonic_merge_i/genblk1.bitonic_merge_high/genblk1.bitonic_merge_high/genblk1.bitonic_merge_high/genblk1.cmp_g[0].compare_i/s0.idx2_c4/O
                         net (fo=24, routed)          0.407     7.307    dut_inst/sorter_inst/genblk1.bitonic_merge_i/genblk1.bitonic_merge_high/genblk1.bitonic_merge_high/genblk1.bitonic_merge_high/genblk1.cmp_g[0].compare_i/idx2
    SLICE_X104Y500       LUT5 (Prop_D6LUT_SLICEM_I4_O)
                                                      0.147     7.454 r  dut_inst/sorter_inst/genblk1.bitonic_merge_i/genblk1.bitonic_merge_high/genblk1.bitonic_merge_high/genblk1.bitonic_merge_high/genblk1.cmp_g[0].compare_i/s1.idx_lut6_2_o5_lut6_2_o6[8]/O
                         net (fo=1, routed)           0.082     7.536    s1.idx_lut6_2_o5_30[8]
    SLICE_X104Y500       FDRE                                         r  sorted_muons[14].idx[8]/D
  -------------------------------------------------------------------    -------------------

                         (clock clk rise edge)        6.250     6.250 r  
    AW33                                              0.000     6.250 r  clk (IN)
                         net (fo=0)                   0.000     6.250    clk_ibuf_iso/I
    AW33                 INBUF (Prop_INBUF_HPIOB_M_PAD_O)
                                                      0.529     6.779 r  clk_ibuf_iso/INBUF_INST/O
                         net (fo=1, routed)           0.000     6.779    clk_ibuf_iso/OUT
    AW33                 IBUFCTRL (Prop_IBUFCTRL_HPIOB_M_I_O)
                                                      0.000     6.779 r  clk_ibuf_iso/IBUFCTRL_INST/O
                         net (fo=1, routed)           0.296     7.075    clk_ibuf_iso
    BUFGCE_X1Y218        BUFGCE (Prop_BUFCE_BUFGCE_I_O)
                                                      0.024     7.099 r  clk_ibuf/O
    X3Y8 (CLOCK_ROOT)    net (fo=912, routed)         1.733     8.832    clk_c
    SLICE_X104Y500       FDRE                                         r  sorted_muons[14].idx[8]/C
                         clock pessimism              0.441     9.273    
                         clock uncertainty           -0.035     9.238    
    SLICE_X104Y500       FDRE (Setup_DFF_SLICEM_C_D)
                                                      0.027     9.265    sorted_muons[14].idx[8]
  -------------------------------------------------------------------
                         required time                          9.265    
                         arrival time                          -7.536    
  -------------------------------------------------------------------
                         slack                                  1.728    

Slack (MET) :             1.728ns  (required time - arrival time)
  Source:                 dut_inst/qdelay[2][0].idx_ret_27[1]/C
                            (rising edge-triggered cell FDRE clocked by clk  {rise@0.000ns fall@3.125ns period=6.250ns})
  Destination:            sorted_muons[14].idx[8]/D
                            (rising edge-triggered cell FDRE clocked by clk  {rise@0.000ns fall@3.125ns period=6.250ns})
  Path Group:             clk
  Path Type:              Setup (Max at Slow Process Corner)
  Requirement:            6.250ns  (clk rise@6.250ns - clk rise@0.000ns)
  Data Path Delay:        4.431ns  (logic 1.350ns (30.467%)  route 3.081ns (69.533%))
  Logic Levels:           12  (LUT3=1 LUT5=8 LUT6=3)
  Clock Path Skew:        -0.082ns (DCD - SCD + CPR)
    Destination Clock Delay (DCD):    2.582ns = ( 8.832 - 6.250 ) 
    Source Clock Delay      (SCD):    3.105ns
    Clock Pessimism Removal (CPR):    0.441ns
  Clock Uncertainty:      0.035ns  ((TSJ^2 + TIJ^2)^1/2 + DJ) / 2 + PE
    Total System Jitter     (TSJ):    0.071ns
    Total Input Jitter      (TIJ):    0.000ns
    Discrete Jitter          (DJ):    0.000ns
    Phase Error              (PE):    0.000ns
  Clock Net Delay (Source):      1.945ns (routing 1.021ns, distribution 0.924ns)
  Clock Net Delay (Destination): 1.733ns (routing 0.930ns, distribution 0.803ns)

    Location             Delay type                Incr(ns)  Path(ns)    Netlist Resource(s)
  -------------------------------------------------------------------    -------------------
                         (clock clk rise edge)        0.000     0.000 r  
    AW33                                              0.000     0.000 r  clk (IN)
                         net (fo=0)                   0.000     0.000    clk_ibuf_iso/I
    AW33                 INBUF (Prop_INBUF_HPIOB_M_PAD_O)
                                                      0.798     0.798 r  clk_ibuf_iso/INBUF_INST/O
                         net (fo=1, routed)           0.000     0.798    clk_ibuf_iso/OUT
    AW33                 IBUFCTRL (Prop_IBUFCTRL_HPIOB_M_I_O)
                                                      0.000     0.798 r  clk_ibuf_iso/IBUFCTRL_INST/O
                         net (fo=1, routed)           0.334     1.132    clk_ibuf_iso
    BUFGCE_X1Y218        BUFGCE (Prop_BUFCE_BUFGCE_I_O)
                                                      0.028     1.160 r  clk_ibuf/O
    X3Y8 (CLOCK_ROOT)    net (fo=912, routed)         1.945     3.105    dut_inst/clk_c
    SLICE_X99Y509        FDRE                                         r  dut_inst/qdelay[2][0].idx_ret_27[1]/C
  -------------------------------------------------------------------    -------------------
    SLICE_X99Y509        FDRE (Prop_BFF_SLICEM_C_Q)
                                                      0.095     3.200 r  dut_inst/qdelay[2][0].idx_ret_27[1]/Q
                         net (fo=6, routed)           0.278     3.478    dut_inst/sorter_inst/genblk1.bitonic_merge_i/genblk1.cmp_g[4].compare_i/un1_bitonic_sort_low_o_2
    SLICE_X98Y504        LUT3 (Prop_H5LUT_SLICEL_I1_O)
                                                      0.195     3.673 r  dut_inst/sorter_inst/genblk1.bitonic_merge_i/genblk1.cmp_g[4].compare_i/s1.pt_lut6_2_o5_lut6_2_o5[1]/O
                         net (fo=3, routed)           0.236     3.909    dut_inst/sorter_inst/genblk1.bitonic_merge_i/genblk1.bitonic_merge_high/genblk1.cmp_g[0].compare_i/pt_lut6_2_o6_12_0
    SLICE_X98Y504        LUT6 (Prop_A6LUT_SLICEL_I5_O)
                                                      0.100     4.009 f  dut_inst/sorter_inst/genblk1.bitonic_merge_i/genblk1.bitonic_merge_high/genblk1.cmp_g[0].compare_i/s0.idx2_c2/O
                         net (fo=1, routed)           0.311     4.320    dut_inst/sorter_inst/genblk1.bitonic_merge_i/genblk1.bitonic_merge_high/genblk1.cmp_g[2].compare_i/idx2_c2
    SLICE_X95Y504        LUT5 (Prop_C6LUT_SLICEM_I4_O)
                                                      0.113     4.433 f  dut_inst/sorter_inst/genblk1.bitonic_merge_i/genblk1.bitonic_merge_high/genblk1.cmp_g[2].compare_i/m205_lut6_2_o5_lut6_2_o6/O
                         net (fo=1, routed)           0.106     4.539    dut_inst/sorter_inst/genblk1.bitonic_merge_i/genblk1.bitonic_merge_high/genblk1.cmp_g[0].compare_i/idx2_c3_0
    SLICE_X95Y504        LUT5 (Prop_H6LUT_SLICEM_I4_O)
                                                      0.100     4.639 f  dut_inst/sorter_inst/genblk1.bitonic_merge_i/genblk1.bitonic_merge_high/genblk1.cmp_g[0].compare_i/s0.idx2_c4/O
                         net (fo=29, routed)          0.334     4.973    dut_inst/sorter_inst/genblk1.bitonic_merge_i/genblk1.bitonic_merge_high/genblk1.cmp_g[0].compare_i/idx2_16
    SLICE_X98Y504        LUT5 (Prop_C5LUT_SLICEL_I4_O)
                                                      0.168     5.141 r  dut_inst/sorter_inst/genblk1.bitonic_merge_i/genblk1.bitonic_merge_high/genblk1.cmp_g[0].compare_i/s1.pt_lut6_2_o5_lut6_2_o5[0]/O
                         net (fo=3, routed)           0.275     5.416    dut_inst/sorter_inst/genblk1.bitonic_merge_i/genblk1.bitonic_merge_high/genblk1.bitonic_merge_high/genblk1.cmp_g[0].compare_i/pt_lut6_2_o6_20_0
    SLICE_X97Y501        LUT6 (Prop_A6LUT_SLICEM_I3_O)
                                                      0.064     5.480 r  dut_inst/sorter_inst/genblk1.bitonic_merge_i/genblk1.bitonic_merge_high/genblk1.bitonic_merge_high/genblk1.cmp_g[0].compare_i/s0.idx2_c2/O
                         net (fo=1, routed)           0.183     5.663    dut_inst/sorter_inst/genblk1.bitonic_merge_i/genblk1.bitonic_merge_high/genblk1.bitonic_merge_high/genblk1.cmp_g[0].compare_i/idx2_c2
    SLICE_X96Y501        LUT5 (Prop_E6LUT_SLICEL_I4_O)
                                                      0.064     5.727 r  dut_inst/sorter_inst/genblk1.bitonic_merge_i/genblk1.bitonic_merge_high/genblk1.bitonic_merge_high/genblk1.cmp_g[0].compare_i/s0.idx2_c4/O
                         net (fo=45, routed)          0.128     5.855    dut_inst/sorter_inst/genblk1.bitonic_merge_i/genblk1.bitonic_merge_high/genblk1.bitonic_merge_high/genblk1.cmp_g[0].compare_i/idx2_15
    SLICE_X97Y501        LUT5 (Prop_C5LUT_SLICEM_I4_O)
                                                      0.084     5.939 r  dut_inst/sorter_inst/genblk1.bitonic_merge_i/genblk1.bitonic_merge_high/genblk1.bitonic_merge_high/genblk1.cmp_g[0].compare_i/s1.pt_lut6_2_o5_lut6_2_o5[0]/O
                         net (fo=3, routed)           0.215     6.154    dut_inst/sorter_inst/genblk1.bitonic_merge_i/genblk1.bitonic_merge_high/genblk1.bitonic_merge_high/genblk1.bitonic_merge_high/genblk1.cmp_g[0].compare_i/pt_lut6_2_o6_18_0
    SLICE_X97Y501        LUT6 (Prop_B6LUT_SLICEM_I4_O)
                                                      0.063     6.217 r  dut_inst/sorter_inst/genblk1.bitonic_merge_i/genblk1.bitonic_merge_high/genblk1.bitonic_merge_high/genblk1.bitonic_merge_high/genblk1.cmp_g[0].compare_i/s0.idx2_c2/O
                         net (fo=1, routed)           0.274     6.491    dut_inst/sorter_inst/genblk1.bitonic_merge_i/genblk1.bitonic_merge_high/genblk1.bitonic_merge_high/genblk1.bitonic_merge_high/genblk1.cmp_g[0].compare_i/idx2_c2
    SLICE_X95Y501        LUT5 (Prop_H6LUT_SLICEM_I4_O)
                                                      0.117     6.608 r  dut_inst/sorter_inst/genblk1.bitonic_merge_i/genblk1.bitonic_merge_high/genblk1.bitonic_merge_high/genblk1.bitonic_merge_high/genblk1.cmp_g[0].compare_i/s0.idx2_c3/O
                         net (fo=1, routed)           0.252     6.860    dut_inst/sorter_inst/genblk1.bitonic_merge_i/genblk1.bitonic_merge_high/genblk1.bitonic_merge_high/genblk1.bitonic_merge_high/genblk1.cmp_g[0].compare_i/idx2_c3
    SLICE_X96Y501        LUT5 (Prop_H6LUT_SLICEL_I4_O)
                                                      0.040     6.900 r  dut_inst/sorter_inst/genblk1.bitonic_merge_i/genblk1.bitonic_merge_high/genblk1.bitonic_merge_high/genblk1.bitonic_merge_high/genblk1.cmp_g[0].compare_i/s0.idx2_c4/O
                         net (fo=24, routed)          0.407     7.307    dut_inst/sorter_inst/genblk1.bitonic_merge_i/genblk1.bitonic_merge_high/genblk1.bitonic_merge_high/genblk1.bitonic_merge_high/genblk1.cmp_g[0].compare_i/idx2
    SLICE_X104Y500       LUT5 (Prop_D6LUT_SLICEM_I4_O)
                                                      0.147     7.454 r  dut_inst/sorter_inst/genblk1.bitonic_merge_i/genblk1.bitonic_merge_high/genblk1.bitonic_merge_high/genblk1.bitonic_merge_high/genblk1.cmp_g[0].compare_i/s1.idx_lut6_2_o5_lut6_2_o6[8]/O
                         net (fo=1, routed)           0.082     7.536    s1.idx_lut6_2_o5_30[8]
    SLICE_X104Y500       FDRE                                         r  sorted_muons[14].idx[8]/D
  -------------------------------------------------------------------    -------------------

                         (clock clk rise edge)        6.250     6.250 r  
    AW33                                              0.000     6.250 r  clk (IN)
                         net (fo=0)                   0.000     6.250    clk_ibuf_iso/I
    AW33                 INBUF (Prop_INBUF_HPIOB_M_PAD_O)
                                                      0.529     6.779 r  clk_ibuf_iso/INBUF_INST/O
                         net (fo=1, routed)           0.000     6.779    clk_ibuf_iso/OUT
    AW33                 IBUFCTRL (Prop_IBUFCTRL_HPIOB_M_I_O)
                                                      0.000     6.779 r  clk_ibuf_iso/IBUFCTRL_INST/O
                         net (fo=1, routed)           0.296     7.075    clk_ibuf_iso
    BUFGCE_X1Y218        BUFGCE (Prop_BUFCE_BUFGCE_I_O)
                                                      0.024     7.099 r  clk_ibuf/O
    X3Y8 (CLOCK_ROOT)    net (fo=912, routed)         1.733     8.832    clk_c
    SLICE_X104Y500       FDRE                                         r  sorted_muons[14].idx[8]/C
                         clock pessimism              0.441     9.273    
                         clock uncertainty           -0.035     9.238    
    SLICE_X104Y500       FDRE (Setup_DFF_SLICEM_C_D)
                                                      0.027     9.265    sorted_muons[14].idx[8]
  -------------------------------------------------------------------
                         required time                          9.265    
                         arrival time                          -7.536    
  -------------------------------------------------------------------
                         slack                                  1.728    

Slack (MET) :             1.728ns  (required time - arrival time)
  Source:                 dut_inst/qdelay[2][0].idx_ret_27[1]/C
                            (rising edge-triggered cell FDRE clocked by clk  {rise@0.000ns fall@3.125ns period=6.250ns})
  Destination:            sorted_muons[14].idx[8]/D
                            (rising edge-triggered cell FDRE clocked by clk  {rise@0.000ns fall@3.125ns period=6.250ns})
  Path Group:             clk
  Path Type:              Setup (Max at Slow Process Corner)
  Requirement:            6.250ns  (clk rise@6.250ns - clk rise@0.000ns)
  Data Path Delay:        4.431ns  (logic 1.350ns (30.467%)  route 3.081ns (69.533%))
  Logic Levels:           12  (LUT3=1 LUT5=8 LUT6=3)
  Clock Path Skew:        -0.082ns (DCD - SCD + CPR)
    Destination Clock Delay (DCD):    2.582ns = ( 8.832 - 6.250 ) 
    Source Clock Delay      (SCD):    3.105ns
    Clock Pessimism Removal (CPR):    0.441ns
  Clock Uncertainty:      0.035ns  ((TSJ^2 + TIJ^2)^1/2 + DJ) / 2 + PE
    Total System Jitter     (TSJ):    0.071ns
    Total Input Jitter      (TIJ):    0.000ns
    Discrete Jitter          (DJ):    0.000ns
    Phase Error              (PE):    0.000ns
  Clock Net Delay (Source):      1.945ns (routing 1.021ns, distribution 0.924ns)
  Clock Net Delay (Destination): 1.733ns (routing 0.930ns, distribution 0.803ns)

    Location             Delay type                Incr(ns)  Path(ns)    Netlist Resource(s)
  -------------------------------------------------------------------    -------------------
                         (clock clk rise edge)        0.000     0.000 r  
    AW33                                              0.000     0.000 r  clk (IN)
                         net (fo=0)                   0.000     0.000    clk_ibuf_iso/I
    AW33                 INBUF (Prop_INBUF_HPIOB_M_PAD_O)
                                                      0.798     0.798 r  clk_ibuf_iso/INBUF_INST/O
                         net (fo=1, routed)           0.000     0.798    clk_ibuf_iso/OUT
    AW33                 IBUFCTRL (Prop_IBUFCTRL_HPIOB_M_I_O)
                                                      0.000     0.798 r  clk_ibuf_iso/IBUFCTRL_INST/O
                         net (fo=1, routed)           0.334     1.132    clk_ibuf_iso
    BUFGCE_X1Y218        BUFGCE (Prop_BUFCE_BUFGCE_I_O)
                                                      0.028     1.160 r  clk_ibuf/O
    X3Y8 (CLOCK_ROOT)    net (fo=912, routed)         1.945     3.105    dut_inst/clk_c
    SLICE_X99Y509        FDRE                                         r  dut_inst/qdelay[2][0].idx_ret_27[1]/C
  -------------------------------------------------------------------    -------------------
    SLICE_X99Y509        FDRE (Prop_BFF_SLICEM_C_Q)
                                                      0.095     3.200 f  dut_inst/qdelay[2][0].idx_ret_27[1]/Q
                         net (fo=6, routed)           0.278     3.478    dut_inst/sorter_inst/genblk1.bitonic_merge_i/genblk1.cmp_g[4].compare_i/un1_bitonic_sort_low_o_2
    SLICE_X98Y504        LUT3 (Prop_H5LUT_SLICEL_I1_O)
                                                      0.195     3.673 f  dut_inst/sorter_inst/genblk1.bitonic_merge_i/genblk1.cmp_g[4].compare_i/s1.pt_lut6_2_o5_lut6_2_o5[1]/O
                         net (fo=3, routed)           0.236     3.909    dut_inst/sorter_inst/genblk1.bitonic_merge_i/genblk1.bitonic_merge_high/genblk1.cmp_g[0].compare_i/pt_lut6_2_o6_12_0
    SLICE_X98Y504        LUT6 (Prop_A6LUT_SLICEL_I5_O)
                                                      0.100     4.009 r  dut_inst/sorter_inst/genblk1.bitonic_merge_i/genblk1.bitonic_merge_high/genblk1.cmp_g[0].compare_i/s0.idx2_c2/O
                         net (fo=1, routed)           0.311     4.320    dut_inst/sorter_inst/genblk1.bitonic_merge_i/genblk1.bitonic_merge_high/genblk1.cmp_g[2].compare_i/idx2_c2
    SLICE_X95Y504        LUT5 (Prop_C6LUT_SLICEM_I4_O)
                                                      0.113     4.433 r  dut_inst/sorter_inst/genblk1.bitonic_merge_i/genblk1.bitonic_merge_high/genblk1.cmp_g[2].compare_i/m205_lut6_2_o5_lut6_2_o6/O
                         net (fo=1, routed)           0.106     4.539    dut_inst/sorter_inst/genblk1.bitonic_merge_i/genblk1.bitonic_merge_high/genblk1.cmp_g[0].compare_i/idx2_c3_0
    SLICE_X95Y504        LUT5 (Prop_H6LUT_SLICEM_I4_O)
                                                      0.100     4.639 r  dut_inst/sorter_inst/genblk1.bitonic_merge_i/genblk1.bitonic_merge_high/genblk1.cmp_g[0].compare_i/s0.idx2_c4/O
                         net (fo=29, routed)          0.334     4.973    dut_inst/sorter_inst/genblk1.bitonic_merge_i/genblk1.bitonic_merge_high/genblk1.cmp_g[0].compare_i/idx2_16
    SLICE_X98Y504        LUT5 (Prop_C5LUT_SLICEL_I4_O)
                                                      0.168     5.141 f  dut_inst/sorter_inst/genblk1.bitonic_merge_i/genblk1.bitonic_merge_high/genblk1.cmp_g[0].compare_i/s1.pt_lut6_2_o5_lut6_2_o5[0]/O
                         net (fo=3, routed)           0.275     5.416    dut_inst/sorter_inst/genblk1.bitonic_merge_i/genblk1.bitonic_merge_high/genblk1.bitonic_merge_high/genblk1.cmp_g[0].compare_i/pt_lut6_2_o6_20_0
    SLICE_X97Y501        LUT6 (Prop_A6LUT_SLICEM_I3_O)
                                                      0.064     5.480 f  dut_inst/sorter_inst/genblk1.bitonic_merge_i/genblk1.bitonic_merge_high/genblk1.bitonic_merge_high/genblk1.cmp_g[0].compare_i/s0.idx2_c2/O
                         net (fo=1, routed)           0.183     5.663    dut_inst/sorter_inst/genblk1.bitonic_merge_i/genblk1.bitonic_merge_high/genblk1.bitonic_merge_high/genblk1.cmp_g[0].compare_i/idx2_c2
    SLICE_X96Y501        LUT5 (Prop_E6LUT_SLICEL_I4_O)
                                                      0.064     5.727 f  dut_inst/sorter_inst/genblk1.bitonic_merge_i/genblk1.bitonic_merge_high/genblk1.bitonic_merge_high/genblk1.cmp_g[0].compare_i/s0.idx2_c4/O
                         net (fo=45, routed)          0.128     5.855    dut_inst/sorter_inst/genblk1.bitonic_merge_i/genblk1.bitonic_merge_high/genblk1.bitonic_merge_high/genblk1.cmp_g[0].compare_i/idx2_15
    SLICE_X97Y501        LUT5 (Prop_C5LUT_SLICEM_I4_O)
                                                      0.084     5.939 r  dut_inst/sorter_inst/genblk1.bitonic_merge_i/genblk1.bitonic_merge_high/genblk1.bitonic_merge_high/genblk1.cmp_g[0].compare_i/s1.pt_lut6_2_o5_lut6_2_o5[0]/O
                         net (fo=3, routed)           0.215     6.154    dut_inst/sorter_inst/genblk1.bitonic_merge_i/genblk1.bitonic_merge_high/genblk1.bitonic_merge_high/genblk1.bitonic_merge_high/genblk1.cmp_g[0].compare_i/pt_lut6_2_o6_18_0
    SLICE_X97Y501        LUT6 (Prop_B6LUT_SLICEM_I4_O)
                                                      0.063     6.217 r  dut_inst/sorter_inst/genblk1.bitonic_merge_i/genblk1.bitonic_merge_high/genblk1.bitonic_merge_high/genblk1.bitonic_merge_high/genblk1.cmp_g[0].compare_i/s0.idx2_c2/O
                         net (fo=1, routed)           0.274     6.491    dut_inst/sorter_inst/genblk1.bitonic_merge_i/genblk1.bitonic_merge_high/genblk1.bitonic_merge_high/genblk1.bitonic_merge_high/genblk1.cmp_g[0].compare_i/idx2_c2
    SLICE_X95Y501        LUT5 (Prop_H6LUT_SLICEM_I4_O)
                                                      0.117     6.608 r  dut_inst/sorter_inst/genblk1.bitonic_merge_i/genblk1.bitonic_merge_high/genblk1.bitonic_merge_high/genblk1.bitonic_merge_high/genblk1.cmp_g[0].compare_i/s0.idx2_c3/O
                         net (fo=1, routed)           0.252     6.860    dut_inst/sorter_inst/genblk1.bitonic_merge_i/genblk1.bitonic_merge_high/genblk1.bitonic_merge_high/genblk1.bitonic_merge_high/genblk1.cmp_g[0].compare_i/idx2_c3
    SLICE_X96Y501        LUT5 (Prop_H6LUT_SLICEL_I4_O)
                                                      0.040     6.900 r  dut_inst/sorter_inst/genblk1.bitonic_merge_i/genblk1.bitonic_merge_high/genblk1.bitonic_merge_high/genblk1.bitonic_merge_high/genblk1.cmp_g[0].compare_i/s0.idx2_c4/O
                         net (fo=24, routed)          0.407     7.307    dut_inst/sorter_inst/genblk1.bitonic_merge_i/genblk1.bitonic_merge_high/genblk1.bitonic_merge_high/genblk1.bitonic_merge_high/genblk1.cmp_g[0].compare_i/idx2
    SLICE_X104Y500       LUT5 (Prop_D6LUT_SLICEM_I4_O)
                                                      0.147     7.454 r  dut_inst/sorter_inst/genblk1.bitonic_merge_i/genblk1.bitonic_merge_high/genblk1.bitonic_merge_high/genblk1.bitonic_merge_high/genblk1.cmp_g[0].compare_i/s1.idx_lut6_2_o5_lut6_2_o6[8]/O
                         net (fo=1, routed)           0.082     7.536    s1.idx_lut6_2_o5_30[8]
    SLICE_X104Y500       FDRE                                         r  sorted_muons[14].idx[8]/D
  -------------------------------------------------------------------    -------------------

                         (clock clk rise edge)        6.250     6.250 r  
    AW33                                              0.000     6.250 r  clk (IN)
                         net (fo=0)                   0.000     6.250    clk_ibuf_iso/I
    AW33                 INBUF (Prop_INBUF_HPIOB_M_PAD_O)
                                                      0.529     6.779 r  clk_ibuf_iso/INBUF_INST/O
                         net (fo=1, routed)           0.000     6.779    clk_ibuf_iso/OUT
    AW33                 IBUFCTRL (Prop_IBUFCTRL_HPIOB_M_I_O)
                                                      0.000     6.779 r  clk_ibuf_iso/IBUFCTRL_INST/O
                         net (fo=1, routed)           0.296     7.075    clk_ibuf_iso
    BUFGCE_X1Y218        BUFGCE (Prop_BUFCE_BUFGCE_I_O)
                                                      0.024     7.099 r  clk_ibuf/O
    X3Y8 (CLOCK_ROOT)    net (fo=912, routed)         1.733     8.832    clk_c
    SLICE_X104Y500       FDRE                                         r  sorted_muons[14].idx[8]/C
                         clock pessimism              0.441     9.273    
                         clock uncertainty           -0.035     9.238    
    SLICE_X104Y500       FDRE (Setup_DFF_SLICEM_C_D)
                                                      0.027     9.265    sorted_muons[14].idx[8]
  -------------------------------------------------------------------
                         required time                          9.265    
                         arrival time                          -7.536    
  -------------------------------------------------------------------
                         slack                                  1.728    

Slack (MET) :             1.728ns  (required time - arrival time)
  Source:                 dut_inst/qdelay[2][0].idx_ret_27[1]/C
                            (rising edge-triggered cell FDRE clocked by clk  {rise@0.000ns fall@3.125ns period=6.250ns})
  Destination:            sorted_muons[14].idx[8]/D
                            (rising edge-triggered cell FDRE clocked by clk  {rise@0.000ns fall@3.125ns period=6.250ns})
  Path Group:             clk
  Path Type:              Setup (Max at Slow Process Corner)
  Requirement:            6.250ns  (clk rise@6.250ns - clk rise@0.000ns)
  Data Path Delay:        4.431ns  (logic 1.350ns (30.467%)  route 3.081ns (69.533%))
  Logic Levels:           12  (LUT3=1 LUT5=8 LUT6=3)
  Clock Path Skew:        -0.082ns (DCD - SCD + CPR)
    Destination Clock Delay (DCD):    2.582ns = ( 8.832 - 6.250 ) 
    Source Clock Delay      (SCD):    3.105ns
    Clock Pessimism Removal (CPR):    0.441ns
  Clock Uncertainty:      0.035ns  ((TSJ^2 + TIJ^2)^1/2 + DJ) / 2 + PE
    Total System Jitter     (TSJ):    0.071ns
    Total Input Jitter      (TIJ):    0.000ns
    Discrete Jitter          (DJ):    0.000ns
    Phase Error              (PE):    0.000ns
  Clock Net Delay (Source):      1.945ns (routing 1.021ns, distribution 0.924ns)
  Clock Net Delay (Destination): 1.733ns (routing 0.930ns, distribution 0.803ns)

    Location             Delay type                Incr(ns)  Path(ns)    Netlist Resource(s)
  -------------------------------------------------------------------    -------------------
                         (clock clk rise edge)        0.000     0.000 r  
    AW33                                              0.000     0.000 r  clk (IN)
                         net (fo=0)                   0.000     0.000    clk_ibuf_iso/I
    AW33                 INBUF (Prop_INBUF_HPIOB_M_PAD_O)
                                                      0.798     0.798 r  clk_ibuf_iso/INBUF_INST/O
                         net (fo=1, routed)           0.000     0.798    clk_ibuf_iso/OUT
    AW33                 IBUFCTRL (Prop_IBUFCTRL_HPIOB_M_I_O)
                                                      0.000     0.798 r  clk_ibuf_iso/IBUFCTRL_INST/O
                         net (fo=1, routed)           0.334     1.132    clk_ibuf_iso
    BUFGCE_X1Y218        BUFGCE (Prop_BUFCE_BUFGCE_I_O)
                                                      0.028     1.160 r  clk_ibuf/O
    X3Y8 (CLOCK_ROOT)    net (fo=912, routed)         1.945     3.105    dut_inst/clk_c
    SLICE_X99Y509        FDRE                                         r  dut_inst/qdelay[2][0].idx_ret_27[1]/C
  -------------------------------------------------------------------    -------------------
    SLICE_X99Y509        FDRE (Prop_BFF_SLICEM_C_Q)
                                                      0.095     3.200 f  dut_inst/qdelay[2][0].idx_ret_27[1]/Q
                         net (fo=6, routed)           0.278     3.478    dut_inst/sorter_inst/genblk1.bitonic_merge_i/genblk1.cmp_g[4].compare_i/un1_bitonic_sort_low_o_2
    SLICE_X98Y504        LUT3 (Prop_H5LUT_SLICEL_I1_O)
                                                      0.195     3.673 f  dut_inst/sorter_inst/genblk1.bitonic_merge_i/genblk1.cmp_g[4].compare_i/s1.pt_lut6_2_o5_lut6_2_o5[1]/O
                         net (fo=3, routed)           0.236     3.909    dut_inst/sorter_inst/genblk1.bitonic_merge_i/genblk1.bitonic_merge_high/genblk1.cmp_g[0].compare_i/pt_lut6_2_o6_12_0
    SLICE_X98Y504        LUT6 (Prop_A6LUT_SLICEL_I5_O)
                                                      0.100     4.009 r  dut_inst/sorter_inst/genblk1.bitonic_merge_i/genblk1.bitonic_merge_high/genblk1.cmp_g[0].compare_i/s0.idx2_c2/O
                         net (fo=1, routed)           0.311     4.320    dut_inst/sorter_inst/genblk1.bitonic_merge_i/genblk1.bitonic_merge_high/genblk1.cmp_g[2].compare_i/idx2_c2
    SLICE_X95Y504        LUT5 (Prop_C6LUT_SLICEM_I4_O)
                                                      0.113     4.433 r  dut_inst/sorter_inst/genblk1.bitonic_merge_i/genblk1.bitonic_merge_high/genblk1.cmp_g[2].compare_i/m205_lut6_2_o5_lut6_2_o6/O
                         net (fo=1, routed)           0.106     4.539    dut_inst/sorter_inst/genblk1.bitonic_merge_i/genblk1.bitonic_merge_high/genblk1.cmp_g[0].compare_i/idx2_c3_0
    SLICE_X95Y504        LUT5 (Prop_H6LUT_SLICEM_I4_O)
                                                      0.100     4.639 r  dut_inst/sorter_inst/genblk1.bitonic_merge_i/genblk1.bitonic_merge_high/genblk1.cmp_g[0].compare_i/s0.idx2_c4/O
                         net (fo=29, routed)          0.334     4.973    dut_inst/sorter_inst/genblk1.bitonic_merge_i/genblk1.bitonic_merge_high/genblk1.cmp_g[0].compare_i/idx2_16
    SLICE_X98Y504        LUT5 (Prop_C5LUT_SLICEL_I4_O)
                                                      0.168     5.141 r  dut_inst/sorter_inst/genblk1.bitonic_merge_i/genblk1.bitonic_merge_high/genblk1.cmp_g[0].compare_i/s1.pt_lut6_2_o5_lut6_2_o5[0]/O
                         net (fo=3, routed)           0.275     5.416    dut_inst/sorter_inst/genblk1.bitonic_merge_i/genblk1.bitonic_merge_high/genblk1.bitonic_merge_high/genblk1.cmp_g[0].compare_i/pt_lut6_2_o6_20_0
    SLICE_X97Y501        LUT6 (Prop_A6LUT_SLICEM_I3_O)
                                                      0.064     5.480 r  dut_inst/sorter_inst/genblk1.bitonic_merge_i/genblk1.bitonic_merge_high/genblk1.bitonic_merge_high/genblk1.cmp_g[0].compare_i/s0.idx2_c2/O
                         net (fo=1, routed)           0.183     5.663    dut_inst/sorter_inst/genblk1.bitonic_merge_i/genblk1.bitonic_merge_high/genblk1.bitonic_merge_high/genblk1.cmp_g[0].compare_i/idx2_c2
    SLICE_X96Y501        LUT5 (Prop_E6LUT_SLICEL_I4_O)
                                                      0.064     5.727 r  dut_inst/sorter_inst/genblk1.bitonic_merge_i/genblk1.bitonic_merge_high/genblk1.bitonic_merge_high/genblk1.cmp_g[0].compare_i/s0.idx2_c4/O
                         net (fo=45, routed)          0.128     5.855    dut_inst/sorter_inst/genblk1.bitonic_merge_i/genblk1.bitonic_merge_high/genblk1.bitonic_merge_high/genblk1.cmp_g[0].compare_i/idx2_15
    SLICE_X97Y501        LUT5 (Prop_C5LUT_SLICEM_I4_O)
                                                      0.084     5.939 f  dut_inst/sorter_inst/genblk1.bitonic_merge_i/genblk1.bitonic_merge_high/genblk1.bitonic_merge_high/genblk1.cmp_g[0].compare_i/s1.pt_lut6_2_o5_lut6_2_o5[0]/O
                         net (fo=3, routed)           0.215     6.154    dut_inst/sorter_inst/genblk1.bitonic_merge_i/genblk1.bitonic_merge_high/genblk1.bitonic_merge_high/genblk1.bitonic_merge_high/genblk1.cmp_g[0].compare_i/pt_lut6_2_o6_18_0
    SLICE_X97Y501        LUT6 (Prop_B6LUT_SLICEM_I4_O)
                                                      0.063     6.217 f  dut_inst/sorter_inst/genblk1.bitonic_merge_i/genblk1.bitonic_merge_high/genblk1.bitonic_merge_high/genblk1.bitonic_merge_high/genblk1.cmp_g[0].compare_i/s0.idx2_c2/O
                         net (fo=1, routed)           0.274     6.491    dut_inst/sorter_inst/genblk1.bitonic_merge_i/genblk1.bitonic_merge_high/genblk1.bitonic_merge_high/genblk1.bitonic_merge_high/genblk1.cmp_g[0].compare_i/idx2_c2
    SLICE_X95Y501        LUT5 (Prop_H6LUT_SLICEM_I4_O)
                                                      0.117     6.608 f  dut_inst/sorter_inst/genblk1.bitonic_merge_i/genblk1.bitonic_merge_high/genblk1.bitonic_merge_high/genblk1.bitonic_merge_high/genblk1.cmp_g[0].compare_i/s0.idx2_c3/O
                         net (fo=1, routed)           0.252     6.860    dut_inst/sorter_inst/genblk1.bitonic_merge_i/genblk1.bitonic_merge_high/genblk1.bitonic_merge_high/genblk1.bitonic_merge_high/genblk1.cmp_g[0].compare_i/idx2_c3
    SLICE_X96Y501        LUT5 (Prop_H6LUT_SLICEL_I4_O)
                                                      0.040     6.900 f  dut_inst/sorter_inst/genblk1.bitonic_merge_i/genblk1.bitonic_merge_high/genblk1.bitonic_merge_high/genblk1.bitonic_merge_high/genblk1.cmp_g[0].compare_i/s0.idx2_c4/O
                         net (fo=24, routed)          0.407     7.307    dut_inst/sorter_inst/genblk1.bitonic_merge_i/genblk1.bitonic_merge_high/genblk1.bitonic_merge_high/genblk1.bitonic_merge_high/genblk1.cmp_g[0].compare_i/idx2
    SLICE_X104Y500       LUT5 (Prop_D6LUT_SLICEM_I4_O)
                                                      0.147     7.454 r  dut_inst/sorter_inst/genblk1.bitonic_merge_i/genblk1.bitonic_merge_high/genblk1.bitonic_merge_high/genblk1.bitonic_merge_high/genblk1.cmp_g[0].compare_i/s1.idx_lut6_2_o5_lut6_2_o6[8]/O
                         net (fo=1, routed)           0.082     7.536    s1.idx_lut6_2_o5_30[8]
    SLICE_X104Y500       FDRE                                         r  sorted_muons[14].idx[8]/D
  -------------------------------------------------------------------    -------------------

                         (clock clk rise edge)        6.250     6.250 r  
    AW33                                              0.000     6.250 r  clk (IN)
                         net (fo=0)                   0.000     6.250    clk_ibuf_iso/I
    AW33                 INBUF (Prop_INBUF_HPIOB_M_PAD_O)
                                                      0.529     6.779 r  clk_ibuf_iso/INBUF_INST/O
                         net (fo=1, routed)           0.000     6.779    clk_ibuf_iso/OUT
    AW33                 IBUFCTRL (Prop_IBUFCTRL_HPIOB_M_I_O)
                                                      0.000     6.779 r  clk_ibuf_iso/IBUFCTRL_INST/O
                         net (fo=1, routed)           0.296     7.075    clk_ibuf_iso
    BUFGCE_X1Y218        BUFGCE (Prop_BUFCE_BUFGCE_I_O)
                                                      0.024     7.099 r  clk_ibuf/O
    X3Y8 (CLOCK_ROOT)    net (fo=912, routed)         1.733     8.832    clk_c
    SLICE_X104Y500       FDRE                                         r  sorted_muons[14].idx[8]/C
                         clock pessimism              0.441     9.273    
                         clock uncertainty           -0.035     9.238    
    SLICE_X104Y500       FDRE (Setup_DFF_SLICEM_C_D)
                                                      0.027     9.265    sorted_muons[14].idx[8]
  -------------------------------------------------------------------
                         required time                          9.265    
                         arrival time                          -7.536    
  -------------------------------------------------------------------
                         slack                                  1.728    

Slack (MET) :             1.728ns  (required time - arrival time)
  Source:                 dut_inst/qdelay[2][0].idx_ret_27[1]/C
                            (rising edge-triggered cell FDRE clocked by clk  {rise@0.000ns fall@3.125ns period=6.250ns})
  Destination:            sorted_muons[14].idx[8]/D
                            (rising edge-triggered cell FDRE clocked by clk  {rise@0.000ns fall@3.125ns period=6.250ns})
  Path Group:             clk
  Path Type:              Setup (Max at Slow Process Corner)
  Requirement:            6.250ns  (clk rise@6.250ns - clk rise@0.000ns)
  Data Path Delay:        4.431ns  (logic 1.350ns (30.467%)  route 3.081ns (69.533%))
  Logic Levels:           12  (LUT3=1 LUT5=8 LUT6=3)
  Clock Path Skew:        -0.082ns (DCD - SCD + CPR)
    Destination Clock Delay (DCD):    2.582ns = ( 8.832 - 6.250 ) 
    Source Clock Delay      (SCD):    3.105ns
    Clock Pessimism Removal (CPR):    0.441ns
  Clock Uncertainty:      0.035ns  ((TSJ^2 + TIJ^2)^1/2 + DJ) / 2 + PE
    Total System Jitter     (TSJ):    0.071ns
    Total Input Jitter      (TIJ):    0.000ns
    Discrete Jitter          (DJ):    0.000ns
    Phase Error              (PE):    0.000ns
  Clock Net Delay (Source):      1.945ns (routing 1.021ns, distribution 0.924ns)
  Clock Net Delay (Destination): 1.733ns (routing 0.930ns, distribution 0.803ns)

    Location             Delay type                Incr(ns)  Path(ns)    Netlist Resource(s)
  -------------------------------------------------------------------    -------------------
                         (clock clk rise edge)        0.000     0.000 r  
    AW33                                              0.000     0.000 r  clk (IN)
                         net (fo=0)                   0.000     0.000    clk_ibuf_iso/I
    AW33                 INBUF (Prop_INBUF_HPIOB_M_PAD_O)
                                                      0.798     0.798 r  clk_ibuf_iso/INBUF_INST/O
                         net (fo=1, routed)           0.000     0.798    clk_ibuf_iso/OUT
    AW33                 IBUFCTRL (Prop_IBUFCTRL_HPIOB_M_I_O)
                                                      0.000     0.798 r  clk_ibuf_iso/IBUFCTRL_INST/O
                         net (fo=1, routed)           0.334     1.132    clk_ibuf_iso
    BUFGCE_X1Y218        BUFGCE (Prop_BUFCE_BUFGCE_I_O)
                                                      0.028     1.160 r  clk_ibuf/O
    X3Y8 (CLOCK_ROOT)    net (fo=912, routed)         1.945     3.105    dut_inst/clk_c
    SLICE_X99Y509        FDRE                                         r  dut_inst/qdelay[2][0].idx_ret_27[1]/C
  -------------------------------------------------------------------    -------------------
    SLICE_X99Y509        FDRE (Prop_BFF_SLICEM_C_Q)
                                                      0.095     3.200 f  dut_inst/qdelay[2][0].idx_ret_27[1]/Q
                         net (fo=6, routed)           0.278     3.478    dut_inst/sorter_inst/genblk1.bitonic_merge_i/genblk1.cmp_g[4].compare_i/un1_bitonic_sort_low_o_2
    SLICE_X98Y504        LUT3 (Prop_H5LUT_SLICEL_I1_O)
                                                      0.195     3.673 f  dut_inst/sorter_inst/genblk1.bitonic_merge_i/genblk1.cmp_g[4].compare_i/s1.pt_lut6_2_o5_lut6_2_o5[1]/O
                         net (fo=3, routed)           0.236     3.909    dut_inst/sorter_inst/genblk1.bitonic_merge_i/genblk1.bitonic_merge_high/genblk1.cmp_g[0].compare_i/pt_lut6_2_o6_12_0
    SLICE_X98Y504        LUT6 (Prop_A6LUT_SLICEL_I5_O)
                                                      0.100     4.009 r  dut_inst/sorter_inst/genblk1.bitonic_merge_i/genblk1.bitonic_merge_high/genblk1.cmp_g[0].compare_i/s0.idx2_c2/O
                         net (fo=1, routed)           0.311     4.320    dut_inst/sorter_inst/genblk1.bitonic_merge_i/genblk1.bitonic_merge_high/genblk1.cmp_g[2].compare_i/idx2_c2
    SLICE_X95Y504        LUT5 (Prop_C6LUT_SLICEM_I4_O)
                                                      0.113     4.433 r  dut_inst/sorter_inst/genblk1.bitonic_merge_i/genblk1.bitonic_merge_high/genblk1.cmp_g[2].compare_i/m205_lut6_2_o5_lut6_2_o6/O
                         net (fo=1, routed)           0.106     4.539    dut_inst/sorter_inst/genblk1.bitonic_merge_i/genblk1.bitonic_merge_high/genblk1.cmp_g[0].compare_i/idx2_c3_0
    SLICE_X95Y504        LUT5 (Prop_H6LUT_SLICEM_I4_O)
                                                      0.100     4.639 r  dut_inst/sorter_inst/genblk1.bitonic_merge_i/genblk1.bitonic_merge_high/genblk1.cmp_g[0].compare_i/s0.idx2_c4/O
                         net (fo=29, routed)          0.334     4.973    dut_inst/sorter_inst/genblk1.bitonic_merge_i/genblk1.bitonic_merge_high/genblk1.cmp_g[0].compare_i/idx2_16
    SLICE_X98Y504        LUT5 (Prop_C5LUT_SLICEL_I4_O)
                                                      0.168     5.141 f  dut_inst/sorter_inst/genblk1.bitonic_merge_i/genblk1.bitonic_merge_high/genblk1.cmp_g[0].compare_i/s1.pt_lut6_2_o5_lut6_2_o5[0]/O
                         net (fo=3, routed)           0.275     5.416    dut_inst/sorter_inst/genblk1.bitonic_merge_i/genblk1.bitonic_merge_high/genblk1.bitonic_merge_high/genblk1.cmp_g[0].compare_i/pt_lut6_2_o6_20_0
    SLICE_X97Y501        LUT6 (Prop_A6LUT_SLICEM_I3_O)
                                                      0.064     5.480 f  dut_inst/sorter_inst/genblk1.bitonic_merge_i/genblk1.bitonic_merge_high/genblk1.bitonic_merge_high/genblk1.cmp_g[0].compare_i/s0.idx2_c2/O
                         net (fo=1, routed)           0.183     5.663    dut_inst/sorter_inst/genblk1.bitonic_merge_i/genblk1.bitonic_merge_high/genblk1.bitonic_merge_high/genblk1.cmp_g[0].compare_i/idx2_c2
    SLICE_X96Y501        LUT5 (Prop_E6LUT_SLICEL_I4_O)
                                                      0.064     5.727 f  dut_inst/sorter_inst/genblk1.bitonic_merge_i/genblk1.bitonic_merge_high/genblk1.bitonic_merge_high/genblk1.cmp_g[0].compare_i/s0.idx2_c4/O
                         net (fo=45, routed)          0.128     5.855    dut_inst/sorter_inst/genblk1.bitonic_merge_i/genblk1.bitonic_merge_high/genblk1.bitonic_merge_high/genblk1.cmp_g[0].compare_i/idx2_15
    SLICE_X97Y501        LUT5 (Prop_C5LUT_SLICEM_I4_O)
                                                      0.084     5.939 f  dut_inst/sorter_inst/genblk1.bitonic_merge_i/genblk1.bitonic_merge_high/genblk1.bitonic_merge_high/genblk1.cmp_g[0].compare_i/s1.pt_lut6_2_o5_lut6_2_o5[0]/O
                         net (fo=3, routed)           0.215     6.154    dut_inst/sorter_inst/genblk1.bitonic_merge_i/genblk1.bitonic_merge_high/genblk1.bitonic_merge_high/genblk1.bitonic_merge_high/genblk1.cmp_g[0].compare_i/pt_lut6_2_o6_18_0
    SLICE_X97Y501        LUT6 (Prop_B6LUT_SLICEM_I4_O)
                                                      0.063     6.217 f  dut_inst/sorter_inst/genblk1.bitonic_merge_i/genblk1.bitonic_merge_high/genblk1.bitonic_merge_high/genblk1.bitonic_merge_high/genblk1.cmp_g[0].compare_i/s0.idx2_c2/O
                         net (fo=1, routed)           0.274     6.491    dut_inst/sorter_inst/genblk1.bitonic_merge_i/genblk1.bitonic_merge_high/genblk1.bitonic_merge_high/genblk1.bitonic_merge_high/genblk1.cmp_g[0].compare_i/idx2_c2
    SLICE_X95Y501        LUT5 (Prop_H6LUT_SLICEM_I4_O)
                                                      0.117     6.608 f  dut_inst/sorter_inst/genblk1.bitonic_merge_i/genblk1.bitonic_merge_high/genblk1.bitonic_merge_high/genblk1.bitonic_merge_high/genblk1.cmp_g[0].compare_i/s0.idx2_c3/O
                         net (fo=1, routed)           0.252     6.860    dut_inst/sorter_inst/genblk1.bitonic_merge_i/genblk1.bitonic_merge_high/genblk1.bitonic_merge_high/genblk1.bitonic_merge_high/genblk1.cmp_g[0].compare_i/idx2_c3
    SLICE_X96Y501        LUT5 (Prop_H6LUT_SLICEL_I4_O)
                                                      0.040     6.900 f  dut_inst/sorter_inst/genblk1.bitonic_merge_i/genblk1.bitonic_merge_high/genblk1.bitonic_merge_high/genblk1.bitonic_merge_high/genblk1.cmp_g[0].compare_i/s0.idx2_c4/O
                         net (fo=24, routed)          0.407     7.307    dut_inst/sorter_inst/genblk1.bitonic_merge_i/genblk1.bitonic_merge_high/genblk1.bitonic_merge_high/genblk1.bitonic_merge_high/genblk1.cmp_g[0].compare_i/idx2
    SLICE_X104Y500       LUT5 (Prop_D6LUT_SLICEM_I4_O)
                                                      0.147     7.454 r  dut_inst/sorter_inst/genblk1.bitonic_merge_i/genblk1.bitonic_merge_high/genblk1.bitonic_merge_high/genblk1.bitonic_merge_high/genblk1.cmp_g[0].compare_i/s1.idx_lut6_2_o5_lut6_2_o6[8]/O
                         net (fo=1, routed)           0.082     7.536    s1.idx_lut6_2_o5_30[8]
    SLICE_X104Y500       FDRE                                         r  sorted_muons[14].idx[8]/D
  -------------------------------------------------------------------    -------------------

                         (clock clk rise edge)        6.250     6.250 r  
    AW33                                              0.000     6.250 r  clk (IN)
                         net (fo=0)                   0.000     6.250    clk_ibuf_iso/I
    AW33                 INBUF (Prop_INBUF_HPIOB_M_PAD_O)
                                                      0.529     6.779 r  clk_ibuf_iso/INBUF_INST/O
                         net (fo=1, routed)           0.000     6.779    clk_ibuf_iso/OUT
    AW33                 IBUFCTRL (Prop_IBUFCTRL_HPIOB_M_I_O)
                                                      0.000     6.779 r  clk_ibuf_iso/IBUFCTRL_INST/O
                         net (fo=1, routed)           0.296     7.075    clk_ibuf_iso
    BUFGCE_X1Y218        BUFGCE (Prop_BUFCE_BUFGCE_I_O)
                                                      0.024     7.099 r  clk_ibuf/O
    X3Y8 (CLOCK_ROOT)    net (fo=912, routed)         1.733     8.832    clk_c
    SLICE_X104Y500       FDRE                                         r  sorted_muons[14].idx[8]/C
                         clock pessimism              0.441     9.273    
                         clock uncertainty           -0.035     9.238    
    SLICE_X104Y500       FDRE (Setup_DFF_SLICEM_C_D)
                                                      0.027     9.265    sorted_muons[14].idx[8]
  -------------------------------------------------------------------
                         required time                          9.265    
                         arrival time                          -7.536    
  -------------------------------------------------------------------
                         slack                                  1.728    





Pulse Width Checks
--------------------------------------------------------------------------------------
Clock Name:         clk
Waveform(ns):       { 0.000 3.125 }
Period(ns):         6.250
Sources:            { clk }

Check Type        Corner  Lib Pin   Reference Pin  Required(ns)  Actual(ns)  Slack(ns)  Location        Pin
Min Period        n/a     BUFGCE/I  n/a            1.499         6.250       4.751      BUFGCE_X1Y218   clk_ibuf/I
Min Period        n/a     FDRE/C    n/a            0.550         6.250       5.700      SLICE_X98Y513   dut_inst/qdelay[1][0].idx_ret[0]/C
Min Period        n/a     FDRE/C    n/a            0.550         6.250       5.700      SLICE_X100Y507  dut_inst/qdelay[1][0].idx_ret[10]/C
Min Period        n/a     FDRE/C    n/a            0.550         6.250       5.700      SLICE_X98Y509   dut_inst/qdelay[1][0].idx_ret[11]/C
Min Period        n/a     FDRE/C    n/a            0.550         6.250       5.700      SLICE_X98Y511   dut_inst/qdelay[1][0].idx_ret[12]/C
Low Pulse Width   Fast    FDRE/C    n/a            0.275         3.125       2.850      SLICE_X96Y504   dut_inst/qdelay[2][0].idx_ret_26[3]/C
Low Pulse Width   Fast    FDRE/C    n/a            0.275         3.125       2.850      SLICE_X96Y504   dut_inst/qdelay[2][0].idx_ret_27[2]/C
Low Pulse Width   Fast    FDRE/C    n/a            0.275         3.125       2.850      SLICE_X96Y504   dut_inst/qdelay[2][0].idx_ret_28[2]/C
Low Pulse Width   Fast    FDRE/C    n/a            0.275         3.125       2.850      SLICE_X96Y504   dut_inst/qdelay[2][0].idx_ret_36[2]/C
Low Pulse Width   Fast    FDRE/C    n/a            0.275         3.125       2.850      SLICE_X96Y504   dut_inst/qdelay[2][0].idx_ret_38[0]/C
High Pulse Width  Slow    FDRE/C    n/a            0.275         3.125       2.850      SLICE_X100Y507  dut_inst/qdelay[1][0].idx_ret[10]/C
High Pulse Width  Slow    FDRE/C    n/a            0.275         3.125       2.850      SLICE_X98Y511   dut_inst/qdelay[1][0].idx_ret[12]/C
High Pulse Width  Slow    FDRE/C    n/a            0.275         3.125       2.850      SLICE_X95Y512   dut_inst/qdelay[1][0].idx_ret_2[5]/C
High Pulse Width  Slow    FDRE/C    n/a            0.275         3.125       2.850      SLICE_X104Y505  dut_inst/qdelay[1][0].idx_ret_3[10]/C
High Pulse Width  Slow    FDRE/C    n/a            0.275         3.125       2.850      SLICE_X104Y505  dut_inst/qdelay[1][0].idx_ret_3[13]/C



---------------------------------------------------------------------------------------------------
From Clock:  clk_wrapper
  To Clock:  clk_wrapper

Setup :           NA  Failing Endpoints,  Worst Slack           NA  ,  Total Violation           NA
Hold  :           NA  Failing Endpoints,  Worst Slack           NA  ,  Total Violation           NA
PW    :            0  Failing Endpoints,  Worst Slack      498.562ns,  Total Violation        0.000ns
---------------------------------------------------------------------------------------------------


Pulse Width Checks
--------------------------------------------------------------------------------------
Clock Name:         clk_wrapper
Waveform(ns):       { 0.000 500.000 }
Period(ns):         1000.000
Sources:            { clk_wrapper }

Check Type        Corner  Lib Pin   Reference Pin  Required(ns)  Actual(ns)  Slack(ns)  Location               Pin
Min Period        n/a     FDRE/C    n/a            3.195         1000.000    996.805    BITSLICE_RX_TX_X1Y518  dout/C
Min Period        n/a     FDRE/C    n/a            3.195         1000.000    996.805    BITSLICE_RX_TX_X1Y517  lfsr_din/C
Min Period        n/a     BUFGCE/I  n/a            1.499         1000.000    998.501    BUFGCE_X1Y224          clk_wrapper_ibuf/I
Min Period        n/a     FDRE/C    n/a            0.550         1000.000    999.450    SLICE_X103Y512         input_lfsr/shiftreg_vector[24]/C
Min Period        n/a     FDRE/C    n/a            0.550         1000.000    999.450    SLICE_X105Y512         input_lfsr/shiftreg_vector[25]/C
Low Pulse Width   Slow    FDRE/C    n/a            1.438         500.000     498.562    BITSLICE_RX_TX_X1Y518  dout/C
Low Pulse Width   Slow    FDRE/C    n/a            1.438         500.000     498.562    BITSLICE_RX_TX_X1Y517  lfsr_din/C
Low Pulse Width   Fast    FDRE/C    n/a            1.438         500.000     498.562    BITSLICE_RX_TX_X1Y518  dout/C
Low Pulse Width   Fast    FDRE/C    n/a            1.438         500.000     498.562    BITSLICE_RX_TX_X1Y517  lfsr_din/C
Low Pulse Width   Slow    FDRE/C    n/a            0.275         500.000     499.725    SLICE_X105Y512         input_lfsr/shiftreg_vector[25]/C
High Pulse Width  Fast    FDRE/C    n/a            1.438         500.000     498.562    BITSLICE_RX_TX_X1Y518  dout/C
High Pulse Width  Fast    FDRE/C    n/a            1.438         500.000     498.562    BITSLICE_RX_TX_X1Y517  lfsr_din/C
High Pulse Width  Slow    FDRE/C    n/a            1.438         500.000     498.562    BITSLICE_RX_TX_X1Y518  dout/C
High Pulse Width  Slow    FDRE/C    n/a            1.438         500.000     498.562    BITSLICE_RX_TX_X1Y517  lfsr_din/C
High Pulse Width  Fast    FDRE/C    n/a            0.275         500.000     499.725    SLICE_X105Y512         input_lfsr/shiftreg_vector[25]/C



