Copyright 1986-2018 Xilinx, Inc. All Rights Reserved.
-------------------------------------------------------------------------------------------------
| Tool Version      : Vivado v.2018.2 (win64) Build 2258646 Thu Jun 14 20:03:12 MDT 2018
| Date              : Sat Mar  2 22:12:28 2019
| Host              : PCPHESEBE02 running 64-bit Service Pack 1  (build 7601)
| Command           : report_timing_summary -setup -nworst 5 -max_paths 5 -file timing_setup.txt
| Design            : bitonic_sorter_16_top
| Device            : xcvu9p-flgc2104
| Speed File        : -1  PRODUCTION 1.20 05-21-2018
| Temperature Grade : E
-------------------------------------------------------------------------------------------------

Timing Summary Report

------------------------------------------------------------------------------------------------
| Timer Settings
| --------------
------------------------------------------------------------------------------------------------

  Enable Multi Corner Analysis               :  Yes
  Enable Pessimism Removal                   :  Yes
  Pessimism Removal Resolution               :  Nearest Common Node
  Enable Input Delay Default Clock           :  No
  Enable Preset / Clear Arcs                 :  No
  Disable Flight Delays                      :  No
  Ignore I/O Paths                           :  No
  Timing Early Launch at Borrowing Latches   :  false

  Corner  Analyze    Analyze    
  Name    Max Paths  Min Paths  
  ------  ---------  ---------  
  Slow    Yes        Yes        
  Fast    Yes        Yes        



check_timing report

Table of Contents
-----------------
1. checking no_clock
2. checking constant_clock
3. checking pulse_width_clock
4. checking unconstrained_internal_endpoints
5. checking no_input_delay
6. checking no_output_delay
7. checking multiple_clock
8. checking generated_clocks
9. checking loops
10. checking partial_input_delay
11. checking partial_output_delay
12. checking latch_loops

1. checking no_clock
--------------------
 There are 0 register/latch pins with no clock.


2. checking constant_clock
--------------------------
 There are 0 register/latch pins with constant_clock.


3. checking pulse_width_clock
-----------------------------
 There are 0 register/latch pins which need pulse_width check


4. checking unconstrained_internal_endpoints
--------------------------------------------
 There are 0 pins that are not constrained for maximum delay.

 There are 0 pins that are not constrained for maximum delay due to constant clock.


5. checking no_input_delay
--------------------------
 There is 1 input port with no input delay specified. (HIGH)

 There are 0 input ports with no input delay but user has a false path constraint.


6. checking no_output_delay
---------------------------
 There is 1 port with no output delay specified. (HIGH)

 There are 0 ports with no output delay but user has a false path constraint

 There are 0 ports with no output delay but with a timing clock defined on it or propagating through it


7. checking multiple_clock
--------------------------
 There are 0 register/latch pins with multiple clocks.


8. checking generated_clocks
----------------------------
 There are 0 generated clocks that are not connected to a clock source.


9. checking loops
-----------------
 There are 0 combinational loops in the design.


10. checking partial_input_delay
--------------------------------
 There are 0 input ports with partial input delay specified.


11. checking partial_output_delay
---------------------------------
 There are 0 ports with partial output delay specified.


12. checking latch_loops
------------------------
 There are 0 combinational latch loops in the design through latch input



------------------------------------------------------------------------------------------------
| Design Timing Summary
| ---------------------
------------------------------------------------------------------------------------------------

    WNS(ns)      TNS(ns)  TNS Failing Endpoints  TNS Total Endpoints     WPWS(ns)     TPWS(ns)  TPWS Failing Endpoints  TPWS Total Endpoints  
    -------      -------  ---------------------  -------------------     --------     --------  ----------------------  --------------------  
      0.294        0.000                      0                 1152        0.989        0.000                       0                  1851  


All user specified timing constraints are met.


------------------------------------------------------------------------------------------------
| Clock Summary
| -------------
------------------------------------------------------------------------------------------------

Clock        Waveform(ns)         Period(ns)      Frequency(MHz)
-----        ------------         ----------      --------------
clk          {0.000 1.563}        3.125           320.000         
clk_wrapper  {0.000 500.000}      1000.000        1.000           


------------------------------------------------------------------------------------------------
| Intra Clock Table
| -----------------
------------------------------------------------------------------------------------------------

Clock             WNS(ns)      TNS(ns)  TNS Failing Endpoints  TNS Total Endpoints     WPWS(ns)     TPWS(ns)  TPWS Failing Endpoints  TPWS Total Endpoints  
-----             -------      -------  ---------------------  -------------------     --------     --------  ----------------------  --------------------  
clk                 0.294        0.000                      0                 1152        0.989        0.000                       0                  1361  
clk_wrapper                                                                             498.562        0.000                       0                   490  


------------------------------------------------------------------------------------------------
| Inter Clock Table
| -----------------
------------------------------------------------------------------------------------------------

From Clock    To Clock          WNS(ns)      TNS(ns)  TNS Failing Endpoints  TNS Total Endpoints  
----------    --------          -------      -------  ---------------------  -------------------  


------------------------------------------------------------------------------------------------
| Other Path Groups Table
| -----------------------
------------------------------------------------------------------------------------------------

Path Group    From Clock    To Clock          WNS(ns)      TNS(ns)  TNS Failing Endpoints  TNS Total Endpoints  
----------    ----------    --------          -------      -------  ---------------------  -------------------  


------------------------------------------------------------------------------------------------
| Timing Details
| --------------
------------------------------------------------------------------------------------------------


---------------------------------------------------------------------------------------------------
From Clock:  clk
  To Clock:  clk

Setup :            0  Failing Endpoints,  Worst Slack        0.294ns,  Total Violation        0.000ns
Hold  :           NA  Failing Endpoints,  Worst Slack           NA  ,  Total Violation           NA
PW    :            0  Failing Endpoints,  Worst Slack        0.989ns,  Total Violation        0.000ns
---------------------------------------------------------------------------------------------------


Max Delay Paths
--------------------------------------------------------------------------------------
Slack (MET) :             0.294ns  (required time - arrival time)
  Source:                 dut_inst/qdelay_2__15_.idx_0__ret_74_0_DOUT[0]/C
                            (rising edge-triggered cell FDRE clocked by clk  {rise@0.000ns fall@1.563ns period=3.125ns})
  Destination:            sorted_muons[6].idx[4]/D
                            (rising edge-triggered cell FDRE clocked by clk  {rise@0.000ns fall@1.563ns period=3.125ns})
  Path Group:             clk
  Path Type:              Setup (Max at Slow Process Corner)
  Requirement:            3.125ns  (clk rise@3.125ns - clk rise@0.000ns)
  Data Path Delay:        2.693ns  (logic 0.879ns (32.640%)  route 1.814ns (67.360%))
  Logic Levels:           7  (LUT3=2 LUT5=5)
  Clock Path Skew:        -0.129ns (DCD - SCD + CPR)
    Destination Clock Delay (DCD):    2.556ns = ( 5.681 - 3.125 ) 
    Source Clock Delay      (SCD):    3.126ns
    Clock Pessimism Removal (CPR):    0.441ns
  Clock Uncertainty:      0.035ns  ((TSJ^2 + TIJ^2)^1/2 + DJ) / 2 + PE
    Total System Jitter     (TSJ):    0.071ns
    Total Input Jitter      (TIJ):    0.000ns
    Discrete Jitter          (DJ):    0.000ns
    Phase Error              (PE):    0.000ns
  Clock Net Delay (Source):      1.966ns (routing 1.021ns, distribution 0.945ns)
  Clock Net Delay (Destination): 1.707ns (routing 0.930ns, distribution 0.777ns)

    Location             Delay type                Incr(ns)  Path(ns)    Netlist Resource(s)
  -------------------------------------------------------------------    -------------------
                         (clock clk rise edge)        0.000     0.000 r  
    AW33                                              0.000     0.000 r  clk (IN)
                         net (fo=0)                   0.000     0.000    clk_ibuf_iso/I
    AW33                 INBUF (Prop_INBUF_HPIOB_M_PAD_O)
                                                      0.798     0.798 r  clk_ibuf_iso/INBUF_INST/O
                         net (fo=1, routed)           0.000     0.798    clk_ibuf_iso/OUT
    AW33                 IBUFCTRL (Prop_IBUFCTRL_HPIOB_M_I_O)
                                                      0.000     0.798 r  clk_ibuf_iso/IBUFCTRL_INST/O
                         net (fo=1, routed)           0.334     1.132    clk_ibuf_iso
    BUFGCE_X1Y218        BUFGCE (Prop_BUFCE_BUFGCE_I_O)
                                                      0.028     1.160 r  clk_ibuf/O
    X3Y8 (CLOCK_ROOT)    net (fo=1360, routed)        1.966     3.126    dut_inst/clk_c
    SLICE_X97Y508        FDRE                                         r  dut_inst/qdelay_2__15_.idx_0__ret_74_0_DOUT[0]/C
  -------------------------------------------------------------------    -------------------
    SLICE_X97Y508        FDRE (Prop_AFF_SLICEM_C_Q)
                                                      0.093     3.219 r  dut_inst/qdelay_2__15_.idx_0__ret_74_0_DOUT[0]/Q
                         net (fo=24, routed)          0.352     3.571    dut_inst/sorter_inst/genblk1.bitonic_sort_low/genblk1.bitonic_merge_i/genblk1.cmp_g[2].compare_i/idx2_o_o_o_o_25
    SLICE_X98Y504        LUT3 (Prop_C6LUT_SLICEL_I2_O)
                                                      0.063     3.634 r  dut_inst/sorter_inst/genblk1.bitonic_sort_low/genblk1.bitonic_merge_i/genblk1.cmp_g[2].compare_i/s1.idx_lut6_2_o5_lut6_2_o6[5]/O
                         net (fo=2, routed)           0.108     3.742    dut_inst/sorter_inst/genblk1.bitonic_sort_low/genblk1.bitonic_merge_i/genblk1.bitonic_merge_high/genblk1.cmp_g[0].compare_i/idx_lut6_2_o5_4_0
    SLICE_X99Y504        LUT5 (Prop_A6LUT_SLICEM_I4_O)
                                                      0.116     3.858 r  dut_inst/sorter_inst/genblk1.bitonic_sort_low/genblk1.bitonic_merge_i/genblk1.bitonic_merge_high/genblk1.cmp_g[0].compare_i/s1.idx_lut6_2_o5_lut6_2_o6[4]/O
                         net (fo=2, routed)           0.193     4.051    dut_inst/sorter_inst/genblk1.bitonic_sort_low/genblk1.bitonic_merge_i/genblk1.bitonic_merge_high/genblk1.bitonic_merge_low/genblk1.cmp_g[0].compare_i/idx_lut6_2_o5_5_1
    SLICE_X100Y505       LUT5 (Prop_H5LUT_SLICEM_I4_O)
                                                      0.167     4.218 r  dut_inst/sorter_inst/genblk1.bitonic_sort_low/genblk1.bitonic_merge_i/genblk1.bitonic_merge_high/genblk1.bitonic_merge_low/genblk1.cmp_g[0].compare_i/s1.idx_lut6_2_o5_lut6_2_o5[4]/O
                         net (fo=3, routed)           0.486     4.704    dut_inst/sorter_inst/genblk1.bitonic_merge_i/genblk1.cmp_g[5].compare_i/idx_lut6_2_o6_33_0
    SLICE_X99Y513        LUT3 (Prop_F5LUT_SLICEM_I2_O)
                                                      0.176     4.880 r  dut_inst/sorter_inst/genblk1.bitonic_merge_i/genblk1.cmp_g[5].compare_i/s0.idx_lut6_2_o5_lut6_2_o5[4]/O
                         net (fo=2, routed)           0.263     5.143    dut_inst/sorter_inst/genblk1.bitonic_merge_i/genblk1.bitonic_merge_low/genblk1.cmp_g[1].compare_i/idx_lut6_2_o6_10_0
    SLICE_X99Y513        LUT5 (Prop_H5LUT_SLICEM_I4_O)
                                                      0.118     5.261 r  dut_inst/sorter_inst/genblk1.bitonic_merge_i/genblk1.bitonic_merge_low/genblk1.cmp_g[1].compare_i/s1.idx_lut6_2_o5_lut6_2_o5[4]/O
                         net (fo=2, routed)           0.197     5.458    dut_inst/sorter_inst/genblk1.bitonic_merge_i/genblk1.bitonic_merge_low/genblk1.bitonic_merge_high/genblk1.cmp_g[1].compare_i/idx_lut6_2_o6_18_0
    SLICE_X99Y510        LUT5 (Prop_D5LUT_SLICEM_I4_O)
                                                      0.082     5.540 r  dut_inst/sorter_inst/genblk1.bitonic_merge_i/genblk1.bitonic_merge_low/genblk1.bitonic_merge_high/genblk1.cmp_g[1].compare_i/s1.idx_lut6_2_o5_lut6_2_o5[4]/O
                         net (fo=2, routed)           0.157     5.697    dut_inst/sorter_inst/genblk1.bitonic_merge_i/genblk1.bitonic_merge_low/genblk1.bitonic_merge_high/genblk1.bitonic_merge_high/genblk1.cmp_g[0].compare_i/idx_lut6_2_o6_17_4
    SLICE_X98Y510        LUT5 (Prop_A6LUT_SLICEL_I3_O)
                                                      0.064     5.761 r  dut_inst/sorter_inst/genblk1.bitonic_merge_i/genblk1.bitonic_merge_low/genblk1.bitonic_merge_high/genblk1.bitonic_merge_high/genblk1.cmp_g[0].compare_i/s0.idx_lut6_2_o5_lut6_2_o5[4]/O
                         net (fo=1, routed)           0.058     5.819    s0.idx_lut6_2_o6_11[4]
    SLICE_X98Y510        FDRE                                         r  sorted_muons[6].idx[4]/D
  -------------------------------------------------------------------    -------------------

                         (clock clk rise edge)        3.125     3.125 r  
    AW33                                              0.000     3.125 r  clk (IN)
                         net (fo=0)                   0.000     3.125    clk_ibuf_iso/I
    AW33                 INBUF (Prop_INBUF_HPIOB_M_PAD_O)
                                                      0.529     3.654 r  clk_ibuf_iso/INBUF_INST/O
                         net (fo=1, routed)           0.000     3.654    clk_ibuf_iso/OUT
    AW33                 IBUFCTRL (Prop_IBUFCTRL_HPIOB_M_I_O)
                                                      0.000     3.654 r  clk_ibuf_iso/IBUFCTRL_INST/O
                         net (fo=1, routed)           0.296     3.950    clk_ibuf_iso
    BUFGCE_X1Y218        BUFGCE (Prop_BUFCE_BUFGCE_I_O)
                                                      0.024     3.974 r  clk_ibuf/O
    X3Y8 (CLOCK_ROOT)    net (fo=1360, routed)        1.707     5.681    clk_c
    SLICE_X98Y510        FDRE                                         r  sorted_muons[6].idx[4]/C
                         clock pessimism              0.441     6.122    
                         clock uncertainty           -0.035     6.087    
    SLICE_X98Y510        FDRE (Setup_AFF_SLICEL_C_D)
                                                      0.027     6.114    sorted_muons[6].idx[4]
  -------------------------------------------------------------------
                         required time                          6.114    
                         arrival time                          -5.819    
  -------------------------------------------------------------------
                         slack                                  0.294    

Slack (MET) :             0.294ns  (required time - arrival time)
  Source:                 dut_inst/qdelay_2__15_.idx_0__ret_74_0_DOUT[0]/C
                            (rising edge-triggered cell FDRE clocked by clk  {rise@0.000ns fall@1.563ns period=3.125ns})
  Destination:            sorted_muons[6].idx[4]/D
                            (rising edge-triggered cell FDRE clocked by clk  {rise@0.000ns fall@1.563ns period=3.125ns})
  Path Group:             clk
  Path Type:              Setup (Max at Slow Process Corner)
  Requirement:            3.125ns  (clk rise@3.125ns - clk rise@0.000ns)
  Data Path Delay:        2.693ns  (logic 0.879ns (32.640%)  route 1.814ns (67.360%))
  Logic Levels:           7  (LUT3=2 LUT5=5)
  Clock Path Skew:        -0.129ns (DCD - SCD + CPR)
    Destination Clock Delay (DCD):    2.556ns = ( 5.681 - 3.125 ) 
    Source Clock Delay      (SCD):    3.126ns
    Clock Pessimism Removal (CPR):    0.441ns
  Clock Uncertainty:      0.035ns  ((TSJ^2 + TIJ^2)^1/2 + DJ) / 2 + PE
    Total System Jitter     (TSJ):    0.071ns
    Total Input Jitter      (TIJ):    0.000ns
    Discrete Jitter          (DJ):    0.000ns
    Phase Error              (PE):    0.000ns
  Clock Net Delay (Source):      1.966ns (routing 1.021ns, distribution 0.945ns)
  Clock Net Delay (Destination): 1.707ns (routing 0.930ns, distribution 0.777ns)

    Location             Delay type                Incr(ns)  Path(ns)    Netlist Resource(s)
  -------------------------------------------------------------------    -------------------
                         (clock clk rise edge)        0.000     0.000 r  
    AW33                                              0.000     0.000 r  clk (IN)
                         net (fo=0)                   0.000     0.000    clk_ibuf_iso/I
    AW33                 INBUF (Prop_INBUF_HPIOB_M_PAD_O)
                                                      0.798     0.798 r  clk_ibuf_iso/INBUF_INST/O
                         net (fo=1, routed)           0.000     0.798    clk_ibuf_iso/OUT
    AW33                 IBUFCTRL (Prop_IBUFCTRL_HPIOB_M_I_O)
                                                      0.000     0.798 r  clk_ibuf_iso/IBUFCTRL_INST/O
                         net (fo=1, routed)           0.334     1.132    clk_ibuf_iso
    BUFGCE_X1Y218        BUFGCE (Prop_BUFCE_BUFGCE_I_O)
                                                      0.028     1.160 r  clk_ibuf/O
    X3Y8 (CLOCK_ROOT)    net (fo=1360, routed)        1.966     3.126    dut_inst/clk_c
    SLICE_X97Y508        FDRE                                         r  dut_inst/qdelay_2__15_.idx_0__ret_74_0_DOUT[0]/C
  -------------------------------------------------------------------    -------------------
    SLICE_X97Y508        FDRE (Prop_AFF_SLICEM_C_Q)
                                                      0.093     3.219 f  dut_inst/qdelay_2__15_.idx_0__ret_74_0_DOUT[0]/Q
                         net (fo=24, routed)          0.352     3.571    dut_inst/sorter_inst/genblk1.bitonic_sort_low/genblk1.bitonic_merge_i/genblk1.cmp_g[2].compare_i/idx2_o_o_o_o_25
    SLICE_X98Y504        LUT3 (Prop_C6LUT_SLICEL_I2_O)
                                                      0.063     3.634 r  dut_inst/sorter_inst/genblk1.bitonic_sort_low/genblk1.bitonic_merge_i/genblk1.cmp_g[2].compare_i/s1.idx_lut6_2_o5_lut6_2_o6[5]/O
                         net (fo=2, routed)           0.108     3.742    dut_inst/sorter_inst/genblk1.bitonic_sort_low/genblk1.bitonic_merge_i/genblk1.bitonic_merge_high/genblk1.cmp_g[0].compare_i/idx_lut6_2_o5_4_0
    SLICE_X99Y504        LUT5 (Prop_A6LUT_SLICEM_I4_O)
                                                      0.116     3.858 r  dut_inst/sorter_inst/genblk1.bitonic_sort_low/genblk1.bitonic_merge_i/genblk1.bitonic_merge_high/genblk1.cmp_g[0].compare_i/s1.idx_lut6_2_o5_lut6_2_o6[4]/O
                         net (fo=2, routed)           0.193     4.051    dut_inst/sorter_inst/genblk1.bitonic_sort_low/genblk1.bitonic_merge_i/genblk1.bitonic_merge_high/genblk1.bitonic_merge_low/genblk1.cmp_g[0].compare_i/idx_lut6_2_o5_5_1
    SLICE_X100Y505       LUT5 (Prop_H5LUT_SLICEM_I4_O)
                                                      0.167     4.218 r  dut_inst/sorter_inst/genblk1.bitonic_sort_low/genblk1.bitonic_merge_i/genblk1.bitonic_merge_high/genblk1.bitonic_merge_low/genblk1.cmp_g[0].compare_i/s1.idx_lut6_2_o5_lut6_2_o5[4]/O
                         net (fo=3, routed)           0.486     4.704    dut_inst/sorter_inst/genblk1.bitonic_merge_i/genblk1.cmp_g[5].compare_i/idx_lut6_2_o6_33_0
    SLICE_X99Y513        LUT3 (Prop_F5LUT_SLICEM_I2_O)
                                                      0.176     4.880 r  dut_inst/sorter_inst/genblk1.bitonic_merge_i/genblk1.cmp_g[5].compare_i/s0.idx_lut6_2_o5_lut6_2_o5[4]/O
                         net (fo=2, routed)           0.263     5.143    dut_inst/sorter_inst/genblk1.bitonic_merge_i/genblk1.bitonic_merge_low/genblk1.cmp_g[1].compare_i/idx_lut6_2_o6_10_0
    SLICE_X99Y513        LUT5 (Prop_H5LUT_SLICEM_I4_O)
                                                      0.118     5.261 r  dut_inst/sorter_inst/genblk1.bitonic_merge_i/genblk1.bitonic_merge_low/genblk1.cmp_g[1].compare_i/s1.idx_lut6_2_o5_lut6_2_o5[4]/O
                         net (fo=2, routed)           0.197     5.458    dut_inst/sorter_inst/genblk1.bitonic_merge_i/genblk1.bitonic_merge_low/genblk1.bitonic_merge_high/genblk1.cmp_g[1].compare_i/idx_lut6_2_o6_18_0
    SLICE_X99Y510        LUT5 (Prop_D5LUT_SLICEM_I4_O)
                                                      0.082     5.540 r  dut_inst/sorter_inst/genblk1.bitonic_merge_i/genblk1.bitonic_merge_low/genblk1.bitonic_merge_high/genblk1.cmp_g[1].compare_i/s1.idx_lut6_2_o5_lut6_2_o5[4]/O
                         net (fo=2, routed)           0.157     5.697    dut_inst/sorter_inst/genblk1.bitonic_merge_i/genblk1.bitonic_merge_low/genblk1.bitonic_merge_high/genblk1.bitonic_merge_high/genblk1.cmp_g[0].compare_i/idx_lut6_2_o6_17_4
    SLICE_X98Y510        LUT5 (Prop_A6LUT_SLICEL_I3_O)
                                                      0.064     5.761 r  dut_inst/sorter_inst/genblk1.bitonic_merge_i/genblk1.bitonic_merge_low/genblk1.bitonic_merge_high/genblk1.bitonic_merge_high/genblk1.cmp_g[0].compare_i/s0.idx_lut6_2_o5_lut6_2_o5[4]/O
                         net (fo=1, routed)           0.058     5.819    s0.idx_lut6_2_o6_11[4]
    SLICE_X98Y510        FDRE                                         r  sorted_muons[6].idx[4]/D
  -------------------------------------------------------------------    -------------------

                         (clock clk rise edge)        3.125     3.125 r  
    AW33                                              0.000     3.125 r  clk (IN)
                         net (fo=0)                   0.000     3.125    clk_ibuf_iso/I
    AW33                 INBUF (Prop_INBUF_HPIOB_M_PAD_O)
                                                      0.529     3.654 r  clk_ibuf_iso/INBUF_INST/O
                         net (fo=1, routed)           0.000     3.654    clk_ibuf_iso/OUT
    AW33                 IBUFCTRL (Prop_IBUFCTRL_HPIOB_M_I_O)
                                                      0.000     3.654 r  clk_ibuf_iso/IBUFCTRL_INST/O
                         net (fo=1, routed)           0.296     3.950    clk_ibuf_iso
    BUFGCE_X1Y218        BUFGCE (Prop_BUFCE_BUFGCE_I_O)
                                                      0.024     3.974 r  clk_ibuf/O
    X3Y8 (CLOCK_ROOT)    net (fo=1360, routed)        1.707     5.681    clk_c
    SLICE_X98Y510        FDRE                                         r  sorted_muons[6].idx[4]/C
                         clock pessimism              0.441     6.122    
                         clock uncertainty           -0.035     6.087    
    SLICE_X98Y510        FDRE (Setup_AFF_SLICEL_C_D)
                                                      0.027     6.114    sorted_muons[6].idx[4]
  -------------------------------------------------------------------
                         required time                          6.114    
                         arrival time                          -5.819    
  -------------------------------------------------------------------
                         slack                                  0.294    

Slack (MET) :             0.294ns  (required time - arrival time)
  Source:                 dut_inst/qdelay_2__15_.idx_0__ret_74_0_DOUT[0]/C
                            (rising edge-triggered cell FDRE clocked by clk  {rise@0.000ns fall@1.563ns period=3.125ns})
  Destination:            sorted_muons[6].idx[4]/D
                            (rising edge-triggered cell FDRE clocked by clk  {rise@0.000ns fall@1.563ns period=3.125ns})
  Path Group:             clk
  Path Type:              Setup (Max at Slow Process Corner)
  Requirement:            3.125ns  (clk rise@3.125ns - clk rise@0.000ns)
  Data Path Delay:        2.693ns  (logic 0.879ns (32.640%)  route 1.814ns (67.360%))
  Logic Levels:           7  (LUT3=2 LUT5=5)
  Clock Path Skew:        -0.129ns (DCD - SCD + CPR)
    Destination Clock Delay (DCD):    2.556ns = ( 5.681 - 3.125 ) 
    Source Clock Delay      (SCD):    3.126ns
    Clock Pessimism Removal (CPR):    0.441ns
  Clock Uncertainty:      0.035ns  ((TSJ^2 + TIJ^2)^1/2 + DJ) / 2 + PE
    Total System Jitter     (TSJ):    0.071ns
    Total Input Jitter      (TIJ):    0.000ns
    Discrete Jitter          (DJ):    0.000ns
    Phase Error              (PE):    0.000ns
  Clock Net Delay (Source):      1.966ns (routing 1.021ns, distribution 0.945ns)
  Clock Net Delay (Destination): 1.707ns (routing 0.930ns, distribution 0.777ns)

    Location             Delay type                Incr(ns)  Path(ns)    Netlist Resource(s)
  -------------------------------------------------------------------    -------------------
                         (clock clk rise edge)        0.000     0.000 r  
    AW33                                              0.000     0.000 r  clk (IN)
                         net (fo=0)                   0.000     0.000    clk_ibuf_iso/I
    AW33                 INBUF (Prop_INBUF_HPIOB_M_PAD_O)
                                                      0.798     0.798 r  clk_ibuf_iso/INBUF_INST/O
                         net (fo=1, routed)           0.000     0.798    clk_ibuf_iso/OUT
    AW33                 IBUFCTRL (Prop_IBUFCTRL_HPIOB_M_I_O)
                                                      0.000     0.798 r  clk_ibuf_iso/IBUFCTRL_INST/O
                         net (fo=1, routed)           0.334     1.132    clk_ibuf_iso
    BUFGCE_X1Y218        BUFGCE (Prop_BUFCE_BUFGCE_I_O)
                                                      0.028     1.160 r  clk_ibuf/O
    X3Y8 (CLOCK_ROOT)    net (fo=1360, routed)        1.966     3.126    dut_inst/clk_c
    SLICE_X97Y508        FDRE                                         r  dut_inst/qdelay_2__15_.idx_0__ret_74_0_DOUT[0]/C
  -------------------------------------------------------------------    -------------------
    SLICE_X97Y508        FDRE (Prop_AFF_SLICEM_C_Q)
                                                      0.093     3.219 r  dut_inst/qdelay_2__15_.idx_0__ret_74_0_DOUT[0]/Q
                         net (fo=24, routed)          0.352     3.571    dut_inst/sorter_inst/genblk1.bitonic_sort_low/genblk1.bitonic_merge_i/genblk1.cmp_g[2].compare_i/idx2_o_o_o_o_25
    SLICE_X98Y504        LUT3 (Prop_C6LUT_SLICEL_I2_O)
                                                      0.063     3.634 f  dut_inst/sorter_inst/genblk1.bitonic_sort_low/genblk1.bitonic_merge_i/genblk1.cmp_g[2].compare_i/s1.idx_lut6_2_o5_lut6_2_o6[5]/O
                         net (fo=2, routed)           0.108     3.742    dut_inst/sorter_inst/genblk1.bitonic_sort_low/genblk1.bitonic_merge_i/genblk1.bitonic_merge_high/genblk1.cmp_g[0].compare_i/idx_lut6_2_o5_4_0
    SLICE_X99Y504        LUT5 (Prop_A6LUT_SLICEM_I4_O)
                                                      0.116     3.858 f  dut_inst/sorter_inst/genblk1.bitonic_sort_low/genblk1.bitonic_merge_i/genblk1.bitonic_merge_high/genblk1.cmp_g[0].compare_i/s1.idx_lut6_2_o5_lut6_2_o6[4]/O
                         net (fo=2, routed)           0.193     4.051    dut_inst/sorter_inst/genblk1.bitonic_sort_low/genblk1.bitonic_merge_i/genblk1.bitonic_merge_high/genblk1.bitonic_merge_low/genblk1.cmp_g[0].compare_i/idx_lut6_2_o5_5_1
    SLICE_X100Y505       LUT5 (Prop_H5LUT_SLICEM_I4_O)
                                                      0.167     4.218 f  dut_inst/sorter_inst/genblk1.bitonic_sort_low/genblk1.bitonic_merge_i/genblk1.bitonic_merge_high/genblk1.bitonic_merge_low/genblk1.cmp_g[0].compare_i/s1.idx_lut6_2_o5_lut6_2_o5[4]/O
                         net (fo=3, routed)           0.486     4.704    dut_inst/sorter_inst/genblk1.bitonic_merge_i/genblk1.cmp_g[5].compare_i/idx_lut6_2_o6_33_0
    SLICE_X99Y513        LUT3 (Prop_F5LUT_SLICEM_I2_O)
                                                      0.176     4.880 f  dut_inst/sorter_inst/genblk1.bitonic_merge_i/genblk1.cmp_g[5].compare_i/s0.idx_lut6_2_o5_lut6_2_o5[4]/O
                         net (fo=2, routed)           0.263     5.143    dut_inst/sorter_inst/genblk1.bitonic_merge_i/genblk1.bitonic_merge_low/genblk1.cmp_g[1].compare_i/idx_lut6_2_o6_10_0
    SLICE_X99Y513        LUT5 (Prop_H5LUT_SLICEM_I4_O)
                                                      0.118     5.261 f  dut_inst/sorter_inst/genblk1.bitonic_merge_i/genblk1.bitonic_merge_low/genblk1.cmp_g[1].compare_i/s1.idx_lut6_2_o5_lut6_2_o5[4]/O
                         net (fo=2, routed)           0.197     5.458    dut_inst/sorter_inst/genblk1.bitonic_merge_i/genblk1.bitonic_merge_low/genblk1.bitonic_merge_high/genblk1.cmp_g[1].compare_i/idx_lut6_2_o6_18_0
    SLICE_X99Y510        LUT5 (Prop_D5LUT_SLICEM_I4_O)
                                                      0.082     5.540 f  dut_inst/sorter_inst/genblk1.bitonic_merge_i/genblk1.bitonic_merge_low/genblk1.bitonic_merge_high/genblk1.cmp_g[1].compare_i/s1.idx_lut6_2_o5_lut6_2_o5[4]/O
                         net (fo=2, routed)           0.157     5.697    dut_inst/sorter_inst/genblk1.bitonic_merge_i/genblk1.bitonic_merge_low/genblk1.bitonic_merge_high/genblk1.bitonic_merge_high/genblk1.cmp_g[0].compare_i/idx_lut6_2_o6_17_4
    SLICE_X98Y510        LUT5 (Prop_A6LUT_SLICEL_I3_O)
                                                      0.064     5.761 f  dut_inst/sorter_inst/genblk1.bitonic_merge_i/genblk1.bitonic_merge_low/genblk1.bitonic_merge_high/genblk1.bitonic_merge_high/genblk1.cmp_g[0].compare_i/s0.idx_lut6_2_o5_lut6_2_o5[4]/O
                         net (fo=1, routed)           0.058     5.819    s0.idx_lut6_2_o6_11[4]
    SLICE_X98Y510        FDRE                                         f  sorted_muons[6].idx[4]/D
  -------------------------------------------------------------------    -------------------

                         (clock clk rise edge)        3.125     3.125 r  
    AW33                                              0.000     3.125 r  clk (IN)
                         net (fo=0)                   0.000     3.125    clk_ibuf_iso/I
    AW33                 INBUF (Prop_INBUF_HPIOB_M_PAD_O)
                                                      0.529     3.654 r  clk_ibuf_iso/INBUF_INST/O
                         net (fo=1, routed)           0.000     3.654    clk_ibuf_iso/OUT
    AW33                 IBUFCTRL (Prop_IBUFCTRL_HPIOB_M_I_O)
                                                      0.000     3.654 r  clk_ibuf_iso/IBUFCTRL_INST/O
                         net (fo=1, routed)           0.296     3.950    clk_ibuf_iso
    BUFGCE_X1Y218        BUFGCE (Prop_BUFCE_BUFGCE_I_O)
                                                      0.024     3.974 r  clk_ibuf/O
    X3Y8 (CLOCK_ROOT)    net (fo=1360, routed)        1.707     5.681    clk_c
    SLICE_X98Y510        FDRE                                         r  sorted_muons[6].idx[4]/C
                         clock pessimism              0.441     6.122    
                         clock uncertainty           -0.035     6.087    
    SLICE_X98Y510        FDRE (Setup_AFF_SLICEL_C_D)
                                                      0.027     6.114    sorted_muons[6].idx[4]
  -------------------------------------------------------------------
                         required time                          6.114    
                         arrival time                          -5.819    
  -------------------------------------------------------------------
                         slack                                  0.294    

Slack (MET) :             0.294ns  (required time - arrival time)
  Source:                 dut_inst/qdelay_2__15_.idx_0__ret_74_0_DOUT[0]/C
                            (rising edge-triggered cell FDRE clocked by clk  {rise@0.000ns fall@1.563ns period=3.125ns})
  Destination:            sorted_muons[6].idx[4]/D
                            (rising edge-triggered cell FDRE clocked by clk  {rise@0.000ns fall@1.563ns period=3.125ns})
  Path Group:             clk
  Path Type:              Setup (Max at Slow Process Corner)
  Requirement:            3.125ns  (clk rise@3.125ns - clk rise@0.000ns)
  Data Path Delay:        2.693ns  (logic 0.879ns (32.640%)  route 1.814ns (67.360%))
  Logic Levels:           7  (LUT3=2 LUT5=5)
  Clock Path Skew:        -0.129ns (DCD - SCD + CPR)
    Destination Clock Delay (DCD):    2.556ns = ( 5.681 - 3.125 ) 
    Source Clock Delay      (SCD):    3.126ns
    Clock Pessimism Removal (CPR):    0.441ns
  Clock Uncertainty:      0.035ns  ((TSJ^2 + TIJ^2)^1/2 + DJ) / 2 + PE
    Total System Jitter     (TSJ):    0.071ns
    Total Input Jitter      (TIJ):    0.000ns
    Discrete Jitter          (DJ):    0.000ns
    Phase Error              (PE):    0.000ns
  Clock Net Delay (Source):      1.966ns (routing 1.021ns, distribution 0.945ns)
  Clock Net Delay (Destination): 1.707ns (routing 0.930ns, distribution 0.777ns)

    Location             Delay type                Incr(ns)  Path(ns)    Netlist Resource(s)
  -------------------------------------------------------------------    -------------------
                         (clock clk rise edge)        0.000     0.000 r  
    AW33                                              0.000     0.000 r  clk (IN)
                         net (fo=0)                   0.000     0.000    clk_ibuf_iso/I
    AW33                 INBUF (Prop_INBUF_HPIOB_M_PAD_O)
                                                      0.798     0.798 r  clk_ibuf_iso/INBUF_INST/O
                         net (fo=1, routed)           0.000     0.798    clk_ibuf_iso/OUT
    AW33                 IBUFCTRL (Prop_IBUFCTRL_HPIOB_M_I_O)
                                                      0.000     0.798 r  clk_ibuf_iso/IBUFCTRL_INST/O
                         net (fo=1, routed)           0.334     1.132    clk_ibuf_iso
    BUFGCE_X1Y218        BUFGCE (Prop_BUFCE_BUFGCE_I_O)
                                                      0.028     1.160 r  clk_ibuf/O
    X3Y8 (CLOCK_ROOT)    net (fo=1360, routed)        1.966     3.126    dut_inst/clk_c
    SLICE_X97Y508        FDRE                                         r  dut_inst/qdelay_2__15_.idx_0__ret_74_0_DOUT[0]/C
  -------------------------------------------------------------------    -------------------
    SLICE_X97Y508        FDRE (Prop_AFF_SLICEM_C_Q)
                                                      0.093     3.219 f  dut_inst/qdelay_2__15_.idx_0__ret_74_0_DOUT[0]/Q
                         net (fo=24, routed)          0.352     3.571    dut_inst/sorter_inst/genblk1.bitonic_sort_low/genblk1.bitonic_merge_i/genblk1.cmp_g[2].compare_i/idx2_o_o_o_o_25
    SLICE_X98Y504        LUT3 (Prop_C6LUT_SLICEL_I2_O)
                                                      0.063     3.634 f  dut_inst/sorter_inst/genblk1.bitonic_sort_low/genblk1.bitonic_merge_i/genblk1.cmp_g[2].compare_i/s1.idx_lut6_2_o5_lut6_2_o6[5]/O
                         net (fo=2, routed)           0.108     3.742    dut_inst/sorter_inst/genblk1.bitonic_sort_low/genblk1.bitonic_merge_i/genblk1.bitonic_merge_high/genblk1.cmp_g[0].compare_i/idx_lut6_2_o5_4_0
    SLICE_X99Y504        LUT5 (Prop_A6LUT_SLICEM_I4_O)
                                                      0.116     3.858 f  dut_inst/sorter_inst/genblk1.bitonic_sort_low/genblk1.bitonic_merge_i/genblk1.bitonic_merge_high/genblk1.cmp_g[0].compare_i/s1.idx_lut6_2_o5_lut6_2_o6[4]/O
                         net (fo=2, routed)           0.193     4.051    dut_inst/sorter_inst/genblk1.bitonic_sort_low/genblk1.bitonic_merge_i/genblk1.bitonic_merge_high/genblk1.bitonic_merge_low/genblk1.cmp_g[0].compare_i/idx_lut6_2_o5_5_1
    SLICE_X100Y505       LUT5 (Prop_H5LUT_SLICEM_I4_O)
                                                      0.167     4.218 f  dut_inst/sorter_inst/genblk1.bitonic_sort_low/genblk1.bitonic_merge_i/genblk1.bitonic_merge_high/genblk1.bitonic_merge_low/genblk1.cmp_g[0].compare_i/s1.idx_lut6_2_o5_lut6_2_o5[4]/O
                         net (fo=3, routed)           0.486     4.704    dut_inst/sorter_inst/genblk1.bitonic_merge_i/genblk1.cmp_g[5].compare_i/idx_lut6_2_o6_33_0
    SLICE_X99Y513        LUT3 (Prop_F5LUT_SLICEM_I2_O)
                                                      0.176     4.880 f  dut_inst/sorter_inst/genblk1.bitonic_merge_i/genblk1.cmp_g[5].compare_i/s0.idx_lut6_2_o5_lut6_2_o5[4]/O
                         net (fo=2, routed)           0.263     5.143    dut_inst/sorter_inst/genblk1.bitonic_merge_i/genblk1.bitonic_merge_low/genblk1.cmp_g[1].compare_i/idx_lut6_2_o6_10_0
    SLICE_X99Y513        LUT5 (Prop_H5LUT_SLICEM_I4_O)
                                                      0.118     5.261 f  dut_inst/sorter_inst/genblk1.bitonic_merge_i/genblk1.bitonic_merge_low/genblk1.cmp_g[1].compare_i/s1.idx_lut6_2_o5_lut6_2_o5[4]/O
                         net (fo=2, routed)           0.197     5.458    dut_inst/sorter_inst/genblk1.bitonic_merge_i/genblk1.bitonic_merge_low/genblk1.bitonic_merge_high/genblk1.cmp_g[1].compare_i/idx_lut6_2_o6_18_0
    SLICE_X99Y510        LUT5 (Prop_D5LUT_SLICEM_I4_O)
                                                      0.082     5.540 f  dut_inst/sorter_inst/genblk1.bitonic_merge_i/genblk1.bitonic_merge_low/genblk1.bitonic_merge_high/genblk1.cmp_g[1].compare_i/s1.idx_lut6_2_o5_lut6_2_o5[4]/O
                         net (fo=2, routed)           0.157     5.697    dut_inst/sorter_inst/genblk1.bitonic_merge_i/genblk1.bitonic_merge_low/genblk1.bitonic_merge_high/genblk1.bitonic_merge_high/genblk1.cmp_g[0].compare_i/idx_lut6_2_o6_17_4
    SLICE_X98Y510        LUT5 (Prop_A6LUT_SLICEL_I3_O)
                                                      0.064     5.761 f  dut_inst/sorter_inst/genblk1.bitonic_merge_i/genblk1.bitonic_merge_low/genblk1.bitonic_merge_high/genblk1.bitonic_merge_high/genblk1.cmp_g[0].compare_i/s0.idx_lut6_2_o5_lut6_2_o5[4]/O
                         net (fo=1, routed)           0.058     5.819    s0.idx_lut6_2_o6_11[4]
    SLICE_X98Y510        FDRE                                         f  sorted_muons[6].idx[4]/D
  -------------------------------------------------------------------    -------------------

                         (clock clk rise edge)        3.125     3.125 r  
    AW33                                              0.000     3.125 r  clk (IN)
                         net (fo=0)                   0.000     3.125    clk_ibuf_iso/I
    AW33                 INBUF (Prop_INBUF_HPIOB_M_PAD_O)
                                                      0.529     3.654 r  clk_ibuf_iso/INBUF_INST/O
                         net (fo=1, routed)           0.000     3.654    clk_ibuf_iso/OUT
    AW33                 IBUFCTRL (Prop_IBUFCTRL_HPIOB_M_I_O)
                                                      0.000     3.654 r  clk_ibuf_iso/IBUFCTRL_INST/O
                         net (fo=1, routed)           0.296     3.950    clk_ibuf_iso
    BUFGCE_X1Y218        BUFGCE (Prop_BUFCE_BUFGCE_I_O)
                                                      0.024     3.974 r  clk_ibuf/O
    X3Y8 (CLOCK_ROOT)    net (fo=1360, routed)        1.707     5.681    clk_c
    SLICE_X98Y510        FDRE                                         r  sorted_muons[6].idx[4]/C
                         clock pessimism              0.441     6.122    
                         clock uncertainty           -0.035     6.087    
    SLICE_X98Y510        FDRE (Setup_AFF_SLICEL_C_D)
                                                      0.027     6.114    sorted_muons[6].idx[4]
  -------------------------------------------------------------------
                         required time                          6.114    
                         arrival time                          -5.819    
  -------------------------------------------------------------------
                         slack                                  0.294    

Slack (MET) :             0.300ns  (required time - arrival time)
  Source:                 dut_inst/qdelay_2__15_.idx_0__ret_74_0_DOUT[0]/C
                            (rising edge-triggered cell FDRE clocked by clk  {rise@0.000ns fall@1.563ns period=3.125ns})
  Destination:            sorted_muons[0].idx[4]/D
                            (rising edge-triggered cell FDRE clocked by clk  {rise@0.000ns fall@1.563ns period=3.125ns})
  Path Group:             clk
  Path Type:              Setup (Max at Slow Process Corner)
  Requirement:            3.125ns  (clk rise@3.125ns - clk rise@0.000ns)
  Data Path Delay:        2.693ns  (logic 0.861ns (31.972%)  route 1.832ns (68.028%))
  Logic Levels:           7  (LUT3=2 LUT5=5)
  Clock Path Skew:        -0.123ns (DCD - SCD + CPR)
    Destination Clock Delay (DCD):    2.562ns = ( 5.687 - 3.125 ) 
    Source Clock Delay      (SCD):    3.126ns
    Clock Pessimism Removal (CPR):    0.441ns
  Clock Uncertainty:      0.035ns  ((TSJ^2 + TIJ^2)^1/2 + DJ) / 2 + PE
    Total System Jitter     (TSJ):    0.071ns
    Total Input Jitter      (TIJ):    0.000ns
    Discrete Jitter          (DJ):    0.000ns
    Phase Error              (PE):    0.000ns
  Clock Net Delay (Source):      1.966ns (routing 1.021ns, distribution 0.945ns)
  Clock Net Delay (Destination): 1.713ns (routing 0.930ns, distribution 0.783ns)

    Location             Delay type                Incr(ns)  Path(ns)    Netlist Resource(s)
  -------------------------------------------------------------------    -------------------
                         (clock clk rise edge)        0.000     0.000 r  
    AW33                                              0.000     0.000 r  clk (IN)
                         net (fo=0)                   0.000     0.000    clk_ibuf_iso/I
    AW33                 INBUF (Prop_INBUF_HPIOB_M_PAD_O)
                                                      0.798     0.798 r  clk_ibuf_iso/INBUF_INST/O
                         net (fo=1, routed)           0.000     0.798    clk_ibuf_iso/OUT
    AW33                 IBUFCTRL (Prop_IBUFCTRL_HPIOB_M_I_O)
                                                      0.000     0.798 r  clk_ibuf_iso/IBUFCTRL_INST/O
                         net (fo=1, routed)           0.334     1.132    clk_ibuf_iso
    BUFGCE_X1Y218        BUFGCE (Prop_BUFCE_BUFGCE_I_O)
                                                      0.028     1.160 r  clk_ibuf/O
    X3Y8 (CLOCK_ROOT)    net (fo=1360, routed)        1.966     3.126    dut_inst/clk_c
    SLICE_X97Y508        FDRE                                         r  dut_inst/qdelay_2__15_.idx_0__ret_74_0_DOUT[0]/C
  -------------------------------------------------------------------    -------------------
    SLICE_X97Y508        FDRE (Prop_AFF_SLICEM_C_Q)
                                                      0.093     3.219 r  dut_inst/qdelay_2__15_.idx_0__ret_74_0_DOUT[0]/Q
                         net (fo=24, routed)          0.352     3.571    dut_inst/sorter_inst/genblk1.bitonic_sort_low/genblk1.bitonic_merge_i/genblk1.cmp_g[2].compare_i/idx2_o_o_o_o_25
    SLICE_X98Y504        LUT3 (Prop_C6LUT_SLICEL_I2_O)
                                                      0.063     3.634 r  dut_inst/sorter_inst/genblk1.bitonic_sort_low/genblk1.bitonic_merge_i/genblk1.cmp_g[2].compare_i/s1.idx_lut6_2_o5_lut6_2_o6[5]/O
                         net (fo=2, routed)           0.108     3.742    dut_inst/sorter_inst/genblk1.bitonic_sort_low/genblk1.bitonic_merge_i/genblk1.bitonic_merge_high/genblk1.cmp_g[0].compare_i/idx_lut6_2_o5_4_0
    SLICE_X99Y504        LUT5 (Prop_A6LUT_SLICEM_I4_O)
                                                      0.116     3.858 r  dut_inst/sorter_inst/genblk1.bitonic_sort_low/genblk1.bitonic_merge_i/genblk1.bitonic_merge_high/genblk1.cmp_g[0].compare_i/s1.idx_lut6_2_o5_lut6_2_o6[4]/O
                         net (fo=2, routed)           0.193     4.051    dut_inst/sorter_inst/genblk1.bitonic_sort_low/genblk1.bitonic_merge_i/genblk1.bitonic_merge_high/genblk1.bitonic_merge_low/genblk1.cmp_g[0].compare_i/idx_lut6_2_o5_5_1
    SLICE_X100Y505       LUT5 (Prop_H5LUT_SLICEM_I4_O)
                                                      0.167     4.218 r  dut_inst/sorter_inst/genblk1.bitonic_sort_low/genblk1.bitonic_merge_i/genblk1.bitonic_merge_high/genblk1.bitonic_merge_low/genblk1.cmp_g[0].compare_i/s1.idx_lut6_2_o5_lut6_2_o5[4]/O
                         net (fo=3, routed)           0.486     4.704    dut_inst/sorter_inst/genblk1.bitonic_merge_i/genblk1.cmp_g[5].compare_i/idx_lut6_2_o6_33_0
    SLICE_X99Y513        LUT3 (Prop_F5LUT_SLICEM_I2_O)
                                                      0.176     4.880 r  dut_inst/sorter_inst/genblk1.bitonic_merge_i/genblk1.cmp_g[5].compare_i/s0.idx_lut6_2_o5_lut6_2_o5[4]/O
                         net (fo=2, routed)           0.263     5.143    dut_inst/sorter_inst/genblk1.bitonic_merge_i/genblk1.bitonic_merge_low/genblk1.cmp_g[1].compare_i/idx_lut6_2_o6_10_0
    SLICE_X99Y513        LUT5 (Prop_H6LUT_SLICEM_I4_O)
                                                      0.100     5.243 r  dut_inst/sorter_inst/genblk1.bitonic_merge_i/genblk1.bitonic_merge_low/genblk1.cmp_g[1].compare_i/s1.idx_lut6_2_o5_lut6_2_o6[4]/O
                         net (fo=2, routed)           0.186     5.429    dut_inst/sorter_inst/genblk1.bitonic_merge_i/genblk1.bitonic_merge_low/genblk1.bitonic_merge_low/genblk1.cmp_g[1].compare_i/idx_lut6_2_o5_18_0
    SLICE_X99Y509        LUT5 (Prop_G5LUT_SLICEM_I4_O)
                                                      0.084     5.513 r  dut_inst/sorter_inst/genblk1.bitonic_merge_i/genblk1.bitonic_merge_low/genblk1.bitonic_merge_low/genblk1.cmp_g[1].compare_i/s1.idx_lut6_2_o5_lut6_2_o6[4]/O
                         net (fo=2, routed)           0.162     5.675    dut_inst/sorter_inst/genblk1.bitonic_merge_i/genblk1.bitonic_merge_low/genblk1.bitonic_merge_low/genblk1.bitonic_merge_low/genblk1.cmp_g[0].compare_i/idx_lut6_2_o5_16_4
    SLICE_X100Y509       LUT5 (Prop_D6LUT_SLICEM_I3_O)
                                                      0.062     5.737 r  dut_inst/sorter_inst/genblk1.bitonic_merge_i/genblk1.bitonic_merge_low/genblk1.bitonic_merge_low/genblk1.bitonic_merge_low/genblk1.cmp_g[0].compare_i/s1.idx_lut6_2_o5_lut6_2_o6[4]/O
                         net (fo=1, routed)           0.082     5.819    s1.idx_lut6_2_o5_34[4]
    SLICE_X100Y509       FDRE                                         r  sorted_muons[0].idx[4]/D
  -------------------------------------------------------------------    -------------------

                         (clock clk rise edge)        3.125     3.125 r  
    AW33                                              0.000     3.125 r  clk (IN)
                         net (fo=0)                   0.000     3.125    clk_ibuf_iso/I
    AW33                 INBUF (Prop_INBUF_HPIOB_M_PAD_O)
                                                      0.529     3.654 r  clk_ibuf_iso/INBUF_INST/O
                         net (fo=1, routed)           0.000     3.654    clk_ibuf_iso/OUT
    AW33                 IBUFCTRL (Prop_IBUFCTRL_HPIOB_M_I_O)
                                                      0.000     3.654 r  clk_ibuf_iso/IBUFCTRL_INST/O
                         net (fo=1, routed)           0.296     3.950    clk_ibuf_iso
    BUFGCE_X1Y218        BUFGCE (Prop_BUFCE_BUFGCE_I_O)
                                                      0.024     3.974 r  clk_ibuf/O
    X3Y8 (CLOCK_ROOT)    net (fo=1360, routed)        1.713     5.687    clk_c
    SLICE_X100Y509       FDRE                                         r  sorted_muons[0].idx[4]/C
                         clock pessimism              0.441     6.128    
                         clock uncertainty           -0.035     6.093    
    SLICE_X100Y509       FDRE (Setup_DFF_SLICEM_C_D)
                                                      0.027     6.120    sorted_muons[0].idx[4]
  -------------------------------------------------------------------
                         required time                          6.120    
                         arrival time                          -5.819    
  -------------------------------------------------------------------
                         slack                                  0.300    





Pulse Width Checks
--------------------------------------------------------------------------------------
Clock Name:         clk
Waveform(ns):       { 0.000 1.563 }
Period(ns):         3.125
Sources:            { clk }

Check Type        Corner  Lib Pin     Reference Pin  Required(ns)  Actual(ns)  Slack(ns)  Location        Pin
Min Period        n/a     BUFGCE/I    n/a            1.499         3.125       1.626      BUFGCE_X1Y218   clk_ibuf/I
Min Period        n/a     SRL16E/CLK  n/a            1.146         3.125       1.979      SLICE_X104Y518  dut_inst/qdelay_2__15_.idx_0__ret_70_0_idx_0__ret_78_1/CLK
Min Period        n/a     SRL16E/CLK  n/a            1.146         3.125       1.979      SLICE_X97Y510   dut_inst/qdelay_2__15_.idx_0__ret_72_0_idx_0__ret_78_1/CLK
Min Period        n/a     SRL16E/CLK  n/a            1.146         3.125       1.979      SLICE_X97Y508   dut_inst/qdelay_2__15_.idx_0__ret_74_0_idx_0__ret_78_1/CLK
Min Period        n/a     SRL16E/CLK  n/a            1.146         3.125       1.979      SLICE_X99Y519   dut_inst/qdelay_2__15_.idx_0__ret_76_0_idx_0__ret_78_1/CLK
Low Pulse Width   Slow    SRL16E/CLK  n/a            0.573         1.562       0.989      SLICE_X104Y518  dut_inst/qdelay_2__15_.idx_0__ret_70_0_idx_0__ret_78_1/CLK
Low Pulse Width   Slow    SRL16E/CLK  n/a            0.573         1.562       0.989      SLICE_X97Y515   dut_inst/qdelay_1__15_.idx_0__ret_208_0_idx_0__ret_78_1/CLK
Low Pulse Width   Slow    SRL16E/CLK  n/a            0.573         1.562       0.989      SLICE_X97Y515   dut_inst/qdelay_1__15_.idx_0__ret_460_0_idx_0__ret_78_1/CLK
Low Pulse Width   Slow    SRL16E/CLK  n/a            0.573         1.562       0.989      SLICE_X104Y518  dut_inst/qdelay_2__15_.idx_0__ret_64_0_idx_0__ret_78_1/CLK
Low Pulse Width   Slow    SRL16E/CLK  n/a            0.573         1.562       0.989      SLICE_X102Y514  dut_inst/qdelay_2__15_.idx_0__ret_68_0_idx_0__ret_78_1/CLK
High Pulse Width  Slow    SRL16E/CLK  n/a            0.573         1.563       0.990      SLICE_X102Y510  dut_inst/qdelay_1__15_.idx_0__ret_136_0_idx_0__ret_78_1/CLK
High Pulse Width  Slow    SRL16E/CLK  n/a            0.573         1.563       0.990      SLICE_X99Y507   dut_inst/qdelay_1__15_.idx_0__ret_172_0_idx_0__ret_78_1/CLK
High Pulse Width  Slow    SRL16E/CLK  n/a            0.573         1.563       0.990      SLICE_X102Y510  dut_inst/qdelay_1__15_.idx_0__ret_388_0_idx_0__ret_78_1/CLK
High Pulse Width  Slow    SRL16E/CLK  n/a            0.573         1.563       0.990      SLICE_X99Y507   dut_inst/qdelay_1__15_.idx_0__ret_496_0_idx_0__ret_78_1/CLK
High Pulse Width  Fast    SRL16E/CLK  n/a            0.573         1.563       0.990      SLICE_X104Y518  dut_inst/qdelay_2__15_.idx_0__ret_70_0_idx_0__ret_78_1/CLK



---------------------------------------------------------------------------------------------------
From Clock:  clk_wrapper
  To Clock:  clk_wrapper

Setup :           NA  Failing Endpoints,  Worst Slack           NA  ,  Total Violation           NA
Hold  :           NA  Failing Endpoints,  Worst Slack           NA  ,  Total Violation           NA
PW    :            0  Failing Endpoints,  Worst Slack      498.562ns,  Total Violation        0.000ns
---------------------------------------------------------------------------------------------------


Pulse Width Checks
--------------------------------------------------------------------------------------
Clock Name:         clk_wrapper
Waveform(ns):       { 0.000 500.000 }
Period(ns):         1000.000
Sources:            { clk_wrapper }

Check Type        Corner  Lib Pin   Reference Pin  Required(ns)  Actual(ns)  Slack(ns)  Location               Pin
Min Period        n/a     FDRE/C    n/a            3.195         1000.000    996.805    BITSLICE_RX_TX_X1Y518  dout/C
Min Period        n/a     FDRE/C    n/a            3.195         1000.000    996.805    BITSLICE_RX_TX_X1Y517  lfsr_din/C
Min Period        n/a     BUFGCE/I  n/a            1.499         1000.000    998.501    BUFGCE_X1Y224          clk_wrapper_ibuf/I
Min Period        n/a     FDRE/C    n/a            0.550         1000.000    999.450    SLICE_X102Y523         input_lfsr/output_vector_1[207]/C
Min Period        n/a     FDRE/C    n/a            0.550         1000.000    999.450    SLICE_X102Y523         input_lfsr/shiftreg_vector[0]/C
Low Pulse Width   Slow    FDRE/C    n/a            1.438         500.000     498.562    BITSLICE_RX_TX_X1Y518  dout/C
Low Pulse Width   Slow    FDRE/C    n/a            1.438         500.000     498.562    BITSLICE_RX_TX_X1Y517  lfsr_din/C
Low Pulse Width   Fast    FDRE/C    n/a            1.438         500.000     498.562    BITSLICE_RX_TX_X1Y518  dout/C
Low Pulse Width   Fast    FDRE/C    n/a            1.438         500.000     498.562    BITSLICE_RX_TX_X1Y517  lfsr_din/C
Low Pulse Width   Slow    FDRE/C    n/a            0.275         500.000     499.725    SLICE_X95Y504          input_lfsr/shiftreg_vector[80]/C
High Pulse Width  Fast    FDRE/C    n/a            1.438         500.000     498.562    BITSLICE_RX_TX_X1Y518  dout/C
High Pulse Width  Fast    FDRE/C    n/a            1.438         500.000     498.562    BITSLICE_RX_TX_X1Y517  lfsr_din/C
High Pulse Width  Slow    FDRE/C    n/a            1.438         500.000     498.562    BITSLICE_RX_TX_X1Y518  dout/C
High Pulse Width  Slow    FDRE/C    n/a            1.438         500.000     498.562    BITSLICE_RX_TX_X1Y517  lfsr_din/C
High Pulse Width  Fast    FDRE/C    n/a            0.275         500.000     499.725    SLICE_X98Y518          output_reducer/delay_block[1][40]/C



