Copyright 1986-2018 Xilinx, Inc. All Rights Reserved.
-----------------------------------------------------------------------------------------------
| Tool Version      : Vivado v.2018.2 (win64) Build 2258646 Thu Jun 14 20:03:12 MDT 2018
| Date              : Tue Mar 19 14:57:23 2019
| Host              : PCPHESEBE02 running 64-bit Service Pack 1  (build 7601)
| Command           : report_timing_summary -hold -nworst 5 -max_paths 5 -file timing_hold.txt
| Design            : wrapper
| Device            : xcvu9p-flgc2104
| Speed File        : -1  PRODUCTION 1.20 05-21-2018
| Temperature Grade : E
-----------------------------------------------------------------------------------------------

Timing Summary Report

------------------------------------------------------------------------------------------------
| Timer Settings
| --------------
------------------------------------------------------------------------------------------------

  Enable Multi Corner Analysis               :  Yes
  Enable Pessimism Removal                   :  Yes
  Pessimism Removal Resolution               :  Nearest Common Node
  Enable Input Delay Default Clock           :  No
  Enable Preset / Clear Arcs                 :  No
  Disable Flight Delays                      :  No
  Ignore I/O Paths                           :  No
  Timing Early Launch at Borrowing Latches   :  false

  Corner  Analyze    Analyze    
  Name    Max Paths  Min Paths  
  ------  ---------  ---------  
  Slow    Yes        Yes        
  Fast    Yes        Yes        



check_timing report

Table of Contents
-----------------
1. checking no_clock
2. checking constant_clock
3. checking pulse_width_clock
4. checking unconstrained_internal_endpoints
5. checking no_input_delay
6. checking no_output_delay
7. checking multiple_clock
8. checking generated_clocks
9. checking loops
10. checking partial_input_delay
11. checking partial_output_delay
12. checking latch_loops

1. checking no_clock
--------------------
 There are 0 register/latch pins with no clock.


2. checking constant_clock
--------------------------
 There are 0 register/latch pins with constant_clock.


3. checking pulse_width_clock
-----------------------------
 There are 0 register/latch pins which need pulse_width check


4. checking unconstrained_internal_endpoints
--------------------------------------------
 There are 0 pins that are not constrained for maximum delay.

 There are 0 pins that are not constrained for maximum delay due to constant clock.


5. checking no_input_delay
--------------------------
 There is 1 input port with no input delay specified. (HIGH)

 There are 0 input ports with no input delay but user has a false path constraint.


6. checking no_output_delay
---------------------------
 There is 1 port with no output delay specified. (HIGH)

 There are 0 ports with no output delay but user has a false path constraint

 There are 0 ports with no output delay but with a timing clock defined on it or propagating through it


7. checking multiple_clock
--------------------------
 There are 0 register/latch pins with multiple clocks.


8. checking generated_clocks
----------------------------
 There are 0 generated clocks that are not connected to a clock source.


9. checking loops
-----------------
 There are 0 combinational loops in the design.


10. checking partial_input_delay
--------------------------------
 There are 0 input ports with partial input delay specified.


11. checking partial_output_delay
---------------------------------
 There are 0 ports with partial output delay specified.


12. checking latch_loops
------------------------
 There are 0 combinational latch loops in the design through latch input



------------------------------------------------------------------------------------------------
| Design Timing Summary
| ---------------------
------------------------------------------------------------------------------------------------

    WHS(ns)      THS(ns)  THS Failing Endpoints  THS Total Endpoints     WPWS(ns)     TPWS(ns)  TPWS Failing Endpoints  TPWS Total Endpoints  
    -------      -------  ---------------------  -------------------     --------     --------  ----------------------  --------------------  
      1.650        0.000                      0                 2560        1.511        0.000                       0                 11416  


All user specified timing constraints are met.


------------------------------------------------------------------------------------------------
| Clock Summary
| -------------
------------------------------------------------------------------------------------------------

Clock        Waveform(ns)         Period(ns)      Frequency(MHz)
-----        ------------         ----------      --------------
clk          {0.000 1.786}        3.572           279.955         
clk_wrapper  {0.000 500.000}      1000.000        1.000           


------------------------------------------------------------------------------------------------
| Intra Clock Table
| -----------------
------------------------------------------------------------------------------------------------

Clock             WHS(ns)      THS(ns)  THS Failing Endpoints  THS Total Endpoints     WPWS(ns)     TPWS(ns)  TPWS Failing Endpoints  TPWS Total Endpoints  
-----             -------      -------  ---------------------  -------------------     --------     --------  ----------------------  --------------------  
clk                 1.650        0.000                      0                 2560        1.511        0.000                       0                  5440  
clk_wrapper                                                                             498.562        0.000                       0                  5976  


------------------------------------------------------------------------------------------------
| Inter Clock Table
| -----------------
------------------------------------------------------------------------------------------------

From Clock    To Clock          WHS(ns)      THS(ns)  THS Failing Endpoints  THS Total Endpoints  
----------    --------          -------      -------  ---------------------  -------------------  


------------------------------------------------------------------------------------------------
| Other Path Groups Table
| -----------------------
------------------------------------------------------------------------------------------------

Path Group    From Clock    To Clock          WHS(ns)      THS(ns)  THS Failing Endpoints  THS Total Endpoints  
----------    ----------    --------          -------      -------  ---------------------  -------------------  


------------------------------------------------------------------------------------------------
| Timing Details
| --------------
------------------------------------------------------------------------------------------------


---------------------------------------------------------------------------------------------------
From Clock:  clk
  To Clock:  clk

Setup :           NA  Failing Endpoints,  Worst Slack           NA  ,  Total Violation           NA
Hold  :            0  Failing Endpoints,  Worst Slack        1.650ns,  Total Violation        0.000ns
PW    :            0  Failing Endpoints,  Worst Slack        1.511ns,  Total Violation        0.000ns
---------------------------------------------------------------------------------------------------


Min Delay Paths
--------------------------------------------------------------------------------------
Slack (MET) :             1.650ns  (arrival time - required time)
  Source:                 shift_reg_tap_i/sr_p.sr_1_rep_184[1920]/C
                            (rising edge-triggered cell FDRE clocked by clk  {rise@0.000ns fall@1.786ns period=3.572ns})
  Destination:            shift_reg_tap_o/sr_1[1206]/D
                            (rising edge-triggered cell FDRE clocked by clk  {rise@0.000ns fall@1.786ns period=3.572ns})
  Path Group:             clk
  Path Type:              Hold (Min at Fast Process Corner)
  Requirement:            0.000ns  (clk rise@0.000ns - clk rise@0.000ns)
  Data Path Delay:        2.076ns  (logic 0.403ns (19.412%)  route 1.673ns (80.588%))
  Logic Levels:           13  (LUT4=1 LUT5=5 LUT6=7)
  Clock Path Skew:        0.380ns (DCD - SCD - CPR)
    Destination Clock Delay (DCD):    2.636ns
    Source Clock Delay      (SCD):    1.961ns
    Clock Pessimism Removal (CPR):    0.295ns
  Clock Net Delay (Source):      1.415ns (routing 0.638ns, distribution 0.777ns)
  Clock Net Delay (Destination): 1.864ns (routing 0.707ns, distribution 1.157ns)

    Location             Delay type                Incr(ns)  Path(ns)    Netlist Resource(s)
  -------------------------------------------------------------------    -------------------
                         (clock clk rise edge)        0.000     0.000 r  
    AV33                                              0.000     0.000 r  clk (IN)
                         net (fo=0)                   0.000     0.000    clk_ibuf_iso/I
    AV33                 INBUF (Prop_INBUF_HPIOB_M_PAD_O)
                                                      0.385     0.385 r  clk_ibuf_iso/INBUF_INST/O
                         net (fo=1, routed)           0.000     0.385    clk_ibuf_iso/OUT
    AV33                 IBUFCTRL (Prop_IBUFCTRL_HPIOB_M_I_O)
                                                      0.000     0.385 r  clk_ibuf_iso/IBUFCTRL_INST/O
                         net (fo=1, routed)           0.144     0.529    clk_ibuf_iso
    BUFGCE_X1Y224        BUFGCE (Prop_BUFCE_BUFGCE_I_O)
                                                      0.017     0.546 r  clk_ibuf/O
    X3Y7 (CLOCK_ROOT)    net (fo=5439, routed)        1.415     1.961    shift_reg_tap_i/clk_c
    SLICE_X140Y413       FDRE                                         r  shift_reg_tap_i/sr_p.sr_1_rep_184[1920]/C
  -------------------------------------------------------------------    -------------------
    SLICE_X140Y413       FDRE (Prop_AFF_SLICEL_C_Q)
                                                      0.039     2.000 r  shift_reg_tap_i/sr_p.sr_1_rep_184[1920]/Q
                         net (fo=10, routed)          0.061     2.061    dut_inst/sorter_inst/genblk1.bitonic_sort_high/genblk1.bitonic_sort_high/genblk1.bitonic_sort_low/genblk1.bitonic_sort_low/genblk1.bitonic_sort_low/genblk1.bitonic_merge_i/genblk1.cmp_g[0].compare_i/input_slr_rep_184_0
    SLICE_X140Y415       LUT5 (Prop_A6LUT_SLICEL_I0_O)
                                                      0.022     2.083 r  dut_inst/sorter_inst/genblk1.bitonic_sort_high/genblk1.bitonic_sort_high/genblk1.bitonic_sort_low/genblk1.bitonic_sort_low/genblk1.bitonic_sort_low/genblk1.bitonic_merge_i/genblk1.cmp_g[0].compare_i/s1.pt[0]/O
                         net (fo=38, routed)          0.088     2.171    dut_inst/sorter_inst/genblk1.bitonic_sort_high/genblk1.bitonic_sort_high/genblk1.bitonic_sort_low/genblk1.bitonic_sort_low/genblk1.bitonic_merge_i/genblk1.cmp_g[7].compare_i/un1_compare_i_1_77_0
    SLICE_X141Y417       LUT5 (Prop_C6LUT_SLICEM_I4_O)
                                                      0.014     2.185 r  dut_inst/sorter_inst/genblk1.bitonic_sort_high/genblk1.bitonic_sort_high/genblk1.bitonic_sort_low/genblk1.bitonic_sort_low/genblk1.bitonic_merge_i/genblk1.cmp_g[7].compare_i/s1.pt[0]/O
                         net (fo=43, routed)          0.265     2.450    dut_inst/sorter_inst/genblk1.bitonic_sort_high/genblk1.bitonic_sort_high/genblk1.bitonic_sort_low/genblk1.bitonic_merge_i/genblk1.bitonic_merge_low/genblk1.cmp_g[6].compare_i/un1_compare_i_1_176_0
    SLICE_X146Y424       LUT6 (Prop_G6LUT_SLICEM_I0_O)
                                                      0.014     2.464 r  dut_inst/sorter_inst/genblk1.bitonic_sort_high/genblk1.bitonic_sort_high/genblk1.bitonic_sort_low/genblk1.bitonic_merge_i/genblk1.bitonic_merge_low/genblk1.cmp_g[6].compare_i/s1.pt[0]/O
                         net (fo=36, routed)          0.116     2.580    dut_inst/sorter_inst/genblk1.bitonic_sort_high/genblk1.bitonic_sort_high/genblk1.bitonic_sort_low/genblk1.bitonic_merge_i/genblk1.bitonic_merge_low/genblk1.bitonic_merge_high/genblk1.bitonic_merge_low/genblk1.bitonic_merge_high/genblk1.cmp_g[0].compare_i/un1_compare_i_1_265_0
    SLICE_X143Y425       LUT6 (Prop_G6LUT_SLICEL_I3_O)
                                                      0.060     2.640 r  dut_inst/sorter_inst/genblk1.bitonic_sort_high/genblk1.bitonic_sort_high/genblk1.bitonic_sort_low/genblk1.bitonic_merge_i/genblk1.bitonic_merge_low/genblk1.bitonic_merge_high/genblk1.bitonic_merge_low/genblk1.bitonic_merge_high/genblk1.cmp_g[0].compare_i/s1.pt[0]/O
                         net (fo=12, routed)          0.057     2.697    dut_inst/sorter_inst/genblk1.bitonic_sort_high/genblk1.bitonic_sort_high/genblk1.bitonic_merge_i/genblk1.bitonic_merge_low/genblk1.cmp_g[11].compare_i/un1_bitonic_sort_low_2_0
    SLICE_X143Y427       LUT4 (Prop_F6LUT_SLICEL_I0_O)
                                                      0.014     2.711 r  dut_inst/sorter_inst/genblk1.bitonic_sort_high/genblk1.bitonic_sort_high/genblk1.bitonic_merge_i/genblk1.bitonic_merge_low/genblk1.cmp_g[11].compare_i/s0.pt[0]/O
                         net (fo=8, routed)           0.160     2.871    dut_inst/un1_compare_i_954[9]
    SLICE_X143Y442       LUT6 (Prop_D6LUT_SLICEL_I4_O)
                                                      0.014     2.885 r  dut_inst/.delname._x_2229.ALTB[0]/O
                         net (fo=35, routed)          0.152     3.037    dut_inst/sorter_inst/genblk1.bitonic_sort_high/genblk1.bitonic_merge_i/genblk1.cmp_g[4].compare_i/un1_b_792
    SLICE_X142Y456       LUT6 (Prop_G6LUT_SLICEM_I2_O)
                                                      0.035     3.072 r  dut_inst/sorter_inst/genblk1.bitonic_sort_high/genblk1.bitonic_merge_i/genblk1.cmp_g[4].compare_i/s1.pt[0]/O
                         net (fo=49, routed)          0.153     3.225    dut_inst/sorter_inst/genblk1.bitonic_sort_high/genblk1.bitonic_merge_i/genblk1.bitonic_merge_high/genblk1.bitonic_merge_low/genblk1.bitonic_merge_high/genblk1.cmp_g[4].compare_i/un1_compare_i_1_1206_0
    SLICE_X144Y462       LUT6 (Prop_D6LUT_SLICEM_I0_O)
                                                      0.022     3.247 r  dut_inst/sorter_inst/genblk1.bitonic_sort_high/genblk1.bitonic_merge_i/genblk1.bitonic_merge_high/genblk1.bitonic_merge_low/genblk1.bitonic_merge_high/genblk1.cmp_g[4].compare_i/s0.idx[5]/O
                         net (fo=2, routed)           0.072     3.319    dut_inst/sorter_inst/genblk1.bitonic_sort_high/genblk1.bitonic_merge_i/genblk1.bitonic_merge_high/genblk1.bitonic_merge_low/genblk1.bitonic_merge_high/genblk1.bitonic_merge_low/genblk1.cmp_g[0].compare_i/idx_2256_0
    SLICE_X144Y464       LUT5 (Prop_D6LUT_SLICEM_I4_O)
                                                      0.014     3.333 r  dut_inst/sorter_inst/genblk1.bitonic_sort_high/genblk1.bitonic_merge_i/genblk1.bitonic_merge_high/genblk1.bitonic_merge_low/genblk1.bitonic_merge_high/genblk1.bitonic_merge_low/genblk1.cmp_g[0].compare_i/s0.idx[5]/O
                         net (fo=2, routed)           0.055     3.388    dut_inst/sorter_inst/genblk1.bitonic_sort_high/genblk1.bitonic_merge_i/genblk1.bitonic_merge_high/genblk1.bitonic_merge_low/genblk1.bitonic_merge_high/genblk1.bitonic_merge_low/genblk1.bitonic_merge_low/genblk1.bitonic_merge_low/genblk1.cmp_g[0].compare_i/idx_3099_0
    SLICE_X143Y464       LUT5 (Prop_B6LUT_SLICEL_I3_O)
                                                      0.050     3.438 r  dut_inst/sorter_inst/genblk1.bitonic_sort_high/genblk1.bitonic_merge_i/genblk1.bitonic_merge_high/genblk1.bitonic_merge_low/genblk1.bitonic_merge_high/genblk1.bitonic_merge_low/genblk1.bitonic_merge_low/genblk1.bitonic_merge_low/genblk1.cmp_g[0].compare_i/s0.idx[5]/O
                         net (fo=4, routed)           0.205     3.643    dut_inst/sorter_inst/genblk1.bitonic_merge_i/genblk1.bitonic_merge_low/genblk1.bitonic_merge_high/genblk1.cmp_g[16].compare_i/idx_3114_0
    SLICE_X143Y484       LUT6 (Prop_D6LUT_SLICEL_I1_O)
                                                      0.035     3.678 r  dut_inst/sorter_inst/genblk1.bitonic_merge_i/genblk1.bitonic_merge_low/genblk1.bitonic_merge_high/genblk1.cmp_g[16].compare_i/s1.idx[5]/O
                         net (fo=3, routed)           0.156     3.834    dut_inst/sorter_inst/genblk1.bitonic_merge_i/genblk1.bitonic_merge_low/genblk1.bitonic_merge_high/genblk1.bitonic_merge_high/genblk1.bitonic_merge_high/genblk1.bitonic_merge_high/genblk1.cmp_g[0].compare_i/idx_2607_0
    SLICE_X146Y494       LUT6 (Prop_C6LUT_SLICEM_I2_O)
                                                      0.035     3.869 r  dut_inst/sorter_inst/genblk1.bitonic_merge_i/genblk1.bitonic_merge_low/genblk1.bitonic_merge_high/genblk1.bitonic_merge_high/genblk1.bitonic_merge_high/genblk1.bitonic_merge_high/genblk1.cmp_g[0].compare_i/s0.idx[5]/O
                         net (fo=3, routed)           0.107     3.976    dut_inst/sorter_inst/genblk1.bitonic_merge_i/genblk1.bitonic_merge_low/genblk1.bitonic_merge_high/genblk1.bitonic_merge_high/genblk1.bitonic_merge_high/genblk1.bitonic_merge_high/genblk1.bitonic_merge_low/genblk1.bitonic_merge_low/genblk1.cmp_g[0].compare_i/idx_2649_0
    SLICE_X144Y490       LUT5 (Prop_D6LUT_SLICEM_I3_O)
                                                      0.035     4.011 r  dut_inst/sorter_inst/genblk1.bitonic_merge_i/genblk1.bitonic_merge_low/genblk1.bitonic_merge_high/genblk1.bitonic_merge_high/genblk1.bitonic_merge_high/genblk1.bitonic_merge_high/genblk1.bitonic_merge_low/genblk1.bitonic_merge_low/genblk1.cmp_g[0].compare_i/s0.idx[5]/O
                         net (fo=1, routed)           0.026     4.037    shift_reg_tap_o/idx_3324[5]
    SLICE_X144Y490       FDRE                                         r  shift_reg_tap_o/sr_1[1206]/D
  -------------------------------------------------------------------    -------------------

                         (clock clk rise edge)        0.000     0.000 r  
    AV33                                              0.000     0.000 r  clk (IN)
                         net (fo=0)                   0.000     0.000    clk_ibuf_iso/I
    AV33                 INBUF (Prop_INBUF_HPIOB_M_PAD_O)
                                                      0.572     0.572 r  clk_ibuf_iso/INBUF_INST/O
                         net (fo=1, routed)           0.000     0.572    clk_ibuf_iso/OUT
    AV33                 IBUFCTRL (Prop_IBUFCTRL_HPIOB_M_I_O)
                                                      0.000     0.572 r  clk_ibuf_iso/IBUFCTRL_INST/O
                         net (fo=1, routed)           0.181     0.753    clk_ibuf_iso
    BUFGCE_X1Y224        BUFGCE (Prop_BUFCE_BUFGCE_I_O)
                                                      0.019     0.772 r  clk_ibuf/O
    X3Y7 (CLOCK_ROOT)    net (fo=5439, routed)        1.864     2.636    shift_reg_tap_o/clk_c
    SLICE_X144Y490       FDRE                                         r  shift_reg_tap_o/sr_1[1206]/C
                         clock pessimism             -0.295     2.341    
    SLICE_X144Y490       FDRE (Hold_DFF_SLICEM_C_D)
                                                      0.046     2.387    shift_reg_tap_o/sr_1[1206]
  -------------------------------------------------------------------
                         required time                         -2.387    
                         arrival time                           4.037    
  -------------------------------------------------------------------
                         slack                                  1.650    

Slack (MET) :             1.650ns  (arrival time - required time)
  Source:                 shift_reg_tap_i/sr_p.sr_1_rep_184[1920]/C
                            (rising edge-triggered cell FDRE clocked by clk  {rise@0.000ns fall@1.786ns period=3.572ns})
  Destination:            shift_reg_tap_o/sr_1[1206]/D
                            (rising edge-triggered cell FDRE clocked by clk  {rise@0.000ns fall@1.786ns period=3.572ns})
  Path Group:             clk
  Path Type:              Hold (Min at Fast Process Corner)
  Requirement:            0.000ns  (clk rise@0.000ns - clk rise@0.000ns)
  Data Path Delay:        2.076ns  (logic 0.403ns (19.412%)  route 1.673ns (80.588%))
  Logic Levels:           13  (LUT4=1 LUT5=5 LUT6=7)
  Clock Path Skew:        0.380ns (DCD - SCD - CPR)
    Destination Clock Delay (DCD):    2.636ns
    Source Clock Delay      (SCD):    1.961ns
    Clock Pessimism Removal (CPR):    0.295ns
  Clock Net Delay (Source):      1.415ns (routing 0.638ns, distribution 0.777ns)
  Clock Net Delay (Destination): 1.864ns (routing 0.707ns, distribution 1.157ns)

    Location             Delay type                Incr(ns)  Path(ns)    Netlist Resource(s)
  -------------------------------------------------------------------    -------------------
                         (clock clk rise edge)        0.000     0.000 r  
    AV33                                              0.000     0.000 r  clk (IN)
                         net (fo=0)                   0.000     0.000    clk_ibuf_iso/I
    AV33                 INBUF (Prop_INBUF_HPIOB_M_PAD_O)
                                                      0.385     0.385 r  clk_ibuf_iso/INBUF_INST/O
                         net (fo=1, routed)           0.000     0.385    clk_ibuf_iso/OUT
    AV33                 IBUFCTRL (Prop_IBUFCTRL_HPIOB_M_I_O)
                                                      0.000     0.385 r  clk_ibuf_iso/IBUFCTRL_INST/O
                         net (fo=1, routed)           0.144     0.529    clk_ibuf_iso
    BUFGCE_X1Y224        BUFGCE (Prop_BUFCE_BUFGCE_I_O)
                                                      0.017     0.546 r  clk_ibuf/O
    X3Y7 (CLOCK_ROOT)    net (fo=5439, routed)        1.415     1.961    shift_reg_tap_i/clk_c
    SLICE_X140Y413       FDRE                                         r  shift_reg_tap_i/sr_p.sr_1_rep_184[1920]/C
  -------------------------------------------------------------------    -------------------
    SLICE_X140Y413       FDRE (Prop_AFF_SLICEL_C_Q)
                                                      0.039     2.000 f  shift_reg_tap_i/sr_p.sr_1_rep_184[1920]/Q
                         net (fo=10, routed)          0.061     2.061    dut_inst/sorter_inst/genblk1.bitonic_sort_high/genblk1.bitonic_sort_high/genblk1.bitonic_sort_low/genblk1.bitonic_sort_low/genblk1.bitonic_sort_low/genblk1.bitonic_merge_i/genblk1.cmp_g[0].compare_i/input_slr_rep_184_0
    SLICE_X140Y415       LUT5 (Prop_A6LUT_SLICEL_I0_O)
                                                      0.022     2.083 f  dut_inst/sorter_inst/genblk1.bitonic_sort_high/genblk1.bitonic_sort_high/genblk1.bitonic_sort_low/genblk1.bitonic_sort_low/genblk1.bitonic_sort_low/genblk1.bitonic_merge_i/genblk1.cmp_g[0].compare_i/s1.pt[0]/O
                         net (fo=38, routed)          0.088     2.171    dut_inst/sorter_inst/genblk1.bitonic_sort_high/genblk1.bitonic_sort_high/genblk1.bitonic_sort_low/genblk1.bitonic_sort_low/genblk1.bitonic_merge_i/genblk1.cmp_g[7].compare_i/un1_compare_i_1_77_0
    SLICE_X141Y417       LUT5 (Prop_C6LUT_SLICEM_I4_O)
                                                      0.014     2.185 f  dut_inst/sorter_inst/genblk1.bitonic_sort_high/genblk1.bitonic_sort_high/genblk1.bitonic_sort_low/genblk1.bitonic_sort_low/genblk1.bitonic_merge_i/genblk1.cmp_g[7].compare_i/s1.pt[0]/O
                         net (fo=43, routed)          0.265     2.450    dut_inst/sorter_inst/genblk1.bitonic_sort_high/genblk1.bitonic_sort_high/genblk1.bitonic_sort_low/genblk1.bitonic_merge_i/genblk1.bitonic_merge_low/genblk1.cmp_g[6].compare_i/un1_compare_i_1_176_0
    SLICE_X146Y424       LUT6 (Prop_G6LUT_SLICEM_I0_O)
                                                      0.014     2.464 r  dut_inst/sorter_inst/genblk1.bitonic_sort_high/genblk1.bitonic_sort_high/genblk1.bitonic_sort_low/genblk1.bitonic_merge_i/genblk1.bitonic_merge_low/genblk1.cmp_g[6].compare_i/s1.pt[0]/O
                         net (fo=36, routed)          0.116     2.580    dut_inst/sorter_inst/genblk1.bitonic_sort_high/genblk1.bitonic_sort_high/genblk1.bitonic_sort_low/genblk1.bitonic_merge_i/genblk1.bitonic_merge_low/genblk1.bitonic_merge_high/genblk1.bitonic_merge_low/genblk1.bitonic_merge_high/genblk1.cmp_g[0].compare_i/un1_compare_i_1_265_0
    SLICE_X143Y425       LUT6 (Prop_G6LUT_SLICEL_I3_O)
                                                      0.060     2.640 r  dut_inst/sorter_inst/genblk1.bitonic_sort_high/genblk1.bitonic_sort_high/genblk1.bitonic_sort_low/genblk1.bitonic_merge_i/genblk1.bitonic_merge_low/genblk1.bitonic_merge_high/genblk1.bitonic_merge_low/genblk1.bitonic_merge_high/genblk1.cmp_g[0].compare_i/s1.pt[0]/O
                         net (fo=12, routed)          0.057     2.697    dut_inst/sorter_inst/genblk1.bitonic_sort_high/genblk1.bitonic_sort_high/genblk1.bitonic_merge_i/genblk1.bitonic_merge_low/genblk1.cmp_g[11].compare_i/un1_bitonic_sort_low_2_0
    SLICE_X143Y427       LUT4 (Prop_F6LUT_SLICEL_I0_O)
                                                      0.014     2.711 r  dut_inst/sorter_inst/genblk1.bitonic_sort_high/genblk1.bitonic_sort_high/genblk1.bitonic_merge_i/genblk1.bitonic_merge_low/genblk1.cmp_g[11].compare_i/s0.pt[0]/O
                         net (fo=8, routed)           0.160     2.871    dut_inst/un1_compare_i_954[9]
    SLICE_X143Y442       LUT6 (Prop_D6LUT_SLICEL_I4_O)
                                                      0.014     2.885 r  dut_inst/.delname._x_2229.ALTB[0]/O
                         net (fo=35, routed)          0.152     3.037    dut_inst/sorter_inst/genblk1.bitonic_sort_high/genblk1.bitonic_merge_i/genblk1.cmp_g[4].compare_i/un1_b_792
    SLICE_X142Y456       LUT6 (Prop_G6LUT_SLICEM_I2_O)
                                                      0.035     3.072 r  dut_inst/sorter_inst/genblk1.bitonic_sort_high/genblk1.bitonic_merge_i/genblk1.cmp_g[4].compare_i/s1.pt[0]/O
                         net (fo=49, routed)          0.153     3.225    dut_inst/sorter_inst/genblk1.bitonic_sort_high/genblk1.bitonic_merge_i/genblk1.bitonic_merge_high/genblk1.bitonic_merge_low/genblk1.bitonic_merge_high/genblk1.cmp_g[4].compare_i/un1_compare_i_1_1206_0
    SLICE_X144Y462       LUT6 (Prop_D6LUT_SLICEM_I0_O)
                                                      0.022     3.247 r  dut_inst/sorter_inst/genblk1.bitonic_sort_high/genblk1.bitonic_merge_i/genblk1.bitonic_merge_high/genblk1.bitonic_merge_low/genblk1.bitonic_merge_high/genblk1.cmp_g[4].compare_i/s0.idx[5]/O
                         net (fo=2, routed)           0.072     3.319    dut_inst/sorter_inst/genblk1.bitonic_sort_high/genblk1.bitonic_merge_i/genblk1.bitonic_merge_high/genblk1.bitonic_merge_low/genblk1.bitonic_merge_high/genblk1.bitonic_merge_low/genblk1.cmp_g[0].compare_i/idx_2256_0
    SLICE_X144Y464       LUT5 (Prop_D6LUT_SLICEM_I4_O)
                                                      0.014     3.333 r  dut_inst/sorter_inst/genblk1.bitonic_sort_high/genblk1.bitonic_merge_i/genblk1.bitonic_merge_high/genblk1.bitonic_merge_low/genblk1.bitonic_merge_high/genblk1.bitonic_merge_low/genblk1.cmp_g[0].compare_i/s0.idx[5]/O
                         net (fo=2, routed)           0.055     3.388    dut_inst/sorter_inst/genblk1.bitonic_sort_high/genblk1.bitonic_merge_i/genblk1.bitonic_merge_high/genblk1.bitonic_merge_low/genblk1.bitonic_merge_high/genblk1.bitonic_merge_low/genblk1.bitonic_merge_low/genblk1.bitonic_merge_low/genblk1.cmp_g[0].compare_i/idx_3099_0
    SLICE_X143Y464       LUT5 (Prop_B6LUT_SLICEL_I3_O)
                                                      0.050     3.438 r  dut_inst/sorter_inst/genblk1.bitonic_sort_high/genblk1.bitonic_merge_i/genblk1.bitonic_merge_high/genblk1.bitonic_merge_low/genblk1.bitonic_merge_high/genblk1.bitonic_merge_low/genblk1.bitonic_merge_low/genblk1.bitonic_merge_low/genblk1.cmp_g[0].compare_i/s0.idx[5]/O
                         net (fo=4, routed)           0.205     3.643    dut_inst/sorter_inst/genblk1.bitonic_merge_i/genblk1.bitonic_merge_low/genblk1.bitonic_merge_high/genblk1.cmp_g[16].compare_i/idx_3114_0
    SLICE_X143Y484       LUT6 (Prop_D6LUT_SLICEL_I1_O)
                                                      0.035     3.678 r  dut_inst/sorter_inst/genblk1.bitonic_merge_i/genblk1.bitonic_merge_low/genblk1.bitonic_merge_high/genblk1.cmp_g[16].compare_i/s1.idx[5]/O
                         net (fo=3, routed)           0.156     3.834    dut_inst/sorter_inst/genblk1.bitonic_merge_i/genblk1.bitonic_merge_low/genblk1.bitonic_merge_high/genblk1.bitonic_merge_high/genblk1.bitonic_merge_high/genblk1.bitonic_merge_high/genblk1.cmp_g[0].compare_i/idx_2607_0
    SLICE_X146Y494       LUT6 (Prop_C6LUT_SLICEM_I2_O)
                                                      0.035     3.869 r  dut_inst/sorter_inst/genblk1.bitonic_merge_i/genblk1.bitonic_merge_low/genblk1.bitonic_merge_high/genblk1.bitonic_merge_high/genblk1.bitonic_merge_high/genblk1.bitonic_merge_high/genblk1.cmp_g[0].compare_i/s0.idx[5]/O
                         net (fo=3, routed)           0.107     3.976    dut_inst/sorter_inst/genblk1.bitonic_merge_i/genblk1.bitonic_merge_low/genblk1.bitonic_merge_high/genblk1.bitonic_merge_high/genblk1.bitonic_merge_high/genblk1.bitonic_merge_high/genblk1.bitonic_merge_low/genblk1.bitonic_merge_low/genblk1.cmp_g[0].compare_i/idx_2649_0
    SLICE_X144Y490       LUT5 (Prop_D6LUT_SLICEM_I3_O)
                                                      0.035     4.011 r  dut_inst/sorter_inst/genblk1.bitonic_merge_i/genblk1.bitonic_merge_low/genblk1.bitonic_merge_high/genblk1.bitonic_merge_high/genblk1.bitonic_merge_high/genblk1.bitonic_merge_high/genblk1.bitonic_merge_low/genblk1.bitonic_merge_low/genblk1.cmp_g[0].compare_i/s0.idx[5]/O
                         net (fo=1, routed)           0.026     4.037    shift_reg_tap_o/idx_3324[5]
    SLICE_X144Y490       FDRE                                         r  shift_reg_tap_o/sr_1[1206]/D
  -------------------------------------------------------------------    -------------------

                         (clock clk rise edge)        0.000     0.000 r  
    AV33                                              0.000     0.000 r  clk (IN)
                         net (fo=0)                   0.000     0.000    clk_ibuf_iso/I
    AV33                 INBUF (Prop_INBUF_HPIOB_M_PAD_O)
                                                      0.572     0.572 r  clk_ibuf_iso/INBUF_INST/O
                         net (fo=1, routed)           0.000     0.572    clk_ibuf_iso/OUT
    AV33                 IBUFCTRL (Prop_IBUFCTRL_HPIOB_M_I_O)
                                                      0.000     0.572 r  clk_ibuf_iso/IBUFCTRL_INST/O
                         net (fo=1, routed)           0.181     0.753    clk_ibuf_iso
    BUFGCE_X1Y224        BUFGCE (Prop_BUFCE_BUFGCE_I_O)
                                                      0.019     0.772 r  clk_ibuf/O
    X3Y7 (CLOCK_ROOT)    net (fo=5439, routed)        1.864     2.636    shift_reg_tap_o/clk_c
    SLICE_X144Y490       FDRE                                         r  shift_reg_tap_o/sr_1[1206]/C
                         clock pessimism             -0.295     2.341    
    SLICE_X144Y490       FDRE (Hold_DFF_SLICEM_C_D)
                                                      0.046     2.387    shift_reg_tap_o/sr_1[1206]
  -------------------------------------------------------------------
                         required time                         -2.387    
                         arrival time                           4.037    
  -------------------------------------------------------------------
                         slack                                  1.650    

Slack (MET) :             1.650ns  (arrival time - required time)
  Source:                 shift_reg_tap_i/sr_p.sr_1_rep_184[1920]/C
                            (rising edge-triggered cell FDRE clocked by clk  {rise@0.000ns fall@1.786ns period=3.572ns})
  Destination:            shift_reg_tap_o/sr_1[1206]/D
                            (rising edge-triggered cell FDRE clocked by clk  {rise@0.000ns fall@1.786ns period=3.572ns})
  Path Group:             clk
  Path Type:              Hold (Min at Fast Process Corner)
  Requirement:            0.000ns  (clk rise@0.000ns - clk rise@0.000ns)
  Data Path Delay:        2.076ns  (logic 0.403ns (19.412%)  route 1.673ns (80.588%))
  Logic Levels:           13  (LUT4=1 LUT5=5 LUT6=7)
  Clock Path Skew:        0.380ns (DCD - SCD - CPR)
    Destination Clock Delay (DCD):    2.636ns
    Source Clock Delay      (SCD):    1.961ns
    Clock Pessimism Removal (CPR):    0.295ns
  Clock Net Delay (Source):      1.415ns (routing 0.638ns, distribution 0.777ns)
  Clock Net Delay (Destination): 1.864ns (routing 0.707ns, distribution 1.157ns)

    Location             Delay type                Incr(ns)  Path(ns)    Netlist Resource(s)
  -------------------------------------------------------------------    -------------------
                         (clock clk rise edge)        0.000     0.000 r  
    AV33                                              0.000     0.000 r  clk (IN)
                         net (fo=0)                   0.000     0.000    clk_ibuf_iso/I
    AV33                 INBUF (Prop_INBUF_HPIOB_M_PAD_O)
                                                      0.385     0.385 r  clk_ibuf_iso/INBUF_INST/O
                         net (fo=1, routed)           0.000     0.385    clk_ibuf_iso/OUT
    AV33                 IBUFCTRL (Prop_IBUFCTRL_HPIOB_M_I_O)
                                                      0.000     0.385 r  clk_ibuf_iso/IBUFCTRL_INST/O
                         net (fo=1, routed)           0.144     0.529    clk_ibuf_iso
    BUFGCE_X1Y224        BUFGCE (Prop_BUFCE_BUFGCE_I_O)
                                                      0.017     0.546 r  clk_ibuf/O
    X3Y7 (CLOCK_ROOT)    net (fo=5439, routed)        1.415     1.961    shift_reg_tap_i/clk_c
    SLICE_X140Y413       FDRE                                         r  shift_reg_tap_i/sr_p.sr_1_rep_184[1920]/C
  -------------------------------------------------------------------    -------------------
    SLICE_X140Y413       FDRE (Prop_AFF_SLICEL_C_Q)
                                                      0.039     2.000 r  shift_reg_tap_i/sr_p.sr_1_rep_184[1920]/Q
                         net (fo=10, routed)          0.061     2.061    dut_inst/sorter_inst/genblk1.bitonic_sort_high/genblk1.bitonic_sort_high/genblk1.bitonic_sort_low/genblk1.bitonic_sort_low/genblk1.bitonic_sort_low/genblk1.bitonic_merge_i/genblk1.cmp_g[0].compare_i/input_slr_rep_184_0
    SLICE_X140Y415       LUT5 (Prop_A6LUT_SLICEL_I0_O)
                                                      0.022     2.083 r  dut_inst/sorter_inst/genblk1.bitonic_sort_high/genblk1.bitonic_sort_high/genblk1.bitonic_sort_low/genblk1.bitonic_sort_low/genblk1.bitonic_sort_low/genblk1.bitonic_merge_i/genblk1.cmp_g[0].compare_i/s1.pt[0]/O
                         net (fo=38, routed)          0.088     2.171    dut_inst/sorter_inst/genblk1.bitonic_sort_high/genblk1.bitonic_sort_high/genblk1.bitonic_sort_low/genblk1.bitonic_sort_low/genblk1.bitonic_merge_i/genblk1.cmp_g[7].compare_i/un1_compare_i_1_77_0
    SLICE_X141Y417       LUT5 (Prop_C6LUT_SLICEM_I4_O)
                                                      0.014     2.185 r  dut_inst/sorter_inst/genblk1.bitonic_sort_high/genblk1.bitonic_sort_high/genblk1.bitonic_sort_low/genblk1.bitonic_sort_low/genblk1.bitonic_merge_i/genblk1.cmp_g[7].compare_i/s1.pt[0]/O
                         net (fo=43, routed)          0.265     2.450    dut_inst/sorter_inst/genblk1.bitonic_sort_high/genblk1.bitonic_sort_high/genblk1.bitonic_sort_low/genblk1.bitonic_merge_i/genblk1.bitonic_merge_low/genblk1.cmp_g[6].compare_i/un1_compare_i_1_176_0
    SLICE_X146Y424       LUT6 (Prop_G6LUT_SLICEM_I0_O)
                                                      0.014     2.464 f  dut_inst/sorter_inst/genblk1.bitonic_sort_high/genblk1.bitonic_sort_high/genblk1.bitonic_sort_low/genblk1.bitonic_merge_i/genblk1.bitonic_merge_low/genblk1.cmp_g[6].compare_i/s1.pt[0]/O
                         net (fo=36, routed)          0.116     2.580    dut_inst/sorter_inst/genblk1.bitonic_sort_high/genblk1.bitonic_sort_high/genblk1.bitonic_sort_low/genblk1.bitonic_merge_i/genblk1.bitonic_merge_low/genblk1.bitonic_merge_high/genblk1.bitonic_merge_low/genblk1.bitonic_merge_high/genblk1.cmp_g[0].compare_i/un1_compare_i_1_265_0
    SLICE_X143Y425       LUT6 (Prop_G6LUT_SLICEL_I3_O)
                                                      0.060     2.640 r  dut_inst/sorter_inst/genblk1.bitonic_sort_high/genblk1.bitonic_sort_high/genblk1.bitonic_sort_low/genblk1.bitonic_merge_i/genblk1.bitonic_merge_low/genblk1.bitonic_merge_high/genblk1.bitonic_merge_low/genblk1.bitonic_merge_high/genblk1.cmp_g[0].compare_i/s1.pt[0]/O
                         net (fo=12, routed)          0.057     2.697    dut_inst/sorter_inst/genblk1.bitonic_sort_high/genblk1.bitonic_sort_high/genblk1.bitonic_merge_i/genblk1.bitonic_merge_low/genblk1.cmp_g[11].compare_i/un1_bitonic_sort_low_2_0
    SLICE_X143Y427       LUT4 (Prop_F6LUT_SLICEL_I0_O)
                                                      0.014     2.711 r  dut_inst/sorter_inst/genblk1.bitonic_sort_high/genblk1.bitonic_sort_high/genblk1.bitonic_merge_i/genblk1.bitonic_merge_low/genblk1.cmp_g[11].compare_i/s0.pt[0]/O
                         net (fo=8, routed)           0.160     2.871    dut_inst/un1_compare_i_954[9]
    SLICE_X143Y442       LUT6 (Prop_D6LUT_SLICEL_I4_O)
                                                      0.014     2.885 r  dut_inst/.delname._x_2229.ALTB[0]/O
                         net (fo=35, routed)          0.152     3.037    dut_inst/sorter_inst/genblk1.bitonic_sort_high/genblk1.bitonic_merge_i/genblk1.cmp_g[4].compare_i/un1_b_792
    SLICE_X142Y456       LUT6 (Prop_G6LUT_SLICEM_I2_O)
                                                      0.035     3.072 r  dut_inst/sorter_inst/genblk1.bitonic_sort_high/genblk1.bitonic_merge_i/genblk1.cmp_g[4].compare_i/s1.pt[0]/O
                         net (fo=49, routed)          0.153     3.225    dut_inst/sorter_inst/genblk1.bitonic_sort_high/genblk1.bitonic_merge_i/genblk1.bitonic_merge_high/genblk1.bitonic_merge_low/genblk1.bitonic_merge_high/genblk1.cmp_g[4].compare_i/un1_compare_i_1_1206_0
    SLICE_X144Y462       LUT6 (Prop_D6LUT_SLICEM_I0_O)
                                                      0.022     3.247 r  dut_inst/sorter_inst/genblk1.bitonic_sort_high/genblk1.bitonic_merge_i/genblk1.bitonic_merge_high/genblk1.bitonic_merge_low/genblk1.bitonic_merge_high/genblk1.cmp_g[4].compare_i/s0.idx[5]/O
                         net (fo=2, routed)           0.072     3.319    dut_inst/sorter_inst/genblk1.bitonic_sort_high/genblk1.bitonic_merge_i/genblk1.bitonic_merge_high/genblk1.bitonic_merge_low/genblk1.bitonic_merge_high/genblk1.bitonic_merge_low/genblk1.cmp_g[0].compare_i/idx_2256_0
    SLICE_X144Y464       LUT5 (Prop_D6LUT_SLICEM_I4_O)
                                                      0.014     3.333 r  dut_inst/sorter_inst/genblk1.bitonic_sort_high/genblk1.bitonic_merge_i/genblk1.bitonic_merge_high/genblk1.bitonic_merge_low/genblk1.bitonic_merge_high/genblk1.bitonic_merge_low/genblk1.cmp_g[0].compare_i/s0.idx[5]/O
                         net (fo=2, routed)           0.055     3.388    dut_inst/sorter_inst/genblk1.bitonic_sort_high/genblk1.bitonic_merge_i/genblk1.bitonic_merge_high/genblk1.bitonic_merge_low/genblk1.bitonic_merge_high/genblk1.bitonic_merge_low/genblk1.bitonic_merge_low/genblk1.bitonic_merge_low/genblk1.cmp_g[0].compare_i/idx_3099_0
    SLICE_X143Y464       LUT5 (Prop_B6LUT_SLICEL_I3_O)
                                                      0.050     3.438 r  dut_inst/sorter_inst/genblk1.bitonic_sort_high/genblk1.bitonic_merge_i/genblk1.bitonic_merge_high/genblk1.bitonic_merge_low/genblk1.bitonic_merge_high/genblk1.bitonic_merge_low/genblk1.bitonic_merge_low/genblk1.bitonic_merge_low/genblk1.cmp_g[0].compare_i/s0.idx[5]/O
                         net (fo=4, routed)           0.205     3.643    dut_inst/sorter_inst/genblk1.bitonic_merge_i/genblk1.bitonic_merge_low/genblk1.bitonic_merge_high/genblk1.cmp_g[16].compare_i/idx_3114_0
    SLICE_X143Y484       LUT6 (Prop_D6LUT_SLICEL_I1_O)
                                                      0.035     3.678 r  dut_inst/sorter_inst/genblk1.bitonic_merge_i/genblk1.bitonic_merge_low/genblk1.bitonic_merge_high/genblk1.cmp_g[16].compare_i/s1.idx[5]/O
                         net (fo=3, routed)           0.156     3.834    dut_inst/sorter_inst/genblk1.bitonic_merge_i/genblk1.bitonic_merge_low/genblk1.bitonic_merge_high/genblk1.bitonic_merge_high/genblk1.bitonic_merge_high/genblk1.bitonic_merge_high/genblk1.cmp_g[0].compare_i/idx_2607_0
    SLICE_X146Y494       LUT6 (Prop_C6LUT_SLICEM_I2_O)
                                                      0.035     3.869 r  dut_inst/sorter_inst/genblk1.bitonic_merge_i/genblk1.bitonic_merge_low/genblk1.bitonic_merge_high/genblk1.bitonic_merge_high/genblk1.bitonic_merge_high/genblk1.bitonic_merge_high/genblk1.cmp_g[0].compare_i/s0.idx[5]/O
                         net (fo=3, routed)           0.107     3.976    dut_inst/sorter_inst/genblk1.bitonic_merge_i/genblk1.bitonic_merge_low/genblk1.bitonic_merge_high/genblk1.bitonic_merge_high/genblk1.bitonic_merge_high/genblk1.bitonic_merge_high/genblk1.bitonic_merge_low/genblk1.bitonic_merge_low/genblk1.cmp_g[0].compare_i/idx_2649_0
    SLICE_X144Y490       LUT5 (Prop_D6LUT_SLICEM_I3_O)
                                                      0.035     4.011 r  dut_inst/sorter_inst/genblk1.bitonic_merge_i/genblk1.bitonic_merge_low/genblk1.bitonic_merge_high/genblk1.bitonic_merge_high/genblk1.bitonic_merge_high/genblk1.bitonic_merge_high/genblk1.bitonic_merge_low/genblk1.bitonic_merge_low/genblk1.cmp_g[0].compare_i/s0.idx[5]/O
                         net (fo=1, routed)           0.026     4.037    shift_reg_tap_o/idx_3324[5]
    SLICE_X144Y490       FDRE                                         r  shift_reg_tap_o/sr_1[1206]/D
  -------------------------------------------------------------------    -------------------

                         (clock clk rise edge)        0.000     0.000 r  
    AV33                                              0.000     0.000 r  clk (IN)
                         net (fo=0)                   0.000     0.000    clk_ibuf_iso/I
    AV33                 INBUF (Prop_INBUF_HPIOB_M_PAD_O)
                                                      0.572     0.572 r  clk_ibuf_iso/INBUF_INST/O
                         net (fo=1, routed)           0.000     0.572    clk_ibuf_iso/OUT
    AV33                 IBUFCTRL (Prop_IBUFCTRL_HPIOB_M_I_O)
                                                      0.000     0.572 r  clk_ibuf_iso/IBUFCTRL_INST/O
                         net (fo=1, routed)           0.181     0.753    clk_ibuf_iso
    BUFGCE_X1Y224        BUFGCE (Prop_BUFCE_BUFGCE_I_O)
                                                      0.019     0.772 r  clk_ibuf/O
    X3Y7 (CLOCK_ROOT)    net (fo=5439, routed)        1.864     2.636    shift_reg_tap_o/clk_c
    SLICE_X144Y490       FDRE                                         r  shift_reg_tap_o/sr_1[1206]/C
                         clock pessimism             -0.295     2.341    
    SLICE_X144Y490       FDRE (Hold_DFF_SLICEM_C_D)
                                                      0.046     2.387    shift_reg_tap_o/sr_1[1206]
  -------------------------------------------------------------------
                         required time                         -2.387    
                         arrival time                           4.037    
  -------------------------------------------------------------------
                         slack                                  1.650    

Slack (MET) :             1.650ns  (arrival time - required time)
  Source:                 shift_reg_tap_i/sr_p.sr_1_rep_184[1920]/C
                            (rising edge-triggered cell FDRE clocked by clk  {rise@0.000ns fall@1.786ns period=3.572ns})
  Destination:            shift_reg_tap_o/sr_1[1206]/D
                            (rising edge-triggered cell FDRE clocked by clk  {rise@0.000ns fall@1.786ns period=3.572ns})
  Path Group:             clk
  Path Type:              Hold (Min at Fast Process Corner)
  Requirement:            0.000ns  (clk rise@0.000ns - clk rise@0.000ns)
  Data Path Delay:        2.076ns  (logic 0.403ns (19.412%)  route 1.673ns (80.588%))
  Logic Levels:           13  (LUT4=1 LUT5=5 LUT6=7)
  Clock Path Skew:        0.380ns (DCD - SCD - CPR)
    Destination Clock Delay (DCD):    2.636ns
    Source Clock Delay      (SCD):    1.961ns
    Clock Pessimism Removal (CPR):    0.295ns
  Clock Net Delay (Source):      1.415ns (routing 0.638ns, distribution 0.777ns)
  Clock Net Delay (Destination): 1.864ns (routing 0.707ns, distribution 1.157ns)

    Location             Delay type                Incr(ns)  Path(ns)    Netlist Resource(s)
  -------------------------------------------------------------------    -------------------
                         (clock clk rise edge)        0.000     0.000 r  
    AV33                                              0.000     0.000 r  clk (IN)
                         net (fo=0)                   0.000     0.000    clk_ibuf_iso/I
    AV33                 INBUF (Prop_INBUF_HPIOB_M_PAD_O)
                                                      0.385     0.385 r  clk_ibuf_iso/INBUF_INST/O
                         net (fo=1, routed)           0.000     0.385    clk_ibuf_iso/OUT
    AV33                 IBUFCTRL (Prop_IBUFCTRL_HPIOB_M_I_O)
                                                      0.000     0.385 r  clk_ibuf_iso/IBUFCTRL_INST/O
                         net (fo=1, routed)           0.144     0.529    clk_ibuf_iso
    BUFGCE_X1Y224        BUFGCE (Prop_BUFCE_BUFGCE_I_O)
                                                      0.017     0.546 r  clk_ibuf/O
    X3Y7 (CLOCK_ROOT)    net (fo=5439, routed)        1.415     1.961    shift_reg_tap_i/clk_c
    SLICE_X140Y413       FDRE                                         r  shift_reg_tap_i/sr_p.sr_1_rep_184[1920]/C
  -------------------------------------------------------------------    -------------------
    SLICE_X140Y413       FDRE (Prop_AFF_SLICEL_C_Q)
                                                      0.039     2.000 f  shift_reg_tap_i/sr_p.sr_1_rep_184[1920]/Q
                         net (fo=10, routed)          0.061     2.061    dut_inst/sorter_inst/genblk1.bitonic_sort_high/genblk1.bitonic_sort_high/genblk1.bitonic_sort_low/genblk1.bitonic_sort_low/genblk1.bitonic_sort_low/genblk1.bitonic_merge_i/genblk1.cmp_g[0].compare_i/input_slr_rep_184_0
    SLICE_X140Y415       LUT5 (Prop_A6LUT_SLICEL_I0_O)
                                                      0.022     2.083 f  dut_inst/sorter_inst/genblk1.bitonic_sort_high/genblk1.bitonic_sort_high/genblk1.bitonic_sort_low/genblk1.bitonic_sort_low/genblk1.bitonic_sort_low/genblk1.bitonic_merge_i/genblk1.cmp_g[0].compare_i/s1.pt[0]/O
                         net (fo=38, routed)          0.088     2.171    dut_inst/sorter_inst/genblk1.bitonic_sort_high/genblk1.bitonic_sort_high/genblk1.bitonic_sort_low/genblk1.bitonic_sort_low/genblk1.bitonic_merge_i/genblk1.cmp_g[7].compare_i/un1_compare_i_1_77_0
    SLICE_X141Y417       LUT5 (Prop_C6LUT_SLICEM_I4_O)
                                                      0.014     2.185 f  dut_inst/sorter_inst/genblk1.bitonic_sort_high/genblk1.bitonic_sort_high/genblk1.bitonic_sort_low/genblk1.bitonic_sort_low/genblk1.bitonic_merge_i/genblk1.cmp_g[7].compare_i/s1.pt[0]/O
                         net (fo=43, routed)          0.265     2.450    dut_inst/sorter_inst/genblk1.bitonic_sort_high/genblk1.bitonic_sort_high/genblk1.bitonic_sort_low/genblk1.bitonic_merge_i/genblk1.bitonic_merge_low/genblk1.cmp_g[6].compare_i/un1_compare_i_1_176_0
    SLICE_X146Y424       LUT6 (Prop_G6LUT_SLICEM_I0_O)
                                                      0.014     2.464 f  dut_inst/sorter_inst/genblk1.bitonic_sort_high/genblk1.bitonic_sort_high/genblk1.bitonic_sort_low/genblk1.bitonic_merge_i/genblk1.bitonic_merge_low/genblk1.cmp_g[6].compare_i/s1.pt[0]/O
                         net (fo=36, routed)          0.116     2.580    dut_inst/sorter_inst/genblk1.bitonic_sort_high/genblk1.bitonic_sort_high/genblk1.bitonic_sort_low/genblk1.bitonic_merge_i/genblk1.bitonic_merge_low/genblk1.bitonic_merge_high/genblk1.bitonic_merge_low/genblk1.bitonic_merge_high/genblk1.cmp_g[0].compare_i/un1_compare_i_1_265_0
    SLICE_X143Y425       LUT6 (Prop_G6LUT_SLICEL_I3_O)
                                                      0.060     2.640 r  dut_inst/sorter_inst/genblk1.bitonic_sort_high/genblk1.bitonic_sort_high/genblk1.bitonic_sort_low/genblk1.bitonic_merge_i/genblk1.bitonic_merge_low/genblk1.bitonic_merge_high/genblk1.bitonic_merge_low/genblk1.bitonic_merge_high/genblk1.cmp_g[0].compare_i/s1.pt[0]/O
                         net (fo=12, routed)          0.057     2.697    dut_inst/sorter_inst/genblk1.bitonic_sort_high/genblk1.bitonic_sort_high/genblk1.bitonic_merge_i/genblk1.bitonic_merge_low/genblk1.cmp_g[11].compare_i/un1_bitonic_sort_low_2_0
    SLICE_X143Y427       LUT4 (Prop_F6LUT_SLICEL_I0_O)
                                                      0.014     2.711 r  dut_inst/sorter_inst/genblk1.bitonic_sort_high/genblk1.bitonic_sort_high/genblk1.bitonic_merge_i/genblk1.bitonic_merge_low/genblk1.cmp_g[11].compare_i/s0.pt[0]/O
                         net (fo=8, routed)           0.160     2.871    dut_inst/un1_compare_i_954[9]
    SLICE_X143Y442       LUT6 (Prop_D6LUT_SLICEL_I4_O)
                                                      0.014     2.885 r  dut_inst/.delname._x_2229.ALTB[0]/O
                         net (fo=35, routed)          0.152     3.037    dut_inst/sorter_inst/genblk1.bitonic_sort_high/genblk1.bitonic_merge_i/genblk1.cmp_g[4].compare_i/un1_b_792
    SLICE_X142Y456       LUT6 (Prop_G6LUT_SLICEM_I2_O)
                                                      0.035     3.072 r  dut_inst/sorter_inst/genblk1.bitonic_sort_high/genblk1.bitonic_merge_i/genblk1.cmp_g[4].compare_i/s1.pt[0]/O
                         net (fo=49, routed)          0.153     3.225    dut_inst/sorter_inst/genblk1.bitonic_sort_high/genblk1.bitonic_merge_i/genblk1.bitonic_merge_high/genblk1.bitonic_merge_low/genblk1.bitonic_merge_high/genblk1.cmp_g[4].compare_i/un1_compare_i_1_1206_0
    SLICE_X144Y462       LUT6 (Prop_D6LUT_SLICEM_I0_O)
                                                      0.022     3.247 r  dut_inst/sorter_inst/genblk1.bitonic_sort_high/genblk1.bitonic_merge_i/genblk1.bitonic_merge_high/genblk1.bitonic_merge_low/genblk1.bitonic_merge_high/genblk1.cmp_g[4].compare_i/s0.idx[5]/O
                         net (fo=2, routed)           0.072     3.319    dut_inst/sorter_inst/genblk1.bitonic_sort_high/genblk1.bitonic_merge_i/genblk1.bitonic_merge_high/genblk1.bitonic_merge_low/genblk1.bitonic_merge_high/genblk1.bitonic_merge_low/genblk1.cmp_g[0].compare_i/idx_2256_0
    SLICE_X144Y464       LUT5 (Prop_D6LUT_SLICEM_I4_O)
                                                      0.014     3.333 r  dut_inst/sorter_inst/genblk1.bitonic_sort_high/genblk1.bitonic_merge_i/genblk1.bitonic_merge_high/genblk1.bitonic_merge_low/genblk1.bitonic_merge_high/genblk1.bitonic_merge_low/genblk1.cmp_g[0].compare_i/s0.idx[5]/O
                         net (fo=2, routed)           0.055     3.388    dut_inst/sorter_inst/genblk1.bitonic_sort_high/genblk1.bitonic_merge_i/genblk1.bitonic_merge_high/genblk1.bitonic_merge_low/genblk1.bitonic_merge_high/genblk1.bitonic_merge_low/genblk1.bitonic_merge_low/genblk1.bitonic_merge_low/genblk1.cmp_g[0].compare_i/idx_3099_0
    SLICE_X143Y464       LUT5 (Prop_B6LUT_SLICEL_I3_O)
                                                      0.050     3.438 r  dut_inst/sorter_inst/genblk1.bitonic_sort_high/genblk1.bitonic_merge_i/genblk1.bitonic_merge_high/genblk1.bitonic_merge_low/genblk1.bitonic_merge_high/genblk1.bitonic_merge_low/genblk1.bitonic_merge_low/genblk1.bitonic_merge_low/genblk1.cmp_g[0].compare_i/s0.idx[5]/O
                         net (fo=4, routed)           0.205     3.643    dut_inst/sorter_inst/genblk1.bitonic_merge_i/genblk1.bitonic_merge_low/genblk1.bitonic_merge_high/genblk1.cmp_g[16].compare_i/idx_3114_0
    SLICE_X143Y484       LUT6 (Prop_D6LUT_SLICEL_I1_O)
                                                      0.035     3.678 r  dut_inst/sorter_inst/genblk1.bitonic_merge_i/genblk1.bitonic_merge_low/genblk1.bitonic_merge_high/genblk1.cmp_g[16].compare_i/s1.idx[5]/O
                         net (fo=3, routed)           0.156     3.834    dut_inst/sorter_inst/genblk1.bitonic_merge_i/genblk1.bitonic_merge_low/genblk1.bitonic_merge_high/genblk1.bitonic_merge_high/genblk1.bitonic_merge_high/genblk1.bitonic_merge_high/genblk1.cmp_g[0].compare_i/idx_2607_0
    SLICE_X146Y494       LUT6 (Prop_C6LUT_SLICEM_I2_O)
                                                      0.035     3.869 r  dut_inst/sorter_inst/genblk1.bitonic_merge_i/genblk1.bitonic_merge_low/genblk1.bitonic_merge_high/genblk1.bitonic_merge_high/genblk1.bitonic_merge_high/genblk1.bitonic_merge_high/genblk1.cmp_g[0].compare_i/s0.idx[5]/O
                         net (fo=3, routed)           0.107     3.976    dut_inst/sorter_inst/genblk1.bitonic_merge_i/genblk1.bitonic_merge_low/genblk1.bitonic_merge_high/genblk1.bitonic_merge_high/genblk1.bitonic_merge_high/genblk1.bitonic_merge_high/genblk1.bitonic_merge_low/genblk1.bitonic_merge_low/genblk1.cmp_g[0].compare_i/idx_2649_0
    SLICE_X144Y490       LUT5 (Prop_D6LUT_SLICEM_I3_O)
                                                      0.035     4.011 r  dut_inst/sorter_inst/genblk1.bitonic_merge_i/genblk1.bitonic_merge_low/genblk1.bitonic_merge_high/genblk1.bitonic_merge_high/genblk1.bitonic_merge_high/genblk1.bitonic_merge_high/genblk1.bitonic_merge_low/genblk1.bitonic_merge_low/genblk1.cmp_g[0].compare_i/s0.idx[5]/O
                         net (fo=1, routed)           0.026     4.037    shift_reg_tap_o/idx_3324[5]
    SLICE_X144Y490       FDRE                                         r  shift_reg_tap_o/sr_1[1206]/D
  -------------------------------------------------------------------    -------------------

                         (clock clk rise edge)        0.000     0.000 r  
    AV33                                              0.000     0.000 r  clk (IN)
                         net (fo=0)                   0.000     0.000    clk_ibuf_iso/I
    AV33                 INBUF (Prop_INBUF_HPIOB_M_PAD_O)
                                                      0.572     0.572 r  clk_ibuf_iso/INBUF_INST/O
                         net (fo=1, routed)           0.000     0.572    clk_ibuf_iso/OUT
    AV33                 IBUFCTRL (Prop_IBUFCTRL_HPIOB_M_I_O)
                                                      0.000     0.572 r  clk_ibuf_iso/IBUFCTRL_INST/O
                         net (fo=1, routed)           0.181     0.753    clk_ibuf_iso
    BUFGCE_X1Y224        BUFGCE (Prop_BUFCE_BUFGCE_I_O)
                                                      0.019     0.772 r  clk_ibuf/O
    X3Y7 (CLOCK_ROOT)    net (fo=5439, routed)        1.864     2.636    shift_reg_tap_o/clk_c
    SLICE_X144Y490       FDRE                                         r  shift_reg_tap_o/sr_1[1206]/C
                         clock pessimism             -0.295     2.341    
    SLICE_X144Y490       FDRE (Hold_DFF_SLICEM_C_D)
                                                      0.046     2.387    shift_reg_tap_o/sr_1[1206]
  -------------------------------------------------------------------
                         required time                         -2.387    
                         arrival time                           4.037    
  -------------------------------------------------------------------
                         slack                                  1.650    

Slack (MET) :             1.650ns  (arrival time - required time)
  Source:                 shift_reg_tap_i/sr_p.sr_1_rep_184[1920]/C
                            (rising edge-triggered cell FDRE clocked by clk  {rise@0.000ns fall@1.786ns period=3.572ns})
  Destination:            shift_reg_tap_o/sr_1[1206]/D
                            (rising edge-triggered cell FDRE clocked by clk  {rise@0.000ns fall@1.786ns period=3.572ns})
  Path Group:             clk
  Path Type:              Hold (Min at Fast Process Corner)
  Requirement:            0.000ns  (clk rise@0.000ns - clk rise@0.000ns)
  Data Path Delay:        2.076ns  (logic 0.403ns (19.412%)  route 1.673ns (80.588%))
  Logic Levels:           13  (LUT4=1 LUT5=5 LUT6=7)
  Clock Path Skew:        0.380ns (DCD - SCD - CPR)
    Destination Clock Delay (DCD):    2.636ns
    Source Clock Delay      (SCD):    1.961ns
    Clock Pessimism Removal (CPR):    0.295ns
  Clock Net Delay (Source):      1.415ns (routing 0.638ns, distribution 0.777ns)
  Clock Net Delay (Destination): 1.864ns (routing 0.707ns, distribution 1.157ns)

    Location             Delay type                Incr(ns)  Path(ns)    Netlist Resource(s)
  -------------------------------------------------------------------    -------------------
                         (clock clk rise edge)        0.000     0.000 r  
    AV33                                              0.000     0.000 r  clk (IN)
                         net (fo=0)                   0.000     0.000    clk_ibuf_iso/I
    AV33                 INBUF (Prop_INBUF_HPIOB_M_PAD_O)
                                                      0.385     0.385 r  clk_ibuf_iso/INBUF_INST/O
                         net (fo=1, routed)           0.000     0.385    clk_ibuf_iso/OUT
    AV33                 IBUFCTRL (Prop_IBUFCTRL_HPIOB_M_I_O)
                                                      0.000     0.385 r  clk_ibuf_iso/IBUFCTRL_INST/O
                         net (fo=1, routed)           0.144     0.529    clk_ibuf_iso
    BUFGCE_X1Y224        BUFGCE (Prop_BUFCE_BUFGCE_I_O)
                                                      0.017     0.546 r  clk_ibuf/O
    X3Y7 (CLOCK_ROOT)    net (fo=5439, routed)        1.415     1.961    shift_reg_tap_i/clk_c
    SLICE_X140Y413       FDRE                                         r  shift_reg_tap_i/sr_p.sr_1_rep_184[1920]/C
  -------------------------------------------------------------------    -------------------
    SLICE_X140Y413       FDRE (Prop_AFF_SLICEL_C_Q)
                                                      0.039     2.000 r  shift_reg_tap_i/sr_p.sr_1_rep_184[1920]/Q
                         net (fo=10, routed)          0.061     2.061    dut_inst/sorter_inst/genblk1.bitonic_sort_high/genblk1.bitonic_sort_high/genblk1.bitonic_sort_low/genblk1.bitonic_sort_low/genblk1.bitonic_sort_low/genblk1.bitonic_merge_i/genblk1.cmp_g[0].compare_i/input_slr_rep_184_0
    SLICE_X140Y415       LUT5 (Prop_A6LUT_SLICEL_I0_O)
                                                      0.022     2.083 r  dut_inst/sorter_inst/genblk1.bitonic_sort_high/genblk1.bitonic_sort_high/genblk1.bitonic_sort_low/genblk1.bitonic_sort_low/genblk1.bitonic_sort_low/genblk1.bitonic_merge_i/genblk1.cmp_g[0].compare_i/s1.pt[0]/O
                         net (fo=38, routed)          0.088     2.171    dut_inst/sorter_inst/genblk1.bitonic_sort_high/genblk1.bitonic_sort_high/genblk1.bitonic_sort_low/genblk1.bitonic_sort_low/genblk1.bitonic_merge_i/genblk1.cmp_g[7].compare_i/un1_compare_i_1_77_0
    SLICE_X141Y417       LUT5 (Prop_C6LUT_SLICEM_I4_O)
                                                      0.014     2.185 r  dut_inst/sorter_inst/genblk1.bitonic_sort_high/genblk1.bitonic_sort_high/genblk1.bitonic_sort_low/genblk1.bitonic_sort_low/genblk1.bitonic_merge_i/genblk1.cmp_g[7].compare_i/s1.pt[0]/O
                         net (fo=43, routed)          0.265     2.450    dut_inst/sorter_inst/genblk1.bitonic_sort_high/genblk1.bitonic_sort_high/genblk1.bitonic_sort_low/genblk1.bitonic_merge_i/genblk1.bitonic_merge_low/genblk1.cmp_g[6].compare_i/un1_compare_i_1_176_0
    SLICE_X146Y424       LUT6 (Prop_G6LUT_SLICEM_I0_O)
                                                      0.014     2.464 r  dut_inst/sorter_inst/genblk1.bitonic_sort_high/genblk1.bitonic_sort_high/genblk1.bitonic_sort_low/genblk1.bitonic_merge_i/genblk1.bitonic_merge_low/genblk1.cmp_g[6].compare_i/s1.pt[0]/O
                         net (fo=36, routed)          0.116     2.580    dut_inst/sorter_inst/genblk1.bitonic_sort_high/genblk1.bitonic_sort_high/genblk1.bitonic_sort_low/genblk1.bitonic_merge_i/genblk1.bitonic_merge_low/genblk1.bitonic_merge_high/genblk1.bitonic_merge_low/genblk1.bitonic_merge_high/genblk1.cmp_g[0].compare_i/un1_compare_i_1_265_0
    SLICE_X143Y425       LUT6 (Prop_G6LUT_SLICEL_I3_O)
                                                      0.060     2.640 f  dut_inst/sorter_inst/genblk1.bitonic_sort_high/genblk1.bitonic_sort_high/genblk1.bitonic_sort_low/genblk1.bitonic_merge_i/genblk1.bitonic_merge_low/genblk1.bitonic_merge_high/genblk1.bitonic_merge_low/genblk1.bitonic_merge_high/genblk1.cmp_g[0].compare_i/s1.pt[0]/O
                         net (fo=12, routed)          0.057     2.697    dut_inst/sorter_inst/genblk1.bitonic_sort_high/genblk1.bitonic_sort_high/genblk1.bitonic_merge_i/genblk1.bitonic_merge_low/genblk1.cmp_g[11].compare_i/un1_bitonic_sort_low_2_0
    SLICE_X143Y427       LUT4 (Prop_F6LUT_SLICEL_I0_O)
                                                      0.014     2.711 r  dut_inst/sorter_inst/genblk1.bitonic_sort_high/genblk1.bitonic_sort_high/genblk1.bitonic_merge_i/genblk1.bitonic_merge_low/genblk1.cmp_g[11].compare_i/s0.pt[0]/O
                         net (fo=8, routed)           0.160     2.871    dut_inst/un1_compare_i_954[9]
    SLICE_X143Y442       LUT6 (Prop_D6LUT_SLICEL_I4_O)
                                                      0.014     2.885 r  dut_inst/.delname._x_2229.ALTB[0]/O
                         net (fo=35, routed)          0.152     3.037    dut_inst/sorter_inst/genblk1.bitonic_sort_high/genblk1.bitonic_merge_i/genblk1.cmp_g[4].compare_i/un1_b_792
    SLICE_X142Y456       LUT6 (Prop_G6LUT_SLICEM_I2_O)
                                                      0.035     3.072 r  dut_inst/sorter_inst/genblk1.bitonic_sort_high/genblk1.bitonic_merge_i/genblk1.cmp_g[4].compare_i/s1.pt[0]/O
                         net (fo=49, routed)          0.153     3.225    dut_inst/sorter_inst/genblk1.bitonic_sort_high/genblk1.bitonic_merge_i/genblk1.bitonic_merge_high/genblk1.bitonic_merge_low/genblk1.bitonic_merge_high/genblk1.cmp_g[4].compare_i/un1_compare_i_1_1206_0
    SLICE_X144Y462       LUT6 (Prop_D6LUT_SLICEM_I0_O)
                                                      0.022     3.247 r  dut_inst/sorter_inst/genblk1.bitonic_sort_high/genblk1.bitonic_merge_i/genblk1.bitonic_merge_high/genblk1.bitonic_merge_low/genblk1.bitonic_merge_high/genblk1.cmp_g[4].compare_i/s0.idx[5]/O
                         net (fo=2, routed)           0.072     3.319    dut_inst/sorter_inst/genblk1.bitonic_sort_high/genblk1.bitonic_merge_i/genblk1.bitonic_merge_high/genblk1.bitonic_merge_low/genblk1.bitonic_merge_high/genblk1.bitonic_merge_low/genblk1.cmp_g[0].compare_i/idx_2256_0
    SLICE_X144Y464       LUT5 (Prop_D6LUT_SLICEM_I4_O)
                                                      0.014     3.333 r  dut_inst/sorter_inst/genblk1.bitonic_sort_high/genblk1.bitonic_merge_i/genblk1.bitonic_merge_high/genblk1.bitonic_merge_low/genblk1.bitonic_merge_high/genblk1.bitonic_merge_low/genblk1.cmp_g[0].compare_i/s0.idx[5]/O
                         net (fo=2, routed)           0.055     3.388    dut_inst/sorter_inst/genblk1.bitonic_sort_high/genblk1.bitonic_merge_i/genblk1.bitonic_merge_high/genblk1.bitonic_merge_low/genblk1.bitonic_merge_high/genblk1.bitonic_merge_low/genblk1.bitonic_merge_low/genblk1.bitonic_merge_low/genblk1.cmp_g[0].compare_i/idx_3099_0
    SLICE_X143Y464       LUT5 (Prop_B6LUT_SLICEL_I3_O)
                                                      0.050     3.438 r  dut_inst/sorter_inst/genblk1.bitonic_sort_high/genblk1.bitonic_merge_i/genblk1.bitonic_merge_high/genblk1.bitonic_merge_low/genblk1.bitonic_merge_high/genblk1.bitonic_merge_low/genblk1.bitonic_merge_low/genblk1.bitonic_merge_low/genblk1.cmp_g[0].compare_i/s0.idx[5]/O
                         net (fo=4, routed)           0.205     3.643    dut_inst/sorter_inst/genblk1.bitonic_merge_i/genblk1.bitonic_merge_low/genblk1.bitonic_merge_high/genblk1.cmp_g[16].compare_i/idx_3114_0
    SLICE_X143Y484       LUT6 (Prop_D6LUT_SLICEL_I1_O)
                                                      0.035     3.678 r  dut_inst/sorter_inst/genblk1.bitonic_merge_i/genblk1.bitonic_merge_low/genblk1.bitonic_merge_high/genblk1.cmp_g[16].compare_i/s1.idx[5]/O
                         net (fo=3, routed)           0.156     3.834    dut_inst/sorter_inst/genblk1.bitonic_merge_i/genblk1.bitonic_merge_low/genblk1.bitonic_merge_high/genblk1.bitonic_merge_high/genblk1.bitonic_merge_high/genblk1.bitonic_merge_high/genblk1.cmp_g[0].compare_i/idx_2607_0
    SLICE_X146Y494       LUT6 (Prop_C6LUT_SLICEM_I2_O)
                                                      0.035     3.869 r  dut_inst/sorter_inst/genblk1.bitonic_merge_i/genblk1.bitonic_merge_low/genblk1.bitonic_merge_high/genblk1.bitonic_merge_high/genblk1.bitonic_merge_high/genblk1.bitonic_merge_high/genblk1.cmp_g[0].compare_i/s0.idx[5]/O
                         net (fo=3, routed)           0.107     3.976    dut_inst/sorter_inst/genblk1.bitonic_merge_i/genblk1.bitonic_merge_low/genblk1.bitonic_merge_high/genblk1.bitonic_merge_high/genblk1.bitonic_merge_high/genblk1.bitonic_merge_high/genblk1.bitonic_merge_low/genblk1.bitonic_merge_low/genblk1.cmp_g[0].compare_i/idx_2649_0
    SLICE_X144Y490       LUT5 (Prop_D6LUT_SLICEM_I3_O)
                                                      0.035     4.011 r  dut_inst/sorter_inst/genblk1.bitonic_merge_i/genblk1.bitonic_merge_low/genblk1.bitonic_merge_high/genblk1.bitonic_merge_high/genblk1.bitonic_merge_high/genblk1.bitonic_merge_high/genblk1.bitonic_merge_low/genblk1.bitonic_merge_low/genblk1.cmp_g[0].compare_i/s0.idx[5]/O
                         net (fo=1, routed)           0.026     4.037    shift_reg_tap_o/idx_3324[5]
    SLICE_X144Y490       FDRE                                         r  shift_reg_tap_o/sr_1[1206]/D
  -------------------------------------------------------------------    -------------------

                         (clock clk rise edge)        0.000     0.000 r  
    AV33                                              0.000     0.000 r  clk (IN)
                         net (fo=0)                   0.000     0.000    clk_ibuf_iso/I
    AV33                 INBUF (Prop_INBUF_HPIOB_M_PAD_O)
                                                      0.572     0.572 r  clk_ibuf_iso/INBUF_INST/O
                         net (fo=1, routed)           0.000     0.572    clk_ibuf_iso/OUT
    AV33                 IBUFCTRL (Prop_IBUFCTRL_HPIOB_M_I_O)
                                                      0.000     0.572 r  clk_ibuf_iso/IBUFCTRL_INST/O
                         net (fo=1, routed)           0.181     0.753    clk_ibuf_iso
    BUFGCE_X1Y224        BUFGCE (Prop_BUFCE_BUFGCE_I_O)
                                                      0.019     0.772 r  clk_ibuf/O
    X3Y7 (CLOCK_ROOT)    net (fo=5439, routed)        1.864     2.636    shift_reg_tap_o/clk_c
    SLICE_X144Y490       FDRE                                         r  shift_reg_tap_o/sr_1[1206]/C
                         clock pessimism             -0.295     2.341    
    SLICE_X144Y490       FDRE (Hold_DFF_SLICEM_C_D)
                                                      0.046     2.387    shift_reg_tap_o/sr_1[1206]
  -------------------------------------------------------------------
                         required time                         -2.387    
                         arrival time                           4.037    
  -------------------------------------------------------------------
                         slack                                  1.650    





Pulse Width Checks
--------------------------------------------------------------------------------------
Clock Name:         clk
Waveform(ns):       { 0.000 1.786 }
Period(ns):         3.572
Sources:            { clk }

Check Type        Corner  Lib Pin   Reference Pin  Required(ns)  Actual(ns)  Slack(ns)  Location        Pin
Min Period        n/a     BUFGCE/I  n/a            1.499         3.572       2.073      BUFGCE_X1Y224   clk_ibuf/I
Min Period        n/a     FDRE/C    n/a            0.550         3.572       3.022      SLICE_X155Y410  shift_reg_tap_i/sr_p.sr_1[2217]/C
Min Period        n/a     FDRE/C    n/a            0.550         3.572       3.022      SLICE_X157Y409  shift_reg_tap_i/sr_p.sr_1[2218]/C
Min Period        n/a     FDRE/C    n/a            0.550         3.572       3.022      SLICE_X158Y410  shift_reg_tap_i/sr_p.sr_1[2219]/C
Min Period        n/a     FDRE/C    n/a            0.550         3.572       3.022      SLICE_X103Y384  shift_reg_tap_i/sr_p.sr_1[221]/C
Low Pulse Width   Slow    FDRE/C    n/a            0.275         1.786       1.511      SLICE_X158Y410  shift_reg_tap_i/sr_p.sr_1[2219]/C
Low Pulse Width   Fast    FDRE/C    n/a            0.275         1.786       1.511      SLICE_X157Y416  shift_reg_tap_i/sr_p.sr_1[2220]/C
Low Pulse Width   Fast    FDRE/C    n/a            0.275         1.786       1.511      SLICE_X155Y407  shift_reg_tap_i/sr_p.sr_1[2221]/C
Low Pulse Width   Slow    FDRE/C    n/a            0.275         1.786       1.511      SLICE_X158Y408  shift_reg_tap_i/sr_p.sr_1[2223]/C
Low Pulse Width   Fast    FDRE/C    n/a            0.275         1.786       1.511      SLICE_X157Y415  shift_reg_tap_i/sr_p.sr_1[2230]/C
High Pulse Width  Fast    FDRE/C    n/a            0.275         1.786       1.511      SLICE_X155Y410  shift_reg_tap_i/sr_p.sr_1[2217]/C
High Pulse Width  Slow    FDRE/C    n/a            0.275         1.786       1.511      SLICE_X157Y409  shift_reg_tap_i/sr_p.sr_1[2218]/C
High Pulse Width  Fast    FDRE/C    n/a            0.275         1.786       1.511      SLICE_X158Y410  shift_reg_tap_i/sr_p.sr_1[2219]/C
High Pulse Width  Fast    FDRE/C    n/a            0.275         1.786       1.511      SLICE_X103Y384  shift_reg_tap_i/sr_p.sr_1[221]/C
High Pulse Width  Slow    FDRE/C    n/a            0.275         1.786       1.511      SLICE_X157Y416  shift_reg_tap_i/sr_p.sr_1[2220]/C



---------------------------------------------------------------------------------------------------
From Clock:  clk_wrapper
  To Clock:  clk_wrapper

Setup :           NA  Failing Endpoints,  Worst Slack           NA  ,  Total Violation           NA
Hold  :           NA  Failing Endpoints,  Worst Slack           NA  ,  Total Violation           NA
PW    :            0  Failing Endpoints,  Worst Slack      498.562ns,  Total Violation        0.000ns
---------------------------------------------------------------------------------------------------


Pulse Width Checks
--------------------------------------------------------------------------------------
Clock Name:         clk_wrapper
Waveform(ns):       { 0.000 500.000 }
Period(ns):         1000.000
Sources:            { clk_wrapper }

Check Type        Corner  Lib Pin   Reference Pin  Required(ns)  Actual(ns)  Slack(ns)  Location               Pin
Min Period        n/a     FDRE/C    n/a            3.195         1000.000    996.805    BITSLICE_RX_TX_X1Y483  reducer_1/delay_block[6][0]/C
Min Period        n/a     BUFGCE/I  n/a            1.499         1000.000    998.501    BUFGCE_X1Y230          clk_wrapper_ibuf/I
Min Period        n/a     FDRE/C    n/a            0.550         1000.000    999.450    SLICE_X105Y496         reducer_1/delay_block[0][1499]/C
Min Period        n/a     FDRE/C    n/a            0.550         1000.000    999.450    SLICE_X135Y512         reducer_1/delay_block[0][149]/C
Min Period        n/a     FDRE/C    n/a            0.550         1000.000    999.450    SLICE_X141Y511         reducer_1/delay_block[0][14]/C
Low Pulse Width   Slow    FDRE/C    n/a            1.438         500.000     498.562    BITSLICE_RX_TX_X1Y483  reducer_1/delay_block[6][0]/C
Low Pulse Width   Fast    FDRE/C    n/a            1.438         500.000     498.562    BITSLICE_RX_TX_X1Y483  reducer_1/delay_block[6][0]/C
Low Pulse Width   Slow    FDRE/C    n/a            0.275         500.000     499.725    SLICE_X104Y487         reducer_1/delay_block[0][1579]/C
Low Pulse Width   Slow    FDRE/C    n/a            0.275         500.000     499.725    SLICE_X105Y481         reducer_1/delay_block[0][1592]/C
Low Pulse Width   Slow    FDRE/C    n/a            0.275         500.000     499.725    SLICE_X105Y481         reducer_1/delay_block[0][1593]/C
High Pulse Width  Fast    FDRE/C    n/a            1.438         500.000     498.562    BITSLICE_RX_TX_X1Y483  reducer_1/delay_block[6][0]/C
High Pulse Width  Slow    FDRE/C    n/a            1.438         500.000     498.562    BITSLICE_RX_TX_X1Y483  reducer_1/delay_block[6][0]/C
High Pulse Width  Fast    FDRE/C    n/a            0.275         500.000     499.725    SLICE_X105Y496         reducer_1/delay_block[0][1499]/C
High Pulse Width  Fast    FDRE/C    n/a            0.275         500.000     499.725    SLICE_X135Y512         reducer_1/delay_block[0][149]/C
High Pulse Width  Fast    FDRE/C    n/a            0.275         500.000     499.725    SLICE_X104Y495         reducer_1/delay_block[0][1500]/C



