Copyright 1986-2018 Xilinx, Inc. All Rights Reserved.
-----------------------------------------------------------------------------------------------
| Tool Version      : Vivado v.2018.2 (win64) Build 2258646 Thu Jun 14 20:03:12 MDT 2018
| Date              : Tue Mar 12 16:35:27 2019
| Host              : PCPHESEBE02 running 64-bit Service Pack 1  (build 7601)
| Command           : report_timing_summary -hold -nworst 5 -max_paths 5 -file timing_hold.txt
| Design            : wrapper
| Device            : xcvu9p-flgc2104
| Speed File        : -1  PRODUCTION 1.20 05-21-2018
| Temperature Grade : E
-----------------------------------------------------------------------------------------------

Timing Summary Report

------------------------------------------------------------------------------------------------
| Timer Settings
| --------------
------------------------------------------------------------------------------------------------

  Enable Multi Corner Analysis               :  Yes
  Enable Pessimism Removal                   :  Yes
  Pessimism Removal Resolution               :  Nearest Common Node
  Enable Input Delay Default Clock           :  No
  Enable Preset / Clear Arcs                 :  No
  Disable Flight Delays                      :  No
  Ignore I/O Paths                           :  No
  Timing Early Launch at Borrowing Latches   :  false

  Corner  Analyze    Analyze    
  Name    Max Paths  Min Paths  
  ------  ---------  ---------  
  Slow    Yes        Yes        
  Fast    Yes        Yes        



check_timing report

Table of Contents
-----------------
1. checking no_clock
2. checking constant_clock
3. checking pulse_width_clock
4. checking unconstrained_internal_endpoints
5. checking no_input_delay
6. checking no_output_delay
7. checking multiple_clock
8. checking generated_clocks
9. checking loops
10. checking partial_input_delay
11. checking partial_output_delay
12. checking latch_loops

1. checking no_clock
--------------------
 There are 0 register/latch pins with no clock.


2. checking constant_clock
--------------------------
 There are 0 register/latch pins with constant_clock.


3. checking pulse_width_clock
-----------------------------
 There are 0 register/latch pins which need pulse_width check


4. checking unconstrained_internal_endpoints
--------------------------------------------
 There are 0 pins that are not constrained for maximum delay.

 There are 0 pins that are not constrained for maximum delay due to constant clock.


5. checking no_input_delay
--------------------------
 There is 1 input port with no input delay specified. (HIGH)

 There are 0 input ports with no input delay but user has a false path constraint.


6. checking no_output_delay
---------------------------
 There is 1 port with no output delay specified. (HIGH)

 There are 0 ports with no output delay but user has a false path constraint

 There are 0 ports with no output delay but with a timing clock defined on it or propagating through it


7. checking multiple_clock
--------------------------
 There are 0 register/latch pins with multiple clocks.


8. checking generated_clocks
----------------------------
 There are 0 generated clocks that are not connected to a clock source.


9. checking loops
-----------------
 There are 0 combinational loops in the design.


10. checking partial_input_delay
--------------------------------
 There are 0 input ports with partial input delay specified.


11. checking partial_output_delay
---------------------------------
 There are 0 ports with partial output delay specified.


12. checking latch_loops
------------------------
 There are 0 combinational latch loops in the design through latch input



------------------------------------------------------------------------------------------------
| Design Timing Summary
| ---------------------
------------------------------------------------------------------------------------------------

    WHS(ns)      THS(ns)  THS Failing Endpoints  THS Total Endpoints     WPWS(ns)     TPWS(ns)  TPWS Failing Endpoints  TPWS Total Endpoints  
    -------      -------  ---------------------  -------------------     --------     --------  ----------------------  --------------------  
      1.162        0.000                      0                  832        1.511        0.000                       0                  3679  


All user specified timing constraints are met.


------------------------------------------------------------------------------------------------
| Clock Summary
| -------------
------------------------------------------------------------------------------------------------

Clock        Waveform(ns)         Period(ns)      Frequency(MHz)
-----        ------------         ----------      --------------
clk          {0.000 1.786}        3.572           279.955         
clk_wrapper  {0.000 500.000}      1000.000        1.000           


------------------------------------------------------------------------------------------------
| Intra Clock Table
| -----------------
------------------------------------------------------------------------------------------------

Clock             WHS(ns)      THS(ns)  THS Failing Endpoints  THS Total Endpoints     WPWS(ns)     TPWS(ns)  TPWS Failing Endpoints  TPWS Total Endpoints  
-----             -------      -------  ---------------------  -------------------     --------     --------  ----------------------  --------------------  
clk                 1.162        0.000                      0                  832        1.511        0.000                       0                  1735  
clk_wrapper                                                                             498.562        0.000                       0                  1944  


------------------------------------------------------------------------------------------------
| Inter Clock Table
| -----------------
------------------------------------------------------------------------------------------------

From Clock    To Clock          WHS(ns)      THS(ns)  THS Failing Endpoints  THS Total Endpoints  
----------    --------          -------      -------  ---------------------  -------------------  


------------------------------------------------------------------------------------------------
| Other Path Groups Table
| -----------------------
------------------------------------------------------------------------------------------------

Path Group    From Clock    To Clock          WHS(ns)      THS(ns)  THS Failing Endpoints  THS Total Endpoints  
----------    ----------    --------          -------      -------  ---------------------  -------------------  


------------------------------------------------------------------------------------------------
| Timing Details
| --------------
------------------------------------------------------------------------------------------------


---------------------------------------------------------------------------------------------------
From Clock:  clk
  To Clock:  clk

Setup :           NA  Failing Endpoints,  Worst Slack           NA  ,  Total Violation           NA
Hold  :            0  Failing Endpoints,  Worst Slack        1.162ns,  Total Violation        0.000ns
PW    :            0  Failing Endpoints,  Worst Slack        1.511ns,  Total Violation        0.000ns
---------------------------------------------------------------------------------------------------


Min Delay Paths
--------------------------------------------------------------------------------------
Slack (MET) :             1.162ns  (arrival time - required time)
  Source:                 shift_reg_tap_i/sr_p.sr_1[276]/C
                            (rising edge-triggered cell FDRE clocked by clk  {rise@0.000ns fall@1.786ns period=3.572ns})
  Destination:            shift_reg_tap_o/sr_p.sr_1[638]/D
                            (rising edge-triggered cell FDRE clocked by clk  {rise@0.000ns fall@1.786ns period=3.572ns})
  Path Group:             clk
  Path Type:              Hold (Min at Fast Process Corner)
  Requirement:            0.000ns  (clk rise@0.000ns - clk rise@0.000ns)
  Data Path Delay:        1.345ns  (logic 0.217ns (16.134%)  route 1.128ns (83.866%))
  Logic Levels:           9  (LUT4=4 LUT5=3 LUT6=2)
  Clock Path Skew:        0.137ns (DCD - SCD - CPR)
    Destination Clock Delay (DCD):    2.083ns
    Source Clock Delay      (SCD):    1.628ns
    Clock Pessimism Removal (CPR):    0.318ns
  Clock Net Delay (Source):      1.082ns (routing 0.522ns, distribution 0.560ns)
  Clock Net Delay (Destination): 1.311ns (routing 0.580ns, distribution 0.731ns)

    Location             Delay type                Incr(ns)  Path(ns)    Netlist Resource(s)
  -------------------------------------------------------------------    -------------------
                         (clock clk rise edge)        0.000     0.000 r  
    AV33                                              0.000     0.000 r  clk (IN)
                         net (fo=0)                   0.000     0.000    clk_ibuf_iso/I
    AV33                 INBUF (Prop_INBUF_HPIOB_M_PAD_O)
                                                      0.385     0.385 r  clk_ibuf_iso/INBUF_INST/O
                         net (fo=1, routed)           0.000     0.385    clk_ibuf_iso/OUT
    AV33                 IBUFCTRL (Prop_IBUFCTRL_HPIOB_M_I_O)
                                                      0.000     0.385 r  clk_ibuf_iso/IBUFCTRL_INST/O
                         net (fo=1, routed)           0.144     0.529    clk_ibuf_iso
    BUFGCE_X1Y224        BUFGCE (Prop_BUFCE_BUFGCE_I_O)
                                                      0.017     0.546 r  clk_ibuf/O
    X4Y7 (CLOCK_ROOT)    net (fo=1734, routed)        1.082     1.628    shift_reg_tap_i/clk_c
    SLICE_X125Y463       FDRE                                         r  shift_reg_tap_i/sr_p.sr_1[276]/C
  -------------------------------------------------------------------    -------------------
    SLICE_X125Y463       FDRE (Prop_EFF_SLICEM_C_Q)
                                                      0.038     1.666 r  shift_reg_tap_i/sr_p.sr_1[276]/Q
                         net (fo=27, routed)          0.087     1.753    dut_inst/sorter_inst/genblk1.bitonic_sort_low/genblk1.bitonic_sort_high/genblk1.bitonic_sort_low/genblk1.bitonic_sort_high/genblk1.bitonic_merge_i/genblk1.bitonic_merge_low/genblk1.cmp_g[0].compare_i/input_slr_13
    SLICE_X125Y466       LUT4 (Prop_B6LUT_SLICEM_I1_O)
                                                      0.014     1.767 r  dut_inst/sorter_inst/genblk1.bitonic_sort_low/genblk1.bitonic_sort_high/genblk1.bitonic_sort_low/genblk1.bitonic_sort_high/genblk1.bitonic_merge_i/genblk1.bitonic_merge_low/genblk1.cmp_g[0].compare_i/s1.pt[3]/O
                         net (fo=15, routed)          0.063     1.830    dut_inst/sorter_inst/genblk1.bitonic_sort_low/genblk1.bitonic_sort_high/genblk1.bitonic_sort_low/genblk1.bitonic_merge_i/genblk1.bitonic_merge_high/genblk1.cmp_g[1].compare_i/pt_51_0
    SLICE_X125Y464       LUT4 (Prop_A6LUT_SLICEM_I1_O)
                                                      0.023     1.853 r  dut_inst/sorter_inst/genblk1.bitonic_sort_low/genblk1.bitonic_sort_high/genblk1.bitonic_sort_low/genblk1.bitonic_merge_i/genblk1.bitonic_merge_high/genblk1.cmp_g[1].compare_i/s1.pt[3]/O
                         net (fo=20, routed)          0.093     1.946    dut_inst/sorter_inst/genblk1.bitonic_sort_low/genblk1.bitonic_sort_high/genblk1.bitonic_merge_i/genblk1.cmp_g[7].compare_i/pt_121_2
    SLICE_X127Y466       LUT4 (Prop_C6LUT_SLICEM_I0_O)
                                                      0.014     1.960 r  dut_inst/sorter_inst/genblk1.bitonic_sort_low/genblk1.bitonic_sort_high/genblk1.bitonic_merge_i/genblk1.cmp_g[7].compare_i/s0.pt[3]/O
                         net (fo=16, routed)          0.109     2.069    dut_inst/sorter_inst/genblk1.bitonic_sort_low/genblk1.bitonic_sort_high/genblk1.bitonic_merge_i/genblk1.bitonic_merge_low/genblk1.bitonic_merge_low/genblk1.cmp_g[1].compare_i/pt_136_0
    SLICE_X128Y467       LUT6 (Prop_G6LUT_SLICEL_I1_O)
                                                      0.014     2.083 r  dut_inst/sorter_inst/genblk1.bitonic_sort_low/genblk1.bitonic_sort_high/genblk1.bitonic_merge_i/genblk1.bitonic_merge_low/genblk1.bitonic_merge_low/genblk1.cmp_g[1].compare_i/s1.pt[3]/O
                         net (fo=29, routed)          0.111     2.194    dut_inst/sorter_inst/genblk1.bitonic_sort_low/genblk1.bitonic_merge_i/genblk1.cmp_g[2].compare_i/pt_140_0_0
    SLICE_X132Y467       LUT5 (Prop_G6LUT_SLICEL_I4_O)
                                                      0.040     2.234 r  dut_inst/sorter_inst/genblk1.bitonic_sort_low/genblk1.bitonic_merge_i/genblk1.cmp_g[2].compare_i/s0.pt_rep_35[3]/O
                         net (fo=14, routed)          0.215     2.449    dut_inst/sorter_inst/genblk1.bitonic_sort_low/genblk1.bitonic_merge_i/genblk1.bitonic_merge_low/genblk1.bitonic_merge_high/genblk1.bitonic_merge_low/genblk1.cmp_g[0].compare_i/pt_rep_35_0
    SLICE_X144Y455       LUT5 (Prop_F6LUT_SLICEM_I0_O)
                                                      0.014     2.463 r  dut_inst/sorter_inst/genblk1.bitonic_sort_low/genblk1.bitonic_merge_i/genblk1.bitonic_merge_low/genblk1.bitonic_merge_high/genblk1.bitonic_merge_low/genblk1.cmp_g[0].compare_i/s1.pt[3]/O
                         net (fo=22, routed)          0.235     2.698    dut_inst/sorter_inst/genblk1.bitonic_merge_i/genblk1.bitonic_merge_high/genblk1.bitonic_merge_high/genblk1.cmp_g[3].compare_i/pt_496_0
    SLICE_X144Y428       LUT6 (Prop_H6LUT_SLICEM_I0_O)
                                                      0.023     2.721 r  dut_inst/sorter_inst/genblk1.bitonic_merge_i/genblk1.bitonic_merge_high/genblk1.bitonic_merge_high/genblk1.cmp_g[3].compare_i/s0.pt[3]/O
                         net (fo=7, routed)           0.139     2.860    dut_inst/sorter_inst/genblk1.bitonic_merge_i/genblk1.bitonic_merge_high/genblk1.bitonic_merge_high/genblk1.bitonic_merge_low/genblk1.bitonic_merge_low/genblk1.cmp_g[1].compare_i/pt_435_0_0
    SLICE_X142Y423       LUT4 (Prop_F6LUT_SLICEM_I2_O)
                                                      0.022     2.882 r  dut_inst/sorter_inst/genblk1.bitonic_merge_i/genblk1.bitonic_merge_high/genblk1.bitonic_merge_high/genblk1.bitonic_merge_low/genblk1.bitonic_merge_low/genblk1.cmp_g[1].compare_i/s0.pt[3]/O
                         net (fo=9, routed)           0.055     2.937    dut_inst/sorter_inst/genblk1.bitonic_merge_i/genblk1.bitonic_merge_high/genblk1.bitonic_merge_high/genblk1.bitonic_merge_low/genblk1.bitonic_merge_low/genblk1.bitonic_merge_low/genblk1.cmp_g[0].compare_i/pt_424_0
    SLICE_X142Y425       LUT5 (Prop_H6LUT_SLICEM_I1_O)
                                                      0.015     2.952 r  dut_inst/sorter_inst/genblk1.bitonic_merge_i/genblk1.bitonic_merge_high/genblk1.bitonic_merge_high/genblk1.bitonic_merge_low/genblk1.bitonic_merge_low/genblk1.bitonic_merge_low/genblk1.cmp_g[0].compare_i/s1.pt[1]/O
                         net (fo=1, routed)           0.021     2.973    shift_reg_tap_o/pt_582_0_0
    SLICE_X142Y425       FDRE                                         r  shift_reg_tap_o/sr_p.sr_1[638]/D
  -------------------------------------------------------------------    -------------------

                         (clock clk rise edge)        0.000     0.000 r  
    AV33                                              0.000     0.000 r  clk (IN)
                         net (fo=0)                   0.000     0.000    clk_ibuf_iso/I
    AV33                 INBUF (Prop_INBUF_HPIOB_M_PAD_O)
                                                      0.572     0.572 r  clk_ibuf_iso/INBUF_INST/O
                         net (fo=1, routed)           0.000     0.572    clk_ibuf_iso/OUT
    AV33                 IBUFCTRL (Prop_IBUFCTRL_HPIOB_M_I_O)
                                                      0.000     0.572 r  clk_ibuf_iso/IBUFCTRL_INST/O
                         net (fo=1, routed)           0.181     0.753    clk_ibuf_iso
    BUFGCE_X1Y224        BUFGCE (Prop_BUFCE_BUFGCE_I_O)
                                                      0.019     0.772 r  clk_ibuf/O
    X4Y7 (CLOCK_ROOT)    net (fo=1734, routed)        1.311     2.083    shift_reg_tap_o/clk_c
    SLICE_X142Y425       FDRE                                         r  shift_reg_tap_o/sr_p.sr_1[638]/C
                         clock pessimism             -0.318     1.765    
    SLICE_X142Y425       FDRE (Hold_HFF_SLICEM_C_D)
                                                      0.046     1.811    shift_reg_tap_o/sr_p.sr_1[638]
  -------------------------------------------------------------------
                         required time                         -1.811    
                         arrival time                           2.973    
  -------------------------------------------------------------------
                         slack                                  1.162    

Slack (MET) :             1.162ns  (arrival time - required time)
  Source:                 shift_reg_tap_i/sr_p.sr_1[276]/C
                            (rising edge-triggered cell FDRE clocked by clk  {rise@0.000ns fall@1.786ns period=3.572ns})
  Destination:            shift_reg_tap_o/sr_p.sr_1[638]/D
                            (rising edge-triggered cell FDRE clocked by clk  {rise@0.000ns fall@1.786ns period=3.572ns})
  Path Group:             clk
  Path Type:              Hold (Min at Fast Process Corner)
  Requirement:            0.000ns  (clk rise@0.000ns - clk rise@0.000ns)
  Data Path Delay:        1.345ns  (logic 0.217ns (16.134%)  route 1.128ns (83.866%))
  Logic Levels:           9  (LUT4=4 LUT5=3 LUT6=2)
  Clock Path Skew:        0.137ns (DCD - SCD - CPR)
    Destination Clock Delay (DCD):    2.083ns
    Source Clock Delay      (SCD):    1.628ns
    Clock Pessimism Removal (CPR):    0.318ns
  Clock Net Delay (Source):      1.082ns (routing 0.522ns, distribution 0.560ns)
  Clock Net Delay (Destination): 1.311ns (routing 0.580ns, distribution 0.731ns)

    Location             Delay type                Incr(ns)  Path(ns)    Netlist Resource(s)
  -------------------------------------------------------------------    -------------------
                         (clock clk rise edge)        0.000     0.000 r  
    AV33                                              0.000     0.000 r  clk (IN)
                         net (fo=0)                   0.000     0.000    clk_ibuf_iso/I
    AV33                 INBUF (Prop_INBUF_HPIOB_M_PAD_O)
                                                      0.385     0.385 r  clk_ibuf_iso/INBUF_INST/O
                         net (fo=1, routed)           0.000     0.385    clk_ibuf_iso/OUT
    AV33                 IBUFCTRL (Prop_IBUFCTRL_HPIOB_M_I_O)
                                                      0.000     0.385 r  clk_ibuf_iso/IBUFCTRL_INST/O
                         net (fo=1, routed)           0.144     0.529    clk_ibuf_iso
    BUFGCE_X1Y224        BUFGCE (Prop_BUFCE_BUFGCE_I_O)
                                                      0.017     0.546 r  clk_ibuf/O
    X4Y7 (CLOCK_ROOT)    net (fo=1734, routed)        1.082     1.628    shift_reg_tap_i/clk_c
    SLICE_X125Y463       FDRE                                         r  shift_reg_tap_i/sr_p.sr_1[276]/C
  -------------------------------------------------------------------    -------------------
    SLICE_X125Y463       FDRE (Prop_EFF_SLICEM_C_Q)
                                                      0.038     1.666 f  shift_reg_tap_i/sr_p.sr_1[276]/Q
                         net (fo=27, routed)          0.087     1.753    dut_inst/sorter_inst/genblk1.bitonic_sort_low/genblk1.bitonic_sort_high/genblk1.bitonic_sort_low/genblk1.bitonic_sort_high/genblk1.bitonic_merge_i/genblk1.bitonic_merge_low/genblk1.cmp_g[0].compare_i/input_slr_13
    SLICE_X125Y466       LUT4 (Prop_B6LUT_SLICEM_I1_O)
                                                      0.014     1.767 f  dut_inst/sorter_inst/genblk1.bitonic_sort_low/genblk1.bitonic_sort_high/genblk1.bitonic_sort_low/genblk1.bitonic_sort_high/genblk1.bitonic_merge_i/genblk1.bitonic_merge_low/genblk1.cmp_g[0].compare_i/s1.pt[3]/O
                         net (fo=15, routed)          0.063     1.830    dut_inst/sorter_inst/genblk1.bitonic_sort_low/genblk1.bitonic_sort_high/genblk1.bitonic_sort_low/genblk1.bitonic_merge_i/genblk1.bitonic_merge_high/genblk1.cmp_g[1].compare_i/pt_51_0
    SLICE_X125Y464       LUT4 (Prop_A6LUT_SLICEM_I1_O)
                                                      0.023     1.853 f  dut_inst/sorter_inst/genblk1.bitonic_sort_low/genblk1.bitonic_sort_high/genblk1.bitonic_sort_low/genblk1.bitonic_merge_i/genblk1.bitonic_merge_high/genblk1.cmp_g[1].compare_i/s1.pt[3]/O
                         net (fo=20, routed)          0.093     1.946    dut_inst/sorter_inst/genblk1.bitonic_sort_low/genblk1.bitonic_sort_high/genblk1.bitonic_merge_i/genblk1.cmp_g[7].compare_i/pt_121_2
    SLICE_X127Y466       LUT4 (Prop_C6LUT_SLICEM_I0_O)
                                                      0.014     1.960 f  dut_inst/sorter_inst/genblk1.bitonic_sort_low/genblk1.bitonic_sort_high/genblk1.bitonic_merge_i/genblk1.cmp_g[7].compare_i/s0.pt[3]/O
                         net (fo=16, routed)          0.109     2.069    dut_inst/sorter_inst/genblk1.bitonic_sort_low/genblk1.bitonic_sort_high/genblk1.bitonic_merge_i/genblk1.bitonic_merge_low/genblk1.bitonic_merge_low/genblk1.cmp_g[1].compare_i/pt_136_0
    SLICE_X128Y467       LUT6 (Prop_G6LUT_SLICEL_I1_O)
                                                      0.014     2.083 f  dut_inst/sorter_inst/genblk1.bitonic_sort_low/genblk1.bitonic_sort_high/genblk1.bitonic_merge_i/genblk1.bitonic_merge_low/genblk1.bitonic_merge_low/genblk1.cmp_g[1].compare_i/s1.pt[3]/O
                         net (fo=29, routed)          0.111     2.194    dut_inst/sorter_inst/genblk1.bitonic_sort_low/genblk1.bitonic_merge_i/genblk1.cmp_g[2].compare_i/pt_140_0_0
    SLICE_X132Y467       LUT5 (Prop_G6LUT_SLICEL_I4_O)
                                                      0.040     2.234 f  dut_inst/sorter_inst/genblk1.bitonic_sort_low/genblk1.bitonic_merge_i/genblk1.cmp_g[2].compare_i/s0.pt_rep_35[3]/O
                         net (fo=14, routed)          0.215     2.449    dut_inst/sorter_inst/genblk1.bitonic_sort_low/genblk1.bitonic_merge_i/genblk1.bitonic_merge_low/genblk1.bitonic_merge_high/genblk1.bitonic_merge_low/genblk1.cmp_g[0].compare_i/pt_rep_35_0
    SLICE_X144Y455       LUT5 (Prop_F6LUT_SLICEM_I0_O)
                                                      0.014     2.463 f  dut_inst/sorter_inst/genblk1.bitonic_sort_low/genblk1.bitonic_merge_i/genblk1.bitonic_merge_low/genblk1.bitonic_merge_high/genblk1.bitonic_merge_low/genblk1.cmp_g[0].compare_i/s1.pt[3]/O
                         net (fo=22, routed)          0.235     2.698    dut_inst/sorter_inst/genblk1.bitonic_merge_i/genblk1.bitonic_merge_high/genblk1.bitonic_merge_high/genblk1.cmp_g[3].compare_i/pt_496_0
    SLICE_X144Y428       LUT6 (Prop_H6LUT_SLICEM_I0_O)
                                                      0.023     2.721 f  dut_inst/sorter_inst/genblk1.bitonic_merge_i/genblk1.bitonic_merge_high/genblk1.bitonic_merge_high/genblk1.cmp_g[3].compare_i/s0.pt[3]/O
                         net (fo=7, routed)           0.139     2.860    dut_inst/sorter_inst/genblk1.bitonic_merge_i/genblk1.bitonic_merge_high/genblk1.bitonic_merge_high/genblk1.bitonic_merge_low/genblk1.bitonic_merge_low/genblk1.cmp_g[1].compare_i/pt_435_0_0
    SLICE_X142Y423       LUT4 (Prop_F6LUT_SLICEM_I2_O)
                                                      0.022     2.882 f  dut_inst/sorter_inst/genblk1.bitonic_merge_i/genblk1.bitonic_merge_high/genblk1.bitonic_merge_high/genblk1.bitonic_merge_low/genblk1.bitonic_merge_low/genblk1.cmp_g[1].compare_i/s0.pt[3]/O
                         net (fo=9, routed)           0.055     2.937    dut_inst/sorter_inst/genblk1.bitonic_merge_i/genblk1.bitonic_merge_high/genblk1.bitonic_merge_high/genblk1.bitonic_merge_low/genblk1.bitonic_merge_low/genblk1.bitonic_merge_low/genblk1.cmp_g[0].compare_i/pt_424_0
    SLICE_X142Y425       LUT5 (Prop_H6LUT_SLICEM_I1_O)
                                                      0.015     2.952 r  dut_inst/sorter_inst/genblk1.bitonic_merge_i/genblk1.bitonic_merge_high/genblk1.bitonic_merge_high/genblk1.bitonic_merge_low/genblk1.bitonic_merge_low/genblk1.bitonic_merge_low/genblk1.cmp_g[0].compare_i/s1.pt[1]/O
                         net (fo=1, routed)           0.021     2.973    shift_reg_tap_o/pt_582_0_0
    SLICE_X142Y425       FDRE                                         r  shift_reg_tap_o/sr_p.sr_1[638]/D
  -------------------------------------------------------------------    -------------------

                         (clock clk rise edge)        0.000     0.000 r  
    AV33                                              0.000     0.000 r  clk (IN)
                         net (fo=0)                   0.000     0.000    clk_ibuf_iso/I
    AV33                 INBUF (Prop_INBUF_HPIOB_M_PAD_O)
                                                      0.572     0.572 r  clk_ibuf_iso/INBUF_INST/O
                         net (fo=1, routed)           0.000     0.572    clk_ibuf_iso/OUT
    AV33                 IBUFCTRL (Prop_IBUFCTRL_HPIOB_M_I_O)
                                                      0.000     0.572 r  clk_ibuf_iso/IBUFCTRL_INST/O
                         net (fo=1, routed)           0.181     0.753    clk_ibuf_iso
    BUFGCE_X1Y224        BUFGCE (Prop_BUFCE_BUFGCE_I_O)
                                                      0.019     0.772 r  clk_ibuf/O
    X4Y7 (CLOCK_ROOT)    net (fo=1734, routed)        1.311     2.083    shift_reg_tap_o/clk_c
    SLICE_X142Y425       FDRE                                         r  shift_reg_tap_o/sr_p.sr_1[638]/C
                         clock pessimism             -0.318     1.765    
    SLICE_X142Y425       FDRE (Hold_HFF_SLICEM_C_D)
                                                      0.046     1.811    shift_reg_tap_o/sr_p.sr_1[638]
  -------------------------------------------------------------------
                         required time                         -1.811    
                         arrival time                           2.973    
  -------------------------------------------------------------------
                         slack                                  1.162    

Slack (MET) :             1.162ns  (arrival time - required time)
  Source:                 shift_reg_tap_i/sr_p.sr_1[276]/C
                            (rising edge-triggered cell FDRE clocked by clk  {rise@0.000ns fall@1.786ns period=3.572ns})
  Destination:            shift_reg_tap_o/sr_p.sr_1[638]/D
                            (rising edge-triggered cell FDRE clocked by clk  {rise@0.000ns fall@1.786ns period=3.572ns})
  Path Group:             clk
  Path Type:              Hold (Min at Fast Process Corner)
  Requirement:            0.000ns  (clk rise@0.000ns - clk rise@0.000ns)
  Data Path Delay:        1.345ns  (logic 0.217ns (16.134%)  route 1.128ns (83.866%))
  Logic Levels:           9  (LUT4=4 LUT5=3 LUT6=2)
  Clock Path Skew:        0.137ns (DCD - SCD - CPR)
    Destination Clock Delay (DCD):    2.083ns
    Source Clock Delay      (SCD):    1.628ns
    Clock Pessimism Removal (CPR):    0.318ns
  Clock Net Delay (Source):      1.082ns (routing 0.522ns, distribution 0.560ns)
  Clock Net Delay (Destination): 1.311ns (routing 0.580ns, distribution 0.731ns)

    Location             Delay type                Incr(ns)  Path(ns)    Netlist Resource(s)
  -------------------------------------------------------------------    -------------------
                         (clock clk rise edge)        0.000     0.000 r  
    AV33                                              0.000     0.000 r  clk (IN)
                         net (fo=0)                   0.000     0.000    clk_ibuf_iso/I
    AV33                 INBUF (Prop_INBUF_HPIOB_M_PAD_O)
                                                      0.385     0.385 r  clk_ibuf_iso/INBUF_INST/O
                         net (fo=1, routed)           0.000     0.385    clk_ibuf_iso/OUT
    AV33                 IBUFCTRL (Prop_IBUFCTRL_HPIOB_M_I_O)
                                                      0.000     0.385 r  clk_ibuf_iso/IBUFCTRL_INST/O
                         net (fo=1, routed)           0.144     0.529    clk_ibuf_iso
    BUFGCE_X1Y224        BUFGCE (Prop_BUFCE_BUFGCE_I_O)
                                                      0.017     0.546 r  clk_ibuf/O
    X4Y7 (CLOCK_ROOT)    net (fo=1734, routed)        1.082     1.628    shift_reg_tap_i/clk_c
    SLICE_X125Y463       FDRE                                         r  shift_reg_tap_i/sr_p.sr_1[276]/C
  -------------------------------------------------------------------    -------------------
    SLICE_X125Y463       FDRE (Prop_EFF_SLICEM_C_Q)
                                                      0.038     1.666 r  shift_reg_tap_i/sr_p.sr_1[276]/Q
                         net (fo=27, routed)          0.087     1.753    dut_inst/sorter_inst/genblk1.bitonic_sort_low/genblk1.bitonic_sort_high/genblk1.bitonic_sort_low/genblk1.bitonic_sort_high/genblk1.bitonic_merge_i/genblk1.bitonic_merge_low/genblk1.cmp_g[0].compare_i/input_slr_13
    SLICE_X125Y466       LUT4 (Prop_B6LUT_SLICEM_I1_O)
                                                      0.014     1.767 r  dut_inst/sorter_inst/genblk1.bitonic_sort_low/genblk1.bitonic_sort_high/genblk1.bitonic_sort_low/genblk1.bitonic_sort_high/genblk1.bitonic_merge_i/genblk1.bitonic_merge_low/genblk1.cmp_g[0].compare_i/s1.pt[3]/O
                         net (fo=15, routed)          0.063     1.830    dut_inst/sorter_inst/genblk1.bitonic_sort_low/genblk1.bitonic_sort_high/genblk1.bitonic_sort_low/genblk1.bitonic_merge_i/genblk1.bitonic_merge_high/genblk1.cmp_g[1].compare_i/pt_51_0
    SLICE_X125Y464       LUT4 (Prop_A6LUT_SLICEM_I1_O)
                                                      0.023     1.853 r  dut_inst/sorter_inst/genblk1.bitonic_sort_low/genblk1.bitonic_sort_high/genblk1.bitonic_sort_low/genblk1.bitonic_merge_i/genblk1.bitonic_merge_high/genblk1.cmp_g[1].compare_i/s1.pt[3]/O
                         net (fo=20, routed)          0.093     1.946    dut_inst/sorter_inst/genblk1.bitonic_sort_low/genblk1.bitonic_sort_high/genblk1.bitonic_merge_i/genblk1.cmp_g[7].compare_i/pt_121_2
    SLICE_X127Y466       LUT4 (Prop_C6LUT_SLICEM_I0_O)
                                                      0.014     1.960 r  dut_inst/sorter_inst/genblk1.bitonic_sort_low/genblk1.bitonic_sort_high/genblk1.bitonic_merge_i/genblk1.cmp_g[7].compare_i/s0.pt[3]/O
                         net (fo=16, routed)          0.109     2.069    dut_inst/sorter_inst/genblk1.bitonic_sort_low/genblk1.bitonic_sort_high/genblk1.bitonic_merge_i/genblk1.bitonic_merge_low/genblk1.bitonic_merge_low/genblk1.cmp_g[1].compare_i/pt_136_0
    SLICE_X128Y467       LUT6 (Prop_G6LUT_SLICEL_I1_O)
                                                      0.014     2.083 r  dut_inst/sorter_inst/genblk1.bitonic_sort_low/genblk1.bitonic_sort_high/genblk1.bitonic_merge_i/genblk1.bitonic_merge_low/genblk1.bitonic_merge_low/genblk1.cmp_g[1].compare_i/s1.pt[3]/O
                         net (fo=29, routed)          0.111     2.194    dut_inst/sorter_inst/genblk1.bitonic_sort_low/genblk1.bitonic_merge_i/genblk1.cmp_g[2].compare_i/pt_140_0_0
    SLICE_X132Y467       LUT5 (Prop_G6LUT_SLICEL_I4_O)
                                                      0.040     2.234 r  dut_inst/sorter_inst/genblk1.bitonic_sort_low/genblk1.bitonic_merge_i/genblk1.cmp_g[2].compare_i/s0.pt_rep_35[3]/O
                         net (fo=14, routed)          0.215     2.449    dut_inst/sorter_inst/genblk1.bitonic_sort_low/genblk1.bitonic_merge_i/genblk1.bitonic_merge_low/genblk1.bitonic_merge_high/genblk1.bitonic_merge_low/genblk1.cmp_g[0].compare_i/pt_rep_35_0
    SLICE_X144Y455       LUT5 (Prop_F6LUT_SLICEM_I0_O)
                                                      0.014     2.463 r  dut_inst/sorter_inst/genblk1.bitonic_sort_low/genblk1.bitonic_merge_i/genblk1.bitonic_merge_low/genblk1.bitonic_merge_high/genblk1.bitonic_merge_low/genblk1.cmp_g[0].compare_i/s1.pt[3]/O
                         net (fo=22, routed)          0.235     2.698    dut_inst/sorter_inst/genblk1.bitonic_merge_i/genblk1.bitonic_merge_high/genblk1.bitonic_merge_high/genblk1.cmp_g[3].compare_i/pt_496_0
    SLICE_X144Y428       LUT6 (Prop_H6LUT_SLICEM_I0_O)
                                                      0.023     2.721 r  dut_inst/sorter_inst/genblk1.bitonic_merge_i/genblk1.bitonic_merge_high/genblk1.bitonic_merge_high/genblk1.cmp_g[3].compare_i/s0.pt[3]/O
                         net (fo=7, routed)           0.139     2.860    dut_inst/sorter_inst/genblk1.bitonic_merge_i/genblk1.bitonic_merge_high/genblk1.bitonic_merge_high/genblk1.bitonic_merge_low/genblk1.bitonic_merge_low/genblk1.cmp_g[1].compare_i/pt_435_0_0
    SLICE_X142Y423       LUT4 (Prop_F6LUT_SLICEM_I2_O)
                                                      0.022     2.882 r  dut_inst/sorter_inst/genblk1.bitonic_merge_i/genblk1.bitonic_merge_high/genblk1.bitonic_merge_high/genblk1.bitonic_merge_low/genblk1.bitonic_merge_low/genblk1.cmp_g[1].compare_i/s0.pt[3]/O
                         net (fo=9, routed)           0.055     2.937    dut_inst/sorter_inst/genblk1.bitonic_merge_i/genblk1.bitonic_merge_high/genblk1.bitonic_merge_high/genblk1.bitonic_merge_low/genblk1.bitonic_merge_low/genblk1.bitonic_merge_low/genblk1.cmp_g[0].compare_i/pt_424_0
    SLICE_X142Y425       LUT5 (Prop_H6LUT_SLICEM_I1_O)
                                                      0.015     2.952 f  dut_inst/sorter_inst/genblk1.bitonic_merge_i/genblk1.bitonic_merge_high/genblk1.bitonic_merge_high/genblk1.bitonic_merge_low/genblk1.bitonic_merge_low/genblk1.bitonic_merge_low/genblk1.cmp_g[0].compare_i/s1.pt[1]/O
                         net (fo=1, routed)           0.021     2.973    shift_reg_tap_o/pt_582_0_0
    SLICE_X142Y425       FDRE                                         f  shift_reg_tap_o/sr_p.sr_1[638]/D
  -------------------------------------------------------------------    -------------------

                         (clock clk rise edge)        0.000     0.000 r  
    AV33                                              0.000     0.000 r  clk (IN)
                         net (fo=0)                   0.000     0.000    clk_ibuf_iso/I
    AV33                 INBUF (Prop_INBUF_HPIOB_M_PAD_O)
                                                      0.572     0.572 r  clk_ibuf_iso/INBUF_INST/O
                         net (fo=1, routed)           0.000     0.572    clk_ibuf_iso/OUT
    AV33                 IBUFCTRL (Prop_IBUFCTRL_HPIOB_M_I_O)
                                                      0.000     0.572 r  clk_ibuf_iso/IBUFCTRL_INST/O
                         net (fo=1, routed)           0.181     0.753    clk_ibuf_iso
    BUFGCE_X1Y224        BUFGCE (Prop_BUFCE_BUFGCE_I_O)
                                                      0.019     0.772 r  clk_ibuf/O
    X4Y7 (CLOCK_ROOT)    net (fo=1734, routed)        1.311     2.083    shift_reg_tap_o/clk_c
    SLICE_X142Y425       FDRE                                         r  shift_reg_tap_o/sr_p.sr_1[638]/C
                         clock pessimism             -0.318     1.765    
    SLICE_X142Y425       FDRE (Hold_HFF_SLICEM_C_D)
                                                      0.046     1.811    shift_reg_tap_o/sr_p.sr_1[638]
  -------------------------------------------------------------------
                         required time                         -1.811    
                         arrival time                           2.973    
  -------------------------------------------------------------------
                         slack                                  1.162    

Slack (MET) :             1.162ns  (arrival time - required time)
  Source:                 shift_reg_tap_i/sr_p.sr_1[276]/C
                            (rising edge-triggered cell FDRE clocked by clk  {rise@0.000ns fall@1.786ns period=3.572ns})
  Destination:            shift_reg_tap_o/sr_p.sr_1[638]/D
                            (rising edge-triggered cell FDRE clocked by clk  {rise@0.000ns fall@1.786ns period=3.572ns})
  Path Group:             clk
  Path Type:              Hold (Min at Fast Process Corner)
  Requirement:            0.000ns  (clk rise@0.000ns - clk rise@0.000ns)
  Data Path Delay:        1.345ns  (logic 0.217ns (16.134%)  route 1.128ns (83.866%))
  Logic Levels:           9  (LUT4=4 LUT5=3 LUT6=2)
  Clock Path Skew:        0.137ns (DCD - SCD - CPR)
    Destination Clock Delay (DCD):    2.083ns
    Source Clock Delay      (SCD):    1.628ns
    Clock Pessimism Removal (CPR):    0.318ns
  Clock Net Delay (Source):      1.082ns (routing 0.522ns, distribution 0.560ns)
  Clock Net Delay (Destination): 1.311ns (routing 0.580ns, distribution 0.731ns)

    Location             Delay type                Incr(ns)  Path(ns)    Netlist Resource(s)
  -------------------------------------------------------------------    -------------------
                         (clock clk rise edge)        0.000     0.000 r  
    AV33                                              0.000     0.000 r  clk (IN)
                         net (fo=0)                   0.000     0.000    clk_ibuf_iso/I
    AV33                 INBUF (Prop_INBUF_HPIOB_M_PAD_O)
                                                      0.385     0.385 r  clk_ibuf_iso/INBUF_INST/O
                         net (fo=1, routed)           0.000     0.385    clk_ibuf_iso/OUT
    AV33                 IBUFCTRL (Prop_IBUFCTRL_HPIOB_M_I_O)
                                                      0.000     0.385 r  clk_ibuf_iso/IBUFCTRL_INST/O
                         net (fo=1, routed)           0.144     0.529    clk_ibuf_iso
    BUFGCE_X1Y224        BUFGCE (Prop_BUFCE_BUFGCE_I_O)
                                                      0.017     0.546 r  clk_ibuf/O
    X4Y7 (CLOCK_ROOT)    net (fo=1734, routed)        1.082     1.628    shift_reg_tap_i/clk_c
    SLICE_X125Y463       FDRE                                         r  shift_reg_tap_i/sr_p.sr_1[276]/C
  -------------------------------------------------------------------    -------------------
    SLICE_X125Y463       FDRE (Prop_EFF_SLICEM_C_Q)
                                                      0.038     1.666 f  shift_reg_tap_i/sr_p.sr_1[276]/Q
                         net (fo=27, routed)          0.087     1.753    dut_inst/sorter_inst/genblk1.bitonic_sort_low/genblk1.bitonic_sort_high/genblk1.bitonic_sort_low/genblk1.bitonic_sort_high/genblk1.bitonic_merge_i/genblk1.bitonic_merge_low/genblk1.cmp_g[0].compare_i/input_slr_13
    SLICE_X125Y466       LUT4 (Prop_B6LUT_SLICEM_I1_O)
                                                      0.014     1.767 f  dut_inst/sorter_inst/genblk1.bitonic_sort_low/genblk1.bitonic_sort_high/genblk1.bitonic_sort_low/genblk1.bitonic_sort_high/genblk1.bitonic_merge_i/genblk1.bitonic_merge_low/genblk1.cmp_g[0].compare_i/s1.pt[3]/O
                         net (fo=15, routed)          0.063     1.830    dut_inst/sorter_inst/genblk1.bitonic_sort_low/genblk1.bitonic_sort_high/genblk1.bitonic_sort_low/genblk1.bitonic_merge_i/genblk1.bitonic_merge_high/genblk1.cmp_g[1].compare_i/pt_51_0
    SLICE_X125Y464       LUT4 (Prop_A6LUT_SLICEM_I1_O)
                                                      0.023     1.853 f  dut_inst/sorter_inst/genblk1.bitonic_sort_low/genblk1.bitonic_sort_high/genblk1.bitonic_sort_low/genblk1.bitonic_merge_i/genblk1.bitonic_merge_high/genblk1.cmp_g[1].compare_i/s1.pt[3]/O
                         net (fo=20, routed)          0.093     1.946    dut_inst/sorter_inst/genblk1.bitonic_sort_low/genblk1.bitonic_sort_high/genblk1.bitonic_merge_i/genblk1.cmp_g[7].compare_i/pt_121_2
    SLICE_X127Y466       LUT4 (Prop_C6LUT_SLICEM_I0_O)
                                                      0.014     1.960 f  dut_inst/sorter_inst/genblk1.bitonic_sort_low/genblk1.bitonic_sort_high/genblk1.bitonic_merge_i/genblk1.cmp_g[7].compare_i/s0.pt[3]/O
                         net (fo=16, routed)          0.109     2.069    dut_inst/sorter_inst/genblk1.bitonic_sort_low/genblk1.bitonic_sort_high/genblk1.bitonic_merge_i/genblk1.bitonic_merge_low/genblk1.bitonic_merge_low/genblk1.cmp_g[1].compare_i/pt_136_0
    SLICE_X128Y467       LUT6 (Prop_G6LUT_SLICEL_I1_O)
                                                      0.014     2.083 f  dut_inst/sorter_inst/genblk1.bitonic_sort_low/genblk1.bitonic_sort_high/genblk1.bitonic_merge_i/genblk1.bitonic_merge_low/genblk1.bitonic_merge_low/genblk1.cmp_g[1].compare_i/s1.pt[3]/O
                         net (fo=29, routed)          0.111     2.194    dut_inst/sorter_inst/genblk1.bitonic_sort_low/genblk1.bitonic_merge_i/genblk1.cmp_g[2].compare_i/pt_140_0_0
    SLICE_X132Y467       LUT5 (Prop_G6LUT_SLICEL_I4_O)
                                                      0.040     2.234 f  dut_inst/sorter_inst/genblk1.bitonic_sort_low/genblk1.bitonic_merge_i/genblk1.cmp_g[2].compare_i/s0.pt_rep_35[3]/O
                         net (fo=14, routed)          0.215     2.449    dut_inst/sorter_inst/genblk1.bitonic_sort_low/genblk1.bitonic_merge_i/genblk1.bitonic_merge_low/genblk1.bitonic_merge_high/genblk1.bitonic_merge_low/genblk1.cmp_g[0].compare_i/pt_rep_35_0
    SLICE_X144Y455       LUT5 (Prop_F6LUT_SLICEM_I0_O)
                                                      0.014     2.463 f  dut_inst/sorter_inst/genblk1.bitonic_sort_low/genblk1.bitonic_merge_i/genblk1.bitonic_merge_low/genblk1.bitonic_merge_high/genblk1.bitonic_merge_low/genblk1.cmp_g[0].compare_i/s1.pt[3]/O
                         net (fo=22, routed)          0.235     2.698    dut_inst/sorter_inst/genblk1.bitonic_merge_i/genblk1.bitonic_merge_high/genblk1.bitonic_merge_high/genblk1.cmp_g[3].compare_i/pt_496_0
    SLICE_X144Y428       LUT6 (Prop_H6LUT_SLICEM_I0_O)
                                                      0.023     2.721 f  dut_inst/sorter_inst/genblk1.bitonic_merge_i/genblk1.bitonic_merge_high/genblk1.bitonic_merge_high/genblk1.cmp_g[3].compare_i/s0.pt[3]/O
                         net (fo=7, routed)           0.139     2.860    dut_inst/sorter_inst/genblk1.bitonic_merge_i/genblk1.bitonic_merge_high/genblk1.bitonic_merge_high/genblk1.bitonic_merge_low/genblk1.bitonic_merge_low/genblk1.cmp_g[1].compare_i/pt_435_0_0
    SLICE_X142Y423       LUT4 (Prop_F6LUT_SLICEM_I2_O)
                                                      0.022     2.882 f  dut_inst/sorter_inst/genblk1.bitonic_merge_i/genblk1.bitonic_merge_high/genblk1.bitonic_merge_high/genblk1.bitonic_merge_low/genblk1.bitonic_merge_low/genblk1.cmp_g[1].compare_i/s0.pt[3]/O
                         net (fo=9, routed)           0.055     2.937    dut_inst/sorter_inst/genblk1.bitonic_merge_i/genblk1.bitonic_merge_high/genblk1.bitonic_merge_high/genblk1.bitonic_merge_low/genblk1.bitonic_merge_low/genblk1.bitonic_merge_low/genblk1.cmp_g[0].compare_i/pt_424_0
    SLICE_X142Y425       LUT5 (Prop_H6LUT_SLICEM_I1_O)
                                                      0.015     2.952 f  dut_inst/sorter_inst/genblk1.bitonic_merge_i/genblk1.bitonic_merge_high/genblk1.bitonic_merge_high/genblk1.bitonic_merge_low/genblk1.bitonic_merge_low/genblk1.bitonic_merge_low/genblk1.cmp_g[0].compare_i/s1.pt[1]/O
                         net (fo=1, routed)           0.021     2.973    shift_reg_tap_o/pt_582_0_0
    SLICE_X142Y425       FDRE                                         f  shift_reg_tap_o/sr_p.sr_1[638]/D
  -------------------------------------------------------------------    -------------------

                         (clock clk rise edge)        0.000     0.000 r  
    AV33                                              0.000     0.000 r  clk (IN)
                         net (fo=0)                   0.000     0.000    clk_ibuf_iso/I
    AV33                 INBUF (Prop_INBUF_HPIOB_M_PAD_O)
                                                      0.572     0.572 r  clk_ibuf_iso/INBUF_INST/O
                         net (fo=1, routed)           0.000     0.572    clk_ibuf_iso/OUT
    AV33                 IBUFCTRL (Prop_IBUFCTRL_HPIOB_M_I_O)
                                                      0.000     0.572 r  clk_ibuf_iso/IBUFCTRL_INST/O
                         net (fo=1, routed)           0.181     0.753    clk_ibuf_iso
    BUFGCE_X1Y224        BUFGCE (Prop_BUFCE_BUFGCE_I_O)
                                                      0.019     0.772 r  clk_ibuf/O
    X4Y7 (CLOCK_ROOT)    net (fo=1734, routed)        1.311     2.083    shift_reg_tap_o/clk_c
    SLICE_X142Y425       FDRE                                         r  shift_reg_tap_o/sr_p.sr_1[638]/C
                         clock pessimism             -0.318     1.765    
    SLICE_X142Y425       FDRE (Hold_HFF_SLICEM_C_D)
                                                      0.046     1.811    shift_reg_tap_o/sr_p.sr_1[638]
  -------------------------------------------------------------------
                         required time                         -1.811    
                         arrival time                           2.973    
  -------------------------------------------------------------------
                         slack                                  1.162    

Slack (MET) :             1.162ns  (arrival time - required time)
  Source:                 shift_reg_tap_i/sr_p.sr_1[289]/C
                            (rising edge-triggered cell FDRE clocked by clk  {rise@0.000ns fall@1.786ns period=3.572ns})
  Destination:            shift_reg_tap_o/sr_p.sr_1[638]/D
                            (rising edge-triggered cell FDRE clocked by clk  {rise@0.000ns fall@1.786ns period=3.572ns})
  Path Group:             clk
  Path Type:              Hold (Min at Fast Process Corner)
  Requirement:            0.000ns  (clk rise@0.000ns - clk rise@0.000ns)
  Data Path Delay:        1.348ns  (logic 0.281ns (20.846%)  route 1.067ns (79.154%))
  Logic Levels:           9  (LUT4=4 LUT5=3 LUT6=2)
  Clock Path Skew:        0.140ns (DCD - SCD - CPR)
    Destination Clock Delay (DCD):    2.083ns
    Source Clock Delay      (SCD):    1.625ns
    Clock Pessimism Removal (CPR):    0.318ns
  Clock Net Delay (Source):      1.079ns (routing 0.522ns, distribution 0.557ns)
  Clock Net Delay (Destination): 1.311ns (routing 0.580ns, distribution 0.731ns)

    Location             Delay type                Incr(ns)  Path(ns)    Netlist Resource(s)
  -------------------------------------------------------------------    -------------------
                         (clock clk rise edge)        0.000     0.000 r  
    AV33                                              0.000     0.000 r  clk (IN)
                         net (fo=0)                   0.000     0.000    clk_ibuf_iso/I
    AV33                 INBUF (Prop_INBUF_HPIOB_M_PAD_O)
                                                      0.385     0.385 r  clk_ibuf_iso/INBUF_INST/O
                         net (fo=1, routed)           0.000     0.385    clk_ibuf_iso/OUT
    AV33                 IBUFCTRL (Prop_IBUFCTRL_HPIOB_M_I_O)
                                                      0.000     0.385 r  clk_ibuf_iso/IBUFCTRL_INST/O
                         net (fo=1, routed)           0.144     0.529    clk_ibuf_iso
    BUFGCE_X1Y224        BUFGCE (Prop_BUFCE_BUFGCE_I_O)
                                                      0.017     0.546 r  clk_ibuf/O
    X4Y7 (CLOCK_ROOT)    net (fo=1734, routed)        1.079     1.625    shift_reg_tap_i/clk_c
    SLICE_X125Y464       FDRE                                         r  shift_reg_tap_i/sr_p.sr_1[289]/C
  -------------------------------------------------------------------    -------------------
    SLICE_X125Y464       FDRE (Prop_EFF_SLICEM_C_Q)
                                                      0.038     1.663 r  shift_reg_tap_i/sr_p.sr_1[289]/Q
                         net (fo=23, routed)          0.098     1.761    dut_inst/sorter_inst/genblk1.bitonic_sort_low/genblk1.bitonic_sort_high/genblk1.bitonic_sort_low/genblk1.bitonic_sort_high/genblk1.bitonic_merge_i/genblk1.cmp_g[0].compare_i/input_slr_26
    SLICE_X125Y463       LUT4 (Prop_A6LUT_SLICEM_I2_O)
                                                      0.014     1.775 r  dut_inst/sorter_inst/genblk1.bitonic_sort_low/genblk1.bitonic_sort_high/genblk1.bitonic_sort_low/genblk1.bitonic_sort_high/genblk1.bitonic_merge_i/genblk1.cmp_g[0].compare_i/s1.pt[3]/O
                         net (fo=13, routed)          0.035     1.810    dut_inst/sorter_inst/genblk1.bitonic_sort_low/genblk1.bitonic_sort_high/genblk1.bitonic_sort_low/genblk1.bitonic_merge_i/genblk1.cmp_g[3].compare_i/pt_52_0
    SLICE_X125Y463       LUT4 (Prop_B6LUT_SLICEM_I3_O)
                                                      0.035     1.845 r  dut_inst/sorter_inst/genblk1.bitonic_sort_low/genblk1.bitonic_sort_high/genblk1.bitonic_sort_low/genblk1.bitonic_merge_i/genblk1.cmp_g[3].compare_i/s0.pt[3]/O
                         net (fo=18, routed)          0.100     1.945    dut_inst/sorter_inst/genblk1.bitonic_sort_low/genblk1.bitonic_sort_high/genblk1.bitonic_sort_low/genblk1.bitonic_merge_i/genblk1.bitonic_merge_low/genblk1.bitonic_merge_low/genblk1.cmp_g[0].compare_i/pt_89_0
    SLICE_X127Y467       LUT4 (Prop_G6LUT_SLICEM_I0_O)
                                                      0.040     1.985 r  dut_inst/sorter_inst/genblk1.bitonic_sort_low/genblk1.bitonic_sort_high/genblk1.bitonic_sort_low/genblk1.bitonic_merge_i/genblk1.bitonic_merge_low/genblk1.bitonic_merge_low/genblk1.cmp_g[0].compare_i/s1.pt[3]/O
                         net (fo=18, routed)          0.058     2.043    dut_inst/sorter_inst/genblk1.bitonic_sort_low/genblk1.bitonic_sort_high/genblk1.bitonic_merge_i/genblk1.bitonic_merge_low/genblk1.bitonic_merge_low/genblk1.cmp_g[1].compare_i/pt_119_0
    SLICE_X128Y467       LUT6 (Prop_G6LUT_SLICEL_I5_O)
                                                      0.040     2.083 r  dut_inst/sorter_inst/genblk1.bitonic_sort_low/genblk1.bitonic_sort_high/genblk1.bitonic_merge_i/genblk1.bitonic_merge_low/genblk1.bitonic_merge_low/genblk1.cmp_g[1].compare_i/s1.pt[3]/O
                         net (fo=29, routed)          0.111     2.194    dut_inst/sorter_inst/genblk1.bitonic_sort_low/genblk1.bitonic_merge_i/genblk1.cmp_g[2].compare_i/pt_140_0_0
    SLICE_X132Y467       LUT5 (Prop_G6LUT_SLICEL_I4_O)
                                                      0.040     2.234 r  dut_inst/sorter_inst/genblk1.bitonic_sort_low/genblk1.bitonic_merge_i/genblk1.cmp_g[2].compare_i/s0.pt_rep_35[3]/O
                         net (fo=14, routed)          0.215     2.449    dut_inst/sorter_inst/genblk1.bitonic_sort_low/genblk1.bitonic_merge_i/genblk1.bitonic_merge_low/genblk1.bitonic_merge_high/genblk1.bitonic_merge_low/genblk1.cmp_g[0].compare_i/pt_rep_35_0
    SLICE_X144Y455       LUT5 (Prop_F6LUT_SLICEM_I0_O)
                                                      0.014     2.463 r  dut_inst/sorter_inst/genblk1.bitonic_sort_low/genblk1.bitonic_merge_i/genblk1.bitonic_merge_low/genblk1.bitonic_merge_high/genblk1.bitonic_merge_low/genblk1.cmp_g[0].compare_i/s1.pt[3]/O
                         net (fo=22, routed)          0.235     2.698    dut_inst/sorter_inst/genblk1.bitonic_merge_i/genblk1.bitonic_merge_high/genblk1.bitonic_merge_high/genblk1.cmp_g[3].compare_i/pt_496_0
    SLICE_X144Y428       LUT6 (Prop_H6LUT_SLICEM_I0_O)
                                                      0.023     2.721 r  dut_inst/sorter_inst/genblk1.bitonic_merge_i/genblk1.bitonic_merge_high/genblk1.bitonic_merge_high/genblk1.cmp_g[3].compare_i/s0.pt[3]/O
                         net (fo=7, routed)           0.139     2.860    dut_inst/sorter_inst/genblk1.bitonic_merge_i/genblk1.bitonic_merge_high/genblk1.bitonic_merge_high/genblk1.bitonic_merge_low/genblk1.bitonic_merge_low/genblk1.cmp_g[1].compare_i/pt_435_0_0
    SLICE_X142Y423       LUT4 (Prop_F6LUT_SLICEM_I2_O)
                                                      0.022     2.882 r  dut_inst/sorter_inst/genblk1.bitonic_merge_i/genblk1.bitonic_merge_high/genblk1.bitonic_merge_high/genblk1.bitonic_merge_low/genblk1.bitonic_merge_low/genblk1.cmp_g[1].compare_i/s0.pt[3]/O
                         net (fo=9, routed)           0.055     2.937    dut_inst/sorter_inst/genblk1.bitonic_merge_i/genblk1.bitonic_merge_high/genblk1.bitonic_merge_high/genblk1.bitonic_merge_low/genblk1.bitonic_merge_low/genblk1.bitonic_merge_low/genblk1.cmp_g[0].compare_i/pt_424_0
    SLICE_X142Y425       LUT5 (Prop_H6LUT_SLICEM_I1_O)
                                                      0.015     2.952 r  dut_inst/sorter_inst/genblk1.bitonic_merge_i/genblk1.bitonic_merge_high/genblk1.bitonic_merge_high/genblk1.bitonic_merge_low/genblk1.bitonic_merge_low/genblk1.bitonic_merge_low/genblk1.cmp_g[0].compare_i/s1.pt[1]/O
                         net (fo=1, routed)           0.021     2.973    shift_reg_tap_o/pt_582_0_0
    SLICE_X142Y425       FDRE                                         r  shift_reg_tap_o/sr_p.sr_1[638]/D
  -------------------------------------------------------------------    -------------------

                         (clock clk rise edge)        0.000     0.000 r  
    AV33                                              0.000     0.000 r  clk (IN)
                         net (fo=0)                   0.000     0.000    clk_ibuf_iso/I
    AV33                 INBUF (Prop_INBUF_HPIOB_M_PAD_O)
                                                      0.572     0.572 r  clk_ibuf_iso/INBUF_INST/O
                         net (fo=1, routed)           0.000     0.572    clk_ibuf_iso/OUT
    AV33                 IBUFCTRL (Prop_IBUFCTRL_HPIOB_M_I_O)
                                                      0.000     0.572 r  clk_ibuf_iso/IBUFCTRL_INST/O
                         net (fo=1, routed)           0.181     0.753    clk_ibuf_iso
    BUFGCE_X1Y224        BUFGCE (Prop_BUFCE_BUFGCE_I_O)
                                                      0.019     0.772 r  clk_ibuf/O
    X4Y7 (CLOCK_ROOT)    net (fo=1734, routed)        1.311     2.083    shift_reg_tap_o/clk_c
    SLICE_X142Y425       FDRE                                         r  shift_reg_tap_o/sr_p.sr_1[638]/C
                         clock pessimism             -0.318     1.765    
    SLICE_X142Y425       FDRE (Hold_HFF_SLICEM_C_D)
                                                      0.046     1.811    shift_reg_tap_o/sr_p.sr_1[638]
  -------------------------------------------------------------------
                         required time                         -1.811    
                         arrival time                           2.973    
  -------------------------------------------------------------------
                         slack                                  1.162    





Pulse Width Checks
--------------------------------------------------------------------------------------
Clock Name:         clk
Waveform(ns):       { 0.000 1.786 }
Period(ns):         3.572
Sources:            { clk }

Check Type        Corner  Lib Pin   Reference Pin  Required(ns)  Actual(ns)  Slack(ns)  Location        Pin
Min Period        n/a     BUFGCE/I  n/a            1.499         3.572       2.073      BUFGCE_X1Y224   clk_ibuf/I
Min Period        n/a     FDRE/C    n/a            0.550         3.572       3.022      SLICE_X136Y499  shift_reg_tap_i/sr_p.sr_1[88]/C
Min Period        n/a     FDRE/C    n/a            0.550         3.572       3.022      SLICE_X136Y497  shift_reg_tap_i/sr_p.sr_1[89]/C
Min Period        n/a     FDRE/C    n/a            0.550         3.572       3.022      SLICE_X138Y494  shift_reg_tap_i/sr_p.sr_1[8]/C
Min Period        n/a     FDRE/C    n/a            0.550         3.572       3.022      SLICE_X135Y498  shift_reg_tap_i/sr_p.sr_1[90]/C
Low Pulse Width   Slow    FDRE/C    n/a            0.275         1.786       1.511      SLICE_X132Y436  shift_reg_tap_i/sr_p.sr_1_fast[757]/C
Low Pulse Width   Fast    FDRE/C    n/a            0.275         1.786       1.511      SLICE_X155Y471  shift_reg_tap_i/sr_p.sr_1_rep_21[458]/C
Low Pulse Width   Fast    FDRE/C    n/a            0.275         1.786       1.511      SLICE_X155Y471  shift_reg_tap_i/sr_p.sr_1_rep_24[445]/C
Low Pulse Width   Fast    FDRE/C    n/a            0.275         1.786       1.511      SLICE_X156Y466  shift_reg_tap_i/sr_p.sr_1_rep_28[575]/C
Low Pulse Width   Fast    FDRE/C    n/a            0.275         1.786       1.511      SLICE_X156Y466  shift_reg_tap_i/sr_p.sr_1_rep_40[588]/C
High Pulse Width  Slow    FDRE/C    n/a            0.275         1.786       1.511      SLICE_X138Y494  shift_reg_tap_i/sr_p.sr_1[8]/C
High Pulse Width  Fast    FDRE/C    n/a            0.275         1.786       1.511      SLICE_X138Y494  shift_reg_tap_i/sr_p.sr_1[8]/C
High Pulse Width  Fast    FDRE/C    n/a            0.275         1.786       1.511      SLICE_X135Y498  shift_reg_tap_i/sr_p.sr_1[90]/C
High Pulse Width  Slow    FDRE/C    n/a            0.275         1.786       1.511      SLICE_X132Y463  shift_reg_tap_i/sr_p.sr_1[91]/C
High Pulse Width  Slow    FDRE/C    n/a            0.275         1.786       1.511      SLICE_X132Y463  shift_reg_tap_i/sr_p.sr_1[92]/C



---------------------------------------------------------------------------------------------------
From Clock:  clk_wrapper
  To Clock:  clk_wrapper

Setup :           NA  Failing Endpoints,  Worst Slack           NA  ,  Total Violation           NA
Hold  :           NA  Failing Endpoints,  Worst Slack           NA  ,  Total Violation           NA
PW    :            0  Failing Endpoints,  Worst Slack      498.562ns,  Total Violation        0.000ns
---------------------------------------------------------------------------------------------------


Pulse Width Checks
--------------------------------------------------------------------------------------
Clock Name:         clk_wrapper
Waveform(ns):       { 0.000 500.000 }
Period(ns):         1000.000
Sources:            { clk_wrapper }

Check Type        Corner  Lib Pin   Reference Pin  Required(ns)  Actual(ns)  Slack(ns)  Location               Pin
Min Period        n/a     FDRE/C    n/a            3.195         1000.000    996.805    BITSLICE_RX_TX_X1Y483  reducer_1/delay_block[5][0]/C
Min Period        n/a     BUFGCE/I  n/a            1.499         1000.000    998.501    BUFGCE_X1Y230          clk_wrapper_ibuf/I
Min Period        n/a     FDRE/C    n/a            0.550         1000.000    999.450    SLICE_X137Y493         lsfr_1/shiftreg_vector[12]/C
Min Period        n/a     FDRE/C    n/a            0.550         1000.000    999.450    SLICE_X132Y496         lsfr_1/shiftreg_vector[130]/C
Min Period        n/a     FDRE/C    n/a            0.550         1000.000    999.450    SLICE_X131Y493         lsfr_1/shiftreg_vector[131]/C
Low Pulse Width   Slow    FDRE/C    n/a            1.438         500.000     498.562    BITSLICE_RX_TX_X1Y483  reducer_1/delay_block[5][0]/C
Low Pulse Width   Fast    FDRE/C    n/a            1.438         500.000     498.562    BITSLICE_RX_TX_X1Y483  reducer_1/delay_block[5][0]/C
Low Pulse Width   Slow    FDRE/C    n/a            0.275         500.000     499.725    SLICE_X137Y493         lsfr_1/shiftreg_vector[12]/C
Low Pulse Width   Slow    FDRE/C    n/a            0.275         500.000     499.725    SLICE_X160Y403         reducer_1/delay_block[0][0]/C
Low Pulse Width   Slow    FDRE/C    n/a            0.275         500.000     499.725    SLICE_X160Y459         reducer_1/delay_block[0][102]/C
High Pulse Width  Fast    FDRE/C    n/a            1.438         500.000     498.562    BITSLICE_RX_TX_X1Y483  reducer_1/delay_block[5][0]/C
High Pulse Width  Slow    FDRE/C    n/a            1.438         500.000     498.562    BITSLICE_RX_TX_X1Y483  reducer_1/delay_block[5][0]/C
High Pulse Width  Fast    FDRE/C    n/a            0.275         500.000     499.725    SLICE_X137Y493         lsfr_1/shiftreg_vector[12]/C
High Pulse Width  Fast    FDRE/C    n/a            0.275         500.000     499.725    SLICE_X132Y496         lsfr_1/shiftreg_vector[130]/C
High Pulse Width  Fast    FDRE/C    n/a            0.275         500.000     499.725    SLICE_X131Y493         lsfr_1/shiftreg_vector[131]/C



