Copyright 1986-2018 Xilinx, Inc. All Rights Reserved.
------------------------------------------------------------------------------------
| Tool Version : Vivado v.2018.2 (win64) Build 2258646 Thu Jun 14 20:03:12 MDT 2018
| Date         : Tue Mar  5 23:20:05 2019
| Host         : PCPHESEBE02 running 64-bit Service Pack 1  (build 7601)
| Command      : report_high_fanout_nets -file fanout.txt -max_nets 200
| Design       : wrapper_csn
| Device       : xcvu9p
------------------------------------------------------------------------------------

High Fan-out Nets Information

1. Summary
----------

+-------------------------------------------------------+--------+-------------+
| Net Name                                              | Fanout | Driver Type |
+-------------------------------------------------------+--------+-------------+
| dut_inst/stage_g.7.pair_g.0.csn_cmp_inst/un1_b_i_52   |     42 | LUT6        |
| dut_inst/stage_g.7.pair_g.1.csn_cmp_inst/un1_b_i_58   |     38 | LUT6        |
| dut_inst/stage_g.7.pair_g.2.csn_cmp_inst/un1_b_i_45   |     35 | LUT6        |
| dut_inst/un1_b_i_o_23                                 |     35 | FDRE        |
| dut_inst/un1_b_i_o_o_34                               |     35 | FDRE        |
| dut_inst/stage_g.6.pair_g.4.csn_cmp_inst/un1_b_i_51   |     34 | LUT5        |
| dut_inst/stage_g.6.pair_g.2.csn_cmp_inst/un1_b_i_57   |     33 | LUT5        |
| dut_inst/stage_g.7.pair_g.3.csn_cmp_inst/un1_b_i_46   |     33 | LUT6        |
| dut_inst/un1_b_i_o_o_0                                |     33 | FDRE        |
| dut_inst/stage_g.5.pair_g.0.csn_cmp_inst/un1_b_i_44   |     31 | LUT5        |
| dut_inst/stage_g.6.pair_g.1.csn_cmp_inst/un1_b_i_59   |     31 | LUT5        |
| dut_inst/stage_g.5.pair_g.6.csn_cmp_inst/un1_b_i_54   |     29 | LUT5        |
| dut_inst/stage_g.6.pair_g.3.csn_cmp_inst/un1_b_i_50   |     29 | LUT5        |
| dut_inst/un1_b_i_o_o_16                               |     29 | FDRE        |
| dut_inst/un1_b_i_o_o_9                                |     29 | FDRE        |
| dut_inst/un1_b_i_o_o_40                               |     28 | FDRE        |
| dut_inst/stage_g.6.pair_g.0.csn_cmp_inst/un1_b_i_43   |     27 | LUT6        |
| dut_inst/un1_b_i_o_o_20                               |     27 | FDRE        |
| dut_inst/un1_b_i_o_o_26                               |     27 | FDRE        |
| dut_inst/un1_b_i_o_o_28                               |     27 | FDRE        |
| dut_inst/un1_b_i_o_o_4                                |     27 | FDRE        |
| dut_inst/un1_b_i_o_o_5                                |     27 | FDRE        |
| dut_inst/un1_b_i_o_o_1                                |     26 | FDRE        |
| dut_inst/un1_b_i_o_o_10                               |     26 | FDRE        |
| dut_inst/un1_b_i_o_o_2                                |     26 | FDRE        |
| dut_inst/un1_b_i_o_o_23                               |     26 | FDRE        |
| dut_inst/un1_b_i_o_o_24                               |     26 | FDRE        |
| dut_inst/un1_b_i_o_o_6                                |     26 | FDRE        |
| dut_inst/un1_b_i_o_o_8                                |     26 | FDRE        |
| dut_inst/stage_g.6.pair_g.5.csn_cmp_inst/un1_b_i_48   |     25 | LUT6        |
| dut_inst/un1_b_i_o_o_14                               |     25 | FDRE        |
| dut_inst/un1_b_i_o_o_18                               |     25 | FDRE        |
| dut_inst/un1_b_i_o_o_3                                |     25 | FDRE        |
| dut_inst/un1_b_i_o_o_30                               |     25 | FDRE        |
| dut_inst/un1_b_i_o_o_31                               |     25 | FDRE        |
| dut_inst/un1_b_i_o_o_32                               |     25 | FDRE        |
| dut_inst/un1_b_i_o_o_33                               |     25 | FDRE        |
| dut_inst/un1_b_i_o_o_36                               |     25 | FDRE        |
| dut_inst/un1_b_i_o_o_12                               |     24 | FDRE        |
| dut_inst/un1_b_i_o_o_17                               |     24 | FDRE        |
| dut_inst/un1_b_i_o_o_22                               |     24 | FDRE        |
| dut_inst/un1_b_i_o_o_25                               |     24 | FDRE        |
| dut_inst/un1_b_i_o_o_35                               |     24 | FDRE        |
| dut_inst/un1_b_i_o_o_11                               |     23 | FDRE        |
| dut_inst/un1_b_i_o_o_21                               |     23 | FDRE        |
| dut_inst/un1_b_i_o_o_38                               |     23 | FDRE        |
| dut_inst/un1_b_i_o_o_39                               |     23 | FDRE        |
| dut_inst/stage_g.8.pair_g.0.csn_cmp_inst/un1_b_i_53   |     22 | LUT5        |
| dut_inst/stage_g.8.pair_g.1.csn_cmp_inst/un1_b_i_55   |     22 | LUT6        |
| dut_inst/stage_g.8.pair_g.2.csn_cmp_inst/un1_b_i_56   |     22 | LUT5        |
| dut_inst/stage_g.8.pair_g.4.csn_cmp_inst/un1_b_i_49   |     22 | LUT5        |
| dut_inst/un1_b_i_o_o_27                               |     22 | FDRE        |
| dut_inst/un1_b_i_o_o_7                                |     22 | FDRE        |
| dut_inst/un1_b_i_o_o_19                               |     21 | FDRE        |
| dut_inst/un1_b_i_o_o_41                               |     21 | FDRE        |
| dut_inst/un1_b_i_o_o_13                               |     20 | FDRE        |
| dut_inst/pt_o_11[3]                                   |     19 | FDRE        |
| dut_inst/pt_o_12[3]                                   |     19 | FDRE        |
| dut_inst/un1_b_i_o_o_29                               |     19 | FDRE        |
| dut_inst/un1_b_i_o_o_37                               |     19 | FDRE        |
| dut_inst/un1_b_i_o_o                                  |     18 | FDRE        |
| dut_inst/un1_b_i_o_o_15                               |     18 | FDRE        |
| dut_inst/i217_i                                       |     17 | FDRE        |
| dut_inst/i218_i                                       |     17 | FDRE        |
| dut_inst/pt_o_21[3]                                   |     17 | FDRE        |
| dut_inst/pt_o_22[3]                                   |     17 | FDRE        |
| shift_reg_tap_i/input_slr[81]                         |     17 | FDRE        |
| shift_reg_tap_i/input_slr[94]                         |     17 | FDRE        |
| dut_inst/pt_o_5[3]                                    |     16 | FDRE        |
| dut_inst/pt_o_6[3]                                    |     16 | FDRE        |
| dut_inst/stage_g.8.pair_g.3.csn_cmp_inst/un1_b_i_47   |     16 | LUT5        |
| dut_inst/i209_i                                       |     15 | FDRE        |
| dut_inst/i210_i                                       |     15 | FDRE        |
| dut_inst/pt_o_10[3]                                   |     15 | FDRE        |
| dut_inst/pt_o_4[3]                                    |     15 | FDRE        |
| shift_reg_tap_i/input_slr[133]                        |     15 | FDRE        |
| shift_reg_tap_i/input_slr[146]                        |     15 | FDRE        |
| shift_reg_tap_i/input_slr[159]                        |     15 | FDRE        |
| shift_reg_tap_i/input_slr[172]                        |     15 | FDRE        |
| shift_reg_tap_i/input_slr[29]                         |     15 | FDRE        |
| shift_reg_tap_i/input_slr[42]                         |     15 | FDRE        |
| dut_inst/pt_o_15[3]                                   |     14 | FDRE        |
| dut_inst/pt_o_16[3]                                   |     14 | FDRE        |
| dut_inst/stage_g.0.pair_g.2.csn_cmp_inst/un1_b_i_14   |     14 | LUT5        |
| shift_reg_tap_i/input_slr[185]                        |     14 | FDRE        |
| shift_reg_tap_i/input_slr[198]                        |     14 | FDRE        |
| dut_inst/stage_g.0.pair_g.0.csn_cmp_inst/un1_b_i_0    |     13 | LUT5        |
| dut_inst/stage_g.0.pair_g.4.csn_cmp_inst/un1_b_i_4    |     13 | LUT5        |
| dut_inst/stage_g.4.pair_g.6.csn_cmp_inst/un1_b_i_20   |     13 | LUT5        |
| dut_inst/pt_o_17[3]                                   |     12 | FDRE        |
| dut_inst/pt_o_18[3]                                   |     12 | FDRE        |
| dut_inst/stage_g.3.pair_g.3.csn_cmp_inst/un1_b_i_13   |     12 | LUT5        |
| dut_inst/stage_g.3.pair_g.5.csn_cmp_inst/un1_b_i_11   |     12 | LUT5        |
| shift_reg_tap_i/input_slr[107]                        |     12 | FDRE        |
| shift_reg_tap_i/input_slr[120]                        |     12 | FDRE        |
| shift_reg_tap_i/input_slr[16]                         |     12 | FDRE        |
| shift_reg_tap_i/input_slr[3]                          |     12 | FDRE        |
| dut_inst/i226_i                                       |     11 | FDRE        |
| dut_inst/i227_i                                       |     11 | FDRE        |
| dut_inst/pt_o_13[3]                                   |     11 | FDRE        |
| dut_inst/pt_o_14[3]                                   |     11 | FDRE        |
| dut_inst/stage_g.0.pair_g.7.csn_cmp_inst/un1_b_i_3    |     11 | LUT5        |
| dut_inst/stage_g.1.pair_g.0.csn_cmp_inst/un1_b_i_8    |     11 | LUT5        |
| dut_inst/stage_g.1.pair_g.4.csn_cmp_inst/un1_b_i_10   |     11 | LUT5        |
| dut_inst/stage_g.3.pair_g.2.csn_cmp_inst/un1_b_i_22   |     11 | LUT5        |
| dut_inst/stage_g.4.pair_g.2.csn_cmp_inst/N_468_0      |     11 | LUT2        |
| dut_inst/pt_o_19[3]                                   |     10 | FDRE        |
| dut_inst/pt_o_20[3]                                   |     10 | FDRE        |
| shift_reg_tap_i/input_slr[55]                         |     10 | FDRE        |
| shift_reg_tap_i/input_slr[68]                         |     10 | FDRE        |
| dut_inst/pt_o_5[2]                                    |      9 | FDRE        |
| dut_inst/pt_o_6[2]                                    |      9 | FDRE        |
| dut_inst/stage_g.0.pair_g.3.csn_cmp_inst/un1_b_i      |      9 | LUT5        |
| dut_inst/stage_g.0.pair_g.6.csn_cmp_inst/un1_b_i_2    |      9 | LUT5        |
| dut_inst/stage_g.1.pair_g.7.csn_cmp_inst/un1_b_i_9    |      9 | LUT5        |
| dut_inst/stage_g.3.pair_g.4.csn_cmp_inst/un1_b_i_24   |      9 | LUT5        |
| dut_inst/stage_g.8.pair_g.3.csn_cmp_inst/un1_b_i_c3_0 |      9 | LUT6        |
| dut_inst/pt_o_0[3]                                    |      8 | FDRE        |
| dut_inst/pt_o_1[3]                                    |      8 | FDRE        |
| dut_inst/stage_g.1.pair_g.1.csn_cmp_inst/un1_b_i_27   |      8 | LUT5        |
| dut_inst/stage_g.1.pair_g.2.csn_cmp_inst/un1_b_i_28   |      8 | LUT5        |
| dut_inst/stage_g.1.pair_g.5.csn_cmp_inst/un1_b_i_29   |      8 | LUT5        |
| dut_inst/stage_g.1.pair_g.7.csn_cmp_inst/un1_b_i_6    |      8 | LUT5        |
| dut_inst/stage_g.3.pair_g.0.csn_cmp_inst/un1_b_i_31   |      8 | LUT5        |
| dut_inst/stage_g.4.pair_g.2.csn_cmp_inst/N_465_0      |      8 | LUT2        |
| dut_inst/stage_g.4.pair_g.5.csn_cmp_inst/un1_b_i_19   |      8 | LUT5        |
| dut_inst/stage_g.8.pair_g.3.csn_cmp_inst/N_489_0      |      8 | LUT4        |
| dut_inst/pt_o_10[2]                                   |      7 | FDRE        |
| dut_inst/pt_o_11[2]                                   |      7 | FDRE        |
| dut_inst/pt_o_13[1]                                   |      7 | FDRE        |
| dut_inst/pt_o_18[1]                                   |      7 | FDRE        |
| dut_inst/pt_o_20[0]                                   |      7 | FDRE        |
| dut_inst/pt_o_24[0]                                   |      7 | FDRE        |
| dut_inst/stage_g.0.pair_g.0.csn_cmp_inst/pt_67_0      |      7 | LUT3        |
| dut_inst/stage_g.0.pair_g.1.csn_cmp_inst/pt_68_0      |      7 | LUT3        |
| dut_inst/stage_g.0.pair_g.1.csn_cmp_inst/un1_b_i_1    |      7 | LUT5        |
| dut_inst/stage_g.0.pair_g.4.csn_cmp_inst/pt_58_0      |      7 | LUT3        |
| dut_inst/stage_g.0.pair_g.5.csn_cmp_inst/pt_57_0      |      7 | LUT3        |
| dut_inst/stage_g.0.pair_g.5.csn_cmp_inst/un1_b_i_5    |      7 | LUT5        |
| dut_inst/stage_g.0.pair_g.6.csn_cmp_inst/pt_66_0      |      7 | LUT3        |
| dut_inst/stage_g.0.pair_g.7.csn_cmp_inst/pt_65_0      |      7 | LUT3        |
| dut_inst/stage_g.1.pair_g.2.csn_cmp_inst/un1_b_i_7    |      7 | LUT5        |
| dut_inst/stage_g.3.pair_g.1.csn_cmp_inst/pt_79_0      |      7 | LUT3        |
| dut_inst/stage_g.3.pair_g.1.csn_cmp_inst/pt_80_0      |      7 | LUT4        |
| dut_inst/stage_g.3.pair_g.1.csn_cmp_inst/un1_b_i_23   |      7 | LUT5        |
| dut_inst/stage_g.3.pair_g.6.csn_cmp_inst/pt_74_0      |      7 | LUT4        |
| dut_inst/stage_g.3.pair_g.6.csn_cmp_inst/pt_76_0      |      7 | LUT3        |
| dut_inst/stage_g.4.pair_g.1.csn_cmp_inst/un1_b_i_21   |      7 | LUT5        |
| dut_inst/stage_g.4.pair_g.3.csn_cmp_inst/un1_b_i_35   |      7 | LUT5        |
| dut_inst/stage_g.4.pair_g.4.csn_cmp_inst/un1_b_i_40   |      7 | LUT5        |
| dut_inst/stage_g.6.pair_g.1.csn_cmp_inst/pt_73_0      |      7 | LUT4        |
| dut_inst/stage_g.6.pair_g.1.csn_cmp_inst/pt_75_0      |      7 | LUT3        |
| shift_reg_tap_i/input_slr[106]                        |      7 | FDRE        |
| shift_reg_tap_i/input_slr[119]                        |      7 | FDRE        |
| shift_reg_tap_i/input_slr[156]                        |      7 | FDRE        |
| shift_reg_tap_i/input_slr[15]                         |      7 | FDRE        |
| shift_reg_tap_i/input_slr[169]                        |      7 | FDRE        |
| shift_reg_tap_i/input_slr[184]                        |      7 | FDRE        |
| shift_reg_tap_i/input_slr[197]                        |      7 | FDRE        |
| shift_reg_tap_i/input_slr[2]                          |      7 | FDRE        |
| shift_reg_tap_i/input_slr[52]                         |      7 | FDRE        |
| shift_reg_tap_i/input_slr[65]                         |      7 | FDRE        |
| dut_inst/i211_i                                       |      6 | FDRE        |
| dut_inst/i212_i                                       |      6 | FDRE        |
| dut_inst/pt_o[3]                                      |      6 | FDRE        |
| dut_inst/pt_o_2[3]                                    |      6 | FDRE        |
| dut_inst/pt_o_4[0]                                    |      6 | FDRE        |
| dut_inst/pt_o_5[0]                                    |      6 | FDRE        |
| dut_inst/pt_o_5[1]                                    |      6 | FDRE        |
| dut_inst/pt_o_6[1]                                    |      6 | FDRE        |
| dut_inst/pt_o_8[3]                                    |      6 | FDRE        |
| dut_inst/pt_o_9[3]                                    |      6 | FDRE        |
| dut_inst/stage_g.0.pair_g.6.csn_cmp_inst/pt_44_0      |      6 | LUT2        |
| dut_inst/stage_g.3.pair_g.6.csn_cmp_inst/pt_60_0      |      6 | LUT2        |
| dut_inst/stage_g.6.pair_g.1.csn_cmp_inst/pt_82_0      |      6 | LUT3        |
| dut_inst/stage_g.6.pair_g.1.csn_cmp_inst/pt_87_0      |      6 | LUT3        |
| dut_inst/stage_g.6.pair_g.2.csn_cmp_inst/pt_74_0      |      6 | LUT3        |
| dut_inst/i228_i                                       |      5 | FDRE        |
| dut_inst/i229_i                                       |      5 | FDRE        |
| dut_inst/i253_i                                       |      5 | FDRE        |
| dut_inst/i254_i                                       |      5 | FDRE        |
| dut_inst/pt_o[0]                                      |      5 | FDRE        |
| dut_inst/pt_o[2]                                      |      5 | FDRE        |
| dut_inst/pt_o_0[0]                                    |      5 | FDRE        |
| dut_inst/pt_o_10[0]                                   |      5 | FDRE        |
| dut_inst/pt_o_11[0]                                   |      5 | FDRE        |
| dut_inst/pt_o_13[2]                                   |      5 | FDRE        |
| dut_inst/pt_o_14[0]                                   |      5 | FDRE        |
| dut_inst/pt_o_14[2]                                   |      5 | FDRE        |
| dut_inst/pt_o_15[0]                                   |      5 | FDRE        |
| dut_inst/pt_o_15[2]                                   |      5 | FDRE        |
| dut_inst/pt_o_16[0]                                   |      5 | FDRE        |
| dut_inst/pt_o_16[2]                                   |      5 | FDRE        |
| dut_inst/pt_o_17[2]                                   |      5 | FDRE        |
| dut_inst/pt_o_18[2]                                   |      5 | FDRE        |
| dut_inst/pt_o_19[0]                                   |      5 | FDRE        |
| dut_inst/pt_o_19[1]                                   |      5 | FDRE        |
| dut_inst/pt_o_19[2]                                   |      5 | FDRE        |
| dut_inst/pt_o_1[0]                                    |      5 | FDRE        |
| dut_inst/pt_o_22[2]                                   |      5 | FDRE        |
+-------------------------------------------------------+--------+-------------+


