Copyright 1986-2018 Xilinx, Inc. All Rights Reserved.
-----------------------------------------------------------------------------------------------
| Tool Version      : Vivado v.2018.2 (win64) Build 2258646 Thu Jun 14 20:03:12 MDT 2018
| Date              : Tue Mar  5 23:15:31 2019
| Host              : PCPHESEBE02 running 64-bit Service Pack 1  (build 7601)
| Command           : report_timing_summary -hold -nworst 5 -max_paths 5 -file timing_hold.txt
| Design            : wrapper_csn
| Device            : xcvu9p-flgc2104
| Speed File        : -1  PRODUCTION 1.20 05-21-2018
| Temperature Grade : E
-----------------------------------------------------------------------------------------------

Timing Summary Report

------------------------------------------------------------------------------------------------
| Timer Settings
| --------------
------------------------------------------------------------------------------------------------

  Enable Multi Corner Analysis               :  Yes
  Enable Pessimism Removal                   :  Yes
  Pessimism Removal Resolution               :  Nearest Common Node
  Enable Input Delay Default Clock           :  No
  Enable Preset / Clear Arcs                 :  No
  Disable Flight Delays                      :  No
  Ignore I/O Paths                           :  No
  Timing Early Launch at Borrowing Latches   :  false

  Corner  Analyze    Analyze    
  Name    Max Paths  Min Paths  
  ------  ---------  ---------  
  Slow    Yes        Yes        
  Fast    Yes        Yes        



check_timing report

Table of Contents
-----------------
1. checking no_clock
2. checking constant_clock
3. checking pulse_width_clock
4. checking unconstrained_internal_endpoints
5. checking no_input_delay
6. checking no_output_delay
7. checking multiple_clock
8. checking generated_clocks
9. checking loops
10. checking partial_input_delay
11. checking partial_output_delay
12. checking latch_loops

1. checking no_clock
--------------------
 There are 0 register/latch pins with no clock.


2. checking constant_clock
--------------------------
 There are 0 register/latch pins with constant_clock.


3. checking pulse_width_clock
-----------------------------
 There are 0 register/latch pins which need pulse_width check


4. checking unconstrained_internal_endpoints
--------------------------------------------
 There are 0 pins that are not constrained for maximum delay.

 There are 0 pins that are not constrained for maximum delay due to constant clock.


5. checking no_input_delay
--------------------------
 There is 1 input port with no input delay specified. (HIGH)

 There are 0 input ports with no input delay but user has a false path constraint.


6. checking no_output_delay
---------------------------
 There is 1 port with no output delay specified. (HIGH)

 There are 0 ports with no output delay but user has a false path constraint

 There are 0 ports with no output delay but with a timing clock defined on it or propagating through it


7. checking multiple_clock
--------------------------
 There are 0 register/latch pins with multiple clocks.


8. checking generated_clocks
----------------------------
 There are 0 generated clocks that are not connected to a clock source.


9. checking loops
-----------------
 There are 0 combinational loops in the design.


10. checking partial_input_delay
--------------------------------
 There are 0 input ports with partial input delay specified.


11. checking partial_output_delay
---------------------------------
 There are 0 ports with partial output delay specified.


12. checking latch_loops
------------------------
 There are 0 combinational latch loops in the design through latch input



------------------------------------------------------------------------------------------------
| Design Timing Summary
| ---------------------
------------------------------------------------------------------------------------------------

    WHS(ns)      THS(ns)  THS Failing Endpoints  THS Total Endpoints     WPWS(ns)     TPWS(ns)  TPWS Failing Endpoints  TPWS Total Endpoints  
    -------      -------  ---------------------  -------------------     --------     --------  ----------------------  --------------------  
      0.019        0.000                      0                  708        2.850        0.000                       0                  1405  


All user specified timing constraints are met.


------------------------------------------------------------------------------------------------
| Clock Summary
| -------------
------------------------------------------------------------------------------------------------

Clock        Waveform(ns)         Period(ns)      Frequency(MHz)
-----        ------------         ----------      --------------
clk          {0.000 3.125}        6.250           160.000         
clk_wrapper  {0.000 500.000}      1000.000        1.000           


------------------------------------------------------------------------------------------------
| Intra Clock Table
| -----------------
------------------------------------------------------------------------------------------------

Clock             WHS(ns)      THS(ns)  THS Failing Endpoints  THS Total Endpoints     WPWS(ns)     TPWS(ns)  TPWS Failing Endpoints  TPWS Total Endpoints  
-----             -------      -------  ---------------------  -------------------     --------     --------  ----------------------  --------------------  
clk                 0.019        0.000                      0                  708        2.850        0.000                       0                   917  
clk_wrapper                                                                             498.562        0.000                       0                   488  


------------------------------------------------------------------------------------------------
| Inter Clock Table
| -----------------
------------------------------------------------------------------------------------------------

From Clock    To Clock          WHS(ns)      THS(ns)  THS Failing Endpoints  THS Total Endpoints  
----------    --------          -------      -------  ---------------------  -------------------  


------------------------------------------------------------------------------------------------
| Other Path Groups Table
| -----------------------
------------------------------------------------------------------------------------------------

Path Group    From Clock    To Clock          WHS(ns)      THS(ns)  THS Failing Endpoints  THS Total Endpoints  
----------    ----------    --------          -------      -------  ---------------------  -------------------  


------------------------------------------------------------------------------------------------
| Timing Details
| --------------
------------------------------------------------------------------------------------------------


---------------------------------------------------------------------------------------------------
From Clock:  clk
  To Clock:  clk

Setup :           NA  Failing Endpoints,  Worst Slack           NA  ,  Total Violation           NA
Hold  :            0  Failing Endpoints,  Worst Slack        0.019ns,  Total Violation        0.000ns
PW    :            0  Failing Endpoints,  Worst Slack        2.850ns,  Total Violation        0.000ns
---------------------------------------------------------------------------------------------------


Min Delay Paths
--------------------------------------------------------------------------------------
Slack (MET) :             0.019ns  (arrival time - required time)
  Source:                 dut_inst/ret_array_1_4.idx_ret_13[10]/C
                            (rising edge-triggered cell FDRE clocked by clk  {rise@0.000ns fall@3.125ns period=6.250ns})
  Destination:            dut_inst/ret_array_2_4.idx_ret_14[1]/D
                            (rising edge-triggered cell FDRE clocked by clk  {rise@0.000ns fall@3.125ns period=6.250ns})
  Path Group:             clk
  Path Type:              Hold (Min at Fast Process Corner)
  Requirement:            0.000ns  (clk rise@0.000ns - clk rise@0.000ns)
  Data Path Delay:        0.072ns  (logic 0.039ns (54.167%)  route 0.033ns (45.833%))
  Logic Levels:           0  
  Clock Path Skew:        0.006ns (DCD - SCD - CPR)
    Destination Clock Delay (DCD):    2.024ns
    Source Clock Delay      (SCD):    1.657ns
    Clock Pessimism Removal (CPR):    0.361ns
  Clock Net Delay (Source):      1.111ns (routing 0.638ns, distribution 0.473ns)
  Clock Net Delay (Destination): 1.252ns (routing 0.707ns, distribution 0.545ns)

    Location             Delay type                Incr(ns)  Path(ns)    Netlist Resource(s)
  -------------------------------------------------------------------    -------------------
                         (clock clk rise edge)        0.000     0.000 r  
    AV33                                              0.000     0.000 r  clk (IN)
                         net (fo=0)                   0.000     0.000    clk_ibuf_iso/I
    AV33                 INBUF (Prop_INBUF_HPIOB_M_PAD_O)
                                                      0.385     0.385 r  clk_ibuf_iso/INBUF_INST/O
                         net (fo=1, routed)           0.000     0.385    clk_ibuf_iso/OUT
    AV33                 IBUFCTRL (Prop_IBUFCTRL_HPIOB_M_I_O)
                                                      0.000     0.385 r  clk_ibuf_iso/IBUFCTRL_INST/O
                         net (fo=1, routed)           0.144     0.529    clk_ibuf_iso
    BUFGCE_X1Y224        BUFGCE (Prop_BUFCE_BUFGCE_I_O)
                                                      0.017     0.546 r  clk_ibuf/O
    X3Y7 (CLOCK_ROOT)    net (fo=916, routed)         1.111     1.657    dut_inst/clk_c
    SLICE_X105Y475       FDRE                                         r  dut_inst/ret_array_1_4.idx_ret_13[10]/C
  -------------------------------------------------------------------    -------------------
    SLICE_X105Y475       FDRE (Prop_AFF_SLICEL_C_Q)
                                                      0.039     1.696 r  dut_inst/ret_array_1_4.idx_ret_13[10]/Q
                         net (fo=1, routed)           0.033     1.729    dut_inst/muon_i_o[141]
    SLICE_X105Y475       FDRE                                         r  dut_inst/ret_array_2_4.idx_ret_14[1]/D
  -------------------------------------------------------------------    -------------------

                         (clock clk rise edge)        0.000     0.000 r  
    AV33                                              0.000     0.000 r  clk (IN)
                         net (fo=0)                   0.000     0.000    clk_ibuf_iso/I
    AV33                 INBUF (Prop_INBUF_HPIOB_M_PAD_O)
                                                      0.572     0.572 r  clk_ibuf_iso/INBUF_INST/O
                         net (fo=1, routed)           0.000     0.572    clk_ibuf_iso/OUT
    AV33                 IBUFCTRL (Prop_IBUFCTRL_HPIOB_M_I_O)
                                                      0.000     0.572 r  clk_ibuf_iso/IBUFCTRL_INST/O
                         net (fo=1, routed)           0.181     0.753    clk_ibuf_iso
    BUFGCE_X1Y224        BUFGCE (Prop_BUFCE_BUFGCE_I_O)
                                                      0.019     0.772 r  clk_ibuf/O
    X3Y7 (CLOCK_ROOT)    net (fo=916, routed)         1.252     2.024    dut_inst/clk_c
    SLICE_X105Y475       FDRE                                         r  dut_inst/ret_array_2_4.idx_ret_14[1]/C
                         clock pessimism             -0.361     1.663    
    SLICE_X105Y475       FDRE (Hold_CFF2_SLICEL_C_D)
                                                      0.047     1.710    dut_inst/ret_array_2_4.idx_ret_14[1]
  -------------------------------------------------------------------
                         required time                         -1.710    
                         arrival time                           1.729    
  -------------------------------------------------------------------
                         slack                                  0.019    

Slack (MET) :             0.019ns  (arrival time - required time)
  Source:                 dut_inst/ret_array_1_4.idx_ret_13[10]/C
                            (rising edge-triggered cell FDRE clocked by clk  {rise@0.000ns fall@3.125ns period=6.250ns})
  Destination:            dut_inst/ret_array_2_4.idx_ret_14[1]/D
                            (rising edge-triggered cell FDRE clocked by clk  {rise@0.000ns fall@3.125ns period=6.250ns})
  Path Group:             clk
  Path Type:              Hold (Min at Fast Process Corner)
  Requirement:            0.000ns  (clk rise@0.000ns - clk rise@0.000ns)
  Data Path Delay:        0.072ns  (logic 0.039ns (54.167%)  route 0.033ns (45.833%))
  Logic Levels:           0  
  Clock Path Skew:        0.006ns (DCD - SCD - CPR)
    Destination Clock Delay (DCD):    2.024ns
    Source Clock Delay      (SCD):    1.657ns
    Clock Pessimism Removal (CPR):    0.361ns
  Clock Net Delay (Source):      1.111ns (routing 0.638ns, distribution 0.473ns)
  Clock Net Delay (Destination): 1.252ns (routing 0.707ns, distribution 0.545ns)

    Location             Delay type                Incr(ns)  Path(ns)    Netlist Resource(s)
  -------------------------------------------------------------------    -------------------
                         (clock clk rise edge)        0.000     0.000 r  
    AV33                                              0.000     0.000 r  clk (IN)
                         net (fo=0)                   0.000     0.000    clk_ibuf_iso/I
    AV33                 INBUF (Prop_INBUF_HPIOB_M_PAD_O)
                                                      0.385     0.385 r  clk_ibuf_iso/INBUF_INST/O
                         net (fo=1, routed)           0.000     0.385    clk_ibuf_iso/OUT
    AV33                 IBUFCTRL (Prop_IBUFCTRL_HPIOB_M_I_O)
                                                      0.000     0.385 r  clk_ibuf_iso/IBUFCTRL_INST/O
                         net (fo=1, routed)           0.144     0.529    clk_ibuf_iso
    BUFGCE_X1Y224        BUFGCE (Prop_BUFCE_BUFGCE_I_O)
                                                      0.017     0.546 r  clk_ibuf/O
    X3Y7 (CLOCK_ROOT)    net (fo=916, routed)         1.111     1.657    dut_inst/clk_c
    SLICE_X105Y475       FDRE                                         r  dut_inst/ret_array_1_4.idx_ret_13[10]/C
  -------------------------------------------------------------------    -------------------
    SLICE_X105Y475       FDRE (Prop_AFF_SLICEL_C_Q)
                                                      0.039     1.696 f  dut_inst/ret_array_1_4.idx_ret_13[10]/Q
                         net (fo=1, routed)           0.033     1.729    dut_inst/muon_i_o[141]
    SLICE_X105Y475       FDRE                                         f  dut_inst/ret_array_2_4.idx_ret_14[1]/D
  -------------------------------------------------------------------    -------------------

                         (clock clk rise edge)        0.000     0.000 r  
    AV33                                              0.000     0.000 r  clk (IN)
                         net (fo=0)                   0.000     0.000    clk_ibuf_iso/I
    AV33                 INBUF (Prop_INBUF_HPIOB_M_PAD_O)
                                                      0.572     0.572 r  clk_ibuf_iso/INBUF_INST/O
                         net (fo=1, routed)           0.000     0.572    clk_ibuf_iso/OUT
    AV33                 IBUFCTRL (Prop_IBUFCTRL_HPIOB_M_I_O)
                                                      0.000     0.572 r  clk_ibuf_iso/IBUFCTRL_INST/O
                         net (fo=1, routed)           0.181     0.753    clk_ibuf_iso
    BUFGCE_X1Y224        BUFGCE (Prop_BUFCE_BUFGCE_I_O)
                                                      0.019     0.772 r  clk_ibuf/O
    X3Y7 (CLOCK_ROOT)    net (fo=916, routed)         1.252     2.024    dut_inst/clk_c
    SLICE_X105Y475       FDRE                                         r  dut_inst/ret_array_2_4.idx_ret_14[1]/C
                         clock pessimism             -0.361     1.663    
    SLICE_X105Y475       FDRE (Hold_CFF2_SLICEL_C_D)
                                                      0.047     1.710    dut_inst/ret_array_2_4.idx_ret_14[1]
  -------------------------------------------------------------------
                         required time                         -1.710    
                         arrival time                           1.729    
  -------------------------------------------------------------------
                         slack                                  0.019    

Slack (MET) :             0.020ns  (arrival time - required time)
  Source:                 shift_reg_tap_i/sr_p.sr_1[167]/C
                            (rising edge-triggered cell FDRE clocked by clk  {rise@0.000ns fall@3.125ns period=6.250ns})
  Destination:            dut_inst/ret_array_1_4.idx_ret_8[7]/D
                            (rising edge-triggered cell FDRE clocked by clk  {rise@0.000ns fall@3.125ns period=6.250ns})
  Path Group:             clk
  Path Type:              Hold (Min at Fast Process Corner)
  Requirement:            0.000ns  (clk rise@0.000ns - clk rise@0.000ns)
  Data Path Delay:        0.073ns  (logic 0.039ns (53.425%)  route 0.034ns (46.575%))
  Logic Levels:           0  
  Clock Path Skew:        0.006ns (DCD - SCD - CPR)
    Destination Clock Delay (DCD):    2.025ns
    Source Clock Delay      (SCD):    1.658ns
    Clock Pessimism Removal (CPR):    0.361ns
  Clock Net Delay (Source):      1.112ns (routing 0.638ns, distribution 0.474ns)
  Clock Net Delay (Destination): 1.253ns (routing 0.707ns, distribution 0.546ns)

    Location             Delay type                Incr(ns)  Path(ns)    Netlist Resource(s)
  -------------------------------------------------------------------    -------------------
                         (clock clk rise edge)        0.000     0.000 r  
    AV33                                              0.000     0.000 r  clk (IN)
                         net (fo=0)                   0.000     0.000    clk_ibuf_iso/I
    AV33                 INBUF (Prop_INBUF_HPIOB_M_PAD_O)
                                                      0.385     0.385 r  clk_ibuf_iso/INBUF_INST/O
                         net (fo=1, routed)           0.000     0.385    clk_ibuf_iso/OUT
    AV33                 IBUFCTRL (Prop_IBUFCTRL_HPIOB_M_I_O)
                                                      0.000     0.385 r  clk_ibuf_iso/IBUFCTRL_INST/O
                         net (fo=1, routed)           0.144     0.529    clk_ibuf_iso
    BUFGCE_X1Y224        BUFGCE (Prop_BUFCE_BUFGCE_I_O)
                                                      0.017     0.546 r  clk_ibuf/O
    X3Y7 (CLOCK_ROOT)    net (fo=916, routed)         1.112     1.658    shift_reg_tap_i/clk_c
    SLICE_X106Y479       FDRE                                         r  shift_reg_tap_i/sr_p.sr_1[167]/C
  -------------------------------------------------------------------    -------------------
    SLICE_X106Y479       FDRE (Prop_HFF_SLICEL_C_Q)
                                                      0.039     1.697 r  shift_reg_tap_i/sr_p.sr_1[167]/Q
                         net (fo=1, routed)           0.034     1.731    dut_inst/input_slr[167]
    SLICE_X106Y479       FDRE                                         r  dut_inst/ret_array_1_4.idx_ret_8[7]/D
  -------------------------------------------------------------------    -------------------

                         (clock clk rise edge)        0.000     0.000 r  
    AV33                                              0.000     0.000 r  clk (IN)
                         net (fo=0)                   0.000     0.000    clk_ibuf_iso/I
    AV33                 INBUF (Prop_INBUF_HPIOB_M_PAD_O)
                                                      0.572     0.572 r  clk_ibuf_iso/INBUF_INST/O
                         net (fo=1, routed)           0.000     0.572    clk_ibuf_iso/OUT
    AV33                 IBUFCTRL (Prop_IBUFCTRL_HPIOB_M_I_O)
                                                      0.000     0.572 r  clk_ibuf_iso/IBUFCTRL_INST/O
                         net (fo=1, routed)           0.181     0.753    clk_ibuf_iso
    BUFGCE_X1Y224        BUFGCE (Prop_BUFCE_BUFGCE_I_O)
                                                      0.019     0.772 r  clk_ibuf/O
    X3Y7 (CLOCK_ROOT)    net (fo=916, routed)         1.253     2.025    dut_inst/clk_c
    SLICE_X106Y479       FDRE                                         r  dut_inst/ret_array_1_4.idx_ret_8[7]/C
                         clock pessimism             -0.361     1.664    
    SLICE_X106Y479       FDRE (Hold_EFF2_SLICEL_C_D)
                                                      0.047     1.711    dut_inst/ret_array_1_4.idx_ret_8[7]
  -------------------------------------------------------------------
                         required time                         -1.711    
                         arrival time                           1.731    
  -------------------------------------------------------------------
                         slack                                  0.020    

Slack (MET) :             0.020ns  (arrival time - required time)
  Source:                 shift_reg_tap_i/sr_p.sr_1[167]/C
                            (rising edge-triggered cell FDRE clocked by clk  {rise@0.000ns fall@3.125ns period=6.250ns})
  Destination:            dut_inst/ret_array_1_4.idx_ret_8[7]/D
                            (rising edge-triggered cell FDRE clocked by clk  {rise@0.000ns fall@3.125ns period=6.250ns})
  Path Group:             clk
  Path Type:              Hold (Min at Fast Process Corner)
  Requirement:            0.000ns  (clk rise@0.000ns - clk rise@0.000ns)
  Data Path Delay:        0.073ns  (logic 0.039ns (53.425%)  route 0.034ns (46.575%))
  Logic Levels:           0  
  Clock Path Skew:        0.006ns (DCD - SCD - CPR)
    Destination Clock Delay (DCD):    2.025ns
    Source Clock Delay      (SCD):    1.658ns
    Clock Pessimism Removal (CPR):    0.361ns
  Clock Net Delay (Source):      1.112ns (routing 0.638ns, distribution 0.474ns)
  Clock Net Delay (Destination): 1.253ns (routing 0.707ns, distribution 0.546ns)

    Location             Delay type                Incr(ns)  Path(ns)    Netlist Resource(s)
  -------------------------------------------------------------------    -------------------
                         (clock clk rise edge)        0.000     0.000 r  
    AV33                                              0.000     0.000 r  clk (IN)
                         net (fo=0)                   0.000     0.000    clk_ibuf_iso/I
    AV33                 INBUF (Prop_INBUF_HPIOB_M_PAD_O)
                                                      0.385     0.385 r  clk_ibuf_iso/INBUF_INST/O
                         net (fo=1, routed)           0.000     0.385    clk_ibuf_iso/OUT
    AV33                 IBUFCTRL (Prop_IBUFCTRL_HPIOB_M_I_O)
                                                      0.000     0.385 r  clk_ibuf_iso/IBUFCTRL_INST/O
                         net (fo=1, routed)           0.144     0.529    clk_ibuf_iso
    BUFGCE_X1Y224        BUFGCE (Prop_BUFCE_BUFGCE_I_O)
                                                      0.017     0.546 r  clk_ibuf/O
    X3Y7 (CLOCK_ROOT)    net (fo=916, routed)         1.112     1.658    shift_reg_tap_i/clk_c
    SLICE_X106Y479       FDRE                                         r  shift_reg_tap_i/sr_p.sr_1[167]/C
  -------------------------------------------------------------------    -------------------
    SLICE_X106Y479       FDRE (Prop_HFF_SLICEL_C_Q)
                                                      0.039     1.697 f  shift_reg_tap_i/sr_p.sr_1[167]/Q
                         net (fo=1, routed)           0.034     1.731    dut_inst/input_slr[167]
    SLICE_X106Y479       FDRE                                         f  dut_inst/ret_array_1_4.idx_ret_8[7]/D
  -------------------------------------------------------------------    -------------------

                         (clock clk rise edge)        0.000     0.000 r  
    AV33                                              0.000     0.000 r  clk (IN)
                         net (fo=0)                   0.000     0.000    clk_ibuf_iso/I
    AV33                 INBUF (Prop_INBUF_HPIOB_M_PAD_O)
                                                      0.572     0.572 r  clk_ibuf_iso/INBUF_INST/O
                         net (fo=1, routed)           0.000     0.572    clk_ibuf_iso/OUT
    AV33                 IBUFCTRL (Prop_IBUFCTRL_HPIOB_M_I_O)
                                                      0.000     0.572 r  clk_ibuf_iso/IBUFCTRL_INST/O
                         net (fo=1, routed)           0.181     0.753    clk_ibuf_iso
    BUFGCE_X1Y224        BUFGCE (Prop_BUFCE_BUFGCE_I_O)
                                                      0.019     0.772 r  clk_ibuf/O
    X3Y7 (CLOCK_ROOT)    net (fo=916, routed)         1.253     2.025    dut_inst/clk_c
    SLICE_X106Y479       FDRE                                         r  dut_inst/ret_array_1_4.idx_ret_8[7]/C
                         clock pessimism             -0.361     1.664    
    SLICE_X106Y479       FDRE (Hold_EFF2_SLICEL_C_D)
                                                      0.047     1.711    dut_inst/ret_array_1_4.idx_ret_8[7]
  -------------------------------------------------------------------
                         required time                         -1.711    
                         arrival time                           1.731    
  -------------------------------------------------------------------
                         slack                                  0.020    

Slack (MET) :             0.020ns  (arrival time - required time)
  Source:                 dut_inst/ret_array_1_4.idx_ret_61/C
                            (rising edge-triggered cell FDRE clocked by clk  {rise@0.000ns fall@3.125ns period=6.250ns})
  Destination:            dut_inst/ret_array_2_4.idx_ret_61/D
                            (rising edge-triggered cell FDRE clocked by clk  {rise@0.000ns fall@3.125ns period=6.250ns})
  Path Group:             clk
  Path Type:              Hold (Min at Fast Process Corner)
  Requirement:            0.000ns  (clk rise@0.000ns - clk rise@0.000ns)
  Data Path Delay:        0.073ns  (logic 0.039ns (53.425%)  route 0.034ns (46.575%))
  Logic Levels:           0  
  Clock Path Skew:        0.006ns (DCD - SCD - CPR)
    Destination Clock Delay (DCD):    2.028ns
    Source Clock Delay      (SCD):    1.661ns
    Clock Pessimism Removal (CPR):    0.361ns
  Clock Net Delay (Source):      1.115ns (routing 0.638ns, distribution 0.477ns)
  Clock Net Delay (Destination): 1.256ns (routing 0.707ns, distribution 0.549ns)

    Location             Delay type                Incr(ns)  Path(ns)    Netlist Resource(s)
  -------------------------------------------------------------------    -------------------
                         (clock clk rise edge)        0.000     0.000 r  
    AV33                                              0.000     0.000 r  clk (IN)
                         net (fo=0)                   0.000     0.000    clk_ibuf_iso/I
    AV33                 INBUF (Prop_INBUF_HPIOB_M_PAD_O)
                                                      0.385     0.385 r  clk_ibuf_iso/INBUF_INST/O
                         net (fo=1, routed)           0.000     0.385    clk_ibuf_iso/OUT
    AV33                 IBUFCTRL (Prop_IBUFCTRL_HPIOB_M_I_O)
                                                      0.000     0.385 r  clk_ibuf_iso/IBUFCTRL_INST/O
                         net (fo=1, routed)           0.144     0.529    clk_ibuf_iso
    BUFGCE_X1Y224        BUFGCE (Prop_BUFCE_BUFGCE_I_O)
                                                      0.017     0.546 r  clk_ibuf/O
    X3Y7 (CLOCK_ROOT)    net (fo=916, routed)         1.115     1.661    dut_inst/clk_c
    SLICE_X109Y473       FDRE                                         r  dut_inst/ret_array_1_4.idx_ret_61/C
  -------------------------------------------------------------------    -------------------
    SLICE_X109Y473       FDRE (Prop_AFF_SLICEL_C_Q)
                                                      0.039     1.700 r  dut_inst/ret_array_1_4.idx_ret_61/Q
                         net (fo=1, routed)           0.034     1.734    dut_inst/un1_b_i_o_10
    SLICE_X109Y473       FDRE                                         r  dut_inst/ret_array_2_4.idx_ret_61/D
  -------------------------------------------------------------------    -------------------

                         (clock clk rise edge)        0.000     0.000 r  
    AV33                                              0.000     0.000 r  clk (IN)
                         net (fo=0)                   0.000     0.000    clk_ibuf_iso/I
    AV33                 INBUF (Prop_INBUF_HPIOB_M_PAD_O)
                                                      0.572     0.572 r  clk_ibuf_iso/INBUF_INST/O
                         net (fo=1, routed)           0.000     0.572    clk_ibuf_iso/OUT
    AV33                 IBUFCTRL (Prop_IBUFCTRL_HPIOB_M_I_O)
                                                      0.000     0.572 r  clk_ibuf_iso/IBUFCTRL_INST/O
                         net (fo=1, routed)           0.181     0.753    clk_ibuf_iso
    BUFGCE_X1Y224        BUFGCE (Prop_BUFCE_BUFGCE_I_O)
                                                      0.019     0.772 r  clk_ibuf/O
    X3Y7 (CLOCK_ROOT)    net (fo=916, routed)         1.256     2.028    dut_inst/clk_c
    SLICE_X109Y473       FDRE                                         r  dut_inst/ret_array_2_4.idx_ret_61/C
                         clock pessimism             -0.361     1.667    
    SLICE_X109Y473       FDRE (Hold_BFF2_SLICEL_C_D)
                                                      0.047     1.714    dut_inst/ret_array_2_4.idx_ret_61
  -------------------------------------------------------------------
                         required time                         -1.714    
                         arrival time                           1.734    
  -------------------------------------------------------------------
                         slack                                  0.020    





Pulse Width Checks
--------------------------------------------------------------------------------------
Clock Name:         clk
Waveform(ns):       { 0.000 3.125 }
Period(ns):         6.250
Sources:            { clk }

Check Type        Corner  Lib Pin   Reference Pin  Required(ns)  Actual(ns)  Slack(ns)  Location        Pin
Min Period        n/a     BUFGCE/I  n/a            1.499         6.250       4.751      BUFGCE_X1Y224   clk_ibuf/I
Min Period        n/a     FDRE/C    n/a            0.550         6.250       5.700      SLICE_X101Y475  dut_inst/ret_array_1_0.pt_ret[0]/C
Min Period        n/a     FDRE/C    n/a            0.550         6.250       5.700      SLICE_X103Y475  dut_inst/ret_array_1_0.pt_ret[1]/C
Min Period        n/a     FDRE/C    n/a            0.550         6.250       5.700      SLICE_X101Y476  dut_inst/ret_array_1_0.pt_ret[2]/C
Min Period        n/a     FDRE/C    n/a            0.550         6.250       5.700      SLICE_X102Y476  dut_inst/ret_array_1_0.pt_ret[3]/C
Low Pulse Width   Fast    FDRE/C    n/a            0.275         3.125       2.850      SLICE_X101Y464  dut_inst/ret_array_1_0.pt_ret_3[3]/C
Low Pulse Width   Fast    FDRE/C    n/a            0.275         3.125       2.850      SLICE_X102Y463  dut_inst/ret_array_1_4.idx_ret_64/C
Low Pulse Width   Fast    FDRE/C    n/a            0.275         3.125       2.850      SLICE_X102Y463  dut_inst/ret_array_1_4.idx_ret_72/C
Low Pulse Width   Fast    FDRE/C    n/a            0.275         3.125       2.850      SLICE_X103Y460  dut_inst/ret_array_1_4.idx_ret_78/C
Low Pulse Width   Slow    FDRE/C    n/a            0.275         3.125       2.850      SLICE_X107Y476  dut_inst/ret_array_1_4.idx_ret_7[0]/C
High Pulse Width  Slow    FDRE/C    n/a            0.275         3.125       2.850      SLICE_X103Y475  dut_inst/ret_array_1_0.pt_ret[1]/C
High Pulse Width  Slow    FDRE/C    n/a            0.275         3.125       2.850      SLICE_X102Y476  dut_inst/ret_array_1_0.pt_ret[3]/C
High Pulse Width  Slow    FDRE/C    n/a            0.275         3.125       2.850      SLICE_X101Y464  dut_inst/ret_array_1_0.pt_ret_3[3]/C
High Pulse Width  Slow    FDRE/C    n/a            0.275         3.125       2.850      SLICE_X102Y463  dut_inst/ret_array_1_15.pt_ret[2]/C
High Pulse Width  Slow    FDRE/C    n/a            0.275         3.125       2.850      SLICE_X103Y464  dut_inst/ret_array_1_15.pt_ret[3]/C



---------------------------------------------------------------------------------------------------
From Clock:  clk_wrapper
  To Clock:  clk_wrapper

Setup :           NA  Failing Endpoints,  Worst Slack           NA  ,  Total Violation           NA
Hold  :           NA  Failing Endpoints,  Worst Slack           NA  ,  Total Violation           NA
PW    :            0  Failing Endpoints,  Worst Slack      498.562ns,  Total Violation        0.000ns
---------------------------------------------------------------------------------------------------


Pulse Width Checks
--------------------------------------------------------------------------------------
Clock Name:         clk_wrapper
Waveform(ns):       { 0.000 500.000 }
Period(ns):         1000.000
Sources:            { clk_wrapper }

Check Type        Corner  Lib Pin   Reference Pin  Required(ns)  Actual(ns)  Slack(ns)  Location               Pin
Min Period        n/a     FDRE/C    n/a            3.195         1000.000    996.805    BITSLICE_RX_TX_X1Y483  reducer_1/delay_block[4][0]/C
Min Period        n/a     BUFGCE/I  n/a            1.499         1000.000    998.501    BUFGCE_X1Y230          clk_wrapper_ibuf/I
Min Period        n/a     FDRE/C    n/a            0.550         1000.000    999.450    SLICE_X107Y478         lsfr_1/shiftreg_vector[161]/C
Min Period        n/a     FDRE/C    n/a            0.550         1000.000    999.450    SLICE_X107Y478         lsfr_1/shiftreg_vector[162]/C
Min Period        n/a     FDRE/C    n/a            0.550         1000.000    999.450    SLICE_X107Y478         lsfr_1/shiftreg_vector[163]/C
Low Pulse Width   Slow    FDRE/C    n/a            1.438         500.000     498.562    BITSLICE_RX_TX_X1Y483  reducer_1/delay_block[4][0]/C
Low Pulse Width   Fast    FDRE/C    n/a            1.438         500.000     498.562    BITSLICE_RX_TX_X1Y483  reducer_1/delay_block[4][0]/C
Low Pulse Width   Slow    FDRE/C    n/a            0.275         500.000     499.725    SLICE_X108Y477         lsfr_1/shiftreg_vector[166]/C
Low Pulse Width   Slow    FDRE/C    n/a            0.275         500.000     499.725    SLICE_X108Y477         lsfr_1/shiftreg_vector[167]/C
Low Pulse Width   Slow    FDRE/C    n/a            0.275         500.000     499.725    SLICE_X104Y479         lsfr_1/shiftreg_vector[170]/C
High Pulse Width  Fast    FDRE/C    n/a            1.438         500.000     498.562    BITSLICE_RX_TX_X1Y483  reducer_1/delay_block[4][0]/C
High Pulse Width  Slow    FDRE/C    n/a            1.438         500.000     498.562    BITSLICE_RX_TX_X1Y483  reducer_1/delay_block[4][0]/C
High Pulse Width  Fast    FDRE/C    n/a            0.275         500.000     499.725    SLICE_X106Y479         lsfr_1/shiftreg_vector[168]/C
High Pulse Width  Fast    FDRE/C    n/a            0.275         500.000     499.725    SLICE_X106Y479         lsfr_1/shiftreg_vector[169]/C
High Pulse Width  Fast    FDRE/C    n/a            0.275         500.000     499.725    SLICE_X101Y463         lsfr_1/shiftreg_vector[16]/C



