Copyright 1986-2018 Xilinx, Inc. All Rights Reserved.
------------------------------------------------------------------------------------
| Tool Version : Vivado v.2018.2 (win64) Build 2258646 Thu Jun 14 20:03:12 MDT 2018
| Date         : Tue Mar  5 22:34:30 2019
| Host         : PCPHESEBE02 running 64-bit Service Pack 1  (build 7601)
| Command      : report_utilization -hierarchical -file hier_utilization.txt
| Design       : wrapper_csn
| Device       : xcvu9pflgc2104-1
| Design State : Routed
------------------------------------------------------------------------------------

Utilization Design Information

Table of Contents
-----------------
1. Utilization by Hierarchy

1. Utilization by Hierarchy
---------------------------

+-------------------------------------+--------------------------------------------------------------+------------+------------+---------+------+------+--------+--------+------+--------------+
|               Instance              |                            Module                            | Total LUTs | Logic LUTs | LUTRAMs | SRLs |  FFs | RAMB36 | RAMB18 | URAM | DSP48 Blocks |
+-------------------------------------+--------------------------------------------------------------+------------+------------+---------+------+------+--------+--------+------+--------------+
| wrapper_csn                         |                                                        (top) |       1228 |       1068 |       0 |  160 | 1559 |      0 |      0 |    0 |            0 |
|   (wrapper_csn)                     |                                                        (top) |          0 |          0 |       0 |    0 |    0 |      0 |      0 |    0 |            0 |
|   dut_inst                          | muon_sorter_I016_O016_D004_CSN_VHDL-freq320retfan10000_rev_1 |       1158 |        998 |       0 |  160 |  657 |      0 |      0 |    0 |            0 |
|     (dut_inst)                      | muon_sorter_I016_O016_D004_CSN_VHDL-freq320retfan10000_rev_1 |        160 |          0 |       0 |  160 |  657 |      0 |      0 |    0 |            0 |
|     stage_g.0.pair_g.0.csn_cmp_inst |                                  csn_cmp_false_false_false_0 |         19 |         19 |       0 |    0 |    0 |      0 |      0 |    0 |            0 |
|     stage_g.0.pair_g.1.csn_cmp_inst |                                 csn_cmp_false_false_false_16 |         10 |         10 |       0 |    0 |    0 |      0 |      0 |    0 |            0 |
|     stage_g.0.pair_g.2.csn_cmp_inst |                                 csn_cmp_false_false_false_14 |         19 |         19 |       0 |    0 |    0 |      0 |      0 |    0 |            0 |
|     stage_g.0.pair_g.3.csn_cmp_inst |                                 csn_cmp_false_false_false_43 |          7 |          7 |       0 |    0 |    0 |      0 |      0 |    0 |            0 |
|     stage_g.0.pair_g.4.csn_cmp_inst |                                  csn_cmp_false_false_false_3 |         19 |         19 |       0 |    0 |    0 |      0 |      0 |    0 |            0 |
|     stage_g.0.pair_g.5.csn_cmp_inst |                                  csn_cmp_false_false_false_6 |         10 |         10 |       0 |    0 |    0 |      0 |      0 |    0 |            0 |
|     stage_g.0.pair_g.6.csn_cmp_inst |                                  csn_cmp_false_false_false_9 |         19 |         19 |       0 |    0 |    0 |      0 |      0 |    0 |            0 |
|     stage_g.0.pair_g.7.csn_cmp_inst |                                 csn_cmp_false_false_false_12 |         10 |         10 |       0 |    0 |    0 |      0 |      0 |    0 |            0 |
|     stage_g.1.pair_g.0.csn_cmp_inst |                                 csn_cmp_false_false_false_26 |         22 |         22 |       0 |    0 |    0 |      0 |      0 |    0 |            0 |
|     stage_g.1.pair_g.1.csn_cmp_inst |                                 csn_cmp_false_false_false_25 |         22 |         22 |       0 |    0 |    0 |      0 |      0 |    0 |            0 |
|     stage_g.1.pair_g.2.csn_cmp_inst |                                 csn_cmp_false_false_false_22 |         22 |         22 |       0 |    0 |    0 |      0 |      0 |    0 |            0 |
|     stage_g.1.pair_g.3.csn_cmp_inst |                                 csn_cmp_false_false_false_23 |         22 |         22 |       0 |    0 |    0 |      0 |      0 |    0 |            0 |
|     stage_g.1.pair_g.4.csn_cmp_inst |                                 csn_cmp_false_false_false_46 |         22 |         22 |       0 |    0 |    0 |      0 |      0 |    0 |            0 |
|     stage_g.1.pair_g.5.csn_cmp_inst |                                 csn_cmp_false_false_false_15 |         22 |         22 |       0 |    0 |    0 |      0 |      0 |    0 |            0 |
|     stage_g.1.pair_g.6.csn_cmp_inst |                                  csn_cmp_false_false_false_1 |         23 |         23 |       0 |    0 |    0 |      0 |      0 |    0 |            0 |
|     stage_g.1.pair_g.7.csn_cmp_inst |                                 csn_cmp_false_false_false_44 |         23 |         23 |       0 |    0 |    0 |      0 |      0 |    0 |            0 |
|     stage_g.2.pair_g.0.csn_cmp_inst |                                    csn_cmp_false_false_false |         11 |         11 |       0 |    0 |    0 |      0 |      0 |    0 |            0 |
|     stage_g.2.pair_g.1.csn_cmp_inst |                                  csn_cmp_false_false_false_2 |         11 |         11 |       0 |    0 |    0 |      0 |      0 |    0 |            0 |
|     stage_g.2.pair_g.2.csn_cmp_inst |                                  csn_cmp_false_false_false_5 |         11 |         11 |       0 |    0 |    0 |      0 |      0 |    0 |            0 |
|     stage_g.2.pair_g.3.csn_cmp_inst |                                  csn_cmp_false_false_false_8 |         11 |         11 |       0 |    0 |    0 |      0 |      0 |    0 |            0 |
|     stage_g.2.pair_g.4.csn_cmp_inst |                                 csn_cmp_false_false_false_11 |         11 |         11 |       0 |    0 |    0 |      0 |      0 |    0 |            0 |
|     stage_g.2.pair_g.5.csn_cmp_inst |                                 csn_cmp_false_false_false_35 |         10 |         10 |       0 |    0 |    0 |      0 |      0 |    0 |            0 |
|     stage_g.2.pair_g.6.csn_cmp_inst |                                 csn_cmp_false_false_false_51 |         10 |         10 |       0 |    0 |    0 |      0 |      0 |    0 |            0 |
|     stage_g.2.pair_g.7.csn_cmp_inst |                                 csn_cmp_false_false_false_47 |         10 |         10 |       0 |    0 |    0 |      0 |      0 |    0 |            0 |
|     stage_g.3.pair_g.0.csn_cmp_inst |                                 csn_cmp_false_false_false_56 |          6 |          6 |       0 |    0 |    0 |      0 |      0 |    0 |            0 |
|     stage_g.3.pair_g.1.csn_cmp_inst |                                 csn_cmp_false_false_false_48 |          7 |          7 |       0 |    0 |    0 |      0 |      0 |    0 |            0 |
|     stage_g.3.pair_g.2.csn_cmp_inst |                                 csn_cmp_false_false_false_31 |          6 |          6 |       0 |    0 |    0 |      0 |      0 |    0 |            0 |
|     stage_g.3.pair_g.3.csn_cmp_inst |                                 csn_cmp_false_false_false_13 |          4 |          4 |       0 |    0 |    0 |      0 |      0 |    0 |            0 |
|     stage_g.3.pair_g.4.csn_cmp_inst |                                 csn_cmp_false_false_false_17 |          5 |          5 |       0 |    0 |    0 |      0 |      0 |    0 |            0 |
|     stage_g.3.pair_g.5.csn_cmp_inst |                                 csn_cmp_false_false_false_32 |          6 |          6 |       0 |    0 |    0 |      0 |      0 |    0 |            0 |
|     stage_g.3.pair_g.6.csn_cmp_inst |                                 csn_cmp_false_false_false_38 |          5 |          5 |       0 |    0 |    0 |      0 |      0 |    0 |            0 |
|     stage_g.3.pair_g.7.csn_cmp_inst |                                  csn_cmp_false_false_false_4 |          6 |          6 |       0 |    0 |    0 |      0 |      0 |    0 |            0 |
|     stage_g.4.pair_g.0.csn_cmp_inst |                                  csn_cmp_false_false_false_7 |          9 |          9 |       0 |    0 |    0 |      0 |      0 |    0 |            0 |
|     stage_g.4.pair_g.1.csn_cmp_inst |                                 csn_cmp_false_false_false_10 |         11 |         11 |       0 |    0 |    0 |      0 |      0 |    0 |            0 |
|     stage_g.4.pair_g.2.csn_cmp_inst |                                 csn_cmp_false_false_false_39 |          8 |          8 |       0 |    0 |    0 |      0 |      0 |    0 |            0 |
|     stage_g.4.pair_g.3.csn_cmp_inst |                                 csn_cmp_false_false_false_30 |          9 |          9 |       0 |    0 |    0 |      0 |      0 |    0 |            0 |
|     stage_g.4.pair_g.4.csn_cmp_inst |                                 csn_cmp_false_false_false_28 |          8 |          8 |       0 |    0 |    0 |      0 |      0 |    0 |            0 |
|     stage_g.4.pair_g.5.csn_cmp_inst |                                 csn_cmp_false_false_false_59 |         11 |         11 |       0 |    0 |    0 |      0 |      0 |    0 |            0 |
|     stage_g.4.pair_g.6.csn_cmp_inst |                                 csn_cmp_false_false_false_54 |         10 |         10 |       0 |    0 |    0 |      0 |      0 |    0 |            0 |
|     stage_g.5.pair_g.0.csn_cmp_inst |                                 csn_cmp_false_false_false_18 |          8 |          8 |       0 |    0 |    0 |      0 |      0 |    0 |            0 |
|     stage_g.5.pair_g.1.csn_cmp_inst |                                 csn_cmp_false_false_false_20 |          8 |          8 |       0 |    0 |    0 |      0 |      0 |    0 |            0 |
|     stage_g.5.pair_g.2.csn_cmp_inst |                                 csn_cmp_false_false_false_45 |          4 |          4 |       0 |    0 |    0 |      0 |      0 |    0 |            0 |
|     stage_g.5.pair_g.3.csn_cmp_inst |                                 csn_cmp_false_false_false_34 |          5 |          5 |       0 |    0 |    0 |      0 |      0 |    0 |            0 |
|     stage_g.5.pair_g.4.csn_cmp_inst |                                 csn_cmp_false_false_false_49 |          3 |          3 |       0 |    0 |    0 |      0 |      0 |    0 |            0 |
|     stage_g.5.pair_g.5.csn_cmp_inst |                                 csn_cmp_false_false_false_50 |          6 |          6 |       0 |    0 |    0 |      0 |      0 |    0 |            0 |
|     stage_g.5.pair_g.6.csn_cmp_inst |                                 csn_cmp_false_false_false_41 |          8 |          8 |       0 |    0 |    0 |      0 |      0 |    0 |            0 |
|     stage_g.6.pair_g.0.csn_cmp_inst |                                 csn_cmp_false_false_false_57 |          1 |          1 |       0 |    0 |    0 |      0 |      0 |    0 |            0 |
|     stage_g.6.pair_g.1.csn_cmp_inst |                                 csn_cmp_false_false_false_29 |         11 |         11 |       0 |    0 |    0 |      0 |      0 |    0 |            0 |
|     stage_g.6.pair_g.2.csn_cmp_inst |                                 csn_cmp_false_false_false_24 |         10 |         10 |       0 |    0 |    0 |      0 |      0 |    0 |            0 |
|     stage_g.6.pair_g.3.csn_cmp_inst |                                 csn_cmp_false_false_false_58 |         11 |         11 |       0 |    0 |    0 |      0 |      0 |    0 |            0 |
|     stage_g.6.pair_g.4.csn_cmp_inst |                                 csn_cmp_false_false_false_52 |         10 |         10 |       0 |    0 |    0 |      0 |      0 |    0 |            0 |
|     stage_g.6.pair_g.5.csn_cmp_inst |                                 csn_cmp_false_false_false_53 |          1 |          1 |       0 |    0 |    0 |      0 |      0 |    0 |            0 |
|     stage_g.7.pair_g.0.csn_cmp_inst |                                 csn_cmp_false_false_false_33 |          2 |          2 |       0 |    0 |    0 |      0 |      0 |    0 |            0 |
|     stage_g.7.pair_g.1.csn_cmp_inst |                                 csn_cmp_false_false_false_42 |          1 |          1 |       0 |    0 |    0 |      0 |      0 |    0 |            0 |
|     stage_g.7.pair_g.2.csn_cmp_inst |                                 csn_cmp_false_false_false_37 |          1 |          1 |       0 |    0 |    0 |      0 |      0 |    0 |            0 |
|     stage_g.7.pair_g.3.csn_cmp_inst |                                 csn_cmp_false_false_false_40 |          2 |          2 |       0 |    0 |    0 |      0 |      0 |    0 |            0 |
|     stage_g.8.pair_g.0.csn_cmp_inst |                                 csn_cmp_false_false_false_27 |          1 |          1 |       0 |    0 |    0 |      0 |      0 |    0 |            0 |
|     stage_g.8.pair_g.1.csn_cmp_inst |                                 csn_cmp_false_false_false_36 |          1 |          1 |       0 |    0 |    0 |      0 |      0 |    0 |            0 |
|     stage_g.8.pair_g.2.csn_cmp_inst |                                 csn_cmp_false_false_false_55 |          1 |          1 |       0 |    0 |    0 |      0 |      0 |    0 |            0 |
|     stage_g.8.pair_g.3.csn_cmp_inst |                                 csn_cmp_false_false_false_19 |          2 |          2 |       0 |    0 |    0 |      0 |      0 |    0 |            0 |
|     stage_g.8.pair_g.4.csn_cmp_inst |                                 csn_cmp_false_false_false_21 |        414 |        414 |       0 |    0 |    0 |      0 |      0 |    0 |            0 |
|   lsfr_1                            |                                                         lfsr |          1 |          1 |       0 |    0 |  209 |      0 |      0 |    0 |            0 |
|   reducer_1                         |                                                      reducer |         69 |         69 |       0 |    0 |  277 |      0 |      0 |    0 |            0 |
|   shift_reg_tap_i                   |                                          shift_reg_tap_208_1 |          0 |          0 |       0 |    0 |  208 |      0 |      0 |    0 |            0 |
|   shift_reg_tap_o                   |                                          shift_reg_tap_256_1 |          0 |          0 |       0 |    0 |  208 |      0 |      0 |    0 |            0 |
+-------------------------------------+--------------------------------------------------------------+------------+------------+---------+------+------+--------+--------+------+--------------+
* Note: The sum of lower-level cells may be larger than their parent cells total, due to cross-hierarchy LUT combining


