Copyright 1986-2018 Xilinx, Inc. All Rights Reserved.
-------------------------------------------------------------------------------------------------
| Tool Version      : Vivado v.2018.2 (win64) Build 2258646 Thu Jun 14 20:03:12 MDT 2018
| Date              : Fri Feb  8 17:24:04 2019
| Host              : PCPHESEBE02 running 64-bit Service Pack 1  (build 7601)
| Command           : report_timing_summary -setup -nworst 5 -max_paths 5 -file timing_setup.txt
| Design            : wrapper
| Device            : xcvu9p-flgc2104
| Speed File        : -1  PRODUCTION 1.20 05-21-2018
| Temperature Grade : E
-------------------------------------------------------------------------------------------------

Timing Summary Report

------------------------------------------------------------------------------------------------
| Timer Settings
| --------------
------------------------------------------------------------------------------------------------

  Enable Multi Corner Analysis               :  Yes
  Enable Pessimism Removal                   :  Yes
  Pessimism Removal Resolution               :  Nearest Common Node
  Enable Input Delay Default Clock           :  No
  Enable Preset / Clear Arcs                 :  No
  Disable Flight Delays                      :  No
  Ignore I/O Paths                           :  No
  Timing Early Launch at Borrowing Latches   :  false

  Corner  Analyze    Analyze    
  Name    Max Paths  Min Paths  
  ------  ---------  ---------  
  Slow    Yes        Yes        
  Fast    Yes        Yes        



check_timing report

Table of Contents
-----------------
1. checking no_clock
2. checking constant_clock
3. checking pulse_width_clock
4. checking unconstrained_internal_endpoints
5. checking no_input_delay
6. checking no_output_delay
7. checking multiple_clock
8. checking generated_clocks
9. checking loops
10. checking partial_input_delay
11. checking partial_output_delay
12. checking latch_loops

1. checking no_clock
--------------------
 There are 0 register/latch pins with no clock.


2. checking constant_clock
--------------------------
 There are 0 register/latch pins with constant_clock.


3. checking pulse_width_clock
-----------------------------
 There are 0 register/latch pins which need pulse_width check


4. checking unconstrained_internal_endpoints
--------------------------------------------
 There are 0 pins that are not constrained for maximum delay.

 There are 0 pins that are not constrained for maximum delay due to constant clock.


5. checking no_input_delay
--------------------------
 There is 1 input port with no input delay specified. (HIGH)

 There are 0 input ports with no input delay but user has a false path constraint.


6. checking no_output_delay
---------------------------
 There is 1 port with no output delay specified. (HIGH)

 There are 0 ports with no output delay but user has a false path constraint

 There are 0 ports with no output delay but with a timing clock defined on it or propagating through it


7. checking multiple_clock
--------------------------
 There are 0 register/latch pins with multiple clocks.


8. checking generated_clocks
----------------------------
 There are 0 generated clocks that are not connected to a clock source.


9. checking loops
-----------------
 There are 0 combinational loops in the design.


10. checking partial_input_delay
--------------------------------
 There are 0 input ports with partial input delay specified.


11. checking partial_output_delay
---------------------------------
 There are 0 ports with partial output delay specified.


12. checking latch_loops
------------------------
 There are 0 combinational latch loops in the design through latch input



------------------------------------------------------------------------------------------------
| Design Timing Summary
| ---------------------
------------------------------------------------------------------------------------------------

    WNS(ns)      TNS(ns)  TNS Failing Endpoints  TNS Total Endpoints     WPWS(ns)     TPWS(ns)  TPWS Failing Endpoints  TPWS Total Endpoints  
    -------      -------  ---------------------  -------------------     --------     --------  ----------------------  --------------------  
    -15.714   -19766.508                   1661                13896        2.850        0.000                       0                 15257  


Timing constraints are not met.


------------------------------------------------------------------------------------------------
| Clock Summary
| -------------
------------------------------------------------------------------------------------------------

Clock        Waveform(ns)         Period(ns)      Frequency(MHz)
-----        ------------         ----------      --------------
clk          {0.000 3.125}        6.250           160.000         
clk_wrapper  {0.000 500.000}      1000.000        1.000           


------------------------------------------------------------------------------------------------
| Intra Clock Table
| -----------------
------------------------------------------------------------------------------------------------

Clock             WNS(ns)      TNS(ns)  TNS Failing Endpoints  TNS Total Endpoints     WPWS(ns)     TPWS(ns)  TPWS Failing Endpoints  TPWS Total Endpoints  
-----             -------      -------  ---------------------  -------------------     --------     --------  ----------------------  --------------------  
clk               -15.714   -19766.508                   1661                13896        2.850        0.000                       0                 14402  
clk_wrapper                                                                             498.562        0.000                       0                   855  


------------------------------------------------------------------------------------------------
| Inter Clock Table
| -----------------
------------------------------------------------------------------------------------------------

From Clock    To Clock          WNS(ns)      TNS(ns)  TNS Failing Endpoints  TNS Total Endpoints  
----------    --------          -------      -------  ---------------------  -------------------  


------------------------------------------------------------------------------------------------
| Other Path Groups Table
| -----------------------
------------------------------------------------------------------------------------------------

Path Group    From Clock    To Clock          WNS(ns)      TNS(ns)  TNS Failing Endpoints  TNS Total Endpoints  
----------    ----------    --------          -------      -------  ---------------------  -------------------  


------------------------------------------------------------------------------------------------
| Timing Details
| --------------
------------------------------------------------------------------------------------------------


---------------------------------------------------------------------------------------------------
From Clock:  clk
  To Clock:  clk

Setup :         1661  Failing Endpoints,  Worst Slack      -15.714ns,  Total Violation   -19766.509ns
Hold  :           NA  Failing Endpoints,  Worst Slack           NA  ,  Total Violation           NA
PW    :            0  Failing Endpoints,  Worst Slack        2.850ns,  Total Violation        0.000ns
---------------------------------------------------------------------------------------------------


Max Delay Paths
--------------------------------------------------------------------------------------
Slack (VIOLATED) :        -15.714ns  (required time - arrival time)
  Source:                 muon_cand_14.pt[0]/C
                            (rising edge-triggered cell FDRE clocked by clk  {rise@0.000ns fall@3.125ns period=6.250ns})
  Destination:            muon_sorter_1/sr_p.sr_1_15.roi_ret_3352/D
                            (rising edge-triggered cell FDRE clocked by clk  {rise@0.000ns fall@3.125ns period=6.250ns})
  Path Group:             clk
  Path Type:              Setup (Max at Slow Process Corner)
  Requirement:            6.250ns  (clk rise@6.250ns - clk rise@0.000ns)
  Data Path Delay:        21.852ns  (logic 4.723ns (21.614%)  route 17.129ns (78.386%))
  Logic Levels:           41  (LUT2=2 LUT3=2 LUT4=7 LUT5=10 LUT6=20)
  Clock Path Skew:        -0.103ns (DCD - SCD + CPR)
    Destination Clock Delay (DCD):    2.972ns = ( 9.222 - 6.250 ) 
    Source Clock Delay      (SCD):    3.549ns
    Clock Pessimism Removal (CPR):    0.474ns
  Clock Uncertainty:      0.035ns  ((TSJ^2 + TIJ^2)^1/2 + DJ) / 2 + PE
    Total System Jitter     (TSJ):    0.071ns
    Total Input Jitter      (TIJ):    0.000ns
    Discrete Jitter          (DJ):    0.000ns
    Phase Error              (PE):    0.000ns
  Clock Net Delay (Source):      2.408ns (routing 1.268ns, distribution 1.140ns)
  Clock Net Delay (Destination): 2.142ns (routing 1.158ns, distribution 0.984ns)

    Location             Delay type                Incr(ns)  Path(ns)    Netlist Resource(s)
  -------------------------------------------------------------------    -------------------
                         (clock clk rise edge)        0.000     0.000 r  
    AV33                                              0.000     0.000 r  clk (IN)
                         net (fo=0)                   0.000     0.000    clk_ibuf_iso/I
    AV33                 INBUF (Prop_INBUF_HPIOB_M_PAD_O)
                                                      0.779     0.779 r  clk_ibuf_iso/INBUF_INST/O
                         net (fo=1, routed)           0.000     0.779    clk_ibuf_iso/OUT
    AV33                 IBUFCTRL (Prop_IBUFCTRL_HPIOB_M_I_O)
                                                      0.000     0.779 r  clk_ibuf_iso/IBUFCTRL_INST/O
                         net (fo=1, routed)           0.334     1.113    clk_ibuf_iso
    BUFGCE_X1Y224        BUFGCE (Prop_BUFCE_BUFGCE_I_O)
                                                      0.028     1.141 r  clk_ibuf/O
    X2Y8 (CLOCK_ROOT)    net (fo=14401, routed)       2.408     3.549    clk_c
    SLICE_X60Y521        FDRE                                         r  muon_cand_14.pt[0]/C
  -------------------------------------------------------------------    -------------------
    SLICE_X60Y521        FDRE (Prop_EFF2_SLICEM_C_Q)
                                                      0.098     3.647 r  muon_cand_14.pt[0]/Q
                         net (fo=40, routed)          0.448     4.095    muon_sorter_1/pt_11[0]
    SLICE_X57Y522        LUT4 (Prop_B6LUT_SLICEL_I1_O)
                                                      0.100     4.195 r  muon_sorter_1/compare_p.29.14.compare_pt.op_qge.op_qge.un75490_pt_compare_c2/O
                         net (fo=1, routed)           0.121     4.316    muon_sorter_1/un75490_pt_compare_c2
    SLICE_X56Y522        LUT5 (Prop_F6LUT_SLICEM_I4_O)
                                                      0.177     4.493 r  muon_sorter_1/compare_p.29.14.compare_pt.op_qge.op_qge.un75490_pt_compare_c4/O
                         net (fo=3, routed)           0.897     5.390    muon_sorter_1/un75490_pt_compare
    SLICE_X62Y525        LUT6 (Prop_C6LUT_SLICEM_I5_O)
                                                      0.098     5.488 f  muon_sorter_1/max_pt_0_2_2[29]/O
                         net (fo=1, routed)           0.363     5.851    muon_sorter_1/max_pt_0_2_2[29]
    SLICE_X63Y528        LUT6 (Prop_F6LUT_SLICEL_I2_O)
                                                      0.098     5.949 f  muon_sorter_1/max_pt_0_4_0[29]/O
                         net (fo=11, routed)          0.214     6.163    muon_sorter_1/max_pt_0_4_0Z[29]
    SLICE_X64Y527        LUT4 (Prop_A6LUT_SLICEM_I3_O)
                                                      0.179     6.342 f  muon_sorter_1/max_pt_0_4[29]/O
                         net (fo=15, routed)          0.828     7.170    muon_sorter_1/max_pt_0_4[29]
    SLICE_X65Y520        LUT4 (Prop_E6LUT_SLICEL_I3_O)
                                                      0.064     7.234 r  muon_sorter_1/max_pt_1_N_4L6_N_3L4/O
                         net (fo=1, routed)           0.363     7.597    muon_sorter_1/max_pt_1_N_4L6_N_3L4
    SLICE_X65Y529        LUT4 (Prop_E6LUT_SLICEL_I1_O)
                                                      0.148     7.745 r  muon_sorter_1/max_pt_1_N_4L6_N_6L11/O
                         net (fo=1, routed)           0.695     8.440    muon_sorter_1/max_pt_1_N_4L6_N_6L11
    SLICE_X69Y529        LUT6 (Prop_C6LUT_SLICEL_I1_O)
                                                      0.098     8.538 f  muon_sorter_1/max_pt_1_N_4L6/O
                         net (fo=11, routed)          0.213     8.751    muon_sorter_1/max_pt_1_N_4L6
    SLICE_X71Y529        LUT6 (Prop_C6LUT_SLICEL_I4_O)
                                                      0.148     8.899 r  muon_sorter_1/max_pt_1_2_RNIP47S1_0[29]/O
                         net (fo=15, routed)          0.406     9.305    muon_sorter_1/max_pt_1_1_0[29]
    SLICE_X74Y525        LUT3 (Prop_E6LUT_SLICEM_I2_O)
                                                      0.115     9.420 f  muon_sorter_1/pt_compare_2_29_0_a2[12]/O
                         net (fo=3, routed)           0.887    10.307    muon_sorter_1/N_16672
    SLICE_X81Y528        LUT6 (Prop_G6LUT_SLICEM_I5_O)
                                                      0.179    10.486 r  muon_sorter_1/max_pt_2_2_N_4L5/O
                         net (fo=1, routed)           0.322    10.808    muon_sorter_1/max_pt_2_2_N_4L5
    SLICE_X82Y528        LUT6 (Prop_C6LUT_SLICEL_I4_O)
                                                      0.098    10.906 r  muon_sorter_1/max_pt_2_2[29]/O
                         net (fo=9, routed)           0.331    11.237    muon_sorter_1/max_pt_2_2[29]
    SLICE_X83Y527        LUT6 (Prop_G6LUT_SLICEL_I4_O)
                                                      0.100    11.337 r  muon_sorter_1/max_pt_2_4_RNI3IQ25_2[29]/O
                         net (fo=15, routed)          0.670    12.007    muon_sorter_1/max_pt_2_1[29]
    SLICE_X81Y523        LUT5 (Prop_A6LUT_SLICEM_I3_O)
                                                      0.150    12.157 f  muon_sorter_1/pt_compare_3_29_0_a2[12]/O
                         net (fo=3, routed)           0.948    13.105    muon_sorter_1/N_22544
    SLICE_X82Y521        LUT4 (Prop_C6LUT_SLICEL_I3_O)
                                                      0.098    13.203 r  muon_sorter_1/max_pt_3_2_4_N_6L10/O
                         net (fo=1, routed)           0.242    13.445    muon_sorter_1/max_pt_3_2_4_N_6L10
    SLICE_X82Y520        LUT2 (Prop_E6LUT_SLICEL_I1_O)
                                                      0.064    13.509 f  muon_sorter_1/max_pt_3_2_4_N_3L3_0/O
                         net (fo=1, routed)           0.167    13.676    muon_sorter_1/max_pt_3_2_4_N_3L3_0
    SLICE_X82Y518        LUT6 (Prop_H6LUT_SLICEL_I3_O)
                                                      0.116    13.792 r  muon_sorter_1/max_pt_3_2_4_N_6L11_0/O
                         net (fo=1, routed)           0.133    13.925    muon_sorter_1/max_pt_3_2_4_N_6L11_0
    SLICE_X82Y517        LUT5 (Prop_G6LUT_SLICEL_I3_O)
                                                      0.178    14.103 r  muon_sorter_1/max_pt_3_2_4[29]/O
                         net (fo=9, routed)           0.390    14.493    muon_sorter_1/max_pt_3_2_4[29]
    SLICE_X83Y514        LUT6 (Prop_D6LUT_SLICEL_I5_O)
                                                      0.099    14.592 r  muon_sorter_1/max_pt_3_1[29]/O
                         net (fo=16, routed)          1.041    15.633    muon_sorter_1/max_pt_3_1[29]
    SLICE_X77Y512        LUT6 (Prop_C6LUT_SLICEL_I4_O)
                                                      0.063    15.696 r  muon_sorter_1/pt_compare_4_29_0_a3_0_a2[20]/O
                         net (fo=2, routed)           0.158    15.854    muon_sorter_1/N_22067
    SLICE_X74Y512        LUT5 (Prop_C6LUT_SLICEM_I3_O)
                                                      0.038    15.892 r  muon_sorter_1/max_pt_4_3_3[20]/O
                         net (fo=1, routed)           0.349    16.241    muon_sorter_1/max_pt_4_3_3[20]
    SLICE_X69Y511        LUT6 (Prop_H6LUT_SLICEL_I5_O)
                                                      0.040    16.281 r  muon_sorter_1/max_pt_4_1_4[20]/O
                         net (fo=10, routed)          0.245    16.526    muon_sorter_1/max_pt_4_1_4[20]
    SLICE_X66Y511        LUT6 (Prop_A6LUT_SLICEM_I4_O)
                                                      0.179    16.705 r  muon_sorter_1/max_pt_4_1_0[20]/O
                         net (fo=10, routed)          0.452    17.157    muon_sorter_1/max_pt_4_1_0[20]
    SLICE_X64Y505        LUT5 (Prop_B6LUT_SLICEM_I4_O)
                                                      0.100    17.257 r  muon_sorter_1/pt_compare_5_20_0_a2[6]/O
                         net (fo=2, routed)           0.386    17.643    muon_sorter_1/N_21878
    SLICE_X65Y502        LUT5 (Prop_B6LUT_SLICEL_I2_O)
                                                      0.177    17.820 r  muon_sorter_1/max_pt_5_2_4_N_6L12_0_N_5L9/O
                         net (fo=1, routed)           0.165    17.985    muon_sorter_1/max_pt_5_2_4_N_6L12_0_N_5L9
    SLICE_X65Y501        LUT4 (Prop_C6LUT_SLICEL_I1_O)
                                                      0.063    18.048 r  muon_sorter_1/max_pt_5_2_4_N_6L12_0_N_6L11/O
                         net (fo=1, routed)           0.169    18.217    muon_sorter_1/max_pt_5_2_4_N_6L12_0_N_6L11
    SLICE_X67Y499        LUT4 (Prop_A6LUT_SLICEL_I3_O)
                                                      0.100    18.317 r  muon_sorter_1/max_pt_5_2_4_N_10L22/O
                         net (fo=1, routed)           0.182    18.499    muon_sorter_1/max_pt_5_2_4_N_10L22
    SLICE_X67Y499        LUT6 (Prop_C6LUT_SLICEL_I4_O)
                                                      0.113    18.612 f  muon_sorter_1/max_pt_5_2_4_N_11L25/O
                         net (fo=1, routed)           0.104    18.716    muon_sorter_1/max_pt_5_2_4_N_11L25
    SLICE_X68Y498        LUT5 (Prop_G6LUT_SLICEM_I4_O)
                                                      0.039    18.755 r  muon_sorter_1/max_pt_5_2_4[6]/O
                         net (fo=18, routed)          0.333    19.088    muon_sorter_1/max_pt_5_2_4[6]
    SLICE_X68Y495        LUT6 (Prop_D6LUT_SLICEM_I5_O)
                                                      0.174    19.262 r  muon_sorter_1/pt_compare_5_6_0_a2_0_a2_RNIC4FL1[1]/O
                         net (fo=11, routed)          0.875    20.137    muon_sorter_1/max_pt_5_3[6]
    SLICE_X74Y501        LUT5 (Prop_B6LUT_SLICEM_I3_O)
                                                      0.116    20.253 f  muon_sorter_1/pt_compare_6_6_0_a2_1_a2[0]/O
                         net (fo=3, routed)           0.320    20.573    muon_sorter_1/pt_compare_6_6_0_a2_1_a2[0]
    SLICE_X73Y494        LUT2 (Prop_A6LUT_SLICEL_I1_O)
                                                      0.178    20.751 r  muon_sorter_1/max_pt_6_4_N_7L13/O
                         net (fo=1, routed)           0.154    20.905    muon_sorter_1/max_pt_6_4_N_7L13
    SLICE_X72Y494        LUT6 (Prop_F6LUT_SLICEM_I5_O)
                                                      0.113    21.018 r  muon_sorter_1/max_pt_6_4[6]/O
                         net (fo=9, routed)           0.269    21.287    muon_sorter_1/max_pt_6_4[6]
    SLICE_X74Y495        LUT6 (Prop_F6LUT_SLICEM_I3_O)
                                                      0.098    21.385 r  muon_sorter_1/max_pt_6_2[6]/O
                         net (fo=13, routed)          0.846    22.231    muon_sorter_1/max_pt_6_2[6]
    SLICE_X74Y499        LUT5 (Prop_A6LUT_SLICEM_I3_O)
                                                      0.116    22.347 r  muon_sorter_1/pt_compare_7_9_0_a2[6]/O
                         net (fo=2, routed)           0.594    22.941    muon_sorter_1/pt_compare_7_9_0_a2[6]
    SLICE_X77Y493        LUT6 (Prop_C6LUT_SLICEL_I5_O)
                                                      0.174    23.115 r  muon_sorter_1/max_pt_7_0[6]/O
                         net (fo=1, routed)           0.132    23.247    muon_sorter_1/max_pt_7_0[6]
    SLICE_X78Y493        LUT6 (Prop_G6LUT_SLICEM_I4_O)
                                                      0.179    23.426 r  muon_sorter_1/max_pt_7_4[6]/O
                         net (fo=6, routed)           0.789    24.215    muon_sorter_1/max_pt_7_4[6]
    SLICE_X81Y495        LUT6 (Prop_G6LUT_SLICEM_I5_O)
                                                      0.116    24.331 r  muon_sorter_1/max_pt_7[6]/O
                         net (fo=9, routed)           0.770    25.101    muon_sorter_1/max_pt_7[6]
    SLICE_X79Y494        LUT5 (Prop_D6LUT_SLICEL_I4_O)
                                                      0.039    25.140 f  muon_sorter_1/pt_compare_8_9_0_a2[6]/O
                         net (fo=2, routed)           0.051    25.191    muon_sorter_1/N_20699_rep2
    SLICE_X79Y494        LUT3 (Prop_E6LUT_SLICEL_I1_O)
                                                      0.039    25.230 r  muon_sorter_1/sr_p.sr_1_15.roi_ret_3352_RNO_2/O
                         net (fo=1, routed)           0.049    25.279    muon_sorter_1/max_pt_8_3_4_N_5_2
    SLICE_X79Y494        LUT6 (Prop_B6LUT_SLICEL_I5_O)
                                                      0.064    25.343 r  muon_sorter_1/sr_p.sr_1_15.roi_ret_3352_RNO/O
                         net (fo=1, routed)           0.058    25.401    muon_sorter_1/max_pt_8_3_4_N_4L6_0_reti
    SLICE_X79Y494        FDRE                                         r  muon_sorter_1/sr_p.sr_1_15.roi_ret_3352/D
  -------------------------------------------------------------------    -------------------

                         (clock clk rise edge)        6.250     6.250 r  
    AV33                                              0.000     6.250 r  clk (IN)
                         net (fo=0)                   0.000     6.250    clk_ibuf_iso/I
    AV33                 INBUF (Prop_INBUF_HPIOB_M_PAD_O)
                                                      0.510     6.760 r  clk_ibuf_iso/INBUF_INST/O
                         net (fo=1, routed)           0.000     6.760    clk_ibuf_iso/OUT
    AV33                 IBUFCTRL (Prop_IBUFCTRL_HPIOB_M_I_O)
                                                      0.000     6.760 r  clk_ibuf_iso/IBUFCTRL_INST/O
                         net (fo=1, routed)           0.296     7.056    clk_ibuf_iso
    BUFGCE_X1Y224        BUFGCE (Prop_BUFCE_BUFGCE_I_O)
                                                      0.024     7.080 r  clk_ibuf/O
    X2Y8 (CLOCK_ROOT)    net (fo=14401, routed)       2.142     9.222    muon_sorter_1/clk_c
    SLICE_X79Y494        FDRE                                         r  muon_sorter_1/sr_p.sr_1_15.roi_ret_3352/C
                         clock pessimism              0.474     9.696    
                         clock uncertainty           -0.035     9.660    
    SLICE_X79Y494        FDRE (Setup_BFF_SLICEL_C_D)
                                                      0.027     9.687    muon_sorter_1/sr_p.sr_1_15.roi_ret_3352
  -------------------------------------------------------------------
                         required time                          9.687    
                         arrival time                         -25.401    
  -------------------------------------------------------------------
                         slack                                -15.714    

Slack (VIOLATED) :        -15.714ns  (required time - arrival time)
  Source:                 muon_cand_14.pt[0]/C
                            (rising edge-triggered cell FDRE clocked by clk  {rise@0.000ns fall@3.125ns period=6.250ns})
  Destination:            muon_sorter_1/sr_p.sr_1_15.roi_ret_3352/D
                            (rising edge-triggered cell FDRE clocked by clk  {rise@0.000ns fall@3.125ns period=6.250ns})
  Path Group:             clk
  Path Type:              Setup (Max at Slow Process Corner)
  Requirement:            6.250ns  (clk rise@6.250ns - clk rise@0.000ns)
  Data Path Delay:        21.852ns  (logic 4.723ns (21.614%)  route 17.129ns (78.386%))
  Logic Levels:           41  (LUT2=2 LUT3=2 LUT4=7 LUT5=10 LUT6=20)
  Clock Path Skew:        -0.103ns (DCD - SCD + CPR)
    Destination Clock Delay (DCD):    2.972ns = ( 9.222 - 6.250 ) 
    Source Clock Delay      (SCD):    3.549ns
    Clock Pessimism Removal (CPR):    0.474ns
  Clock Uncertainty:      0.035ns  ((TSJ^2 + TIJ^2)^1/2 + DJ) / 2 + PE
    Total System Jitter     (TSJ):    0.071ns
    Total Input Jitter      (TIJ):    0.000ns
    Discrete Jitter          (DJ):    0.000ns
    Phase Error              (PE):    0.000ns
  Clock Net Delay (Source):      2.408ns (routing 1.268ns, distribution 1.140ns)
  Clock Net Delay (Destination): 2.142ns (routing 1.158ns, distribution 0.984ns)

    Location             Delay type                Incr(ns)  Path(ns)    Netlist Resource(s)
  -------------------------------------------------------------------    -------------------
                         (clock clk rise edge)        0.000     0.000 r  
    AV33                                              0.000     0.000 r  clk (IN)
                         net (fo=0)                   0.000     0.000    clk_ibuf_iso/I
    AV33                 INBUF (Prop_INBUF_HPIOB_M_PAD_O)
                                                      0.779     0.779 r  clk_ibuf_iso/INBUF_INST/O
                         net (fo=1, routed)           0.000     0.779    clk_ibuf_iso/OUT
    AV33                 IBUFCTRL (Prop_IBUFCTRL_HPIOB_M_I_O)
                                                      0.000     0.779 r  clk_ibuf_iso/IBUFCTRL_INST/O
                         net (fo=1, routed)           0.334     1.113    clk_ibuf_iso
    BUFGCE_X1Y224        BUFGCE (Prop_BUFCE_BUFGCE_I_O)
                                                      0.028     1.141 r  clk_ibuf/O
    X2Y8 (CLOCK_ROOT)    net (fo=14401, routed)       2.408     3.549    clk_c
    SLICE_X60Y521        FDRE                                         r  muon_cand_14.pt[0]/C
  -------------------------------------------------------------------    -------------------
    SLICE_X60Y521        FDRE (Prop_EFF2_SLICEM_C_Q)
                                                      0.098     3.647 r  muon_cand_14.pt[0]/Q
                         net (fo=40, routed)          0.448     4.095    muon_sorter_1/pt_11[0]
    SLICE_X57Y522        LUT4 (Prop_B6LUT_SLICEL_I1_O)
                                                      0.100     4.195 r  muon_sorter_1/compare_p.29.14.compare_pt.op_qge.op_qge.un75490_pt_compare_c2/O
                         net (fo=1, routed)           0.121     4.316    muon_sorter_1/un75490_pt_compare_c2
    SLICE_X56Y522        LUT5 (Prop_F6LUT_SLICEM_I4_O)
                                                      0.177     4.493 r  muon_sorter_1/compare_p.29.14.compare_pt.op_qge.op_qge.un75490_pt_compare_c4/O
                         net (fo=3, routed)           0.897     5.390    muon_sorter_1/un75490_pt_compare
    SLICE_X62Y525        LUT6 (Prop_C6LUT_SLICEM_I5_O)
                                                      0.098     5.488 f  muon_sorter_1/max_pt_0_2_2[29]/O
                         net (fo=1, routed)           0.363     5.851    muon_sorter_1/max_pt_0_2_2[29]
    SLICE_X63Y528        LUT6 (Prop_F6LUT_SLICEL_I2_O)
                                                      0.098     5.949 f  muon_sorter_1/max_pt_0_4_0[29]/O
                         net (fo=11, routed)          0.214     6.163    muon_sorter_1/max_pt_0_4_0Z[29]
    SLICE_X64Y527        LUT4 (Prop_A6LUT_SLICEM_I3_O)
                                                      0.179     6.342 f  muon_sorter_1/max_pt_0_4[29]/O
                         net (fo=15, routed)          0.828     7.170    muon_sorter_1/max_pt_0_4[29]
    SLICE_X65Y520        LUT4 (Prop_E6LUT_SLICEL_I3_O)
                                                      0.064     7.234 r  muon_sorter_1/max_pt_1_N_4L6_N_3L4/O
                         net (fo=1, routed)           0.363     7.597    muon_sorter_1/max_pt_1_N_4L6_N_3L4
    SLICE_X65Y529        LUT4 (Prop_E6LUT_SLICEL_I1_O)
                                                      0.148     7.745 f  muon_sorter_1/max_pt_1_N_4L6_N_6L11/O
                         net (fo=1, routed)           0.695     8.440    muon_sorter_1/max_pt_1_N_4L6_N_6L11
    SLICE_X69Y529        LUT6 (Prop_C6LUT_SLICEL_I1_O)
                                                      0.098     8.538 r  muon_sorter_1/max_pt_1_N_4L6/O
                         net (fo=11, routed)          0.213     8.751    muon_sorter_1/max_pt_1_N_4L6
    SLICE_X71Y529        LUT6 (Prop_C6LUT_SLICEL_I4_O)
                                                      0.148     8.899 f  muon_sorter_1/max_pt_1_2_RNIP47S1_0[29]/O
                         net (fo=15, routed)          0.406     9.305    muon_sorter_1/max_pt_1_1_0[29]
    SLICE_X74Y525        LUT3 (Prop_E6LUT_SLICEM_I2_O)
                                                      0.115     9.420 f  muon_sorter_1/pt_compare_2_29_0_a2[12]/O
                         net (fo=3, routed)           0.887    10.307    muon_sorter_1/N_16672
    SLICE_X81Y528        LUT6 (Prop_G6LUT_SLICEM_I5_O)
                                                      0.179    10.486 r  muon_sorter_1/max_pt_2_2_N_4L5/O
                         net (fo=1, routed)           0.322    10.808    muon_sorter_1/max_pt_2_2_N_4L5
    SLICE_X82Y528        LUT6 (Prop_C6LUT_SLICEL_I4_O)
                                                      0.098    10.906 r  muon_sorter_1/max_pt_2_2[29]/O
                         net (fo=9, routed)           0.331    11.237    muon_sorter_1/max_pt_2_2[29]
    SLICE_X83Y527        LUT6 (Prop_G6LUT_SLICEL_I4_O)
                                                      0.100    11.337 r  muon_sorter_1/max_pt_2_4_RNI3IQ25_2[29]/O
                         net (fo=15, routed)          0.670    12.007    muon_sorter_1/max_pt_2_1[29]
    SLICE_X81Y523        LUT5 (Prop_A6LUT_SLICEM_I3_O)
                                                      0.150    12.157 f  muon_sorter_1/pt_compare_3_29_0_a2[12]/O
                         net (fo=3, routed)           0.948    13.105    muon_sorter_1/N_22544
    SLICE_X82Y521        LUT4 (Prop_C6LUT_SLICEL_I3_O)
                                                      0.098    13.203 r  muon_sorter_1/max_pt_3_2_4_N_6L10/O
                         net (fo=1, routed)           0.242    13.445    muon_sorter_1/max_pt_3_2_4_N_6L10
    SLICE_X82Y520        LUT2 (Prop_E6LUT_SLICEL_I1_O)
                                                      0.064    13.509 f  muon_sorter_1/max_pt_3_2_4_N_3L3_0/O
                         net (fo=1, routed)           0.167    13.676    muon_sorter_1/max_pt_3_2_4_N_3L3_0
    SLICE_X82Y518        LUT6 (Prop_H6LUT_SLICEL_I3_O)
                                                      0.116    13.792 r  muon_sorter_1/max_pt_3_2_4_N_6L11_0/O
                         net (fo=1, routed)           0.133    13.925    muon_sorter_1/max_pt_3_2_4_N_6L11_0
    SLICE_X82Y517        LUT5 (Prop_G6LUT_SLICEL_I3_O)
                                                      0.178    14.103 r  muon_sorter_1/max_pt_3_2_4[29]/O
                         net (fo=9, routed)           0.390    14.493    muon_sorter_1/max_pt_3_2_4[29]
    SLICE_X83Y514        LUT6 (Prop_D6LUT_SLICEL_I5_O)
                                                      0.099    14.592 r  muon_sorter_1/max_pt_3_1[29]/O
                         net (fo=16, routed)          1.041    15.633    muon_sorter_1/max_pt_3_1[29]
    SLICE_X77Y512        LUT6 (Prop_C6LUT_SLICEL_I4_O)
                                                      0.063    15.696 r  muon_sorter_1/pt_compare_4_29_0_a3_0_a2[20]/O
                         net (fo=2, routed)           0.158    15.854    muon_sorter_1/N_22067
    SLICE_X74Y512        LUT5 (Prop_C6LUT_SLICEM_I3_O)
                                                      0.038    15.892 r  muon_sorter_1/max_pt_4_3_3[20]/O
                         net (fo=1, routed)           0.349    16.241    muon_sorter_1/max_pt_4_3_3[20]
    SLICE_X69Y511        LUT6 (Prop_H6LUT_SLICEL_I5_O)
                                                      0.040    16.281 r  muon_sorter_1/max_pt_4_1_4[20]/O
                         net (fo=10, routed)          0.245    16.526    muon_sorter_1/max_pt_4_1_4[20]
    SLICE_X66Y511        LUT6 (Prop_A6LUT_SLICEM_I4_O)
                                                      0.179    16.705 r  muon_sorter_1/max_pt_4_1_0[20]/O
                         net (fo=10, routed)          0.452    17.157    muon_sorter_1/max_pt_4_1_0[20]
    SLICE_X64Y505        LUT5 (Prop_B6LUT_SLICEM_I4_O)
                                                      0.100    17.257 r  muon_sorter_1/pt_compare_5_20_0_a2[6]/O
                         net (fo=2, routed)           0.386    17.643    muon_sorter_1/N_21878
    SLICE_X65Y502        LUT5 (Prop_B6LUT_SLICEL_I2_O)
                                                      0.177    17.820 r  muon_sorter_1/max_pt_5_2_4_N_6L12_0_N_5L9/O
                         net (fo=1, routed)           0.165    17.985    muon_sorter_1/max_pt_5_2_4_N_6L12_0_N_5L9
    SLICE_X65Y501        LUT4 (Prop_C6LUT_SLICEL_I1_O)
                                                      0.063    18.048 r  muon_sorter_1/max_pt_5_2_4_N_6L12_0_N_6L11/O
                         net (fo=1, routed)           0.169    18.217    muon_sorter_1/max_pt_5_2_4_N_6L12_0_N_6L11
    SLICE_X67Y499        LUT4 (Prop_A6LUT_SLICEL_I3_O)
                                                      0.100    18.317 r  muon_sorter_1/max_pt_5_2_4_N_10L22/O
                         net (fo=1, routed)           0.182    18.499    muon_sorter_1/max_pt_5_2_4_N_10L22
    SLICE_X67Y499        LUT6 (Prop_C6LUT_SLICEL_I4_O)
                                                      0.113    18.612 f  muon_sorter_1/max_pt_5_2_4_N_11L25/O
                         net (fo=1, routed)           0.104    18.716    muon_sorter_1/max_pt_5_2_4_N_11L25
    SLICE_X68Y498        LUT5 (Prop_G6LUT_SLICEM_I4_O)
                                                      0.039    18.755 r  muon_sorter_1/max_pt_5_2_4[6]/O
                         net (fo=18, routed)          0.333    19.088    muon_sorter_1/max_pt_5_2_4[6]
    SLICE_X68Y495        LUT6 (Prop_D6LUT_SLICEM_I5_O)
                                                      0.174    19.262 r  muon_sorter_1/pt_compare_5_6_0_a2_0_a2_RNIC4FL1[1]/O
                         net (fo=11, routed)          0.875    20.137    muon_sorter_1/max_pt_5_3[6]
    SLICE_X74Y501        LUT5 (Prop_B6LUT_SLICEM_I3_O)
                                                      0.116    20.253 f  muon_sorter_1/pt_compare_6_6_0_a2_1_a2[0]/O
                         net (fo=3, routed)           0.320    20.573    muon_sorter_1/pt_compare_6_6_0_a2_1_a2[0]
    SLICE_X73Y494        LUT2 (Prop_A6LUT_SLICEL_I1_O)
                                                      0.178    20.751 r  muon_sorter_1/max_pt_6_4_N_7L13/O
                         net (fo=1, routed)           0.154    20.905    muon_sorter_1/max_pt_6_4_N_7L13
    SLICE_X72Y494        LUT6 (Prop_F6LUT_SLICEM_I5_O)
                                                      0.113    21.018 r  muon_sorter_1/max_pt_6_4[6]/O
                         net (fo=9, routed)           0.269    21.287    muon_sorter_1/max_pt_6_4[6]
    SLICE_X74Y495        LUT6 (Prop_F6LUT_SLICEM_I3_O)
                                                      0.098    21.385 r  muon_sorter_1/max_pt_6_2[6]/O
                         net (fo=13, routed)          0.846    22.231    muon_sorter_1/max_pt_6_2[6]
    SLICE_X74Y499        LUT5 (Prop_A6LUT_SLICEM_I3_O)
                                                      0.116    22.347 r  muon_sorter_1/pt_compare_7_9_0_a2[6]/O
                         net (fo=2, routed)           0.594    22.941    muon_sorter_1/pt_compare_7_9_0_a2[6]
    SLICE_X77Y493        LUT6 (Prop_C6LUT_SLICEL_I5_O)
                                                      0.174    23.115 r  muon_sorter_1/max_pt_7_0[6]/O
                         net (fo=1, routed)           0.132    23.247    muon_sorter_1/max_pt_7_0[6]
    SLICE_X78Y493        LUT6 (Prop_G6LUT_SLICEM_I4_O)
                                                      0.179    23.426 r  muon_sorter_1/max_pt_7_4[6]/O
                         net (fo=6, routed)           0.789    24.215    muon_sorter_1/max_pt_7_4[6]
    SLICE_X81Y495        LUT6 (Prop_G6LUT_SLICEM_I5_O)
                                                      0.116    24.331 r  muon_sorter_1/max_pt_7[6]/O
                         net (fo=9, routed)           0.770    25.101    muon_sorter_1/max_pt_7[6]
    SLICE_X79Y494        LUT5 (Prop_D6LUT_SLICEL_I4_O)
                                                      0.039    25.140 f  muon_sorter_1/pt_compare_8_9_0_a2[6]/O
                         net (fo=2, routed)           0.051    25.191    muon_sorter_1/N_20699_rep2
    SLICE_X79Y494        LUT3 (Prop_E6LUT_SLICEL_I1_O)
                                                      0.039    25.230 r  muon_sorter_1/sr_p.sr_1_15.roi_ret_3352_RNO_2/O
                         net (fo=1, routed)           0.049    25.279    muon_sorter_1/max_pt_8_3_4_N_5_2
    SLICE_X79Y494        LUT6 (Prop_B6LUT_SLICEL_I5_O)
                                                      0.064    25.343 r  muon_sorter_1/sr_p.sr_1_15.roi_ret_3352_RNO/O
                         net (fo=1, routed)           0.058    25.401    muon_sorter_1/max_pt_8_3_4_N_4L6_0_reti
    SLICE_X79Y494        FDRE                                         r  muon_sorter_1/sr_p.sr_1_15.roi_ret_3352/D
  -------------------------------------------------------------------    -------------------

                         (clock clk rise edge)        6.250     6.250 r  
    AV33                                              0.000     6.250 r  clk (IN)
                         net (fo=0)                   0.000     6.250    clk_ibuf_iso/I
    AV33                 INBUF (Prop_INBUF_HPIOB_M_PAD_O)
                                                      0.510     6.760 r  clk_ibuf_iso/INBUF_INST/O
                         net (fo=1, routed)           0.000     6.760    clk_ibuf_iso/OUT
    AV33                 IBUFCTRL (Prop_IBUFCTRL_HPIOB_M_I_O)
                                                      0.000     6.760 r  clk_ibuf_iso/IBUFCTRL_INST/O
                         net (fo=1, routed)           0.296     7.056    clk_ibuf_iso
    BUFGCE_X1Y224        BUFGCE (Prop_BUFCE_BUFGCE_I_O)
                                                      0.024     7.080 r  clk_ibuf/O
    X2Y8 (CLOCK_ROOT)    net (fo=14401, routed)       2.142     9.222    muon_sorter_1/clk_c
    SLICE_X79Y494        FDRE                                         r  muon_sorter_1/sr_p.sr_1_15.roi_ret_3352/C
                         clock pessimism              0.474     9.696    
                         clock uncertainty           -0.035     9.660    
    SLICE_X79Y494        FDRE (Setup_BFF_SLICEL_C_D)
                                                      0.027     9.687    muon_sorter_1/sr_p.sr_1_15.roi_ret_3352
  -------------------------------------------------------------------
                         required time                          9.687    
                         arrival time                         -25.401    
  -------------------------------------------------------------------
                         slack                                -15.714    

Slack (VIOLATED) :        -15.714ns  (required time - arrival time)
  Source:                 muon_cand_14.pt[0]/C
                            (rising edge-triggered cell FDRE clocked by clk  {rise@0.000ns fall@3.125ns period=6.250ns})
  Destination:            muon_sorter_1/sr_p.sr_1_15.roi_ret_3352/D
                            (rising edge-triggered cell FDRE clocked by clk  {rise@0.000ns fall@3.125ns period=6.250ns})
  Path Group:             clk
  Path Type:              Setup (Max at Slow Process Corner)
  Requirement:            6.250ns  (clk rise@6.250ns - clk rise@0.000ns)
  Data Path Delay:        21.852ns  (logic 4.723ns (21.614%)  route 17.129ns (78.386%))
  Logic Levels:           41  (LUT2=2 LUT3=2 LUT4=7 LUT5=10 LUT6=20)
  Clock Path Skew:        -0.103ns (DCD - SCD + CPR)
    Destination Clock Delay (DCD):    2.972ns = ( 9.222 - 6.250 ) 
    Source Clock Delay      (SCD):    3.549ns
    Clock Pessimism Removal (CPR):    0.474ns
  Clock Uncertainty:      0.035ns  ((TSJ^2 + TIJ^2)^1/2 + DJ) / 2 + PE
    Total System Jitter     (TSJ):    0.071ns
    Total Input Jitter      (TIJ):    0.000ns
    Discrete Jitter          (DJ):    0.000ns
    Phase Error              (PE):    0.000ns
  Clock Net Delay (Source):      2.408ns (routing 1.268ns, distribution 1.140ns)
  Clock Net Delay (Destination): 2.142ns (routing 1.158ns, distribution 0.984ns)

    Location             Delay type                Incr(ns)  Path(ns)    Netlist Resource(s)
  -------------------------------------------------------------------    -------------------
                         (clock clk rise edge)        0.000     0.000 r  
    AV33                                              0.000     0.000 r  clk (IN)
                         net (fo=0)                   0.000     0.000    clk_ibuf_iso/I
    AV33                 INBUF (Prop_INBUF_HPIOB_M_PAD_O)
                                                      0.779     0.779 r  clk_ibuf_iso/INBUF_INST/O
                         net (fo=1, routed)           0.000     0.779    clk_ibuf_iso/OUT
    AV33                 IBUFCTRL (Prop_IBUFCTRL_HPIOB_M_I_O)
                                                      0.000     0.779 r  clk_ibuf_iso/IBUFCTRL_INST/O
                         net (fo=1, routed)           0.334     1.113    clk_ibuf_iso
    BUFGCE_X1Y224        BUFGCE (Prop_BUFCE_BUFGCE_I_O)
                                                      0.028     1.141 r  clk_ibuf/O
    X2Y8 (CLOCK_ROOT)    net (fo=14401, routed)       2.408     3.549    clk_c
    SLICE_X60Y521        FDRE                                         r  muon_cand_14.pt[0]/C
  -------------------------------------------------------------------    -------------------
    SLICE_X60Y521        FDRE (Prop_EFF2_SLICEM_C_Q)
                                                      0.098     3.647 r  muon_cand_14.pt[0]/Q
                         net (fo=40, routed)          0.448     4.095    muon_sorter_1/pt_11[0]
    SLICE_X57Y522        LUT4 (Prop_B6LUT_SLICEL_I1_O)
                                                      0.100     4.195 r  muon_sorter_1/compare_p.29.14.compare_pt.op_qge.op_qge.un75490_pt_compare_c2/O
                         net (fo=1, routed)           0.121     4.316    muon_sorter_1/un75490_pt_compare_c2
    SLICE_X56Y522        LUT5 (Prop_F6LUT_SLICEM_I4_O)
                                                      0.177     4.493 r  muon_sorter_1/compare_p.29.14.compare_pt.op_qge.op_qge.un75490_pt_compare_c4/O
                         net (fo=3, routed)           0.897     5.390    muon_sorter_1/un75490_pt_compare
    SLICE_X62Y525        LUT6 (Prop_C6LUT_SLICEM_I5_O)
                                                      0.098     5.488 f  muon_sorter_1/max_pt_0_2_2[29]/O
                         net (fo=1, routed)           0.363     5.851    muon_sorter_1/max_pt_0_2_2[29]
    SLICE_X63Y528        LUT6 (Prop_F6LUT_SLICEL_I2_O)
                                                      0.098     5.949 f  muon_sorter_1/max_pt_0_4_0[29]/O
                         net (fo=11, routed)          0.214     6.163    muon_sorter_1/max_pt_0_4_0Z[29]
    SLICE_X64Y527        LUT4 (Prop_A6LUT_SLICEM_I3_O)
                                                      0.179     6.342 f  muon_sorter_1/max_pt_0_4[29]/O
                         net (fo=15, routed)          0.828     7.170    muon_sorter_1/max_pt_0_4[29]
    SLICE_X65Y520        LUT4 (Prop_E6LUT_SLICEL_I3_O)
                                                      0.064     7.234 r  muon_sorter_1/max_pt_1_N_4L6_N_3L4/O
                         net (fo=1, routed)           0.363     7.597    muon_sorter_1/max_pt_1_N_4L6_N_3L4
    SLICE_X65Y529        LUT4 (Prop_E6LUT_SLICEL_I1_O)
                                                      0.148     7.745 r  muon_sorter_1/max_pt_1_N_4L6_N_6L11/O
                         net (fo=1, routed)           0.695     8.440    muon_sorter_1/max_pt_1_N_4L6_N_6L11
    SLICE_X69Y529        LUT6 (Prop_C6LUT_SLICEL_I1_O)
                                                      0.098     8.538 f  muon_sorter_1/max_pt_1_N_4L6/O
                         net (fo=11, routed)          0.213     8.751    muon_sorter_1/max_pt_1_N_4L6
    SLICE_X71Y529        LUT6 (Prop_C6LUT_SLICEL_I4_O)
                                                      0.148     8.899 r  muon_sorter_1/max_pt_1_2_RNIP47S1_0[29]/O
                         net (fo=15, routed)          0.406     9.305    muon_sorter_1/max_pt_1_1_0[29]
    SLICE_X74Y525        LUT3 (Prop_E6LUT_SLICEM_I2_O)
                                                      0.115     9.420 f  muon_sorter_1/pt_compare_2_29_0_a2[12]/O
                         net (fo=3, routed)           0.887    10.307    muon_sorter_1/N_16672
    SLICE_X81Y528        LUT6 (Prop_G6LUT_SLICEM_I5_O)
                                                      0.179    10.486 r  muon_sorter_1/max_pt_2_2_N_4L5/O
                         net (fo=1, routed)           0.322    10.808    muon_sorter_1/max_pt_2_2_N_4L5
    SLICE_X82Y528        LUT6 (Prop_C6LUT_SLICEL_I4_O)
                                                      0.098    10.906 r  muon_sorter_1/max_pt_2_2[29]/O
                         net (fo=9, routed)           0.331    11.237    muon_sorter_1/max_pt_2_2[29]
    SLICE_X83Y527        LUT6 (Prop_G6LUT_SLICEL_I4_O)
                                                      0.100    11.337 r  muon_sorter_1/max_pt_2_4_RNI3IQ25_2[29]/O
                         net (fo=15, routed)          0.670    12.007    muon_sorter_1/max_pt_2_1[29]
    SLICE_X81Y523        LUT5 (Prop_A6LUT_SLICEM_I3_O)
                                                      0.150    12.157 f  muon_sorter_1/pt_compare_3_29_0_a2[12]/O
                         net (fo=3, routed)           0.948    13.105    muon_sorter_1/N_22544
    SLICE_X82Y521        LUT4 (Prop_C6LUT_SLICEL_I3_O)
                                                      0.098    13.203 r  muon_sorter_1/max_pt_3_2_4_N_6L10/O
                         net (fo=1, routed)           0.242    13.445    muon_sorter_1/max_pt_3_2_4_N_6L10
    SLICE_X82Y520        LUT2 (Prop_E6LUT_SLICEL_I1_O)
                                                      0.064    13.509 f  muon_sorter_1/max_pt_3_2_4_N_3L3_0/O
                         net (fo=1, routed)           0.167    13.676    muon_sorter_1/max_pt_3_2_4_N_3L3_0
    SLICE_X82Y518        LUT6 (Prop_H6LUT_SLICEL_I3_O)
                                                      0.116    13.792 r  muon_sorter_1/max_pt_3_2_4_N_6L11_0/O
                         net (fo=1, routed)           0.133    13.925    muon_sorter_1/max_pt_3_2_4_N_6L11_0
    SLICE_X82Y517        LUT5 (Prop_G6LUT_SLICEL_I3_O)
                                                      0.178    14.103 r  muon_sorter_1/max_pt_3_2_4[29]/O
                         net (fo=9, routed)           0.390    14.493    muon_sorter_1/max_pt_3_2_4[29]
    SLICE_X83Y514        LUT6 (Prop_D6LUT_SLICEL_I5_O)
                                                      0.099    14.592 r  muon_sorter_1/max_pt_3_1[29]/O
                         net (fo=16, routed)          1.041    15.633    muon_sorter_1/max_pt_3_1[29]
    SLICE_X77Y512        LUT6 (Prop_C6LUT_SLICEL_I4_O)
                                                      0.063    15.696 r  muon_sorter_1/pt_compare_4_29_0_a3_0_a2[20]/O
                         net (fo=2, routed)           0.158    15.854    muon_sorter_1/N_22067
    SLICE_X74Y512        LUT5 (Prop_C6LUT_SLICEM_I3_O)
                                                      0.038    15.892 r  muon_sorter_1/max_pt_4_3_3[20]/O
                         net (fo=1, routed)           0.349    16.241    muon_sorter_1/max_pt_4_3_3[20]
    SLICE_X69Y511        LUT6 (Prop_H6LUT_SLICEL_I5_O)
                                                      0.040    16.281 r  muon_sorter_1/max_pt_4_1_4[20]/O
                         net (fo=10, routed)          0.245    16.526    muon_sorter_1/max_pt_4_1_4[20]
    SLICE_X66Y511        LUT6 (Prop_A6LUT_SLICEM_I4_O)
                                                      0.179    16.705 r  muon_sorter_1/max_pt_4_1_0[20]/O
                         net (fo=10, routed)          0.452    17.157    muon_sorter_1/max_pt_4_1_0[20]
    SLICE_X64Y505        LUT5 (Prop_B6LUT_SLICEM_I4_O)
                                                      0.100    17.257 r  muon_sorter_1/pt_compare_5_20_0_a2[6]/O
                         net (fo=2, routed)           0.386    17.643    muon_sorter_1/N_21878
    SLICE_X65Y502        LUT5 (Prop_B6LUT_SLICEL_I2_O)
                                                      0.177    17.820 r  muon_sorter_1/max_pt_5_2_4_N_6L12_0_N_5L9/O
                         net (fo=1, routed)           0.165    17.985    muon_sorter_1/max_pt_5_2_4_N_6L12_0_N_5L9
    SLICE_X65Y501        LUT4 (Prop_C6LUT_SLICEL_I1_O)
                                                      0.063    18.048 r  muon_sorter_1/max_pt_5_2_4_N_6L12_0_N_6L11/O
                         net (fo=1, routed)           0.169    18.217    muon_sorter_1/max_pt_5_2_4_N_6L12_0_N_6L11
    SLICE_X67Y499        LUT4 (Prop_A6LUT_SLICEL_I3_O)
                                                      0.100    18.317 r  muon_sorter_1/max_pt_5_2_4_N_10L22/O
                         net (fo=1, routed)           0.182    18.499    muon_sorter_1/max_pt_5_2_4_N_10L22
    SLICE_X67Y499        LUT6 (Prop_C6LUT_SLICEL_I4_O)
                                                      0.113    18.612 f  muon_sorter_1/max_pt_5_2_4_N_11L25/O
                         net (fo=1, routed)           0.104    18.716    muon_sorter_1/max_pt_5_2_4_N_11L25
    SLICE_X68Y498        LUT5 (Prop_G6LUT_SLICEM_I4_O)
                                                      0.039    18.755 r  muon_sorter_1/max_pt_5_2_4[6]/O
                         net (fo=18, routed)          0.333    19.088    muon_sorter_1/max_pt_5_2_4[6]
    SLICE_X68Y495        LUT6 (Prop_D6LUT_SLICEM_I5_O)
                                                      0.174    19.262 r  muon_sorter_1/pt_compare_5_6_0_a2_0_a2_RNIC4FL1[1]/O
                         net (fo=11, routed)          0.875    20.137    muon_sorter_1/max_pt_5_3[6]
    SLICE_X74Y501        LUT5 (Prop_B6LUT_SLICEM_I3_O)
                                                      0.116    20.253 r  muon_sorter_1/pt_compare_6_6_0_a2_1_a2[0]/O
                         net (fo=3, routed)           0.320    20.573    muon_sorter_1/pt_compare_6_6_0_a2_1_a2[0]
    SLICE_X73Y494        LUT2 (Prop_A6LUT_SLICEL_I1_O)
                                                      0.178    20.751 f  muon_sorter_1/max_pt_6_4_N_7L13/O
                         net (fo=1, routed)           0.154    20.905    muon_sorter_1/max_pt_6_4_N_7L13
    SLICE_X72Y494        LUT6 (Prop_F6LUT_SLICEM_I5_O)
                                                      0.113    21.018 f  muon_sorter_1/max_pt_6_4[6]/O
                         net (fo=9, routed)           0.269    21.287    muon_sorter_1/max_pt_6_4[6]
    SLICE_X74Y495        LUT6 (Prop_F6LUT_SLICEM_I3_O)
                                                      0.098    21.385 f  muon_sorter_1/max_pt_6_2[6]/O
                         net (fo=13, routed)          0.846    22.231    muon_sorter_1/max_pt_6_2[6]
    SLICE_X74Y499        LUT5 (Prop_A6LUT_SLICEM_I3_O)
                                                      0.116    22.347 r  muon_sorter_1/pt_compare_7_9_0_a2[6]/O
                         net (fo=2, routed)           0.594    22.941    muon_sorter_1/pt_compare_7_9_0_a2[6]
    SLICE_X77Y493        LUT6 (Prop_C6LUT_SLICEL_I5_O)
                                                      0.174    23.115 r  muon_sorter_1/max_pt_7_0[6]/O
                         net (fo=1, routed)           0.132    23.247    muon_sorter_1/max_pt_7_0[6]
    SLICE_X78Y493        LUT6 (Prop_G6LUT_SLICEM_I4_O)
                                                      0.179    23.426 r  muon_sorter_1/max_pt_7_4[6]/O
                         net (fo=6, routed)           0.789    24.215    muon_sorter_1/max_pt_7_4[6]
    SLICE_X81Y495        LUT6 (Prop_G6LUT_SLICEM_I5_O)
                                                      0.116    24.331 r  muon_sorter_1/max_pt_7[6]/O
                         net (fo=9, routed)           0.770    25.101    muon_sorter_1/max_pt_7[6]
    SLICE_X79Y494        LUT5 (Prop_D6LUT_SLICEL_I4_O)
                                                      0.039    25.140 f  muon_sorter_1/pt_compare_8_9_0_a2[6]/O
                         net (fo=2, routed)           0.051    25.191    muon_sorter_1/N_20699_rep2
    SLICE_X79Y494        LUT3 (Prop_E6LUT_SLICEL_I1_O)
                                                      0.039    25.230 r  muon_sorter_1/sr_p.sr_1_15.roi_ret_3352_RNO_2/O
                         net (fo=1, routed)           0.049    25.279    muon_sorter_1/max_pt_8_3_4_N_5_2
    SLICE_X79Y494        LUT6 (Prop_B6LUT_SLICEL_I5_O)
                                                      0.064    25.343 r  muon_sorter_1/sr_p.sr_1_15.roi_ret_3352_RNO/O
                         net (fo=1, routed)           0.058    25.401    muon_sorter_1/max_pt_8_3_4_N_4L6_0_reti
    SLICE_X79Y494        FDRE                                         r  muon_sorter_1/sr_p.sr_1_15.roi_ret_3352/D
  -------------------------------------------------------------------    -------------------

                         (clock clk rise edge)        6.250     6.250 r  
    AV33                                              0.000     6.250 r  clk (IN)
                         net (fo=0)                   0.000     6.250    clk_ibuf_iso/I
    AV33                 INBUF (Prop_INBUF_HPIOB_M_PAD_O)
                                                      0.510     6.760 r  clk_ibuf_iso/INBUF_INST/O
                         net (fo=1, routed)           0.000     6.760    clk_ibuf_iso/OUT
    AV33                 IBUFCTRL (Prop_IBUFCTRL_HPIOB_M_I_O)
                                                      0.000     6.760 r  clk_ibuf_iso/IBUFCTRL_INST/O
                         net (fo=1, routed)           0.296     7.056    clk_ibuf_iso
    BUFGCE_X1Y224        BUFGCE (Prop_BUFCE_BUFGCE_I_O)
                                                      0.024     7.080 r  clk_ibuf/O
    X2Y8 (CLOCK_ROOT)    net (fo=14401, routed)       2.142     9.222    muon_sorter_1/clk_c
    SLICE_X79Y494        FDRE                                         r  muon_sorter_1/sr_p.sr_1_15.roi_ret_3352/C
                         clock pessimism              0.474     9.696    
                         clock uncertainty           -0.035     9.660    
    SLICE_X79Y494        FDRE (Setup_BFF_SLICEL_C_D)
                                                      0.027     9.687    muon_sorter_1/sr_p.sr_1_15.roi_ret_3352
  -------------------------------------------------------------------
                         required time                          9.687    
                         arrival time                         -25.401    
  -------------------------------------------------------------------
                         slack                                -15.714    

Slack (VIOLATED) :        -15.714ns  (required time - arrival time)
  Source:                 muon_cand_14.pt[0]/C
                            (rising edge-triggered cell FDRE clocked by clk  {rise@0.000ns fall@3.125ns period=6.250ns})
  Destination:            muon_sorter_1/sr_p.sr_1_15.roi_ret_3352/D
                            (rising edge-triggered cell FDRE clocked by clk  {rise@0.000ns fall@3.125ns period=6.250ns})
  Path Group:             clk
  Path Type:              Setup (Max at Slow Process Corner)
  Requirement:            6.250ns  (clk rise@6.250ns - clk rise@0.000ns)
  Data Path Delay:        21.852ns  (logic 4.723ns (21.614%)  route 17.129ns (78.386%))
  Logic Levels:           41  (LUT2=2 LUT3=2 LUT4=7 LUT5=10 LUT6=20)
  Clock Path Skew:        -0.103ns (DCD - SCD + CPR)
    Destination Clock Delay (DCD):    2.972ns = ( 9.222 - 6.250 ) 
    Source Clock Delay      (SCD):    3.549ns
    Clock Pessimism Removal (CPR):    0.474ns
  Clock Uncertainty:      0.035ns  ((TSJ^2 + TIJ^2)^1/2 + DJ) / 2 + PE
    Total System Jitter     (TSJ):    0.071ns
    Total Input Jitter      (TIJ):    0.000ns
    Discrete Jitter          (DJ):    0.000ns
    Phase Error              (PE):    0.000ns
  Clock Net Delay (Source):      2.408ns (routing 1.268ns, distribution 1.140ns)
  Clock Net Delay (Destination): 2.142ns (routing 1.158ns, distribution 0.984ns)

    Location             Delay type                Incr(ns)  Path(ns)    Netlist Resource(s)
  -------------------------------------------------------------------    -------------------
                         (clock clk rise edge)        0.000     0.000 r  
    AV33                                              0.000     0.000 r  clk (IN)
                         net (fo=0)                   0.000     0.000    clk_ibuf_iso/I
    AV33                 INBUF (Prop_INBUF_HPIOB_M_PAD_O)
                                                      0.779     0.779 r  clk_ibuf_iso/INBUF_INST/O
                         net (fo=1, routed)           0.000     0.779    clk_ibuf_iso/OUT
    AV33                 IBUFCTRL (Prop_IBUFCTRL_HPIOB_M_I_O)
                                                      0.000     0.779 r  clk_ibuf_iso/IBUFCTRL_INST/O
                         net (fo=1, routed)           0.334     1.113    clk_ibuf_iso
    BUFGCE_X1Y224        BUFGCE (Prop_BUFCE_BUFGCE_I_O)
                                                      0.028     1.141 r  clk_ibuf/O
    X2Y8 (CLOCK_ROOT)    net (fo=14401, routed)       2.408     3.549    clk_c
    SLICE_X60Y521        FDRE                                         r  muon_cand_14.pt[0]/C
  -------------------------------------------------------------------    -------------------
    SLICE_X60Y521        FDRE (Prop_EFF2_SLICEM_C_Q)
                                                      0.098     3.647 r  muon_cand_14.pt[0]/Q
                         net (fo=40, routed)          0.448     4.095    muon_sorter_1/pt_11[0]
    SLICE_X57Y522        LUT4 (Prop_B6LUT_SLICEL_I1_O)
                                                      0.100     4.195 r  muon_sorter_1/compare_p.29.14.compare_pt.op_qge.op_qge.un75490_pt_compare_c2/O
                         net (fo=1, routed)           0.121     4.316    muon_sorter_1/un75490_pt_compare_c2
    SLICE_X56Y522        LUT5 (Prop_F6LUT_SLICEM_I4_O)
                                                      0.177     4.493 r  muon_sorter_1/compare_p.29.14.compare_pt.op_qge.op_qge.un75490_pt_compare_c4/O
                         net (fo=3, routed)           0.897     5.390    muon_sorter_1/un75490_pt_compare
    SLICE_X62Y525        LUT6 (Prop_C6LUT_SLICEM_I5_O)
                                                      0.098     5.488 f  muon_sorter_1/max_pt_0_2_2[29]/O
                         net (fo=1, routed)           0.363     5.851    muon_sorter_1/max_pt_0_2_2[29]
    SLICE_X63Y528        LUT6 (Prop_F6LUT_SLICEL_I2_O)
                                                      0.098     5.949 f  muon_sorter_1/max_pt_0_4_0[29]/O
                         net (fo=11, routed)          0.214     6.163    muon_sorter_1/max_pt_0_4_0Z[29]
    SLICE_X64Y527        LUT4 (Prop_A6LUT_SLICEM_I3_O)
                                                      0.179     6.342 f  muon_sorter_1/max_pt_0_4[29]/O
                         net (fo=15, routed)          0.828     7.170    muon_sorter_1/max_pt_0_4[29]
    SLICE_X65Y520        LUT4 (Prop_E6LUT_SLICEL_I3_O)
                                                      0.064     7.234 r  muon_sorter_1/max_pt_1_N_4L6_N_3L4/O
                         net (fo=1, routed)           0.363     7.597    muon_sorter_1/max_pt_1_N_4L6_N_3L4
    SLICE_X65Y529        LUT4 (Prop_E6LUT_SLICEL_I1_O)
                                                      0.148     7.745 f  muon_sorter_1/max_pt_1_N_4L6_N_6L11/O
                         net (fo=1, routed)           0.695     8.440    muon_sorter_1/max_pt_1_N_4L6_N_6L11
    SLICE_X69Y529        LUT6 (Prop_C6LUT_SLICEL_I1_O)
                                                      0.098     8.538 r  muon_sorter_1/max_pt_1_N_4L6/O
                         net (fo=11, routed)          0.213     8.751    muon_sorter_1/max_pt_1_N_4L6
    SLICE_X71Y529        LUT6 (Prop_C6LUT_SLICEL_I4_O)
                                                      0.148     8.899 f  muon_sorter_1/max_pt_1_2_RNIP47S1_0[29]/O
                         net (fo=15, routed)          0.406     9.305    muon_sorter_1/max_pt_1_1_0[29]
    SLICE_X74Y525        LUT3 (Prop_E6LUT_SLICEM_I2_O)
                                                      0.115     9.420 f  muon_sorter_1/pt_compare_2_29_0_a2[12]/O
                         net (fo=3, routed)           0.887    10.307    muon_sorter_1/N_16672
    SLICE_X81Y528        LUT6 (Prop_G6LUT_SLICEM_I5_O)
                                                      0.179    10.486 r  muon_sorter_1/max_pt_2_2_N_4L5/O
                         net (fo=1, routed)           0.322    10.808    muon_sorter_1/max_pt_2_2_N_4L5
    SLICE_X82Y528        LUT6 (Prop_C6LUT_SLICEL_I4_O)
                                                      0.098    10.906 r  muon_sorter_1/max_pt_2_2[29]/O
                         net (fo=9, routed)           0.331    11.237    muon_sorter_1/max_pt_2_2[29]
    SLICE_X83Y527        LUT6 (Prop_G6LUT_SLICEL_I4_O)
                                                      0.100    11.337 r  muon_sorter_1/max_pt_2_4_RNI3IQ25_2[29]/O
                         net (fo=15, routed)          0.670    12.007    muon_sorter_1/max_pt_2_1[29]
    SLICE_X81Y523        LUT5 (Prop_A6LUT_SLICEM_I3_O)
                                                      0.150    12.157 f  muon_sorter_1/pt_compare_3_29_0_a2[12]/O
                         net (fo=3, routed)           0.948    13.105    muon_sorter_1/N_22544
    SLICE_X82Y521        LUT4 (Prop_C6LUT_SLICEL_I3_O)
                                                      0.098    13.203 r  muon_sorter_1/max_pt_3_2_4_N_6L10/O
                         net (fo=1, routed)           0.242    13.445    muon_sorter_1/max_pt_3_2_4_N_6L10
    SLICE_X82Y520        LUT2 (Prop_E6LUT_SLICEL_I1_O)
                                                      0.064    13.509 f  muon_sorter_1/max_pt_3_2_4_N_3L3_0/O
                         net (fo=1, routed)           0.167    13.676    muon_sorter_1/max_pt_3_2_4_N_3L3_0
    SLICE_X82Y518        LUT6 (Prop_H6LUT_SLICEL_I3_O)
                                                      0.116    13.792 r  muon_sorter_1/max_pt_3_2_4_N_6L11_0/O
                         net (fo=1, routed)           0.133    13.925    muon_sorter_1/max_pt_3_2_4_N_6L11_0
    SLICE_X82Y517        LUT5 (Prop_G6LUT_SLICEL_I3_O)
                                                      0.178    14.103 r  muon_sorter_1/max_pt_3_2_4[29]/O
                         net (fo=9, routed)           0.390    14.493    muon_sorter_1/max_pt_3_2_4[29]
    SLICE_X83Y514        LUT6 (Prop_D6LUT_SLICEL_I5_O)
                                                      0.099    14.592 r  muon_sorter_1/max_pt_3_1[29]/O
                         net (fo=16, routed)          1.041    15.633    muon_sorter_1/max_pt_3_1[29]
    SLICE_X77Y512        LUT6 (Prop_C6LUT_SLICEL_I4_O)
                                                      0.063    15.696 r  muon_sorter_1/pt_compare_4_29_0_a3_0_a2[20]/O
                         net (fo=2, routed)           0.158    15.854    muon_sorter_1/N_22067
    SLICE_X74Y512        LUT5 (Prop_C6LUT_SLICEM_I3_O)
                                                      0.038    15.892 r  muon_sorter_1/max_pt_4_3_3[20]/O
                         net (fo=1, routed)           0.349    16.241    muon_sorter_1/max_pt_4_3_3[20]
    SLICE_X69Y511        LUT6 (Prop_H6LUT_SLICEL_I5_O)
                                                      0.040    16.281 r  muon_sorter_1/max_pt_4_1_4[20]/O
                         net (fo=10, routed)          0.245    16.526    muon_sorter_1/max_pt_4_1_4[20]
    SLICE_X66Y511        LUT6 (Prop_A6LUT_SLICEM_I4_O)
                                                      0.179    16.705 r  muon_sorter_1/max_pt_4_1_0[20]/O
                         net (fo=10, routed)          0.452    17.157    muon_sorter_1/max_pt_4_1_0[20]
    SLICE_X64Y505        LUT5 (Prop_B6LUT_SLICEM_I4_O)
                                                      0.100    17.257 r  muon_sorter_1/pt_compare_5_20_0_a2[6]/O
                         net (fo=2, routed)           0.386    17.643    muon_sorter_1/N_21878
    SLICE_X65Y502        LUT5 (Prop_B6LUT_SLICEL_I2_O)
                                                      0.177    17.820 r  muon_sorter_1/max_pt_5_2_4_N_6L12_0_N_5L9/O
                         net (fo=1, routed)           0.165    17.985    muon_sorter_1/max_pt_5_2_4_N_6L12_0_N_5L9
    SLICE_X65Y501        LUT4 (Prop_C6LUT_SLICEL_I1_O)
                                                      0.063    18.048 r  muon_sorter_1/max_pt_5_2_4_N_6L12_0_N_6L11/O
                         net (fo=1, routed)           0.169    18.217    muon_sorter_1/max_pt_5_2_4_N_6L12_0_N_6L11
    SLICE_X67Y499        LUT4 (Prop_A6LUT_SLICEL_I3_O)
                                                      0.100    18.317 r  muon_sorter_1/max_pt_5_2_4_N_10L22/O
                         net (fo=1, routed)           0.182    18.499    muon_sorter_1/max_pt_5_2_4_N_10L22
    SLICE_X67Y499        LUT6 (Prop_C6LUT_SLICEL_I4_O)
                                                      0.113    18.612 f  muon_sorter_1/max_pt_5_2_4_N_11L25/O
                         net (fo=1, routed)           0.104    18.716    muon_sorter_1/max_pt_5_2_4_N_11L25
    SLICE_X68Y498        LUT5 (Prop_G6LUT_SLICEM_I4_O)
                                                      0.039    18.755 r  muon_sorter_1/max_pt_5_2_4[6]/O
                         net (fo=18, routed)          0.333    19.088    muon_sorter_1/max_pt_5_2_4[6]
    SLICE_X68Y495        LUT6 (Prop_D6LUT_SLICEM_I5_O)
                                                      0.174    19.262 r  muon_sorter_1/pt_compare_5_6_0_a2_0_a2_RNIC4FL1[1]/O
                         net (fo=11, routed)          0.875    20.137    muon_sorter_1/max_pt_5_3[6]
    SLICE_X74Y501        LUT5 (Prop_B6LUT_SLICEM_I3_O)
                                                      0.116    20.253 r  muon_sorter_1/pt_compare_6_6_0_a2_1_a2[0]/O
                         net (fo=3, routed)           0.320    20.573    muon_sorter_1/pt_compare_6_6_0_a2_1_a2[0]
    SLICE_X73Y494        LUT2 (Prop_A6LUT_SLICEL_I1_O)
                                                      0.178    20.751 f  muon_sorter_1/max_pt_6_4_N_7L13/O
                         net (fo=1, routed)           0.154    20.905    muon_sorter_1/max_pt_6_4_N_7L13
    SLICE_X72Y494        LUT6 (Prop_F6LUT_SLICEM_I5_O)
                                                      0.113    21.018 f  muon_sorter_1/max_pt_6_4[6]/O
                         net (fo=9, routed)           0.269    21.287    muon_sorter_1/max_pt_6_4[6]
    SLICE_X74Y495        LUT6 (Prop_F6LUT_SLICEM_I3_O)
                                                      0.098    21.385 f  muon_sorter_1/max_pt_6_2[6]/O
                         net (fo=13, routed)          0.846    22.231    muon_sorter_1/max_pt_6_2[6]
    SLICE_X74Y499        LUT5 (Prop_A6LUT_SLICEM_I3_O)
                                                      0.116    22.347 r  muon_sorter_1/pt_compare_7_9_0_a2[6]/O
                         net (fo=2, routed)           0.594    22.941    muon_sorter_1/pt_compare_7_9_0_a2[6]
    SLICE_X77Y493        LUT6 (Prop_C6LUT_SLICEL_I5_O)
                                                      0.174    23.115 r  muon_sorter_1/max_pt_7_0[6]/O
                         net (fo=1, routed)           0.132    23.247    muon_sorter_1/max_pt_7_0[6]
    SLICE_X78Y493        LUT6 (Prop_G6LUT_SLICEM_I4_O)
                                                      0.179    23.426 r  muon_sorter_1/max_pt_7_4[6]/O
                         net (fo=6, routed)           0.789    24.215    muon_sorter_1/max_pt_7_4[6]
    SLICE_X81Y495        LUT6 (Prop_G6LUT_SLICEM_I5_O)
                                                      0.116    24.331 r  muon_sorter_1/max_pt_7[6]/O
                         net (fo=9, routed)           0.770    25.101    muon_sorter_1/max_pt_7[6]
    SLICE_X79Y494        LUT5 (Prop_D6LUT_SLICEL_I4_O)
                                                      0.039    25.140 f  muon_sorter_1/pt_compare_8_9_0_a2[6]/O
                         net (fo=2, routed)           0.051    25.191    muon_sorter_1/N_20699_rep2
    SLICE_X79Y494        LUT3 (Prop_E6LUT_SLICEL_I1_O)
                                                      0.039    25.230 r  muon_sorter_1/sr_p.sr_1_15.roi_ret_3352_RNO_2/O
                         net (fo=1, routed)           0.049    25.279    muon_sorter_1/max_pt_8_3_4_N_5_2
    SLICE_X79Y494        LUT6 (Prop_B6LUT_SLICEL_I5_O)
                                                      0.064    25.343 r  muon_sorter_1/sr_p.sr_1_15.roi_ret_3352_RNO/O
                         net (fo=1, routed)           0.058    25.401    muon_sorter_1/max_pt_8_3_4_N_4L6_0_reti
    SLICE_X79Y494        FDRE                                         r  muon_sorter_1/sr_p.sr_1_15.roi_ret_3352/D
  -------------------------------------------------------------------    -------------------

                         (clock clk rise edge)        6.250     6.250 r  
    AV33                                              0.000     6.250 r  clk (IN)
                         net (fo=0)                   0.000     6.250    clk_ibuf_iso/I
    AV33                 INBUF (Prop_INBUF_HPIOB_M_PAD_O)
                                                      0.510     6.760 r  clk_ibuf_iso/INBUF_INST/O
                         net (fo=1, routed)           0.000     6.760    clk_ibuf_iso/OUT
    AV33                 IBUFCTRL (Prop_IBUFCTRL_HPIOB_M_I_O)
                                                      0.000     6.760 r  clk_ibuf_iso/IBUFCTRL_INST/O
                         net (fo=1, routed)           0.296     7.056    clk_ibuf_iso
    BUFGCE_X1Y224        BUFGCE (Prop_BUFCE_BUFGCE_I_O)
                                                      0.024     7.080 r  clk_ibuf/O
    X2Y8 (CLOCK_ROOT)    net (fo=14401, routed)       2.142     9.222    muon_sorter_1/clk_c
    SLICE_X79Y494        FDRE                                         r  muon_sorter_1/sr_p.sr_1_15.roi_ret_3352/C
                         clock pessimism              0.474     9.696    
                         clock uncertainty           -0.035     9.660    
    SLICE_X79Y494        FDRE (Setup_BFF_SLICEL_C_D)
                                                      0.027     9.687    muon_sorter_1/sr_p.sr_1_15.roi_ret_3352
  -------------------------------------------------------------------
                         required time                          9.687    
                         arrival time                         -25.401    
  -------------------------------------------------------------------
                         slack                                -15.714    

Slack (VIOLATED) :        -15.714ns  (required time - arrival time)
  Source:                 muon_cand_14.pt[0]/C
                            (rising edge-triggered cell FDRE clocked by clk  {rise@0.000ns fall@3.125ns period=6.250ns})
  Destination:            muon_sorter_1/sr_p.sr_1_15.roi_ret_3352/D
                            (rising edge-triggered cell FDRE clocked by clk  {rise@0.000ns fall@3.125ns period=6.250ns})
  Path Group:             clk
  Path Type:              Setup (Max at Slow Process Corner)
  Requirement:            6.250ns  (clk rise@6.250ns - clk rise@0.000ns)
  Data Path Delay:        21.852ns  (logic 4.723ns (21.614%)  route 17.129ns (78.386%))
  Logic Levels:           41  (LUT2=2 LUT3=2 LUT4=7 LUT5=10 LUT6=20)
  Clock Path Skew:        -0.103ns (DCD - SCD + CPR)
    Destination Clock Delay (DCD):    2.972ns = ( 9.222 - 6.250 ) 
    Source Clock Delay      (SCD):    3.549ns
    Clock Pessimism Removal (CPR):    0.474ns
  Clock Uncertainty:      0.035ns  ((TSJ^2 + TIJ^2)^1/2 + DJ) / 2 + PE
    Total System Jitter     (TSJ):    0.071ns
    Total Input Jitter      (TIJ):    0.000ns
    Discrete Jitter          (DJ):    0.000ns
    Phase Error              (PE):    0.000ns
  Clock Net Delay (Source):      2.408ns (routing 1.268ns, distribution 1.140ns)
  Clock Net Delay (Destination): 2.142ns (routing 1.158ns, distribution 0.984ns)

    Location             Delay type                Incr(ns)  Path(ns)    Netlist Resource(s)
  -------------------------------------------------------------------    -------------------
                         (clock clk rise edge)        0.000     0.000 r  
    AV33                                              0.000     0.000 r  clk (IN)
                         net (fo=0)                   0.000     0.000    clk_ibuf_iso/I
    AV33                 INBUF (Prop_INBUF_HPIOB_M_PAD_O)
                                                      0.779     0.779 r  clk_ibuf_iso/INBUF_INST/O
                         net (fo=1, routed)           0.000     0.779    clk_ibuf_iso/OUT
    AV33                 IBUFCTRL (Prop_IBUFCTRL_HPIOB_M_I_O)
                                                      0.000     0.779 r  clk_ibuf_iso/IBUFCTRL_INST/O
                         net (fo=1, routed)           0.334     1.113    clk_ibuf_iso
    BUFGCE_X1Y224        BUFGCE (Prop_BUFCE_BUFGCE_I_O)
                                                      0.028     1.141 r  clk_ibuf/O
    X2Y8 (CLOCK_ROOT)    net (fo=14401, routed)       2.408     3.549    clk_c
    SLICE_X60Y521        FDRE                                         r  muon_cand_14.pt[0]/C
  -------------------------------------------------------------------    -------------------
    SLICE_X60Y521        FDRE (Prop_EFF2_SLICEM_C_Q)
                                                      0.098     3.647 r  muon_cand_14.pt[0]/Q
                         net (fo=40, routed)          0.448     4.095    muon_sorter_1/pt_11[0]
    SLICE_X57Y522        LUT4 (Prop_B6LUT_SLICEL_I1_O)
                                                      0.100     4.195 r  muon_sorter_1/compare_p.29.14.compare_pt.op_qge.op_qge.un75490_pt_compare_c2/O
                         net (fo=1, routed)           0.121     4.316    muon_sorter_1/un75490_pt_compare_c2
    SLICE_X56Y522        LUT5 (Prop_F6LUT_SLICEM_I4_O)
                                                      0.177     4.493 r  muon_sorter_1/compare_p.29.14.compare_pt.op_qge.op_qge.un75490_pt_compare_c4/O
                         net (fo=3, routed)           0.897     5.390    muon_sorter_1/un75490_pt_compare
    SLICE_X62Y525        LUT6 (Prop_C6LUT_SLICEM_I5_O)
                                                      0.098     5.488 f  muon_sorter_1/max_pt_0_2_2[29]/O
                         net (fo=1, routed)           0.363     5.851    muon_sorter_1/max_pt_0_2_2[29]
    SLICE_X63Y528        LUT6 (Prop_F6LUT_SLICEL_I2_O)
                                                      0.098     5.949 f  muon_sorter_1/max_pt_0_4_0[29]/O
                         net (fo=11, routed)          0.214     6.163    muon_sorter_1/max_pt_0_4_0Z[29]
    SLICE_X64Y527        LUT4 (Prop_A6LUT_SLICEM_I3_O)
                                                      0.179     6.342 f  muon_sorter_1/max_pt_0_4[29]/O
                         net (fo=15, routed)          0.828     7.170    muon_sorter_1/max_pt_0_4[29]
    SLICE_X65Y520        LUT4 (Prop_E6LUT_SLICEL_I3_O)
                                                      0.064     7.234 r  muon_sorter_1/max_pt_1_N_4L6_N_3L4/O
                         net (fo=1, routed)           0.363     7.597    muon_sorter_1/max_pt_1_N_4L6_N_3L4
    SLICE_X65Y529        LUT4 (Prop_E6LUT_SLICEL_I1_O)
                                                      0.148     7.745 r  muon_sorter_1/max_pt_1_N_4L6_N_6L11/O
                         net (fo=1, routed)           0.695     8.440    muon_sorter_1/max_pt_1_N_4L6_N_6L11
    SLICE_X69Y529        LUT6 (Prop_C6LUT_SLICEL_I1_O)
                                                      0.098     8.538 f  muon_sorter_1/max_pt_1_N_4L6/O
                         net (fo=11, routed)          0.213     8.751    muon_sorter_1/max_pt_1_N_4L6
    SLICE_X71Y529        LUT6 (Prop_C6LUT_SLICEL_I4_O)
                                                      0.148     8.899 r  muon_sorter_1/max_pt_1_2_RNIP47S1_0[29]/O
                         net (fo=15, routed)          0.406     9.305    muon_sorter_1/max_pt_1_1_0[29]
    SLICE_X74Y525        LUT3 (Prop_E6LUT_SLICEM_I2_O)
                                                      0.115     9.420 f  muon_sorter_1/pt_compare_2_29_0_a2[12]/O
                         net (fo=3, routed)           0.887    10.307    muon_sorter_1/N_16672
    SLICE_X81Y528        LUT6 (Prop_G6LUT_SLICEM_I5_O)
                                                      0.179    10.486 r  muon_sorter_1/max_pt_2_2_N_4L5/O
                         net (fo=1, routed)           0.322    10.808    muon_sorter_1/max_pt_2_2_N_4L5
    SLICE_X82Y528        LUT6 (Prop_C6LUT_SLICEL_I4_O)
                                                      0.098    10.906 r  muon_sorter_1/max_pt_2_2[29]/O
                         net (fo=9, routed)           0.331    11.237    muon_sorter_1/max_pt_2_2[29]
    SLICE_X83Y527        LUT6 (Prop_G6LUT_SLICEL_I4_O)
                                                      0.100    11.337 r  muon_sorter_1/max_pt_2_4_RNI3IQ25_2[29]/O
                         net (fo=15, routed)          0.670    12.007    muon_sorter_1/max_pt_2_1[29]
    SLICE_X81Y523        LUT5 (Prop_A6LUT_SLICEM_I3_O)
                                                      0.150    12.157 f  muon_sorter_1/pt_compare_3_29_0_a2[12]/O
                         net (fo=3, routed)           0.948    13.105    muon_sorter_1/N_22544
    SLICE_X82Y521        LUT4 (Prop_C6LUT_SLICEL_I3_O)
                                                      0.098    13.203 r  muon_sorter_1/max_pt_3_2_4_N_6L10/O
                         net (fo=1, routed)           0.242    13.445    muon_sorter_1/max_pt_3_2_4_N_6L10
    SLICE_X82Y520        LUT2 (Prop_E6LUT_SLICEL_I1_O)
                                                      0.064    13.509 f  muon_sorter_1/max_pt_3_2_4_N_3L3_0/O
                         net (fo=1, routed)           0.167    13.676    muon_sorter_1/max_pt_3_2_4_N_3L3_0
    SLICE_X82Y518        LUT6 (Prop_H6LUT_SLICEL_I3_O)
                                                      0.116    13.792 r  muon_sorter_1/max_pt_3_2_4_N_6L11_0/O
                         net (fo=1, routed)           0.133    13.925    muon_sorter_1/max_pt_3_2_4_N_6L11_0
    SLICE_X82Y517        LUT5 (Prop_G6LUT_SLICEL_I3_O)
                                                      0.178    14.103 r  muon_sorter_1/max_pt_3_2_4[29]/O
                         net (fo=9, routed)           0.390    14.493    muon_sorter_1/max_pt_3_2_4[29]
    SLICE_X83Y514        LUT6 (Prop_D6LUT_SLICEL_I5_O)
                                                      0.099    14.592 r  muon_sorter_1/max_pt_3_1[29]/O
                         net (fo=16, routed)          1.041    15.633    muon_sorter_1/max_pt_3_1[29]
    SLICE_X77Y512        LUT6 (Prop_C6LUT_SLICEL_I4_O)
                                                      0.063    15.696 r  muon_sorter_1/pt_compare_4_29_0_a3_0_a2[20]/O
                         net (fo=2, routed)           0.158    15.854    muon_sorter_1/N_22067
    SLICE_X74Y512        LUT5 (Prop_C6LUT_SLICEM_I3_O)
                                                      0.038    15.892 r  muon_sorter_1/max_pt_4_3_3[20]/O
                         net (fo=1, routed)           0.349    16.241    muon_sorter_1/max_pt_4_3_3[20]
    SLICE_X69Y511        LUT6 (Prop_H6LUT_SLICEL_I5_O)
                                                      0.040    16.281 r  muon_sorter_1/max_pt_4_1_4[20]/O
                         net (fo=10, routed)          0.245    16.526    muon_sorter_1/max_pt_4_1_4[20]
    SLICE_X66Y511        LUT6 (Prop_A6LUT_SLICEM_I4_O)
                                                      0.179    16.705 r  muon_sorter_1/max_pt_4_1_0[20]/O
                         net (fo=10, routed)          0.452    17.157    muon_sorter_1/max_pt_4_1_0[20]
    SLICE_X64Y505        LUT5 (Prop_B6LUT_SLICEM_I4_O)
                                                      0.100    17.257 r  muon_sorter_1/pt_compare_5_20_0_a2[6]/O
                         net (fo=2, routed)           0.386    17.643    muon_sorter_1/N_21878
    SLICE_X65Y502        LUT5 (Prop_B6LUT_SLICEL_I2_O)
                                                      0.177    17.820 r  muon_sorter_1/max_pt_5_2_4_N_6L12_0_N_5L9/O
                         net (fo=1, routed)           0.165    17.985    muon_sorter_1/max_pt_5_2_4_N_6L12_0_N_5L9
    SLICE_X65Y501        LUT4 (Prop_C6LUT_SLICEL_I1_O)
                                                      0.063    18.048 r  muon_sorter_1/max_pt_5_2_4_N_6L12_0_N_6L11/O
                         net (fo=1, routed)           0.169    18.217    muon_sorter_1/max_pt_5_2_4_N_6L12_0_N_6L11
    SLICE_X67Y499        LUT4 (Prop_A6LUT_SLICEL_I3_O)
                                                      0.100    18.317 r  muon_sorter_1/max_pt_5_2_4_N_10L22/O
                         net (fo=1, routed)           0.182    18.499    muon_sorter_1/max_pt_5_2_4_N_10L22
    SLICE_X67Y499        LUT6 (Prop_C6LUT_SLICEL_I4_O)
                                                      0.113    18.612 f  muon_sorter_1/max_pt_5_2_4_N_11L25/O
                         net (fo=1, routed)           0.104    18.716    muon_sorter_1/max_pt_5_2_4_N_11L25
    SLICE_X68Y498        LUT5 (Prop_G6LUT_SLICEM_I4_O)
                                                      0.039    18.755 r  muon_sorter_1/max_pt_5_2_4[6]/O
                         net (fo=18, routed)          0.333    19.088    muon_sorter_1/max_pt_5_2_4[6]
    SLICE_X68Y495        LUT6 (Prop_D6LUT_SLICEM_I5_O)
                                                      0.174    19.262 r  muon_sorter_1/pt_compare_5_6_0_a2_0_a2_RNIC4FL1[1]/O
                         net (fo=11, routed)          0.875    20.137    muon_sorter_1/max_pt_5_3[6]
    SLICE_X74Y501        LUT5 (Prop_B6LUT_SLICEM_I3_O)
                                                      0.116    20.253 f  muon_sorter_1/pt_compare_6_6_0_a2_1_a2[0]/O
                         net (fo=3, routed)           0.320    20.573    muon_sorter_1/pt_compare_6_6_0_a2_1_a2[0]
    SLICE_X73Y494        LUT2 (Prop_A6LUT_SLICEL_I1_O)
                                                      0.178    20.751 r  muon_sorter_1/max_pt_6_4_N_7L13/O
                         net (fo=1, routed)           0.154    20.905    muon_sorter_1/max_pt_6_4_N_7L13
    SLICE_X72Y494        LUT6 (Prop_F6LUT_SLICEM_I5_O)
                                                      0.113    21.018 r  muon_sorter_1/max_pt_6_4[6]/O
                         net (fo=9, routed)           0.269    21.287    muon_sorter_1/max_pt_6_4[6]
    SLICE_X74Y495        LUT6 (Prop_F6LUT_SLICEM_I3_O)
                                                      0.098    21.385 r  muon_sorter_1/max_pt_6_2[6]/O
                         net (fo=13, routed)          0.846    22.231    muon_sorter_1/max_pt_6_2[6]
    SLICE_X74Y499        LUT5 (Prop_A6LUT_SLICEM_I3_O)
                                                      0.116    22.347 f  muon_sorter_1/pt_compare_7_9_0_a2[6]/O
                         net (fo=2, routed)           0.594    22.941    muon_sorter_1/pt_compare_7_9_0_a2[6]
    SLICE_X77Y493        LUT6 (Prop_C6LUT_SLICEL_I5_O)
                                                      0.174    23.115 f  muon_sorter_1/max_pt_7_0[6]/O
                         net (fo=1, routed)           0.132    23.247    muon_sorter_1/max_pt_7_0[6]
    SLICE_X78Y493        LUT6 (Prop_G6LUT_SLICEM_I4_O)
                                                      0.179    23.426 f  muon_sorter_1/max_pt_7_4[6]/O
                         net (fo=6, routed)           0.789    24.215    muon_sorter_1/max_pt_7_4[6]
    SLICE_X81Y495        LUT6 (Prop_G6LUT_SLICEM_I5_O)
                                                      0.116    24.331 f  muon_sorter_1/max_pt_7[6]/O
                         net (fo=9, routed)           0.770    25.101    muon_sorter_1/max_pt_7[6]
    SLICE_X79Y494        LUT5 (Prop_D6LUT_SLICEL_I4_O)
                                                      0.039    25.140 f  muon_sorter_1/pt_compare_8_9_0_a2[6]/O
                         net (fo=2, routed)           0.051    25.191    muon_sorter_1/N_20699_rep2
    SLICE_X79Y494        LUT3 (Prop_E6LUT_SLICEL_I1_O)
                                                      0.039    25.230 r  muon_sorter_1/sr_p.sr_1_15.roi_ret_3352_RNO_2/O
                         net (fo=1, routed)           0.049    25.279    muon_sorter_1/max_pt_8_3_4_N_5_2
    SLICE_X79Y494        LUT6 (Prop_B6LUT_SLICEL_I5_O)
                                                      0.064    25.343 r  muon_sorter_1/sr_p.sr_1_15.roi_ret_3352_RNO/O
                         net (fo=1, routed)           0.058    25.401    muon_sorter_1/max_pt_8_3_4_N_4L6_0_reti
    SLICE_X79Y494        FDRE                                         r  muon_sorter_1/sr_p.sr_1_15.roi_ret_3352/D
  -------------------------------------------------------------------    -------------------

                         (clock clk rise edge)        6.250     6.250 r  
    AV33                                              0.000     6.250 r  clk (IN)
                         net (fo=0)                   0.000     6.250    clk_ibuf_iso/I
    AV33                 INBUF (Prop_INBUF_HPIOB_M_PAD_O)
                                                      0.510     6.760 r  clk_ibuf_iso/INBUF_INST/O
                         net (fo=1, routed)           0.000     6.760    clk_ibuf_iso/OUT
    AV33                 IBUFCTRL (Prop_IBUFCTRL_HPIOB_M_I_O)
                                                      0.000     6.760 r  clk_ibuf_iso/IBUFCTRL_INST/O
                         net (fo=1, routed)           0.296     7.056    clk_ibuf_iso
    BUFGCE_X1Y224        BUFGCE (Prop_BUFCE_BUFGCE_I_O)
                                                      0.024     7.080 r  clk_ibuf/O
    X2Y8 (CLOCK_ROOT)    net (fo=14401, routed)       2.142     9.222    muon_sorter_1/clk_c
    SLICE_X79Y494        FDRE                                         r  muon_sorter_1/sr_p.sr_1_15.roi_ret_3352/C
                         clock pessimism              0.474     9.696    
                         clock uncertainty           -0.035     9.660    
    SLICE_X79Y494        FDRE (Setup_BFF_SLICEL_C_D)
                                                      0.027     9.687    muon_sorter_1/sr_p.sr_1_15.roi_ret_3352
  -------------------------------------------------------------------
                         required time                          9.687    
                         arrival time                         -25.401    
  -------------------------------------------------------------------
                         slack                                -15.714    





Pulse Width Checks
--------------------------------------------------------------------------------------
Clock Name:         clk
Waveform(ns):       { 0.000 3.125 }
Period(ns):         6.250
Sources:            { clk }

Check Type        Corner  Lib Pin   Reference Pin  Required(ns)  Actual(ns)  Slack(ns)  Location       Pin
Min Period        n/a     BUFGCE/I  n/a            1.499         6.250       4.751      BUFGCE_X1Y224  clk_ibuf/I
Min Period        n/a     FDRE/C    n/a            0.550         6.250       5.700      SLICE_X64Y515  muon_sorter_1/sr_p.sr_1_15.roi_ret_18358/C
Min Period        n/a     FDRE/C    n/a            0.550         6.250       5.700      SLICE_X63Y537  muon_sorter_1/sr_p.sr_1_15.roi_ret_18359/C
Min Period        n/a     FDRE/C    n/a            0.550         6.250       5.700      SLICE_X64Y531  muon_sorter_1/sr_p.sr_1_15.roi_ret_18360/C
Min Period        n/a     FDRE/C    n/a            0.550         6.250       5.700      SLICE_X64Y516  muon_sorter_1/sr_p.sr_1_15.roi_ret_18361/C
Low Pulse Width   Fast    FDRE/C    n/a            0.275         3.125       2.850      SLICE_X79Y481  muon_sorter_1/sr_p.sr_1_15.roi_ret_25646/C
Low Pulse Width   Fast    FDRE/C    n/a            0.275         3.125       2.850      SLICE_X56Y527  shift_reg_tap_i/sr_p.sr_9[421]/C
Low Pulse Width   Fast    FDRE/C    n/a            0.275         3.125       2.850      SLICE_X57Y476  shift_reg_tap_o/sr_p.sr_2[162]/C
Low Pulse Width   Fast    FDRE/C    n/a            0.275         3.125       2.850      SLICE_X80Y496  muon_sorter_1/sr_p.sr_1_15.roi_ret_25684/C
Low Pulse Width   Fast    FDRE/C    n/a            0.275         3.125       2.850      SLICE_X87Y514  shift_reg_tap_i/sr_p.sr_9[490]/C
High Pulse Width  Slow    FDRE/C    n/a            0.275         3.125       2.850      SLICE_X64Y516  muon_sorter_1/sr_p.sr_1_15.roi_ret_18361/C
High Pulse Width  Slow    FDRE/C    n/a            0.275         3.125       2.850      SLICE_X78Y494  muon_sorter_1/sr_p.sr_1_15.roi_ret_25633/C
High Pulse Width  Slow    FDRE/C    n/a            0.275         3.125       2.850      SLICE_X70Y486  muon_sorter_1/sr_p.sr_1_15.roi_ret_27682/C
High Pulse Width  Slow    FDRE/C    n/a            0.275         3.125       2.850      SLICE_X58Y479  muon_sorter_1/sr_p.sr_1_8.pt_ret_158/C
High Pulse Width  Slow    FDRE/C    n/a            0.275         3.125       2.850      SLICE_X59Y478  muon_sorter_1/sr_p.sr_1_8.pt_ret_164/C



---------------------------------------------------------------------------------------------------
From Clock:  clk_wrapper
  To Clock:  clk_wrapper

Setup :           NA  Failing Endpoints,  Worst Slack           NA  ,  Total Violation           NA
Hold  :           NA  Failing Endpoints,  Worst Slack           NA  ,  Total Violation           NA
PW    :            0  Failing Endpoints,  Worst Slack      498.562ns,  Total Violation        0.000ns
---------------------------------------------------------------------------------------------------


Pulse Width Checks
--------------------------------------------------------------------------------------
Clock Name:         clk_wrapper
Waveform(ns):       { 0.000 500.000 }
Period(ns):         1000.000
Sources:            { clk_wrapper }

Check Type        Corner  Lib Pin   Reference Pin  Required(ns)  Actual(ns)  Slack(ns)  Location               Pin
Min Period        n/a     FDRE/C    n/a            3.195         1000.000    996.805    BITSLICE_RX_TX_X1Y483  reducer_1/delay_block[4][0]/C
Min Period        n/a     BUFGCE/I  n/a            1.499         1000.000    998.501    BUFGCE_X1Y230          clk_wrapper_ibuf/I
Min Period        n/a     FDRE/C    n/a            0.550         1000.000    999.450    SLICE_X92Y531          lsfr_1/output_vector_1[511]/C
Min Period        n/a     FDRE/C    n/a            0.550         1000.000    999.450    SLICE_X92Y539          lsfr_1/shiftreg_vector[0]/C
Min Period        n/a     FDRE/C    n/a            0.550         1000.000    999.450    SLICE_X63Y425          lsfr_1/shiftreg_vector[100]/C
Low Pulse Width   Slow    FDRE/C    n/a            1.438         500.000     498.562    BITSLICE_RX_TX_X1Y483  reducer_1/delay_block[4][0]/C
Low Pulse Width   Fast    FDRE/C    n/a            1.438         500.000     498.562    BITSLICE_RX_TX_X1Y483  reducer_1/delay_block[4][0]/C
Low Pulse Width   Slow    FDRE/C    n/a            0.275         500.000     499.725    SLICE_X63Y425          lsfr_1/shiftreg_vector[100]/C
Low Pulse Width   Slow    FDRE/C    n/a            0.275         500.000     499.725    SLICE_X63Y425          lsfr_1/shiftreg_vector[101]/C
Low Pulse Width   Slow    FDRE/C    n/a            0.275         500.000     499.725    SLICE_X63Y425          lsfr_1/shiftreg_vector[102]/C
High Pulse Width  Fast    FDRE/C    n/a            1.438         500.000     498.562    BITSLICE_RX_TX_X1Y483  reducer_1/delay_block[4][0]/C
High Pulse Width  Slow    FDRE/C    n/a            1.438         500.000     498.562    BITSLICE_RX_TX_X1Y483  reducer_1/delay_block[4][0]/C
High Pulse Width  Fast    FDRE/C    n/a            0.275         500.000     499.725    SLICE_X92Y539          lsfr_1/shiftreg_vector[0]/C
High Pulse Width  Fast    FDRE/C    n/a            0.275         500.000     499.725    SLICE_X63Y425          lsfr_1/shiftreg_vector[100]/C
High Pulse Width  Fast    FDRE/C    n/a            0.275         500.000     499.725    SLICE_X63Y425          lsfr_1/shiftreg_vector[101]/C



