Copyright 1986-2018 Xilinx, Inc. All Rights Reserved.
------------------------------------------------------------------------------------
| Tool Version : Vivado v.2018.2 (win64) Build 2258646 Thu Jun 14 20:03:12 MDT 2018
| Date         : Mon Mar 18 17:33:24 2019
| Host         : PCPHESEBE02 running 64-bit Service Pack 1  (build 7601)
| Command      : report_high_fanout_nets -histogram -file fanout_hist.txt
| Design       : wrapper
| Device       : xcvu9p
------------------------------------------------------------------------------------

High Fan-out Nets Information

1. Histogram
------------

+---------+-------+--------+
|  Fanout |  Nets |      % |
+---------+-------+--------+
|       1 |  3203 |  23.28 |
|       2 |  4224 |  30.71 |
|       3 |  2726 |  19.82 |
|       4 |  1676 |  12.18 |
|    5-10 |   696 |   5.06 |
|   11-50 |  1223 |   8.89 |
|  51-100 |     5 |   0.03 |
| 101-500 |     0 |   0.00 |
|    >500 |     0 |   0.00 |
+---------+-------+--------+
|     ALL | 13753 | 100.00 |
+---------+-------+--------+


