Copyright 1986-2018 Xilinx, Inc. All Rights Reserved.
------------------------------------------------------------------------------------
| Tool Version : Vivado v.2018.2 (win64) Build 2258646 Thu Jun 14 20:03:12 MDT 2018
| Date         : Mon Mar 18 17:33:23 2019
| Host         : PCPHESEBE02 running 64-bit Service Pack 1  (build 7601)
| Command      : report_high_fanout_nets -file fanout.txt -max_nets 200
| Design       : wrapper
| Device       : xcvu9p
------------------------------------------------------------------------------------

High Fan-out Nets Information

1. Summary
----------

+------------------------------------------------------------------------------------------------------------------------------------------------------------------------------------------------------------------------------------------+--------+-------------+
| Net Name                                                                                                                                                                                                                                 | Fanout | Driver Type |
+------------------------------------------------------------------------------------------------------------------------------------------------------------------------------------------------------------------------------------------+--------+-------------+
| dut_inst/sorter_inst/genblk1.bitonic_sort_high/genblk1.bitonic_sort_high/genblk1.bitonic_sort_high/genblk1.bitonic_merge_i/genblk1.cmp_g[0].compare_i/un1_compare_i_48_0                                                                 |     56 | LUT6        |
| dut_inst/sorter_inst/genblk1.bitonic_merge_i/genblk1.cmp_g[16].compare_i/un1_compare_i_1_83_0                                                                                                                                            |     55 | LUT6        |
| dut_inst/sorter_inst/genblk1.bitonic_sort_high/genblk1.bitonic_sort_low/genblk1.bitonic_merge_i/genblk1.bitonic_merge_high/genblk1.cmp_g[0].compare_i/un1_compare_i_1_40_0                                                               |     53 | LUT4        |
| dut_inst/un1_b_25                                                                                                                                                                                                                        |     53 | LUT5        |
| dut_inst/sorter_inst/genblk1.bitonic_sort_high/genblk1.bitonic_sort_low/genblk1.bitonic_merge_i/genblk1.bitonic_merge_high/genblk1.cmp_g[0].compare_i/pt_N_3_mux_0                                                                       |     52 | LUT6        |
| dut_inst/idx2_59                                                                                                                                                                                                                         |     50 | LUT3        |
| dut_inst/sorter_inst/genblk1.bitonic_sort_high/genblk1.bitonic_sort_low/genblk1.bitonic_sort_low/genblk1.bitonic_merge_i/genblk1.cmp_g[3].compare_i/un1_compare_i_1_22_0                                                                 |     50 | LUT5        |
| dut_inst/idx2_6                                                                                                                                                                                                                          |     49 | LUT5        |
| dut_inst/sorter_inst/genblk1.bitonic_sort_high/genblk1.bitonic_sort_high/genblk1.bitonic_merge_i/genblk1.bitonic_merge_low/genblk1.bitonic_merge_high/genblk1.bitonic_merge_low/genblk1.cmp_g[0].compare_i/un1_bitonic_sort_high_0_0     |     49 | LUT6        |
| dut_inst/sorter_inst/genblk1.bitonic_sort_high/genblk1.bitonic_sort_low/genblk1.bitonic_merge_i/genblk1.bitonic_merge_high/genblk1.cmp_g[2].compare_i/pt_m4                                                                              |     49 | LUT6        |
| dut_inst/sorter_inst/genblk1.bitonic_sort_high/genblk1.bitonic_merge_i/genblk1.bitonic_merge_high/genblk1.cmp_g[0].compare_i/un1_bitonic_sort_high_6_0                                                                                   |     48 | LUT3        |
| dut_inst/sorter_inst/genblk1.bitonic_sort_low/genblk1.bitonic_sort_high/genblk1.bitonic_sort_high/genblk1.bitonic_sort_high/genblk1.bitonic_merge_i/genblk1.bitonic_merge_high/genblk1.cmp_g[0].compare_i/un1_bitonic_sort_high_0        |     48 | LUT4        |
| dut_inst/un1_b_4                                                                                                                                                                                                                         |     48 | LUT5        |
| dut_inst/ALTB_N_5                                                                                                                                                                                                                        |     47 | LUT6        |
| dut_inst/idx2_93                                                                                                                                                                                                                         |     47 | LUT6        |
| dut_inst/sorter_inst/genblk1.bitonic_sort_high/genblk1.bitonic_sort_high/genblk1.bitonic_sort_high/genblk1.bitonic_sort_low/genblk1.bitonic_merge_i/genblk1.bitonic_merge_low/genblk1.cmp_g[0].compare_i/un1_bitonic_sort_low_i_0_0      |     47 | LUT4        |
| dut_inst/sorter_inst/genblk1.bitonic_sort_high/genblk1.bitonic_sort_low/genblk1.bitonic_sort_high/genblk1.bitonic_merge_i/genblk1.bitonic_merge_high/genblk1.bitonic_merge_low/genblk1.cmp_g[0].compare_i/un1_bitonic_sort_high_0        |     47 | LUT6        |
| dut_inst/sorter_inst/genblk1.bitonic_sort_low/genblk1.bitonic_sort_low/genblk1.bitonic_merge_i/genblk1.bitonic_merge_high/genblk1.cmp_g[0].compare_i/un1_compare_i_65_0                                                                  |     47 | LUT6        |
| dut_inst/sorter_inst/genblk1.bitonic_merge_i/genblk1.cmp_g[17].compare_i/un1_compare_i_1_15_0                                                                                                                                            |     46 | LUT6        |
| dut_inst/idx2_326                                                                                                                                                                                                                        |     45 | LUT6        |
| dut_inst/sorter_inst/genblk1.bitonic_sort_high/genblk1.bitonic_sort_high/genblk1.bitonic_sort_low/genblk1.bitonic_merge_i/genblk1.bitonic_merge_low/genblk1.bitonic_merge_low/genblk1.cmp_g[0].compare_i/un1_bitonic_sort_low_i_2_0      |     45 | LUT5        |
| dut_inst/sorter_inst/genblk1.bitonic_sort_high/genblk1.bitonic_sort_low/genblk1.bitonic_sort_high/genblk1.bitonic_merge_i/genblk1.bitonic_merge_high/genblk1.bitonic_merge_low/genblk1.cmp_g[0].compare_i/un1_bitonic_sort_high_10       |     45 | LUT6        |
| dut_inst/idx2_36                                                                                                                                                                                                                         |     44 | LUT5        |
| dut_inst/sorter_inst/genblk1.bitonic_merge_i/genblk1.bitonic_merge_high/genblk1.cmp_g[3].compare_i/un1_compare_i_1_180_0                                                                                                                 |     44 | LUT6        |
| dut_inst/sorter_inst/genblk1.bitonic_sort_high/genblk1.bitonic_sort_high/genblk1.bitonic_sort_high/genblk1.bitonic_merge_i/genblk1.bitonic_merge_high/genblk1.cmp_g[1].compare_i/un1_compare_i_37_0                                      |     44 | LUT6        |
| dut_inst/sorter_inst/genblk1.bitonic_sort_low/genblk1.bitonic_sort_low/genblk1.bitonic_merge_i/genblk1.bitonic_merge_high/genblk1.cmp_g[2].compare_i/un1_compare_i_66_0                                                                  |     44 | LUT6        |
| dut_inst/idx2_77                                                                                                                                                                                                                         |     43 | LUT6        |
| dut_inst/sorter_inst/genblk1.bitonic_merge_i/genblk1.bitonic_merge_high/genblk1.cmp_g[9].compare_i/un1_compare_i_1_19_0                                                                                                                  |     43 | LUT5        |
| dut_inst/sorter_inst/genblk1.bitonic_sort_high/genblk1.bitonic_merge_i/genblk1.bitonic_merge_high/genblk1.cmp_g[5].compare_i/un1_compare_i_27_0                                                                                          |     43 | LUT6        |
| dut_inst/sorter_inst/genblk1.bitonic_sort_high/genblk1.bitonic_sort_low/genblk1.bitonic_merge_i/genblk1.bitonic_merge_high/genblk1.cmp_g[3].compare_i/un1_compare_i_69_0                                                                 |     43 | LUT6        |
| dut_inst/sorter_inst/genblk1.bitonic_sort_high/genblk1.bitonic_sort_low/genblk1.bitonic_merge_i/genblk1.cmp_g[1].compare_i/pt_N_9_mux                                                                                                    |     43 | LUT4        |
| dut_inst/sorter_inst/genblk1.bitonic_sort_low/genblk1.bitonic_merge_i/genblk1.bitonic_merge_low/genblk1.cmp_g[0].compare_i/un1_compare_i_19_0                                                                                            |     43 | LUT6        |
| dut_inst/sorter_inst/genblk1.bitonic_sort_low/genblk1.bitonic_merge_i/genblk1.bitonic_merge_low/genblk1.cmp_g[7].compare_i/un1_compare_i_87_0                                                                                            |     43 | LUT5        |
| dut_inst/sorter_inst/genblk1.bitonic_sort_low/genblk1.bitonic_sort_low/genblk1.bitonic_merge_i/genblk1.cmp_g[1].compare_i/un1_compare_i_67_0                                                                                             |     43 | LUT5        |
| dut_inst/idx2_27                                                                                                                                                                                                                         |     42 | LUT5        |
| dut_inst/idx2_34                                                                                                                                                                                                                         |     42 | LUT5        |
| dut_inst/sorter_inst/genblk1.bitonic_sort_low/genblk1.bitonic_sort_high/genblk1.bitonic_sort_high/genblk1.bitonic_merge_i/genblk1.bitonic_merge_low/genblk1.cmp_g[0].compare_i/un1_compare_i_1_37_0                                      |     42 | LUT6        |
| dut_inst/un1_b_53                                                                                                                                                                                                                        |     42 | LUT6        |
| dut_inst/ALTB_0_0[0]                                                                                                                                                                                                                     |     41 | LUT6        |
| dut_inst/idx2_314                                                                                                                                                                                                                        |     41 | LUT6        |
| dut_inst/sorter_inst/genblk1.bitonic_merge_i/genblk1.bitonic_merge_low/genblk1.bitonic_merge_low/genblk1.cmp_g[0].compare_i/un1_compare_i_1_194_0                                                                                        |     41 | LUT6        |
| dut_inst/sorter_inst/genblk1.bitonic_sort_high/genblk1.bitonic_sort_high/genblk1.bitonic_merge_i/genblk1.bitonic_merge_high/genblk1.bitonic_merge_high/genblk1.bitonic_merge_high/genblk1.cmp_g[0].compare_i/un1_bitonic_sort_high_0     |     41 | LUT6        |
| dut_inst/sorter_inst/genblk1.bitonic_sort_high/genblk1.bitonic_sort_low/genblk1.bitonic_merge_i/genblk1.bitonic_merge_high/genblk1.cmp_g[1].compare_i/un1_compare_i_73_0                                                                 |     41 | LUT6        |
| dut_inst/sorter_inst/genblk1.bitonic_sort_low/genblk1.bitonic_merge_i/genblk1.bitonic_merge_low/genblk1.bitonic_merge_low/genblk1.bitonic_merge_high/genblk1.cmp_g[0].compare_i/pt_m6_1                                                  |     41 | LUT5        |
| dut_inst/sorter_inst/genblk1.bitonic_sort_high/genblk1.bitonic_merge_i/genblk1.cmp_g[3].compare_i/un1_compare_i_5_0                                                                                                                      |     40 | LUT6        |
| dut_inst/sorter_inst/genblk1.bitonic_sort_high/genblk1.bitonic_sort_high/genblk1.bitonic_sort_low/genblk1.bitonic_merge_i/genblk1.bitonic_merge_low/genblk1.bitonic_merge_high/genblk1.cmp_g[0].compare_i/un1_bitonic_sort_low_rep_2_0   |     40 | LUT5        |
| dut_inst/sorter_inst/genblk1.bitonic_sort_low/genblk1.bitonic_sort_high/genblk1.bitonic_merge_i/genblk1.bitonic_merge_low/genblk1.bitonic_merge_high/genblk1.cmp_g[0].compare_i/un1_compare_i_23_0                                       |     40 | LUT4        |
| dut_inst/sorter_inst/genblk1.bitonic_sort_low/genblk1.bitonic_sort_low/genblk1.bitonic_sort_high/genblk1.bitonic_merge_i/genblk1.bitonic_merge_low/genblk1.cmp_g[0].compare_i/un1_bitonic_sort_low_i_1_0                                 |     40 | LUT4        |
| dut_inst/un1_b_33                                                                                                                                                                                                                        |     40 | LUT6        |
| dut_inst/ALTB_N_4_3                                                                                                                                                                                                                      |     39 | LUT5        |
| dut_inst/idx2_106                                                                                                                                                                                                                        |     39 | LUT6        |
| dut_inst/idx2_62                                                                                                                                                                                                                         |     39 | LUT5        |
| dut_inst/sorter_inst/genblk1.bitonic_merge_i/genblk1.bitonic_merge_low/genblk1.cmp_g[7].compare_i/un1_compare_i_i_1_0                                                                                                                    |     39 | LUT4        |
| dut_inst/sorter_inst/genblk1.bitonic_sort_high/genblk1.bitonic_sort_low/genblk1.bitonic_merge_i/genblk1.bitonic_merge_high/genblk1.cmp_g[2].compare_i/un1_compare_i_1_41_0                                                               |     39 | LUT4        |
| dut_inst/sorter_inst/genblk1.bitonic_sort_high/genblk1.bitonic_sort_low/genblk1.bitonic_sort_high/genblk1.bitonic_merge_i/genblk1.bitonic_merge_high/genblk1.bitonic_merge_high/genblk1.cmp_g[0].compare_i/un1_bitonic_sort_high_i_0     |     39 | LUT5        |
| dut_inst/sorter_inst/genblk1.bitonic_sort_low/genblk1.bitonic_sort_low/genblk1.bitonic_merge_i/genblk1.bitonic_merge_low/genblk1.cmp_g[3].compare_i/un1_compare_i_62_0                                                                   |     39 | LUT4        |
| dut_inst/idx2_32                                                                                                                                                                                                                         |     38 | LUT6        |
| dut_inst/idx2_341                                                                                                                                                                                                                        |     38 | LUT6        |
| dut_inst/idx2_70                                                                                                                                                                                                                         |     38 | LUT6        |
| dut_inst/sorter_inst/genblk1.bitonic_merge_i/genblk1.bitonic_merge_low/genblk1.cmp_g[10].compare_i/un1_compare_i_1_169_0                                                                                                                 |     38 | LUT4        |
| dut_inst/sorter_inst/genblk1.bitonic_sort_high/genblk1.bitonic_merge_i/genblk1.bitonic_merge_low/genblk1.bitonic_merge_high/genblk1.bitonic_merge_high/genblk1.bitonic_merge_high/genblk1.cmp_g[0].compare_i/un1_bitonic_sort_high_0_0   |     38 | LUT6        |
| dut_inst/sorter_inst/genblk1.bitonic_sort_low/genblk1.bitonic_merge_i/genblk1.bitonic_merge_low/genblk1.bitonic_merge_high/genblk1.cmp_g[0].compare_i/un1_compare_i_1_28_0                                                               |     38 | LUT4        |
| dut_inst/sorter_inst/genblk1.bitonic_sort_low/genblk1.bitonic_sort_low/genblk1.bitonic_sort_high/genblk1.bitonic_merge_i/genblk1.bitonic_merge_high/genblk1.bitonic_merge_low/genblk1.cmp_g[0].compare_i/pt_N_6_mux                      |     38 | LUT5        |
| dut_inst/sorter_inst/genblk1.bitonic_sort_low/genblk1.bitonic_sort_low/genblk1.bitonic_sort_low/genblk1.bitonic_merge_i/genblk1.cmp_g[2].compare_i/un1_compare_i_44_0                                                                    |     38 | LUT6        |
| shift_reg_tap_i/input_slr[480]                                                                                                                                                                                                           |     38 | FDRE        |
| dut_inst/idx2_295                                                                                                                                                                                                                        |     37 | LUT5        |
| dut_inst/sorter_inst/genblk1.bitonic_merge_i/genblk1.bitonic_merge_high/genblk1.bitonic_merge_high/genblk1.bitonic_merge_low/genblk1.cmp_g[1].compare_i/un1_compare_i_1_195_0                                                            |     37 | LUT6        |
| dut_inst/sorter_inst/genblk1.bitonic_merge_i/genblk1.bitonic_merge_low/genblk1.cmp_g[13].compare_i/un1_compare_i_i_2_0                                                                                                                   |     37 | LUT6        |
| dut_inst/sorter_inst/genblk1.bitonic_merge_i/genblk1.bitonic_merge_low/genblk1.cmp_g[5].compare_i/un1_compare_i_98_0                                                                                                                     |     37 | LUT6        |
| dut_inst/sorter_inst/genblk1.bitonic_sort_high/genblk1.bitonic_merge_i/genblk1.bitonic_merge_low/genblk1.cmp_g[2].compare_i/un1_compare_i_1_0_0                                                                                          |     37 | LUT6        |
| dut_inst/sorter_inst/genblk1.bitonic_sort_low/genblk1.bitonic_merge_i/genblk1.bitonic_merge_low/genblk1.cmp_g[4].compare_i/un1_compare_i_147_0                                                                                           |     37 | LUT6        |
| dut_inst/sorter_inst/genblk1.bitonic_sort_low/genblk1.bitonic_sort_high/genblk1.bitonic_merge_i/genblk1.bitonic_merge_high/genblk1.bitonic_merge_high/genblk1.bitonic_merge_high/genblk1.cmp_g[0].compare_i/pt_N_9_mux_1                 |     37 | LUT6        |
| dut_inst/sorter_inst/genblk1.bitonic_sort_low/genblk1.bitonic_sort_high/genblk1.bitonic_merge_i/genblk1.bitonic_merge_low/genblk1.bitonic_merge_high/genblk1.bitonic_merge_high/genblk1.cmp_g[0].compare_i/pt_m2                         |     37 | LUT6        |
| dut_inst/sorter_inst/genblk1.bitonic_sort_low/genblk1.bitonic_sort_high/genblk1.bitonic_sort_high/genblk1.bitonic_merge_i/genblk1.bitonic_merge_low/genblk1.cmp_g[1].compare_i/un1_compare_i_1_93_0                                      |     37 | LUT6        |
| dut_inst/sorter_inst/genblk1.bitonic_sort_low/genblk1.bitonic_sort_low/genblk1.bitonic_merge_i/genblk1.bitonic_merge_high/genblk1.bitonic_merge_low/genblk1.cmp_g[1].compare_i/un1_compare_i_79_0                                        |     37 | LUT6        |
| dut_inst/sorter_inst/genblk1.bitonic_sort_low/genblk1.bitonic_sort_low/genblk1.bitonic_merge_i/genblk1.bitonic_merge_low/genblk1.cmp_g[2].compare_i/pt_a0_1_0_0                                                                          |     37 | LUT6        |
| dut_inst/un1_b_6                                                                                                                                                                                                                         |     37 | LUT4        |
| dut_inst/ALTB_5[0]                                                                                                                                                                                                                       |     36 | LUT6        |
| dut_inst/ALTB_N_4                                                                                                                                                                                                                        |     36 | LUT6        |
| dut_inst/idx2_213                                                                                                                                                                                                                        |     36 | LUT6        |
| dut_inst/idx2_282                                                                                                                                                                                                                        |     36 | LUT6        |
| dut_inst/idx2_96                                                                                                                                                                                                                         |     36 | LUT6        |
| dut_inst/sorter_inst/genblk1.bitonic_sort_high/genblk1.bitonic_merge_i/genblk1.bitonic_merge_low/genblk1.bitonic_merge_high/genblk1.cmp_g[0].compare_i/un1_compare_i_162_0                                                               |     36 | LUT6        |
| dut_inst/sorter_inst/genblk1.bitonic_sort_high/genblk1.bitonic_sort_high/genblk1.bitonic_merge_i/genblk1.bitonic_merge_high/genblk1.bitonic_merge_high/genblk1.bitonic_merge_low/genblk1.cmp_g[0].compare_i/un1_bitonic_sort_high_0_10   |     36 | LUT6        |
| dut_inst/sorter_inst/genblk1.bitonic_sort_high/genblk1.bitonic_sort_high/genblk1.bitonic_sort_high/genblk1.bitonic_merge_i/genblk1.bitonic_merge_low/genblk1.cmp_g[1].compare_i/un1_compare_i_46_0                                       |     36 | LUT5        |
| dut_inst/sorter_inst/genblk1.bitonic_sort_low/genblk1.bitonic_merge_i/genblk1.bitonic_merge_low/genblk1.bitonic_merge_high/genblk1.bitonic_merge_high/genblk1.cmp_g[1].compare_i/un1_compare_i_1_29_0                                    |     36 | LUT6        |
| dut_inst/sorter_inst/genblk1.bitonic_sort_low/genblk1.bitonic_merge_i/genblk1.cmp_g[11].compare_i/un1_compare_i_1_71_0                                                                                                                   |     36 | LUT6        |
| dut_inst/sorter_inst/genblk1.bitonic_sort_low/genblk1.bitonic_sort_high/genblk1.bitonic_merge_i/genblk1.cmp_g[0].compare_i/un1_compare_i_1_42_0                                                                                          |     36 | LUT6        |
| dut_inst/sorter_inst/genblk1.bitonic_sort_low/genblk1.bitonic_sort_high/genblk1.bitonic_sort_high/genblk1.bitonic_sort_high/genblk1.bitonic_merge_i/genblk1.bitonic_merge_high/genblk1.cmp_g[0].compare_i/un1_bitonic_sort_high_1_0      |     36 | LUT4        |
| dut_inst/sorter_inst/genblk1.bitonic_sort_low/genblk1.bitonic_sort_low/genblk1.bitonic_merge_i/genblk1.bitonic_merge_high/genblk1.bitonic_merge_high/genblk1.bitonic_merge_low/genblk1.cmp_g[0].compare_i/un1_bitonic_sort_low_0         |     36 | LUT6        |
| dut_inst/sorter_inst/genblk1.bitonic_sort_low/genblk1.bitonic_sort_low/genblk1.bitonic_merge_i/genblk1.cmp_g[3].compare_i/un1_compare_i_1_57_0                                                                                           |     36 | LUT6        |
| dut_inst/sorter_inst/genblk1.bitonic_sort_low/genblk1.bitonic_sort_low/genblk1.bitonic_merge_i/genblk1.cmp_g[7].compare_i/un1_compare_i_1_56_0                                                                                           |     36 | LUT6        |
| dut_inst/ALTB_18[0]                                                                                                                                                                                                                      |     35 | LUT6        |
| dut_inst/idx2_12                                                                                                                                                                                                                         |     35 | LUT6        |
| dut_inst/idx2_129                                                                                                                                                                                                                        |     35 | LUT4        |
| dut_inst/idx2_3                                                                                                                                                                                                                          |     35 | LUT5        |
| dut_inst/idx2_332                                                                                                                                                                                                                        |     35 | LUT6        |
| dut_inst/idx2_52                                                                                                                                                                                                                         |     35 | LUT6        |
| dut_inst/sorter_inst/genblk1.bitonic_merge_i/genblk1.bitonic_merge_low/genblk1.bitonic_merge_high/genblk1.cmp_g[6].compare_i/un1_compare_i_96_0                                                                                          |     35 | LUT6        |
| dut_inst/sorter_inst/genblk1.bitonic_sort_high/genblk1.bitonic_merge_i/genblk1.bitonic_merge_high/genblk1.bitonic_merge_high/genblk1.bitonic_merge_high/genblk1.bitonic_merge_high/genblk1.cmp_g[0].compare_i/un1_bitonic_sort_high_0_d0 |     35 | LUT6        |
| dut_inst/sorter_inst/genblk1.bitonic_sort_high/genblk1.bitonic_sort_high/genblk1.bitonic_merge_i/genblk1.cmp_g[6].compare_i/un1_compare_i_52_0                                                                                           |     35 | LUT5        |
| dut_inst/sorter_inst/genblk1.bitonic_sort_high/genblk1.bitonic_sort_low/genblk1.bitonic_sort_low/genblk1.bitonic_merge_i/genblk1.bitonic_merge_high/genblk1.cmp_g[0].compare_i/pt_m1                                                     |     35 | LUT5        |
| dut_inst/sorter_inst/genblk1.bitonic_sort_high/genblk1.bitonic_sort_low/genblk1.bitonic_sort_low/genblk1.bitonic_sort_low/genblk1.bitonic_merge_i/genblk1.bitonic_merge_low/genblk1.cmp_g[0].compare_i/un1_bitonic_sort_low_i_3_0        |     35 | LUT4        |
| dut_inst/sorter_inst/genblk1.bitonic_sort_low/genblk1.bitonic_merge_i/genblk1.bitonic_merge_high/genblk1.bitonic_merge_high/genblk1.bitonic_merge_low/genblk1.cmp_g[0].compare_i/un1_compare_i_i_0                                       |     35 | LUT6        |
| dut_inst/sorter_inst/genblk1.bitonic_sort_low/genblk1.bitonic_merge_i/genblk1.bitonic_merge_low/genblk1.bitonic_merge_high/genblk1.cmp_g[0].compare_i/un1_compare_i_152_0                                                                |     35 | LUT4        |
| dut_inst/sorter_inst/genblk1.bitonic_sort_low/genblk1.bitonic_merge_i/genblk1.cmp_g[15].compare_i/un1_compare_i_145_0                                                                                                                    |     35 | LUT6        |
| dut_inst/sorter_inst/genblk1.bitonic_sort_low/genblk1.bitonic_sort_high/genblk1.bitonic_merge_i/genblk1.cmp_g[4].compare_i/un1_compare_i_1_44_0                                                                                          |     35 | LUT6        |
| dut_inst/sorter_inst/genblk1.bitonic_sort_low/genblk1.bitonic_sort_high/genblk1.bitonic_sort_high/genblk1.bitonic_merge_i/genblk1.bitonic_merge_low/genblk1.cmp_g[1].compare_i/un1_bitonic_sort_low_6_0                                  |     35 | LUT4        |
| dut_inst/sorter_inst/genblk1.bitonic_sort_low/genblk1.bitonic_sort_low/genblk1.bitonic_sort_low/genblk1.bitonic_merge_i/genblk1.cmp_g[0].compare_i/un1_compare_i_43_0                                                                    |     35 | LUT5        |
| shift_reg_tap_i/input_slr[20]                                                                                                                                                                                                            |     35 | FDRE        |
| shift_reg_tap_i/input_slr[590]                                                                                                                                                                                                           |     35 | FDRE        |
| dut_inst/ALTB_39[0]                                                                                                                                                                                                                      |     34 | LUT6        |
| dut_inst/idx2_13                                                                                                                                                                                                                         |     34 | LUT6        |
| dut_inst/idx2_23                                                                                                                                                                                                                         |     34 | LUT5        |
| dut_inst/idx2_39                                                                                                                                                                                                                         |     34 | LUT6        |
| dut_inst/idx2_5                                                                                                                                                                                                                          |     34 | LUT6        |
| dut_inst/sorter_inst/genblk1.bitonic_merge_i/genblk1.bitonic_merge_high/genblk1.bitonic_merge_high/genblk1.bitonic_merge_high/genblk1.cmp_g[0].compare_i/un1_compare_i_1_5_0                                                             |     34 | LUT6        |
| dut_inst/sorter_inst/genblk1.bitonic_sort_high/genblk1.bitonic_merge_i/genblk1.bitonic_merge_high/genblk1.bitonic_merge_low/genblk1.cmp_g[2].compare_i/un1_compare_i_1_146_0                                                             |     34 | LUT4        |
| dut_inst/sorter_inst/genblk1.bitonic_sort_high/genblk1.bitonic_merge_i/genblk1.bitonic_merge_low/genblk1.cmp_g[6].compare_i/un1_compare_i_1_0                                                                                            |     34 | LUT6        |
| dut_inst/sorter_inst/genblk1.bitonic_sort_low/genblk1.bitonic_merge_i/genblk1.bitonic_merge_high/genblk1.cmp_g[4].compare_i/un1_compare_i_81_0                                                                                           |     34 | LUT5        |
| dut_inst/sorter_inst/genblk1.bitonic_sort_low/genblk1.bitonic_merge_i/genblk1.bitonic_merge_low/genblk1.cmp_g[1].compare_i/un1_compare_i_134_0                                                                                           |     34 | LUT5        |
| dut_inst/un1_b_12                                                                                                                                                                                                                        |     34 | LUT6        |
| shift_reg_tap_i/input_slr[490]                                                                                                                                                                                                           |     34 | FDRE        |
| dut_inst/idx2_208                                                                                                                                                                                                                        |     33 | LUT5        |
| dut_inst/idx2_220                                                                                                                                                                                                                        |     33 | LUT6        |
| dut_inst/idx2_297                                                                                                                                                                                                                        |     33 | LUT5        |
| dut_inst/idx2_300                                                                                                                                                                                                                        |     33 | LUT5        |
| dut_inst/idx2_313                                                                                                                                                                                                                        |     33 | LUT6        |
| dut_inst/idx2_50                                                                                                                                                                                                                         |     33 | LUT5        |
| dut_inst/sorter_inst/genblk1.bitonic_merge_i/genblk1.bitonic_merge_low/genblk1.bitonic_merge_high/genblk1.cmp_g[4].compare_i/un1_compare_i_1_161_0                                                                                       |     33 | LUT6        |
| dut_inst/sorter_inst/genblk1.bitonic_merge_i/genblk1.bitonic_merge_low/genblk1.bitonic_merge_low/genblk1.cmp_g[3].compare_i/un1_compare_i_1_87_0                                                                                         |     33 | LUT6        |
| dut_inst/sorter_inst/genblk1.bitonic_merge_i/genblk1.cmp_g[1].compare_i/un1_compare_i_1_16_0                                                                                                                                             |     33 | LUT5        |
| dut_inst/sorter_inst/genblk1.bitonic_sort_low/genblk1.bitonic_merge_i/genblk1.bitonic_merge_high/genblk1.bitonic_merge_high/genblk1.bitonic_merge_low/genblk1.cmp_g[1].compare_i/un1_compare_i_15_0                                      |     33 | LUT6        |
| dut_inst/sorter_inst/genblk1.bitonic_sort_low/genblk1.bitonic_merge_i/genblk1.cmp_g[7].compare_i/un1_compare_i_138_0                                                                                                                     |     33 | LUT6        |
| dut_inst/sorter_inst/genblk1.bitonic_sort_low/genblk1.bitonic_sort_high/genblk1.bitonic_merge_i/genblk1.bitonic_merge_high/genblk1.bitonic_merge_high/genblk1.bitonic_merge_low/genblk1.cmp_g[0].compare_i/un1_bitonic_sort_high_90      |     33 | LUT6        |
| dut_inst/un1_b_165                                                                                                                                                                                                                       |     33 | LUT6        |
| dut_inst/un1_b_43                                                                                                                                                                                                                        |     33 | LUT5        |
| dut_inst/ALTB_N_4_0                                                                                                                                                                                                                      |     32 | LUT6        |
| dut_inst/idx2_211                                                                                                                                                                                                                        |     32 | LUT5        |
| dut_inst/idx2_22                                                                                                                                                                                                                         |     32 | LUT6        |
| dut_inst/idx2_259                                                                                                                                                                                                                        |     32 | LUT6        |
| dut_inst/idx2_265                                                                                                                                                                                                                        |     32 | LUT4        |
| dut_inst/sorter_inst/genblk1.bitonic_merge_i/genblk1.bitonic_merge_high/genblk1.bitonic_merge_low/genblk1.cmp_g[5].compare_i/un1_compare_i_11_0                                                                                          |     32 | LUT6        |
| dut_inst/sorter_inst/genblk1.bitonic_merge_i/genblk1.cmp_g[20].compare_i/un1_compare_i_3_0                                                                                                                                               |     32 | LUT6        |
| dut_inst/sorter_inst/genblk1.bitonic_sort_high/genblk1.bitonic_sort_high/genblk1.bitonic_sort_low/genblk1.bitonic_merge_i/genblk1.bitonic_merge_low/genblk1.bitonic_merge_high/genblk1.cmp_g[0].compare_i/un1_bitonic_sort_low_0_0       |     32 | LUT6        |
| dut_inst/sorter_inst/genblk1.bitonic_sort_high/genblk1.bitonic_sort_high/genblk1.bitonic_sort_low/genblk1.bitonic_merge_i/genblk1.cmp_g[3].compare_i/un1_compare_i_1_38_0                                                                |     32 | LUT5        |
| dut_inst/sorter_inst/genblk1.bitonic_sort_high/genblk1.bitonic_sort_low/genblk1.bitonic_merge_i/genblk1.cmp_g[5].compare_i/un1_compare_i_1_63_0                                                                                          |     32 | LUT4        |
| dut_inst/sorter_inst/genblk1.bitonic_sort_high/genblk1.bitonic_sort_low/genblk1.bitonic_sort_high/genblk1.bitonic_merge_i/genblk1.bitonic_merge_low/genblk1.bitonic_merge_low/genblk1.cmp_g[0].compare_i/un1_bitonic_sort_high_3_0       |     32 | LUT6        |
| dut_inst/sorter_inst/genblk1.bitonic_sort_high/genblk1.bitonic_sort_low/genblk1.bitonic_sort_low/genblk1.bitonic_sort_low/genblk1.bitonic_merge_i/genblk1.bitonic_merge_low/genblk1.cmp_g[0].compare_i/un1_bitonic_sort_low_0_0          |     32 | LUT4        |
| dut_inst/sorter_inst/genblk1.bitonic_sort_low/genblk1.bitonic_merge_i/genblk1.bitonic_merge_high/genblk1.bitonic_merge_high/genblk1.cmp_g[0].compare_i/un1_compare_i_154_0                                                               |     32 | LUT6        |
| dut_inst/un1_b_175                                                                                                                                                                                                                       |     32 | LUT6        |
| dut_inst/un1_b_2                                                                                                                                                                                                                         |     32 | LUT5        |
| shift_reg_tap_i/input_slr[140]                                                                                                                                                                                                           |     32 | FDRE        |
| shift_reg_tap_i/input_slr[270]                                                                                                                                                                                                           |     32 | FDRE        |
| dut_inst/ALTB_23[0]                                                                                                                                                                                                                      |     31 | LUT6        |
| dut_inst/idx2_35                                                                                                                                                                                                                         |     31 | LUT6        |
| dut_inst/idx2_47                                                                                                                                                                                                                         |     31 | LUT3        |
| dut_inst/idx2_63                                                                                                                                                                                                                         |     31 | LUT5        |
| dut_inst/idx2_66                                                                                                                                                                                                                         |     31 | LUT6        |
| dut_inst/sorter_inst/genblk1.bitonic_merge_i/genblk1.bitonic_merge_high/genblk1.bitonic_merge_low/genblk1.cmp_g[2].compare_i/un1_compare_i_1_191_0                                                                                       |     31 | LUT6        |
| dut_inst/sorter_inst/genblk1.bitonic_merge_i/genblk1.cmp_g[15].compare_i/un1_compare_i_182_0                                                                                                                                             |     31 | LUT5        |
| dut_inst/sorter_inst/genblk1.bitonic_merge_i/genblk1.cmp_g[18].compare_i/un1_compare_i_1_84_0                                                                                                                                            |     31 | LUT6        |
| dut_inst/sorter_inst/genblk1.bitonic_merge_i/genblk1.cmp_g[25].compare_i/un1_compare_i_1_174_0                                                                                                                                           |     31 | LUT4        |
| dut_inst/sorter_inst/genblk1.bitonic_sort_high/genblk1.bitonic_merge_i/genblk1.bitonic_merge_high/genblk1.bitonic_merge_low/genblk1.bitonic_merge_high/genblk1.bitonic_merge_low/genblk1.cmp_g[0].compare_i/un1_bitonic_sort_high_0      |     31 | LUT6        |
| dut_inst/sorter_inst/genblk1.bitonic_sort_high/genblk1.bitonic_merge_i/genblk1.bitonic_merge_low/genblk1.bitonic_merge_low/genblk1.bitonic_merge_low/genblk1.bitonic_merge_low/genblk1.cmp_g[0].compare_i/un1_bitonic_sort_high_5_0      |     31 | LUT6        |
| dut_inst/sorter_inst/genblk1.bitonic_sort_high/genblk1.bitonic_sort_high/genblk1.bitonic_merge_i/genblk1.bitonic_merge_high/genblk1.bitonic_merge_low/genblk1.bitonic_merge_low/genblk1.cmp_g[0].compare_i/un1_bitonic_sort_high_10      |     31 | LUT6        |
| dut_inst/sorter_inst/genblk1.bitonic_sort_low/genblk1.bitonic_merge_i/genblk1.bitonic_merge_high/genblk1.bitonic_merge_high/genblk1.bitonic_merge_high/genblk1.cmp_g[0].compare_i/un1_compare_i_89_0                                     |     31 | LUT6        |
| dut_inst/sorter_inst/genblk1.bitonic_sort_low/genblk1.bitonic_merge_i/genblk1.bitonic_merge_high/genblk1.bitonic_merge_high/genblk1.bitonic_merge_high/genblk1.cmp_g[1].compare_i/un1_compare_i_2_0                                      |     31 | LUT6        |
| dut_inst/sorter_inst/genblk1.bitonic_sort_low/genblk1.bitonic_merge_i/genblk1.bitonic_merge_low/genblk1.bitonic_merge_high/genblk1.bitonic_merge_high/genblk1.bitonic_merge_low/genblk1.cmp_g[0].compare_i/un1_bitonic_sort_low_10       |     31 | LUT6        |
| dut_inst/sorter_inst/genblk1.bitonic_sort_low/genblk1.bitonic_merge_i/genblk1.bitonic_merge_low/genblk1.cmp_g[5].compare_i/un1_compare_i_143_0                                                                                           |     31 | LUT6        |
| dut_inst/sorter_inst/genblk1.bitonic_sort_low/genblk1.bitonic_sort_high/genblk1.bitonic_sort_low/genblk1.bitonic_merge_i/genblk1.bitonic_merge_low/genblk1.cmp_g[1].compare_i/un1_compare_i_1_36_0                                       |     31 | LUT6        |
| dut_inst/sorter_inst/genblk1.bitonic_sort_low/genblk1.bitonic_sort_high/genblk1.bitonic_sort_low/genblk1.bitonic_sort_high/genblk1.bitonic_merge_i/genblk1.bitonic_merge_high/genblk1.cmp_g[0].compare_i/un1_bitonic_sort_high_0_0       |     31 | LUT4        |
| dut_inst/sorter_inst/genblk1.bitonic_sort_low/genblk1.bitonic_sort_low/genblk1.bitonic_sort_high/genblk1.bitonic_merge_i/genblk1.bitonic_merge_low/genblk1.bitonic_merge_low/genblk1.cmp_g[0].compare_i/un1_bitonic_sort_high_0_0        |     31 | LUT5        |
| dut_inst/un1_b_106                                                                                                                                                                                                                       |     31 | LUT6        |
| dut_inst/un1_b_135                                                                                                                                                                                                                       |     31 | LUT6        |
| dut_inst/un1_b_161                                                                                                                                                                                                                       |     31 | LUT5        |
| dut_inst/un1_b_18                                                                                                                                                                                                                        |     31 | LUT5        |
| shift_reg_tap_i/input_slr[200]                                                                                                                                                                                                           |     31 | FDRE        |
| shift_reg_tap_i/input_slr[240]                                                                                                                                                                                                           |     31 | FDRE        |
| shift_reg_tap_i/input_slr[30]                                                                                                                                                                                                            |     31 | FDRE        |
| shift_reg_tap_i/input_slr_rep_17_0                                                                                                                                                                                                       |     31 | FDRE        |
| dut_inst/ALTB_17[0]                                                                                                                                                                                                                      |     30 | LUT6        |
| dut_inst/ALTB_7[0]                                                                                                                                                                                                                       |     30 | LUT6        |
| dut_inst/ALTB_N_9_mux                                                                                                                                                                                                                    |     30 | LUT6        |
| dut_inst/idx2_317                                                                                                                                                                                                                        |     30 | LUT6        |
| dut_inst/idx2_333                                                                                                                                                                                                                        |     30 | LUT6        |
| dut_inst/idx2_347                                                                                                                                                                                                                        |     30 | LUT6        |
| dut_inst/idx2_95                                                                                                                                                                                                                         |     30 | LUT6        |
| dut_inst/sorter_inst/genblk1.bitonic_merge_i/genblk1.bitonic_merge_high/genblk1.cmp_g[8].compare_i/un1_compare_i_188_0                                                                                                                   |     30 | LUT5        |
| dut_inst/sorter_inst/genblk1.bitonic_merge_i/genblk1.bitonic_merge_low/genblk1.bitonic_merge_low/genblk1.cmp_g[3].compare_i/pt_m7                                                                                                        |     30 | LUT6        |
| dut_inst/sorter_inst/genblk1.bitonic_merge_i/genblk1.bitonic_merge_low/genblk1.cmp_g[11].compare_i/un1_compare_i_1_168_0                                                                                                                 |     30 | LUT6        |
| dut_inst/sorter_inst/genblk1.bitonic_merge_i/genblk1.bitonic_merge_low/genblk1.cmp_g[2].compare_i/un1_compare_i_91_0                                                                                                                     |     30 | LUT6        |
| dut_inst/sorter_inst/genblk1.bitonic_merge_i/genblk1.cmp_g[31].compare_i/un1_compare_i_92_0                                                                                                                                              |     30 | LUT5        |
| dut_inst/sorter_inst/genblk1.bitonic_merge_i/genblk1.cmp_g[9].compare_i/un1_compare_i_171_0                                                                                                                                              |     30 | LUT4        |
| dut_inst/sorter_inst/genblk1.bitonic_sort_high/genblk1.bitonic_merge_i/genblk1.bitonic_merge_low/genblk1.bitonic_merge_high/genblk1.bitonic_merge_low/genblk1.bitonic_merge_high/genblk1.cmp_g[0].compare_i/un1_bitonic_sort_high_0_d0   |     30 | LUT6        |
| dut_inst/sorter_inst/genblk1.bitonic_sort_high/genblk1.bitonic_merge_i/genblk1.cmp_g[6].compare_i/un1_compare_i_34_0                                                                                                                     |     30 | LUT5        |
| dut_inst/sorter_inst/genblk1.bitonic_sort_high/genblk1.bitonic_sort_high/genblk1.bitonic_sort_low/genblk1.bitonic_merge_i/genblk1.cmp_g[0].compare_i/un1_compare_i_1_32_0                                                                |     30 | LUT6        |
| dut_inst/sorter_inst/genblk1.bitonic_sort_high/genblk1.bitonic_sort_low/genblk1.bitonic_merge_i/genblk1.bitonic_merge_low/genblk1.bitonic_merge_low/genblk1.cmp_g[0].compare_i/un1_compare_i_1_112_0                                     |     30 | LUT5        |
| dut_inst/sorter_inst/genblk1.bitonic_sort_high/genblk1.bitonic_sort_low/genblk1.bitonic_merge_i/genblk1.bitonic_merge_low/genblk1.cmp_g[0].compare_i/pt_m2_e_1                                                                           |     30 | LUT5        |
| dut_inst/sorter_inst/genblk1.bitonic_sort_high/genblk1.bitonic_sort_low/genblk1.bitonic_sort_high/genblk1.bitonic_sort_high/genblk1.bitonic_merge_i/genblk1.cmp_g[1].compare_i/un1_compare_i_1_11_0                                      |     30 | LUT4        |
+------------------------------------------------------------------------------------------------------------------------------------------------------------------------------------------------------------------------------------------+--------+-------------+


