Copyright 1986-2018 Xilinx, Inc. All Rights Reserved.
------------------------------------------------------------------------------------
| Tool Version : Vivado v.2018.2 (win64) Build 2258646 Thu Jun 14 20:03:12 MDT 2018
| Date         : Thu Feb 14 13:33:25 2019
| Host         : PCPHESEBE02 running 64-bit Service Pack 1  (build 7601)
| Command      : report_high_fanout_nets -file fanout.txt -max_nets 200
| Design       : wrapper
| Device       : xcvu9p
------------------------------------------------------------------------------------

High Fan-out Nets Information

1. Summary
----------

+-----------------------------+--------+-------------+
| Net Name                    | Fanout | Driver Type |
+-----------------------------+--------+-------------+
| muon_sorter_1/max_pt_12[1]  |     53 | LUT6        |
| muon_sorter_1/max_pt_7[10]  |     52 | LUT6        |
| muon_sorter_1/max_pt_10[12] |     51 | LUT6        |
| muon_sorter_1/max_pt_10[14] |     51 | LUT6        |
| muon_sorter_1/max_pt_8[9]   |     51 | LUT6        |
| muon_sorter_1/max_pt_12[0]  |     50 | LUT6        |
| muon_sorter_1/max_pt_12[15] |     50 | LUT6        |
| muon_sorter_1/max_pt_12[7]  |     50 | LUT6        |
| muon_sorter_1/max_pt_3[10]  |     50 | LUT6        |
| muon_sorter_1/max_pt_0[2]   |     49 | LUT6        |
| muon_sorter_1/max_pt_12[12] |     49 | LUT6        |
| muon_sorter_1/max_pt_12[9]  |     49 | LUT6        |
| muon_sorter_1/max_pt_7[11]  |     49 | LUT6        |
| muon_sorter_1/max_pt_7[8]   |     49 | LUT6        |
| muon_sorter_1/max_pt_8[12]  |     49 | LUT6        |
| muon_sorter_1/max_pt_9[8]   |     49 | LUT6        |
| muon_sorter_1/max_pt_0[3]   |     48 | LUT6        |
| muon_sorter_1/max_pt_12[13] |     48 | LUT6        |
| muon_sorter_1/max_pt_2[2]   |     48 | LUT6        |
| muon_sorter_1/max_pt_3[0]   |     48 | LUT6        |
| muon_sorter_1/max_pt_3[15]  |     48 | LUT6        |
| muon_sorter_1/max_pt_3[1]   |     48 | LUT6        |
| muon_sorter_1/max_pt_3[4]   |     48 | LUT6        |
| muon_sorter_1/max_pt_4[12]  |     48 | LUT6        |
| muon_sorter_1/max_pt_5[10]  |     48 | LUT6        |
| muon_sorter_1/max_pt_5[14]  |     48 | LUT6        |
| muon_sorter_1/max_pt_7[0]   |     48 | LUT6        |
| muon_sorter_1/max_pt_7[14]  |     48 | LUT6        |
| muon_sorter_1/max_pt_7[3]   |     48 | LUT6        |
| muon_sorter_1/max_pt_0[10]  |     47 | LUT6        |
| muon_sorter_1/max_pt_0[11]  |     47 | LUT6        |
| muon_sorter_1/max_pt_0[12]  |     47 | LUT6        |
| muon_sorter_1/max_pt_0[15]  |     47 | LUT6        |
| muon_sorter_1/max_pt_0[1]   |     47 | LUT6        |
| muon_sorter_1/max_pt_0[5]   |     47 | LUT6        |
| muon_sorter_1/max_pt_0[6]   |     47 | LUT6        |
| muon_sorter_1/max_pt_0[9]   |     47 | LUT6        |
| muon_sorter_1/max_pt_10[13] |     47 | LUT6        |
| muon_sorter_1/max_pt_10[15] |     47 | LUT6        |
| muon_sorter_1/max_pt_10[4]  |     47 | LUT6        |
| muon_sorter_1/max_pt_12[11] |     47 | LUT6        |
| muon_sorter_1/max_pt_12[5]  |     47 | LUT6        |
| muon_sorter_1/max_pt_12[8]  |     47 | LUT6        |
| muon_sorter_1/max_pt_1[12]  |     47 | LUT6        |
| muon_sorter_1/max_pt_1[13]  |     47 | LUT6        |
| muon_sorter_1/max_pt_1[14]  |     47 | LUT6        |
| muon_sorter_1/max_pt_1[4]   |     47 | LUT6        |
| muon_sorter_1/max_pt_1[5]   |     47 | LUT6        |
| muon_sorter_1/max_pt_2[10]  |     47 | LUT6        |
| muon_sorter_1/max_pt_2[11]  |     47 | LUT6        |
| muon_sorter_1/max_pt_2[12]  |     47 | LUT6        |
| muon_sorter_1/max_pt_2[1]   |     47 | LUT6        |
| muon_sorter_1/max_pt_3[14]  |     47 | LUT6        |
| muon_sorter_1/max_pt_4[0]   |     47 | LUT6        |
| muon_sorter_1/max_pt_4[11]  |     47 | LUT6        |
| muon_sorter_1/max_pt_5[13]  |     47 | LUT6        |
| muon_sorter_1/max_pt_5[15]  |     47 | LUT6        |
| muon_sorter_1/max_pt_5[6]   |     47 | LUT6        |
| muon_sorter_1/max_pt_7[1]   |     47 | LUT6        |
| muon_sorter_1/max_pt_7[2]   |     47 | LUT6        |
| muon_sorter_1/max_pt_8[15]  |     47 | LUT6        |
| muon_sorter_1/max_pt_9[11]  |     47 | LUT6        |
| muon_sorter_1/max_pt_0[0]   |     46 | LUT6        |
| muon_sorter_1/max_pt_0[14]  |     46 | LUT6        |
| muon_sorter_1/max_pt_0[7]   |     46 | LUT6        |
| muon_sorter_1/max_pt_0[8]   |     46 | LUT6        |
| muon_sorter_1/max_pt_10[0]  |     46 | LUT6        |
| muon_sorter_1/max_pt_10[10] |     46 | LUT6        |
| muon_sorter_1/max_pt_10[5]  |     46 | LUT6        |
| muon_sorter_1/max_pt_10[6]  |     46 | LUT6        |
| muon_sorter_1/max_pt_11[10] |     46 | LUT6        |
| muon_sorter_1/max_pt_12[3]  |     46 | LUT5        |
| muon_sorter_1/max_pt_12[4]  |     46 | LUT6        |
| muon_sorter_1/max_pt_12[6]  |     46 | LUT6        |
| muon_sorter_1/max_pt_13[2]  |     46 | LUT6        |
| muon_sorter_1/max_pt_13[4]  |     46 | LUT6        |
| muon_sorter_1/max_pt_13[5]  |     46 | LUT6        |
| muon_sorter_1/max_pt_1[7]   |     46 | LUT6        |
| muon_sorter_1/max_pt_1[8]   |     46 | LUT6        |
| muon_sorter_1/max_pt_2[14]  |     46 | LUT6        |
| muon_sorter_1/max_pt_2[5]   |     46 | LUT6        |
| muon_sorter_1/max_pt_2[6]   |     46 | LUT6        |
| muon_sorter_1/max_pt_2[7]   |     46 | LUT6        |
| muon_sorter_1/max_pt_2[9]   |     46 | LUT6        |
| muon_sorter_1/max_pt_3[11]  |     46 | LUT6        |
| muon_sorter_1/max_pt_3[13]  |     46 | LUT6        |
| muon_sorter_1/max_pt_3[2]   |     46 | LUT6        |
| muon_sorter_1/max_pt_3[5]   |     46 | LUT6        |
| muon_sorter_1/max_pt_3[6]   |     46 | LUT6        |
| muon_sorter_1/max_pt_3[7]   |     46 | LUT6        |
| muon_sorter_1/max_pt_3[8]   |     46 | LUT6        |
| muon_sorter_1/max_pt_4[13]  |     46 | LUT6        |
| muon_sorter_1/max_pt_4[6]   |     46 | LUT6        |
| muon_sorter_1/max_pt_4[8]   |     46 | LUT6        |
| muon_sorter_1/max_pt_5[0]   |     46 | LUT6        |
| muon_sorter_1/max_pt_5[1]   |     46 | LUT6        |
| muon_sorter_1/max_pt_5[2]   |     46 | LUT6        |
| muon_sorter_1/max_pt_5[3]   |     46 | LUT6        |
| muon_sorter_1/max_pt_5[4]   |     46 | LUT6        |
| muon_sorter_1/max_pt_5[5]   |     46 | LUT6        |
| muon_sorter_1/max_pt_5[8]   |     46 | LUT6        |
| muon_sorter_1/max_pt_6[12]  |     46 | LUT6        |
| muon_sorter_1/max_pt_6[2]   |     46 | LUT6        |
| muon_sorter_1/max_pt_6[4]   |     46 | LUT6        |
| muon_sorter_1/max_pt_6[5]   |     46 | LUT6        |
| muon_sorter_1/max_pt_7[13]  |     46 | LUT6        |
| muon_sorter_1/max_pt_7[4]   |     46 | LUT6        |
| muon_sorter_1/max_pt_7[5]   |     46 | LUT6        |
| muon_sorter_1/max_pt_8[10]  |     46 | LUT6        |
| muon_sorter_1/max_pt_8[2]   |     46 | LUT6        |
| muon_sorter_1/max_pt_8[4]   |     46 | LUT6        |
| muon_sorter_1/max_pt_8[5]   |     46 | LUT6        |
| muon_sorter_1/max_pt_9[3]   |     46 | LUT6        |
| muon_sorter_1/max_pt_9[5]   |     46 | LUT6        |
| muon_sorter_1/max_pt_0[4]   |     45 | LUT6        |
| muon_sorter_1/max_pt_10[1]  |     45 | LUT6        |
| muon_sorter_1/max_pt_12[14] |     45 | LUT6        |
| muon_sorter_1/max_pt_12[2]  |     45 | LUT5        |
| muon_sorter_1/max_pt_13[0]  |     45 | LUT6        |
| muon_sorter_1/max_pt_13[15] |     45 | LUT6        |
| muon_sorter_1/max_pt_1[0]   |     45 | LUT6        |
| muon_sorter_1/max_pt_1[10]  |     45 | LUT6        |
| muon_sorter_1/max_pt_1[1]   |     45 | LUT6        |
| muon_sorter_1/max_pt_1[6]   |     45 | LUT6        |
| muon_sorter_1/max_pt_1[9]   |     45 | LUT6        |
| muon_sorter_1/max_pt_2[15]  |     45 | LUT6        |
| muon_sorter_1/max_pt_3[12]  |     45 | LUT6        |
| muon_sorter_1/max_pt_3[9]   |     45 | LUT6        |
| muon_sorter_1/max_pt_4[10]  |     45 | LUT6        |
| muon_sorter_1/max_pt_4[14]  |     45 | LUT6        |
| muon_sorter_1/max_pt_4[1]   |     45 | LUT6        |
| muon_sorter_1/max_pt_4[2]   |     45 | LUT6        |
| muon_sorter_1/max_pt_4[3]   |     45 | LUT6        |
| muon_sorter_1/max_pt_4[4]   |     45 | LUT6        |
| muon_sorter_1/max_pt_4[5]   |     45 | LUT6        |
| muon_sorter_1/max_pt_5[11]  |     45 | LUT6        |
| muon_sorter_1/max_pt_5[12]  |     45 | LUT6        |
| muon_sorter_1/max_pt_5[9]   |     45 | LUT6        |
| muon_sorter_1/max_pt_6[0]   |     45 | LUT6        |
| muon_sorter_1/max_pt_6[14]  |     45 | LUT6        |
| muon_sorter_1/max_pt_6[3]   |     45 | LUT6        |
| muon_sorter_1/max_pt_7[12]  |     45 | LUT6        |
| muon_sorter_1/max_pt_7[15]  |     45 | LUT6        |
| muon_sorter_1/max_pt_7[7]   |     45 | LUT6        |
| muon_sorter_1/max_pt_7[9]   |     45 | LUT6        |
| muon_sorter_1/max_pt_8[0]   |     45 | LUT6        |
| muon_sorter_1/max_pt_8[3]   |     45 | LUT6        |
| muon_sorter_1/max_pt_8[7]   |     45 | LUT6        |
| muon_sorter_1/max_pt_9[10]  |     45 | LUT6        |
| muon_sorter_1/max_pt_9[2]   |     45 | LUT6        |
| muon_sorter_1/max_pt_9[4]   |     45 | LUT6        |
| muon_sorter_1/max_pt_9[7]   |     45 | LUT6        |
| muon_sorter_1/max_pt_0[13]  |     44 | LUT6        |
| muon_sorter_1/max_pt_10[11] |     44 | LUT6        |
| muon_sorter_1/max_pt_10[3]  |     44 | LUT6        |
| muon_sorter_1/max_pt_10[7]  |     44 | LUT6        |
| muon_sorter_1/max_pt_10[8]  |     44 | LUT6        |
| muon_sorter_1/max_pt_11[11] |     44 | LUT6        |
| muon_sorter_1/max_pt_11[3]  |     44 | LUT6        |
| muon_sorter_1/max_pt_11[5]  |     44 | LUT6        |
| muon_sorter_1/max_pt_11[6]  |     44 | LUT6        |
| muon_sorter_1/max_pt_11[8]  |     44 | LUT6        |
| muon_sorter_1/max_pt_13[10] |     44 | LUT6        |
| muon_sorter_1/max_pt_13[11] |     44 | LUT6        |
| muon_sorter_1/max_pt_13[12] |     44 | LUT6        |
| muon_sorter_1/max_pt_13[1]  |     44 | LUT6        |
| muon_sorter_1/max_pt_1[11]  |     44 | LUT6        |
| muon_sorter_1/max_pt_1[2]   |     44 | LUT6        |
| muon_sorter_1/max_pt_2[0]   |     44 | LUT6        |
| muon_sorter_1/max_pt_2[13]  |     44 | LUT6        |
| muon_sorter_1/max_pt_2[4]   |     44 | LUT6        |
| muon_sorter_1/max_pt_6[13]  |     44 | LUT6        |
| muon_sorter_1/max_pt_6[15]  |     44 | LUT6        |
| muon_sorter_1/max_pt_8[13]  |     44 | LUT6        |
| muon_sorter_1/max_pt_8[14]  |     44 | LUT6        |
| muon_sorter_1/max_pt_8[1]   |     44 | LUT6        |
| muon_sorter_1/max_pt_8[6]   |     44 | LUT5        |
| muon_sorter_1/max_pt_8[8]   |     44 | LUT6        |
| muon_sorter_1/max_pt_9[0]   |     44 | LUT6        |
| muon_sorter_1/max_pt_9[9]   |     44 | LUT6        |
| muon_sorter_1/max_pt_10[9]  |     43 | LUT6        |
| muon_sorter_1/max_pt_11[15] |     43 | LUT6        |
| muon_sorter_1/max_pt_11[9]  |     43 | LUT6        |
| muon_sorter_1/max_pt_12[10] |     43 | LUT6        |
| muon_sorter_1/max_pt_13[14] |     43 | LUT5        |
| muon_sorter_1/max_pt_13[9]  |     43 | LUT6        |
| muon_sorter_1/max_pt_1[15]  |     43 | LUT6        |
| muon_sorter_1/max_pt_4[15]  |     43 | LUT6        |
| muon_sorter_1/max_pt_4[9]   |     43 | LUT6        |
| muon_sorter_1/max_pt_6[10]  |     43 | LUT6        |
| muon_sorter_1/max_pt_6[1]   |     43 | LUT6        |
| muon_sorter_1/max_pt_6[6]   |     43 | LUT6        |
| muon_sorter_1/max_pt_9[1]   |     43 | LUT6        |
| muon_sorter_1/max_pt_11[14] |     42 | LUT6        |
| muon_sorter_1/max_pt_11[4]  |     42 | LUT6        |
| muon_sorter_1/max_pt_13[3]  |     42 | LUT6        |
| muon_sorter_1/max_pt_2[8]   |     42 | LUT5        |
| muon_sorter_1/max_pt_3[3]   |     42 | LUT5        |
| muon_sorter_1/max_pt_6[8]   |     42 | LUT6        |
| muon_sorter_1/max_pt_7[6]   |     42 | LUT6        |
+-----------------------------+--------+-------------+


