Copyright 1986-2018 Xilinx, Inc. All Rights Reserved.
-------------------------------------------------------------------------------------------------
| Tool Version      : Vivado v.2018.2 (win64) Build 2258646 Thu Jun 14 20:03:12 MDT 2018
| Date              : Mon Mar 11 19:04:25 2019
| Host              : PCPHESEBE02 running 64-bit Service Pack 1  (build 7601)
| Command           : report_timing_summary -setup -nworst 5 -max_paths 5 -file timing_setup.txt
| Design            : wrapper_csn
| Device            : xcvu9p-flgc2104
| Speed File        : -1  PRODUCTION 1.20 05-21-2018
| Temperature Grade : E
-------------------------------------------------------------------------------------------------

Timing Summary Report

------------------------------------------------------------------------------------------------
| Timer Settings
| --------------
------------------------------------------------------------------------------------------------

  Enable Multi Corner Analysis               :  Yes
  Enable Pessimism Removal                   :  Yes
  Pessimism Removal Resolution               :  Nearest Common Node
  Enable Input Delay Default Clock           :  No
  Enable Preset / Clear Arcs                 :  No
  Disable Flight Delays                      :  No
  Ignore I/O Paths                           :  No
  Timing Early Launch at Borrowing Latches   :  false

  Corner  Analyze    Analyze    
  Name    Max Paths  Min Paths  
  ------  ---------  ---------  
  Slow    Yes        Yes        
  Fast    Yes        Yes        



check_timing report

Table of Contents
-----------------
1. checking no_clock
2. checking constant_clock
3. checking pulse_width_clock
4. checking unconstrained_internal_endpoints
5. checking no_input_delay
6. checking no_output_delay
7. checking multiple_clock
8. checking generated_clocks
9. checking loops
10. checking partial_input_delay
11. checking partial_output_delay
12. checking latch_loops

1. checking no_clock
--------------------
 There are 0 register/latch pins with no clock.


2. checking constant_clock
--------------------------
 There are 0 register/latch pins with constant_clock.


3. checking pulse_width_clock
-----------------------------
 There are 0 register/latch pins which need pulse_width check


4. checking unconstrained_internal_endpoints
--------------------------------------------
 There are 0 pins that are not constrained for maximum delay.

 There are 0 pins that are not constrained for maximum delay due to constant clock.


5. checking no_input_delay
--------------------------
 There is 1 input port with no input delay specified. (HIGH)

 There are 0 input ports with no input delay but user has a false path constraint.


6. checking no_output_delay
---------------------------
 There is 1 port with no output delay specified. (HIGH)

 There are 0 ports with no output delay but user has a false path constraint

 There are 0 ports with no output delay but with a timing clock defined on it or propagating through it


7. checking multiple_clock
--------------------------
 There are 0 register/latch pins with multiple clocks.


8. checking generated_clocks
----------------------------
 There are 0 generated clocks that are not connected to a clock source.


9. checking loops
-----------------
 There are 0 combinational loops in the design.


10. checking partial_input_delay
--------------------------------
 There are 0 input ports with partial input delay specified.


11. checking partial_output_delay
---------------------------------
 There are 0 ports with partial output delay specified.


12. checking latch_loops
------------------------
 There are 0 combinational latch loops in the design through latch input



------------------------------------------------------------------------------------------------
| Design Timing Summary
| ---------------------
------------------------------------------------------------------------------------------------

    WNS(ns)      TNS(ns)  TNS Failing Endpoints  TNS Total Endpoints     WPWS(ns)     TPWS(ns)  TPWS Failing Endpoints  TPWS Total Endpoints  
    -------      -------  ---------------------  -------------------     --------     --------  ----------------------  --------------------  
      0.067        0.000                      0                  922        1.511        0.000                       0                  1654  


All user specified timing constraints are met.


------------------------------------------------------------------------------------------------
| Clock Summary
| -------------
------------------------------------------------------------------------------------------------

Clock        Waveform(ns)         Period(ns)      Frequency(MHz)
-----        ------------         ----------      --------------
clk          {0.000 1.786}        3.572           279.955         
clk_wrapper  {0.000 500.000}      1000.000        1.000           


------------------------------------------------------------------------------------------------
| Intra Clock Table
| -----------------
------------------------------------------------------------------------------------------------

Clock             WNS(ns)      TNS(ns)  TNS Failing Endpoints  TNS Total Endpoints     WPWS(ns)     TPWS(ns)  TPWS Failing Endpoints  TPWS Total Endpoints  
-----             -------      -------  ---------------------  -------------------     --------     --------  ----------------------  --------------------  
clk                 0.067        0.000                      0                  922        1.511        0.000                       0                  1138  
clk_wrapper                                                                             498.562        0.000                       0                   516  


------------------------------------------------------------------------------------------------
| Inter Clock Table
| -----------------
------------------------------------------------------------------------------------------------

From Clock    To Clock          WNS(ns)      TNS(ns)  TNS Failing Endpoints  TNS Total Endpoints  
----------    --------          -------      -------  ---------------------  -------------------  


------------------------------------------------------------------------------------------------
| Other Path Groups Table
| -----------------------
------------------------------------------------------------------------------------------------

Path Group    From Clock    To Clock          WNS(ns)      TNS(ns)  TNS Failing Endpoints  TNS Total Endpoints  
----------    ----------    --------          -------      -------  ---------------------  -------------------  


------------------------------------------------------------------------------------------------
| Timing Details
| --------------
------------------------------------------------------------------------------------------------


---------------------------------------------------------------------------------------------------
From Clock:  clk
  To Clock:  clk

Setup :            0  Failing Endpoints,  Worst Slack        0.067ns,  Total Violation        0.000ns
Hold  :           NA  Failing Endpoints,  Worst Slack           NA  ,  Total Violation           NA
PW    :            0  Failing Endpoints,  Worst Slack        1.511ns,  Total Violation        0.000ns
---------------------------------------------------------------------------------------------------


Max Delay Paths
--------------------------------------------------------------------------------------
Slack (MET) :             0.067ns  (required time - arrival time)
  Source:                 dut_inst/ret_array_2_5.idx_ret_1144/C
                            (rising edge-triggered cell FDRE clocked by clk  {rise@0.000ns fall@1.786ns period=3.572ns})
  Destination:            shift_reg_tap_o/sr_p.sr_1[143]/D
                            (rising edge-triggered cell FDRE clocked by clk  {rise@0.000ns fall@1.786ns period=3.572ns})
  Path Group:             clk
  Path Type:              Setup (Max at Slow Process Corner)
  Requirement:            3.572ns  (clk rise@3.572ns - clk rise@0.000ns)
  Data Path Delay:        3.390ns  (logic 0.974ns (28.732%)  route 2.416ns (71.268%))
  Logic Levels:           9  (LUT5=3 LUT6=6)
  Clock Path Skew:        -0.106ns (DCD - SCD + CPR)
    Destination Clock Delay (DCD):    2.552ns = ( 6.124 - 3.572 ) 
    Source Clock Delay      (SCD):    3.096ns
    Clock Pessimism Removal (CPR):    0.438ns
  Clock Uncertainty:      0.035ns  ((TSJ^2 + TIJ^2)^1/2 + DJ) / 2 + PE
    Total System Jitter     (TSJ):    0.071ns
    Total Input Jitter      (TIJ):    0.000ns
    Discrete Jitter          (DJ):    0.000ns
    Phase Error              (PE):    0.000ns
  Clock Net Delay (Source):      1.955ns (routing 1.014ns, distribution 0.941ns)
  Clock Net Delay (Destination): 1.722ns (routing 0.926ns, distribution 0.796ns)

    Location             Delay type                Incr(ns)  Path(ns)    Netlist Resource(s)
  -------------------------------------------------------------------    -------------------
                         (clock clk rise edge)        0.000     0.000 r  
    AV33                                              0.000     0.000 r  clk (IN)
                         net (fo=0)                   0.000     0.000    clk_ibuf_iso/I
    AV33                 INBUF (Prop_INBUF_HPIOB_M_PAD_O)
                                                      0.779     0.779 r  clk_ibuf_iso/INBUF_INST/O
                         net (fo=1, routed)           0.000     0.779    clk_ibuf_iso/OUT
    AV33                 IBUFCTRL (Prop_IBUFCTRL_HPIOB_M_I_O)
                                                      0.000     0.779 r  clk_ibuf_iso/IBUFCTRL_INST/O
                         net (fo=1, routed)           0.334     1.113    clk_ibuf_iso
    BUFGCE_X1Y224        BUFGCE (Prop_BUFCE_BUFGCE_I_O)
                                                      0.028     1.141 r  clk_ibuf/O
    X3Y8 (CLOCK_ROOT)    net (fo=1137, routed)        1.955     3.096    dut_inst/clk_c
    SLICE_X100Y519       FDRE                                         r  dut_inst/ret_array_2_5.idx_ret_1144/C
  -------------------------------------------------------------------    -------------------
    SLICE_X100Y519       FDRE (Prop_EFF_SLICEM_C_Q)
                                                      0.093     3.189 r  dut_inst/ret_array_2_5.idx_ret_1144/Q
                         net (fo=10, routed)          0.296     3.485    dut_inst/stage_g.1.pair_g.8.csn_cmp_inst/un1_b_i_o_o_54
    SLICE_X100Y527       LUT5 (Prop_F6LUT_SLICEM_I4_O)
                                                      0.098     3.583 r  dut_inst/stage_g.1.pair_g.8.csn_cmp_inst/a_o_comb.idx[2]/O
                         net (fo=16, routed)          0.392     3.975    dut_inst/stage_g.5.pair_g.4.csn_cmp_inst/net_array_4_11.idx_m_9_lut6_2[2]/I4
    SLICE_X105Y521       LUT5 (Prop_H5LUT_SLICEL_I4_O)
                                                      0.080     4.055 r  dut_inst/stage_g.5.pair_g.4.csn_cmp_inst/net_array_4_11.idx_m_9_lut6_2[2]/LUT5/O
                         net (fo=8, routed)           0.381     4.436    dut_inst/stage_g.7.pair_g.2.csn_cmp_inst/idx_50_2
    SLICE_X103Y513       LUT6 (Prop_F6LUT_SLICEL_I5_O)
                                                      0.177     4.613 r  dut_inst/stage_g.7.pair_g.2.csn_cmp_inst/a_o_comb.idx_0_iv_1_0[2]/O
                         net (fo=1, routed)           0.353     4.966    dut_inst/stage_g.7.pair_g.2.csn_cmp_inst/idx_0_iv_1_0_0Z[2]
    SLICE_X106Y513       LUT6 (Prop_E6LUT_SLICEL_I5_O)
                                                      0.039     5.005 r  dut_inst/stage_g.7.pair_g.2.csn_cmp_inst/a_o_comb.idx_0_iv_1_1[2]/O
                         net (fo=1, routed)           0.263     5.268    dut_inst/stage_g.7.pair_g.2.csn_cmp_inst/idx_0_iv_1_1_0[2]
    SLICE_X109Y511       LUT6 (Prop_E6LUT_SLICEL_I5_O)
                                                      0.100     5.368 r  dut_inst/stage_g.7.pair_g.2.csn_cmp_inst/a_o_comb.idx_0_iv[2]/O
                         net (fo=4, routed)           0.166     5.534    dut_inst/stage_g.9.pair_g.3.csn_cmp_inst/a_o_comb.idx_lut6_2[2]/I2
    SLICE_X110Y510       LUT5 (Prop_C5LUT_SLICEM_I2_O)
                                                      0.136     5.670 r  dut_inst/stage_g.9.pair_g.3.csn_cmp_inst/a_o_comb.idx_lut6_2[2]/LUT5/O
                         net (fo=2, routed)           0.201     5.871    dut_inst/stage_g.9.pair_g.3.csn_cmp_inst/idx_93_0
    SLICE_X110Y510       LUT6 (Prop_G6LUT_SLICEM_I5_O)
                                                      0.039     5.910 r  dut_inst/stage_g.9.pair_g.3.csn_cmp_inst/b_o_comb.idx[2]/O
                         net (fo=4, routed)           0.170     6.080    dut_inst/stage_g.10.pair_g.2.csn_cmp_inst/b_o_comb.idx_lut6_2[2]/I4
    SLICE_X109Y510       LUT6 (Prop_D6LUT_SLICEL_I4_O)
                                                      0.063     6.143 r  dut_inst/stage_g.10.pair_g.2.csn_cmp_inst/b_o_comb.idx_lut6_2[2]/LUT6/O
                         net (fo=1, routed)           0.136     6.279    dut_inst/stage_g.11.pair_g.1.csn_cmp_inst/idx_28_0
    SLICE_X109Y508       LUT6 (Prop_A6LUT_SLICEL_I5_O)
                                                      0.149     6.428 r  dut_inst/stage_g.11.pair_g.1.csn_cmp_inst/a_o_comb.idx[2]/O
                         net (fo=1, routed)           0.058     6.486    shift_reg_tap_o/idx_0[2]
    SLICE_X109Y508       FDRE                                         r  shift_reg_tap_o/sr_p.sr_1[143]/D
  -------------------------------------------------------------------    -------------------

                         (clock clk rise edge)        3.572     3.572 r  
    AV33                                              0.000     3.572 r  clk (IN)
                         net (fo=0)                   0.000     3.572    clk_ibuf_iso/I
    AV33                 INBUF (Prop_INBUF_HPIOB_M_PAD_O)
                                                      0.510     4.082 r  clk_ibuf_iso/INBUF_INST/O
                         net (fo=1, routed)           0.000     4.082    clk_ibuf_iso/OUT
    AV33                 IBUFCTRL (Prop_IBUFCTRL_HPIOB_M_I_O)
                                                      0.000     4.082 r  clk_ibuf_iso/IBUFCTRL_INST/O
                         net (fo=1, routed)           0.296     4.378    clk_ibuf_iso
    BUFGCE_X1Y224        BUFGCE (Prop_BUFCE_BUFGCE_I_O)
                                                      0.024     4.402 r  clk_ibuf/O
    X3Y8 (CLOCK_ROOT)    net (fo=1137, routed)        1.722     6.124    shift_reg_tap_o/clk_c
    SLICE_X109Y508       FDRE                                         r  shift_reg_tap_o/sr_p.sr_1[143]/C
                         clock pessimism              0.438     6.562    
                         clock uncertainty           -0.035     6.526    
    SLICE_X109Y508       FDRE (Setup_AFF_SLICEL_C_D)
                                                      0.027     6.553    shift_reg_tap_o/sr_p.sr_1[143]
  -------------------------------------------------------------------
                         required time                          6.553    
                         arrival time                          -6.486    
  -------------------------------------------------------------------
                         slack                                  0.067    

Slack (MET) :             0.067ns  (required time - arrival time)
  Source:                 dut_inst/ret_array_2_5.idx_ret_1144/C
                            (rising edge-triggered cell FDRE clocked by clk  {rise@0.000ns fall@1.786ns period=3.572ns})
  Destination:            shift_reg_tap_o/sr_p.sr_1[143]/D
                            (rising edge-triggered cell FDRE clocked by clk  {rise@0.000ns fall@1.786ns period=3.572ns})
  Path Group:             clk
  Path Type:              Setup (Max at Slow Process Corner)
  Requirement:            3.572ns  (clk rise@3.572ns - clk rise@0.000ns)
  Data Path Delay:        3.390ns  (logic 0.974ns (28.732%)  route 2.416ns (71.268%))
  Logic Levels:           9  (LUT5=3 LUT6=6)
  Clock Path Skew:        -0.106ns (DCD - SCD + CPR)
    Destination Clock Delay (DCD):    2.552ns = ( 6.124 - 3.572 ) 
    Source Clock Delay      (SCD):    3.096ns
    Clock Pessimism Removal (CPR):    0.438ns
  Clock Uncertainty:      0.035ns  ((TSJ^2 + TIJ^2)^1/2 + DJ) / 2 + PE
    Total System Jitter     (TSJ):    0.071ns
    Total Input Jitter      (TIJ):    0.000ns
    Discrete Jitter          (DJ):    0.000ns
    Phase Error              (PE):    0.000ns
  Clock Net Delay (Source):      1.955ns (routing 1.014ns, distribution 0.941ns)
  Clock Net Delay (Destination): 1.722ns (routing 0.926ns, distribution 0.796ns)

    Location             Delay type                Incr(ns)  Path(ns)    Netlist Resource(s)
  -------------------------------------------------------------------    -------------------
                         (clock clk rise edge)        0.000     0.000 r  
    AV33                                              0.000     0.000 r  clk (IN)
                         net (fo=0)                   0.000     0.000    clk_ibuf_iso/I
    AV33                 INBUF (Prop_INBUF_HPIOB_M_PAD_O)
                                                      0.779     0.779 r  clk_ibuf_iso/INBUF_INST/O
                         net (fo=1, routed)           0.000     0.779    clk_ibuf_iso/OUT
    AV33                 IBUFCTRL (Prop_IBUFCTRL_HPIOB_M_I_O)
                                                      0.000     0.779 r  clk_ibuf_iso/IBUFCTRL_INST/O
                         net (fo=1, routed)           0.334     1.113    clk_ibuf_iso
    BUFGCE_X1Y224        BUFGCE (Prop_BUFCE_BUFGCE_I_O)
                                                      0.028     1.141 r  clk_ibuf/O
    X3Y8 (CLOCK_ROOT)    net (fo=1137, routed)        1.955     3.096    dut_inst/clk_c
    SLICE_X100Y519       FDRE                                         r  dut_inst/ret_array_2_5.idx_ret_1144/C
  -------------------------------------------------------------------    -------------------
    SLICE_X100Y519       FDRE (Prop_EFF_SLICEM_C_Q)
                                                      0.093     3.189 f  dut_inst/ret_array_2_5.idx_ret_1144/Q
                         net (fo=10, routed)          0.296     3.485    dut_inst/stage_g.1.pair_g.8.csn_cmp_inst/un1_b_i_o_o_54
    SLICE_X100Y527       LUT5 (Prop_F6LUT_SLICEM_I4_O)
                                                      0.098     3.583 r  dut_inst/stage_g.1.pair_g.8.csn_cmp_inst/a_o_comb.idx[2]/O
                         net (fo=16, routed)          0.392     3.975    dut_inst/stage_g.5.pair_g.4.csn_cmp_inst/net_array_4_11.idx_m_9_lut6_2[2]/I4
    SLICE_X105Y521       LUT5 (Prop_H5LUT_SLICEL_I4_O)
                                                      0.080     4.055 r  dut_inst/stage_g.5.pair_g.4.csn_cmp_inst/net_array_4_11.idx_m_9_lut6_2[2]/LUT5/O
                         net (fo=8, routed)           0.381     4.436    dut_inst/stage_g.7.pair_g.2.csn_cmp_inst/idx_50_2
    SLICE_X103Y513       LUT6 (Prop_F6LUT_SLICEL_I5_O)
                                                      0.177     4.613 r  dut_inst/stage_g.7.pair_g.2.csn_cmp_inst/a_o_comb.idx_0_iv_1_0[2]/O
                         net (fo=1, routed)           0.353     4.966    dut_inst/stage_g.7.pair_g.2.csn_cmp_inst/idx_0_iv_1_0_0Z[2]
    SLICE_X106Y513       LUT6 (Prop_E6LUT_SLICEL_I5_O)
                                                      0.039     5.005 r  dut_inst/stage_g.7.pair_g.2.csn_cmp_inst/a_o_comb.idx_0_iv_1_1[2]/O
                         net (fo=1, routed)           0.263     5.268    dut_inst/stage_g.7.pair_g.2.csn_cmp_inst/idx_0_iv_1_1_0[2]
    SLICE_X109Y511       LUT6 (Prop_E6LUT_SLICEL_I5_O)
                                                      0.100     5.368 r  dut_inst/stage_g.7.pair_g.2.csn_cmp_inst/a_o_comb.idx_0_iv[2]/O
                         net (fo=4, routed)           0.166     5.534    dut_inst/stage_g.9.pair_g.3.csn_cmp_inst/a_o_comb.idx_lut6_2[2]/I2
    SLICE_X110Y510       LUT5 (Prop_C5LUT_SLICEM_I2_O)
                                                      0.136     5.670 r  dut_inst/stage_g.9.pair_g.3.csn_cmp_inst/a_o_comb.idx_lut6_2[2]/LUT5/O
                         net (fo=2, routed)           0.201     5.871    dut_inst/stage_g.9.pair_g.3.csn_cmp_inst/idx_93_0
    SLICE_X110Y510       LUT6 (Prop_G6LUT_SLICEM_I5_O)
                                                      0.039     5.910 r  dut_inst/stage_g.9.pair_g.3.csn_cmp_inst/b_o_comb.idx[2]/O
                         net (fo=4, routed)           0.170     6.080    dut_inst/stage_g.10.pair_g.2.csn_cmp_inst/b_o_comb.idx_lut6_2[2]/I4
    SLICE_X109Y510       LUT6 (Prop_D6LUT_SLICEL_I4_O)
                                                      0.063     6.143 r  dut_inst/stage_g.10.pair_g.2.csn_cmp_inst/b_o_comb.idx_lut6_2[2]/LUT6/O
                         net (fo=1, routed)           0.136     6.279    dut_inst/stage_g.11.pair_g.1.csn_cmp_inst/idx_28_0
    SLICE_X109Y508       LUT6 (Prop_A6LUT_SLICEL_I5_O)
                                                      0.149     6.428 r  dut_inst/stage_g.11.pair_g.1.csn_cmp_inst/a_o_comb.idx[2]/O
                         net (fo=1, routed)           0.058     6.486    shift_reg_tap_o/idx_0[2]
    SLICE_X109Y508       FDRE                                         r  shift_reg_tap_o/sr_p.sr_1[143]/D
  -------------------------------------------------------------------    -------------------

                         (clock clk rise edge)        3.572     3.572 r  
    AV33                                              0.000     3.572 r  clk (IN)
                         net (fo=0)                   0.000     3.572    clk_ibuf_iso/I
    AV33                 INBUF (Prop_INBUF_HPIOB_M_PAD_O)
                                                      0.510     4.082 r  clk_ibuf_iso/INBUF_INST/O
                         net (fo=1, routed)           0.000     4.082    clk_ibuf_iso/OUT
    AV33                 IBUFCTRL (Prop_IBUFCTRL_HPIOB_M_I_O)
                                                      0.000     4.082 r  clk_ibuf_iso/IBUFCTRL_INST/O
                         net (fo=1, routed)           0.296     4.378    clk_ibuf_iso
    BUFGCE_X1Y224        BUFGCE (Prop_BUFCE_BUFGCE_I_O)
                                                      0.024     4.402 r  clk_ibuf/O
    X3Y8 (CLOCK_ROOT)    net (fo=1137, routed)        1.722     6.124    shift_reg_tap_o/clk_c
    SLICE_X109Y508       FDRE                                         r  shift_reg_tap_o/sr_p.sr_1[143]/C
                         clock pessimism              0.438     6.562    
                         clock uncertainty           -0.035     6.526    
    SLICE_X109Y508       FDRE (Setup_AFF_SLICEL_C_D)
                                                      0.027     6.553    shift_reg_tap_o/sr_p.sr_1[143]
  -------------------------------------------------------------------
                         required time                          6.553    
                         arrival time                          -6.486    
  -------------------------------------------------------------------
                         slack                                  0.067    

Slack (MET) :             0.067ns  (required time - arrival time)
  Source:                 dut_inst/ret_array_2_5.idx_ret_1144/C
                            (rising edge-triggered cell FDRE clocked by clk  {rise@0.000ns fall@1.786ns period=3.572ns})
  Destination:            shift_reg_tap_o/sr_p.sr_1[143]/D
                            (rising edge-triggered cell FDRE clocked by clk  {rise@0.000ns fall@1.786ns period=3.572ns})
  Path Group:             clk
  Path Type:              Setup (Max at Slow Process Corner)
  Requirement:            3.572ns  (clk rise@3.572ns - clk rise@0.000ns)
  Data Path Delay:        3.390ns  (logic 0.974ns (28.732%)  route 2.416ns (71.268%))
  Logic Levels:           9  (LUT5=3 LUT6=6)
  Clock Path Skew:        -0.106ns (DCD - SCD + CPR)
    Destination Clock Delay (DCD):    2.552ns = ( 6.124 - 3.572 ) 
    Source Clock Delay      (SCD):    3.096ns
    Clock Pessimism Removal (CPR):    0.438ns
  Clock Uncertainty:      0.035ns  ((TSJ^2 + TIJ^2)^1/2 + DJ) / 2 + PE
    Total System Jitter     (TSJ):    0.071ns
    Total Input Jitter      (TIJ):    0.000ns
    Discrete Jitter          (DJ):    0.000ns
    Phase Error              (PE):    0.000ns
  Clock Net Delay (Source):      1.955ns (routing 1.014ns, distribution 0.941ns)
  Clock Net Delay (Destination): 1.722ns (routing 0.926ns, distribution 0.796ns)

    Location             Delay type                Incr(ns)  Path(ns)    Netlist Resource(s)
  -------------------------------------------------------------------    -------------------
                         (clock clk rise edge)        0.000     0.000 r  
    AV33                                              0.000     0.000 r  clk (IN)
                         net (fo=0)                   0.000     0.000    clk_ibuf_iso/I
    AV33                 INBUF (Prop_INBUF_HPIOB_M_PAD_O)
                                                      0.779     0.779 r  clk_ibuf_iso/INBUF_INST/O
                         net (fo=1, routed)           0.000     0.779    clk_ibuf_iso/OUT
    AV33                 IBUFCTRL (Prop_IBUFCTRL_HPIOB_M_I_O)
                                                      0.000     0.779 r  clk_ibuf_iso/IBUFCTRL_INST/O
                         net (fo=1, routed)           0.334     1.113    clk_ibuf_iso
    BUFGCE_X1Y224        BUFGCE (Prop_BUFCE_BUFGCE_I_O)
                                                      0.028     1.141 r  clk_ibuf/O
    X3Y8 (CLOCK_ROOT)    net (fo=1137, routed)        1.955     3.096    dut_inst/clk_c
    SLICE_X100Y519       FDRE                                         r  dut_inst/ret_array_2_5.idx_ret_1144/C
  -------------------------------------------------------------------    -------------------
    SLICE_X100Y519       FDRE (Prop_EFF_SLICEM_C_Q)
                                                      0.093     3.189 r  dut_inst/ret_array_2_5.idx_ret_1144/Q
                         net (fo=10, routed)          0.296     3.485    dut_inst/stage_g.1.pair_g.8.csn_cmp_inst/un1_b_i_o_o_54
    SLICE_X100Y527       LUT5 (Prop_F6LUT_SLICEM_I4_O)
                                                      0.098     3.583 f  dut_inst/stage_g.1.pair_g.8.csn_cmp_inst/a_o_comb.idx[2]/O
                         net (fo=16, routed)          0.392     3.975    dut_inst/stage_g.5.pair_g.4.csn_cmp_inst/net_array_4_11.idx_m_9_lut6_2[2]/I4
    SLICE_X105Y521       LUT5 (Prop_H5LUT_SLICEL_I4_O)
                                                      0.080     4.055 f  dut_inst/stage_g.5.pair_g.4.csn_cmp_inst/net_array_4_11.idx_m_9_lut6_2[2]/LUT5/O
                         net (fo=8, routed)           0.381     4.436    dut_inst/stage_g.7.pair_g.2.csn_cmp_inst/idx_50_2
    SLICE_X103Y513       LUT6 (Prop_F6LUT_SLICEL_I5_O)
                                                      0.177     4.613 f  dut_inst/stage_g.7.pair_g.2.csn_cmp_inst/a_o_comb.idx_0_iv_1_0[2]/O
                         net (fo=1, routed)           0.353     4.966    dut_inst/stage_g.7.pair_g.2.csn_cmp_inst/idx_0_iv_1_0_0Z[2]
    SLICE_X106Y513       LUT6 (Prop_E6LUT_SLICEL_I5_O)
                                                      0.039     5.005 f  dut_inst/stage_g.7.pair_g.2.csn_cmp_inst/a_o_comb.idx_0_iv_1_1[2]/O
                         net (fo=1, routed)           0.263     5.268    dut_inst/stage_g.7.pair_g.2.csn_cmp_inst/idx_0_iv_1_1_0[2]
    SLICE_X109Y511       LUT6 (Prop_E6LUT_SLICEL_I5_O)
                                                      0.100     5.368 f  dut_inst/stage_g.7.pair_g.2.csn_cmp_inst/a_o_comb.idx_0_iv[2]/O
                         net (fo=4, routed)           0.166     5.534    dut_inst/stage_g.9.pair_g.3.csn_cmp_inst/a_o_comb.idx_lut6_2[2]/I2
    SLICE_X110Y510       LUT5 (Prop_C5LUT_SLICEM_I2_O)
                                                      0.136     5.670 f  dut_inst/stage_g.9.pair_g.3.csn_cmp_inst/a_o_comb.idx_lut6_2[2]/LUT5/O
                         net (fo=2, routed)           0.201     5.871    dut_inst/stage_g.9.pair_g.3.csn_cmp_inst/idx_93_0
    SLICE_X110Y510       LUT6 (Prop_G6LUT_SLICEM_I5_O)
                                                      0.039     5.910 f  dut_inst/stage_g.9.pair_g.3.csn_cmp_inst/b_o_comb.idx[2]/O
                         net (fo=4, routed)           0.170     6.080    dut_inst/stage_g.10.pair_g.2.csn_cmp_inst/b_o_comb.idx_lut6_2[2]/I4
    SLICE_X109Y510       LUT6 (Prop_D6LUT_SLICEL_I4_O)
                                                      0.063     6.143 f  dut_inst/stage_g.10.pair_g.2.csn_cmp_inst/b_o_comb.idx_lut6_2[2]/LUT6/O
                         net (fo=1, routed)           0.136     6.279    dut_inst/stage_g.11.pair_g.1.csn_cmp_inst/idx_28_0
    SLICE_X109Y508       LUT6 (Prop_A6LUT_SLICEL_I5_O)
                                                      0.149     6.428 f  dut_inst/stage_g.11.pair_g.1.csn_cmp_inst/a_o_comb.idx[2]/O
                         net (fo=1, routed)           0.058     6.486    shift_reg_tap_o/idx_0[2]
    SLICE_X109Y508       FDRE                                         f  shift_reg_tap_o/sr_p.sr_1[143]/D
  -------------------------------------------------------------------    -------------------

                         (clock clk rise edge)        3.572     3.572 r  
    AV33                                              0.000     3.572 r  clk (IN)
                         net (fo=0)                   0.000     3.572    clk_ibuf_iso/I
    AV33                 INBUF (Prop_INBUF_HPIOB_M_PAD_O)
                                                      0.510     4.082 r  clk_ibuf_iso/INBUF_INST/O
                         net (fo=1, routed)           0.000     4.082    clk_ibuf_iso/OUT
    AV33                 IBUFCTRL (Prop_IBUFCTRL_HPIOB_M_I_O)
                                                      0.000     4.082 r  clk_ibuf_iso/IBUFCTRL_INST/O
                         net (fo=1, routed)           0.296     4.378    clk_ibuf_iso
    BUFGCE_X1Y224        BUFGCE (Prop_BUFCE_BUFGCE_I_O)
                                                      0.024     4.402 r  clk_ibuf/O
    X3Y8 (CLOCK_ROOT)    net (fo=1137, routed)        1.722     6.124    shift_reg_tap_o/clk_c
    SLICE_X109Y508       FDRE                                         r  shift_reg_tap_o/sr_p.sr_1[143]/C
                         clock pessimism              0.438     6.562    
                         clock uncertainty           -0.035     6.526    
    SLICE_X109Y508       FDRE (Setup_AFF_SLICEL_C_D)
                                                      0.027     6.553    shift_reg_tap_o/sr_p.sr_1[143]
  -------------------------------------------------------------------
                         required time                          6.553    
                         arrival time                          -6.486    
  -------------------------------------------------------------------
                         slack                                  0.067    

Slack (MET) :             0.067ns  (required time - arrival time)
  Source:                 dut_inst/ret_array_2_5.idx_ret_1144/C
                            (rising edge-triggered cell FDRE clocked by clk  {rise@0.000ns fall@1.786ns period=3.572ns})
  Destination:            shift_reg_tap_o/sr_p.sr_1[143]/D
                            (rising edge-triggered cell FDRE clocked by clk  {rise@0.000ns fall@1.786ns period=3.572ns})
  Path Group:             clk
  Path Type:              Setup (Max at Slow Process Corner)
  Requirement:            3.572ns  (clk rise@3.572ns - clk rise@0.000ns)
  Data Path Delay:        3.390ns  (logic 0.974ns (28.732%)  route 2.416ns (71.268%))
  Logic Levels:           9  (LUT5=3 LUT6=6)
  Clock Path Skew:        -0.106ns (DCD - SCD + CPR)
    Destination Clock Delay (DCD):    2.552ns = ( 6.124 - 3.572 ) 
    Source Clock Delay      (SCD):    3.096ns
    Clock Pessimism Removal (CPR):    0.438ns
  Clock Uncertainty:      0.035ns  ((TSJ^2 + TIJ^2)^1/2 + DJ) / 2 + PE
    Total System Jitter     (TSJ):    0.071ns
    Total Input Jitter      (TIJ):    0.000ns
    Discrete Jitter          (DJ):    0.000ns
    Phase Error              (PE):    0.000ns
  Clock Net Delay (Source):      1.955ns (routing 1.014ns, distribution 0.941ns)
  Clock Net Delay (Destination): 1.722ns (routing 0.926ns, distribution 0.796ns)

    Location             Delay type                Incr(ns)  Path(ns)    Netlist Resource(s)
  -------------------------------------------------------------------    -------------------
                         (clock clk rise edge)        0.000     0.000 r  
    AV33                                              0.000     0.000 r  clk (IN)
                         net (fo=0)                   0.000     0.000    clk_ibuf_iso/I
    AV33                 INBUF (Prop_INBUF_HPIOB_M_PAD_O)
                                                      0.779     0.779 r  clk_ibuf_iso/INBUF_INST/O
                         net (fo=1, routed)           0.000     0.779    clk_ibuf_iso/OUT
    AV33                 IBUFCTRL (Prop_IBUFCTRL_HPIOB_M_I_O)
                                                      0.000     0.779 r  clk_ibuf_iso/IBUFCTRL_INST/O
                         net (fo=1, routed)           0.334     1.113    clk_ibuf_iso
    BUFGCE_X1Y224        BUFGCE (Prop_BUFCE_BUFGCE_I_O)
                                                      0.028     1.141 r  clk_ibuf/O
    X3Y8 (CLOCK_ROOT)    net (fo=1137, routed)        1.955     3.096    dut_inst/clk_c
    SLICE_X100Y519       FDRE                                         r  dut_inst/ret_array_2_5.idx_ret_1144/C
  -------------------------------------------------------------------    -------------------
    SLICE_X100Y519       FDRE (Prop_EFF_SLICEM_C_Q)
                                                      0.093     3.189 f  dut_inst/ret_array_2_5.idx_ret_1144/Q
                         net (fo=10, routed)          0.296     3.485    dut_inst/stage_g.1.pair_g.8.csn_cmp_inst/un1_b_i_o_o_54
    SLICE_X100Y527       LUT5 (Prop_F6LUT_SLICEM_I4_O)
                                                      0.098     3.583 f  dut_inst/stage_g.1.pair_g.8.csn_cmp_inst/a_o_comb.idx[2]/O
                         net (fo=16, routed)          0.392     3.975    dut_inst/stage_g.5.pair_g.4.csn_cmp_inst/net_array_4_11.idx_m_9_lut6_2[2]/I4
    SLICE_X105Y521       LUT5 (Prop_H5LUT_SLICEL_I4_O)
                                                      0.080     4.055 f  dut_inst/stage_g.5.pair_g.4.csn_cmp_inst/net_array_4_11.idx_m_9_lut6_2[2]/LUT5/O
                         net (fo=8, routed)           0.381     4.436    dut_inst/stage_g.7.pair_g.2.csn_cmp_inst/idx_50_2
    SLICE_X103Y513       LUT6 (Prop_F6LUT_SLICEL_I5_O)
                                                      0.177     4.613 f  dut_inst/stage_g.7.pair_g.2.csn_cmp_inst/a_o_comb.idx_0_iv_1_0[2]/O
                         net (fo=1, routed)           0.353     4.966    dut_inst/stage_g.7.pair_g.2.csn_cmp_inst/idx_0_iv_1_0_0Z[2]
    SLICE_X106Y513       LUT6 (Prop_E6LUT_SLICEL_I5_O)
                                                      0.039     5.005 f  dut_inst/stage_g.7.pair_g.2.csn_cmp_inst/a_o_comb.idx_0_iv_1_1[2]/O
                         net (fo=1, routed)           0.263     5.268    dut_inst/stage_g.7.pair_g.2.csn_cmp_inst/idx_0_iv_1_1_0[2]
    SLICE_X109Y511       LUT6 (Prop_E6LUT_SLICEL_I5_O)
                                                      0.100     5.368 f  dut_inst/stage_g.7.pair_g.2.csn_cmp_inst/a_o_comb.idx_0_iv[2]/O
                         net (fo=4, routed)           0.166     5.534    dut_inst/stage_g.9.pair_g.3.csn_cmp_inst/a_o_comb.idx_lut6_2[2]/I2
    SLICE_X110Y510       LUT5 (Prop_C5LUT_SLICEM_I2_O)
                                                      0.136     5.670 f  dut_inst/stage_g.9.pair_g.3.csn_cmp_inst/a_o_comb.idx_lut6_2[2]/LUT5/O
                         net (fo=2, routed)           0.201     5.871    dut_inst/stage_g.9.pair_g.3.csn_cmp_inst/idx_93_0
    SLICE_X110Y510       LUT6 (Prop_G6LUT_SLICEM_I5_O)
                                                      0.039     5.910 f  dut_inst/stage_g.9.pair_g.3.csn_cmp_inst/b_o_comb.idx[2]/O
                         net (fo=4, routed)           0.170     6.080    dut_inst/stage_g.10.pair_g.2.csn_cmp_inst/b_o_comb.idx_lut6_2[2]/I4
    SLICE_X109Y510       LUT6 (Prop_D6LUT_SLICEL_I4_O)
                                                      0.063     6.143 f  dut_inst/stage_g.10.pair_g.2.csn_cmp_inst/b_o_comb.idx_lut6_2[2]/LUT6/O
                         net (fo=1, routed)           0.136     6.279    dut_inst/stage_g.11.pair_g.1.csn_cmp_inst/idx_28_0
    SLICE_X109Y508       LUT6 (Prop_A6LUT_SLICEL_I5_O)
                                                      0.149     6.428 f  dut_inst/stage_g.11.pair_g.1.csn_cmp_inst/a_o_comb.idx[2]/O
                         net (fo=1, routed)           0.058     6.486    shift_reg_tap_o/idx_0[2]
    SLICE_X109Y508       FDRE                                         f  shift_reg_tap_o/sr_p.sr_1[143]/D
  -------------------------------------------------------------------    -------------------

                         (clock clk rise edge)        3.572     3.572 r  
    AV33                                              0.000     3.572 r  clk (IN)
                         net (fo=0)                   0.000     3.572    clk_ibuf_iso/I
    AV33                 INBUF (Prop_INBUF_HPIOB_M_PAD_O)
                                                      0.510     4.082 r  clk_ibuf_iso/INBUF_INST/O
                         net (fo=1, routed)           0.000     4.082    clk_ibuf_iso/OUT
    AV33                 IBUFCTRL (Prop_IBUFCTRL_HPIOB_M_I_O)
                                                      0.000     4.082 r  clk_ibuf_iso/IBUFCTRL_INST/O
                         net (fo=1, routed)           0.296     4.378    clk_ibuf_iso
    BUFGCE_X1Y224        BUFGCE (Prop_BUFCE_BUFGCE_I_O)
                                                      0.024     4.402 r  clk_ibuf/O
    X3Y8 (CLOCK_ROOT)    net (fo=1137, routed)        1.722     6.124    shift_reg_tap_o/clk_c
    SLICE_X109Y508       FDRE                                         r  shift_reg_tap_o/sr_p.sr_1[143]/C
                         clock pessimism              0.438     6.562    
                         clock uncertainty           -0.035     6.526    
    SLICE_X109Y508       FDRE (Setup_AFF_SLICEL_C_D)
                                                      0.027     6.553    shift_reg_tap_o/sr_p.sr_1[143]
  -------------------------------------------------------------------
                         required time                          6.553    
                         arrival time                          -6.486    
  -------------------------------------------------------------------
                         slack                                  0.067    

Slack (MET) :             0.121ns  (required time - arrival time)
  Source:                 dut_inst/ret_array_2_5.idx_ret_1144/C
                            (rising edge-triggered cell FDRE clocked by clk  {rise@0.000ns fall@1.786ns period=3.572ns})
  Destination:            shift_reg_tap_o/sr_p.sr_1[133]/D
                            (rising edge-triggered cell FDRE clocked by clk  {rise@0.000ns fall@1.786ns period=3.572ns})
  Path Group:             clk
  Path Type:              Setup (Max at Slow Process Corner)
  Requirement:            3.572ns  (clk rise@3.572ns - clk rise@0.000ns)
  Data Path Delay:        3.344ns  (logic 0.949ns (28.379%)  route 2.395ns (71.621%))
  Logic Levels:           9  (LUT5=5 LUT6=4)
  Clock Path Skew:        -0.098ns (DCD - SCD + CPR)
    Destination Clock Delay (DCD):    2.560ns = ( 6.132 - 3.572 ) 
    Source Clock Delay      (SCD):    3.096ns
    Clock Pessimism Removal (CPR):    0.438ns
  Clock Uncertainty:      0.035ns  ((TSJ^2 + TIJ^2)^1/2 + DJ) / 2 + PE
    Total System Jitter     (TSJ):    0.071ns
    Total Input Jitter      (TIJ):    0.000ns
    Discrete Jitter          (DJ):    0.000ns
    Phase Error              (PE):    0.000ns
  Clock Net Delay (Source):      1.955ns (routing 1.014ns, distribution 0.941ns)
  Clock Net Delay (Destination): 1.730ns (routing 0.926ns, distribution 0.804ns)

    Location             Delay type                Incr(ns)  Path(ns)    Netlist Resource(s)
  -------------------------------------------------------------------    -------------------
                         (clock clk rise edge)        0.000     0.000 r  
    AV33                                              0.000     0.000 r  clk (IN)
                         net (fo=0)                   0.000     0.000    clk_ibuf_iso/I
    AV33                 INBUF (Prop_INBUF_HPIOB_M_PAD_O)
                                                      0.779     0.779 r  clk_ibuf_iso/INBUF_INST/O
                         net (fo=1, routed)           0.000     0.779    clk_ibuf_iso/OUT
    AV33                 IBUFCTRL (Prop_IBUFCTRL_HPIOB_M_I_O)
                                                      0.000     0.779 r  clk_ibuf_iso/IBUFCTRL_INST/O
                         net (fo=1, routed)           0.334     1.113    clk_ibuf_iso
    BUFGCE_X1Y224        BUFGCE (Prop_BUFCE_BUFGCE_I_O)
                                                      0.028     1.141 r  clk_ibuf/O
    X3Y8 (CLOCK_ROOT)    net (fo=1137, routed)        1.955     3.096    dut_inst/clk_c
    SLICE_X100Y519       FDRE                                         r  dut_inst/ret_array_2_5.idx_ret_1144/C
  -------------------------------------------------------------------    -------------------
    SLICE_X100Y519       FDRE (Prop_EFF_SLICEM_C_Q)
                                                      0.093     3.189 r  dut_inst/ret_array_2_5.idx_ret_1144/Q
                         net (fo=10, routed)          0.296     3.485    dut_inst/stage_g.1.pair_g.8.csn_cmp_inst/un1_b_i_o_o_54
    SLICE_X100Y527       LUT5 (Prop_F6LUT_SLICEM_I4_O)
                                                      0.098     3.583 r  dut_inst/stage_g.1.pair_g.8.csn_cmp_inst/a_o_comb.idx[2]/O
                         net (fo=16, routed)          0.392     3.975    dut_inst/stage_g.5.pair_g.4.csn_cmp_inst/net_array_4_11.idx_m_9_lut6_2[2]/I4
    SLICE_X105Y521       LUT5 (Prop_H5LUT_SLICEL_I4_O)
                                                      0.080     4.055 r  dut_inst/stage_g.5.pair_g.4.csn_cmp_inst/net_array_4_11.idx_m_9_lut6_2[2]/LUT5/O
                         net (fo=8, routed)           0.381     4.436    dut_inst/stage_g.7.pair_g.2.csn_cmp_inst/idx_50_2
    SLICE_X103Y513       LUT6 (Prop_F6LUT_SLICEL_I5_O)
                                                      0.177     4.613 r  dut_inst/stage_g.7.pair_g.2.csn_cmp_inst/a_o_comb.idx_0_iv_1_0[2]/O
                         net (fo=1, routed)           0.353     4.966    dut_inst/stage_g.7.pair_g.2.csn_cmp_inst/idx_0_iv_1_0_0Z[2]
    SLICE_X106Y513       LUT6 (Prop_E6LUT_SLICEL_I5_O)
                                                      0.039     5.005 r  dut_inst/stage_g.7.pair_g.2.csn_cmp_inst/a_o_comb.idx_0_iv_1_1[2]/O
                         net (fo=1, routed)           0.263     5.268    dut_inst/stage_g.7.pair_g.2.csn_cmp_inst/idx_0_iv_1_1_0[2]
    SLICE_X109Y511       LUT6 (Prop_E6LUT_SLICEL_I5_O)
                                                      0.100     5.368 r  dut_inst/stage_g.7.pair_g.2.csn_cmp_inst/a_o_comb.idx_0_iv[2]/O
                         net (fo=4, routed)           0.166     5.534    dut_inst/stage_g.9.pair_g.3.csn_cmp_inst/a_o_comb.idx_lut6_2[2]/I2
    SLICE_X110Y510       LUT5 (Prop_C5LUT_SLICEM_I2_O)
                                                      0.136     5.670 r  dut_inst/stage_g.9.pair_g.3.csn_cmp_inst/a_o_comb.idx_lut6_2[2]/LUT5/O
                         net (fo=2, routed)           0.201     5.871    dut_inst/stage_g.9.pair_g.3.csn_cmp_inst/idx_93_0
    SLICE_X110Y510       LUT6 (Prop_G6LUT_SLICEM_I5_O)
                                                      0.039     5.910 r  dut_inst/stage_g.9.pair_g.3.csn_cmp_inst/b_o_comb.idx[2]/O
                         net (fo=4, routed)           0.121     6.031    dut_inst/stage_g.10.pair_g.2.csn_cmp_inst/idx_32[2]
    SLICE_X109Y510       LUT5 (Prop_E6LUT_SLICEL_I4_O)
                                                      0.039     6.070 r  dut_inst/stage_g.10.pair_g.2.csn_cmp_inst/a_o_comb.idx[2]/O
                         net (fo=2, routed)           0.168     6.238    dut_inst/stage_g.11.pair_g.2.csn_cmp_inst/idx_31_0
    SLICE_X109Y509       LUT5 (Prop_E6LUT_SLICEL_I4_O)
                                                      0.148     6.386 r  dut_inst/stage_g.11.pair_g.2.csn_cmp_inst/b_o_comb.idx[2]/O
                         net (fo=1, routed)           0.054     6.440    shift_reg_tap_o/idx_3_0[2]
    SLICE_X109Y509       FDRE                                         r  shift_reg_tap_o/sr_p.sr_1[133]/D
  -------------------------------------------------------------------    -------------------

                         (clock clk rise edge)        3.572     3.572 r  
    AV33                                              0.000     3.572 r  clk (IN)
                         net (fo=0)                   0.000     3.572    clk_ibuf_iso/I
    AV33                 INBUF (Prop_INBUF_HPIOB_M_PAD_O)
                                                      0.510     4.082 r  clk_ibuf_iso/INBUF_INST/O
                         net (fo=1, routed)           0.000     4.082    clk_ibuf_iso/OUT
    AV33                 IBUFCTRL (Prop_IBUFCTRL_HPIOB_M_I_O)
                                                      0.000     4.082 r  clk_ibuf_iso/IBUFCTRL_INST/O
                         net (fo=1, routed)           0.296     4.378    clk_ibuf_iso
    BUFGCE_X1Y224        BUFGCE (Prop_BUFCE_BUFGCE_I_O)
                                                      0.024     4.402 r  clk_ibuf/O
    X3Y8 (CLOCK_ROOT)    net (fo=1137, routed)        1.730     6.132    shift_reg_tap_o/clk_c
    SLICE_X109Y509       FDRE                                         r  shift_reg_tap_o/sr_p.sr_1[133]/C
                         clock pessimism              0.438     6.570    
                         clock uncertainty           -0.035     6.534    
    SLICE_X109Y509       FDRE (Setup_EFF_SLICEL_C_D)
                                                      0.027     6.561    shift_reg_tap_o/sr_p.sr_1[133]
  -------------------------------------------------------------------
                         required time                          6.561    
                         arrival time                          -6.440    
  -------------------------------------------------------------------
                         slack                                  0.121    





Pulse Width Checks
--------------------------------------------------------------------------------------
Clock Name:         clk
Waveform(ns):       { 0.000 1.786 }
Period(ns):         3.572
Sources:            { clk }

Check Type        Corner  Lib Pin   Reference Pin  Required(ns)  Actual(ns)  Slack(ns)  Location        Pin
Min Period        n/a     BUFGCE/I  n/a            1.499         3.572       2.073      BUFGCE_X1Y224   clk_ibuf/I
Min Period        n/a     FDRE/C    n/a            0.550         3.572       3.022      SLICE_X95Y510   dut_inst/ret_array_1_5.idx_ret_676/C
Min Period        n/a     FDRE/C    n/a            0.550         3.572       3.022      SLICE_X99Y525   dut_inst/ret_array_1_5.idx_ret_712/C
Min Period        n/a     FDRE/C    n/a            0.550         3.572       3.022      SLICE_X98Y525   dut_inst/ret_array_1_5.idx_ret_748/C
Min Period        n/a     FDRE/C    n/a            0.550         3.572       3.022      SLICE_X95Y509   dut_inst/ret_array_1_5.idx_ret_78/C
Low Pulse Width   Slow    FDRE/C    n/a            0.275         1.786       1.511      SLICE_X103Y526  shift_reg_tap_o/sr_p.sr_1[0]/C
Low Pulse Width   Slow    FDRE/C    n/a            0.275         1.786       1.511      SLICE_X98Y525   dut_inst/ret_array_1_15.pt_ret_86/C
Low Pulse Width   Slow    FDRE/C    n/a            0.275         1.786       1.511      SLICE_X96Y526   dut_inst/ret_array_1_5.idx_ret_8[4]/C
Low Pulse Width   Slow    FDRE/C    n/a            0.275         1.786       1.511      SLICE_X96Y526   dut_inst/ret_array_1_5.idx_ret_8[7]/C
Low Pulse Width   Slow    FDRE/C    n/a            0.275         1.786       1.511      SLICE_X106Y515  shift_reg_tap_o/sr_p.sr_1[117]/C
High Pulse Width  Slow    FDRE/C    n/a            0.275         1.786       1.511      SLICE_X95Y510   dut_inst/ret_array_1_5.idx_ret_676/C
High Pulse Width  Slow    FDRE/C    n/a            0.275         1.786       1.511      SLICE_X98Y525   dut_inst/ret_array_1_5.idx_ret_748/C
High Pulse Width  Fast    FDRE/C    n/a            0.275         1.786       1.511      SLICE_X98Y525   dut_inst/ret_array_1_5.idx_ret_748/C
High Pulse Width  Slow    FDRE/C    n/a            0.275         1.786       1.511      SLICE_X95Y509   dut_inst/ret_array_1_5.idx_ret_78/C
High Pulse Width  Fast    FDRE/C    n/a            0.275         1.786       1.511      SLICE_X95Y520   dut_inst/ret_array_1_5.idx_ret_784/C



---------------------------------------------------------------------------------------------------
From Clock:  clk_wrapper
  To Clock:  clk_wrapper

Setup :           NA  Failing Endpoints,  Worst Slack           NA  ,  Total Violation           NA
Hold  :           NA  Failing Endpoints,  Worst Slack           NA  ,  Total Violation           NA
PW    :            0  Failing Endpoints,  Worst Slack      498.562ns,  Total Violation        0.000ns
---------------------------------------------------------------------------------------------------


Pulse Width Checks
--------------------------------------------------------------------------------------
Clock Name:         clk_wrapper
Waveform(ns):       { 0.000 500.000 }
Period(ns):         1000.000
Sources:            { clk_wrapper }

Check Type        Corner  Lib Pin   Reference Pin  Required(ns)  Actual(ns)  Slack(ns)  Location               Pin
Min Period        n/a     FDRE/C    n/a            3.195         1000.000    996.805    BITSLICE_RX_TX_X1Y483  reducer_1/delay_block[4][0]/C
Min Period        n/a     BUFGCE/I  n/a            1.499         1000.000    998.501    BUFGCE_X1Y230          clk_wrapper_ibuf/I
Min Period        n/a     FDRE/C    n/a            0.550         1000.000    999.450    SLICE_X95Y521          lsfr_1/shiftreg_vector[109]/C
Min Period        n/a     FDRE/C    n/a            0.550         1000.000    999.450    SLICE_X95Y507          lsfr_1/shiftreg_vector[10]/C
Min Period        n/a     FDRE/C    n/a            0.550         1000.000    999.450    SLICE_X95Y521          lsfr_1/shiftreg_vector[110]/C
Low Pulse Width   Slow    FDRE/C    n/a            1.438         500.000     498.562    BITSLICE_RX_TX_X1Y483  reducer_1/delay_block[4][0]/C
Low Pulse Width   Fast    FDRE/C    n/a            1.438         500.000     498.562    BITSLICE_RX_TX_X1Y483  reducer_1/delay_block[4][0]/C
Low Pulse Width   Slow    FDRE/C    n/a            0.275         500.000     499.725    SLICE_X95Y521          lsfr_1/shiftreg_vector[109]/C
Low Pulse Width   Slow    FDRE/C    n/a            0.275         500.000     499.725    SLICE_X95Y521          lsfr_1/shiftreg_vector[110]/C
Low Pulse Width   Slow    FDRE/C    n/a            0.275         500.000     499.725    SLICE_X96Y523          lsfr_1/shiftreg_vector[111]/C
High Pulse Width  Fast    FDRE/C    n/a            1.438         500.000     498.562    BITSLICE_RX_TX_X1Y483  reducer_1/delay_block[4][0]/C
High Pulse Width  Slow    FDRE/C    n/a            1.438         500.000     498.562    BITSLICE_RX_TX_X1Y483  reducer_1/delay_block[4][0]/C
High Pulse Width  Fast    FDRE/C    n/a            0.275         500.000     499.725    SLICE_X95Y507          lsfr_1/shiftreg_vector[10]/C
High Pulse Width  Fast    FDRE/C    n/a            0.275         500.000     499.725    SLICE_X96Y523          lsfr_1/shiftreg_vector[111]/C
High Pulse Width  Fast    FDRE/C    n/a            0.275         500.000     499.725    SLICE_X96Y523          lsfr_1/shiftreg_vector[112]/C



