Copyright 1986-2018 Xilinx, Inc. All Rights Reserved.
-------------------------------------------------------------------------------------------------
| Tool Version      : Vivado v.2018.2 (win64) Build 2258646 Thu Jun 14 20:03:12 MDT 2018
| Date              : Wed Feb 13 22:34:00 2019
| Host              : PCPHESEBE02 running 64-bit Service Pack 1  (build 7601)
| Command           : report_timing_summary -setup -nworst 5 -max_paths 5 -file timing_setup.txt
| Design            : wrapper
| Device            : xcvu9p-flgc2104
| Speed File        : -1  PRODUCTION 1.20 05-21-2018
| Temperature Grade : E
-------------------------------------------------------------------------------------------------

Timing Summary Report

------------------------------------------------------------------------------------------------
| Timer Settings
| --------------
------------------------------------------------------------------------------------------------

  Enable Multi Corner Analysis               :  Yes
  Enable Pessimism Removal                   :  Yes
  Pessimism Removal Resolution               :  Nearest Common Node
  Enable Input Delay Default Clock           :  No
  Enable Preset / Clear Arcs                 :  No
  Disable Flight Delays                      :  No
  Ignore I/O Paths                           :  No
  Timing Early Launch at Borrowing Latches   :  false

  Corner  Analyze    Analyze    
  Name    Max Paths  Min Paths  
  ------  ---------  ---------  
  Slow    Yes        Yes        
  Fast    Yes        Yes        



check_timing report

Table of Contents
-----------------
1. checking no_clock
2. checking constant_clock
3. checking pulse_width_clock
4. checking unconstrained_internal_endpoints
5. checking no_input_delay
6. checking no_output_delay
7. checking multiple_clock
8. checking generated_clocks
9. checking loops
10. checking partial_input_delay
11. checking partial_output_delay
12. checking latch_loops

1. checking no_clock
--------------------
 There are 0 register/latch pins with no clock.


2. checking constant_clock
--------------------------
 There are 0 register/latch pins with constant_clock.


3. checking pulse_width_clock
-----------------------------
 There are 0 register/latch pins which need pulse_width check


4. checking unconstrained_internal_endpoints
--------------------------------------------
 There are 0 pins that are not constrained for maximum delay.

 There are 0 pins that are not constrained for maximum delay due to constant clock.


5. checking no_input_delay
--------------------------
 There are 0 input ports with no input delay specified.

 There are 0 input ports with no input delay but user has a false path constraint.


6. checking no_output_delay
---------------------------
 There is 1 port with no output delay specified. (HIGH)

 There are 0 ports with no output delay but user has a false path constraint

 There are 0 ports with no output delay but with a timing clock defined on it or propagating through it


7. checking multiple_clock
--------------------------
 There are 0 register/latch pins with multiple clocks.


8. checking generated_clocks
----------------------------
 There are 0 generated clocks that are not connected to a clock source.


9. checking loops
-----------------
 There are 0 combinational loops in the design.


10. checking partial_input_delay
--------------------------------
 There are 0 input ports with partial input delay specified.


11. checking partial_output_delay
---------------------------------
 There are 0 ports with partial output delay specified.


12. checking latch_loops
------------------------
 There are 0 combinational latch loops in the design through latch input



------------------------------------------------------------------------------------------------
| Design Timing Summary
| ---------------------
------------------------------------------------------------------------------------------------

    WNS(ns)      TNS(ns)  TNS Failing Endpoints  TNS Total Endpoints     WPWS(ns)     TPWS(ns)  TPWS Failing Endpoints  TPWS Total Endpoints  
    -------      -------  ---------------------  -------------------     --------     --------  ----------------------  --------------------  
    -10.545    -4283.343                    711                 4759        1.287        0.000                       0                  5092  


Timing constraints are not met.


------------------------------------------------------------------------------------------------
| Clock Summary
| -------------
------------------------------------------------------------------------------------------------

Clock        Waveform(ns)         Period(ns)      Frequency(MHz)
-----        ------------         ----------      --------------
clk          {0.000 1.563}        3.125           320.000         
clk_wrapper  {0.000 500.000}      1000.000        1.000           


------------------------------------------------------------------------------------------------
| Intra Clock Table
| -----------------
------------------------------------------------------------------------------------------------

Clock             WNS(ns)      TNS(ns)  TNS Failing Endpoints  TNS Total Endpoints     WPWS(ns)     TPWS(ns)  TPWS Failing Endpoints  TPWS Total Endpoints  
-----             -------      -------  ---------------------  -------------------     --------     --------  ----------------------  --------------------  
clk               -10.545    -4283.343                    711                 4759        1.287        0.000                       0                  4750  
clk_wrapper                                                                             498.562        0.000                       0                   342  


------------------------------------------------------------------------------------------------
| Inter Clock Table
| -----------------
------------------------------------------------------------------------------------------------

From Clock    To Clock          WNS(ns)      TNS(ns)  TNS Failing Endpoints  TNS Total Endpoints  
----------    --------          -------      -------  ---------------------  -------------------  


------------------------------------------------------------------------------------------------
| Other Path Groups Table
| -----------------------
------------------------------------------------------------------------------------------------

Path Group    From Clock    To Clock          WNS(ns)      TNS(ns)  TNS Failing Endpoints  TNS Total Endpoints  
----------    ----------    --------          -------      -------  ---------------------  -------------------  


------------------------------------------------------------------------------------------------
| Timing Details
| --------------
------------------------------------------------------------------------------------------------


---------------------------------------------------------------------------------------------------
From Clock:  clk
  To Clock:  clk

Setup :          711  Failing Endpoints,  Worst Slack      -10.545ns,  Total Violation    -4283.343ns
Hold  :           NA  Failing Endpoints,  Worst Slack           NA  ,  Total Violation           NA
PW    :            0  Failing Endpoints,  Worst Slack        1.287ns,  Total Violation        0.000ns
---------------------------------------------------------------------------------------------------


Max Delay Paths
--------------------------------------------------------------------------------------
Slack (VIOLATED) :        -10.545ns  (required time - arrival time)
  Source:                 muon_sorter_1/sr_p.sr_2_1.pt_ret_68_fast/C
                            (rising edge-triggered cell FDRE clocked by clk  {rise@0.000ns fall@1.563ns period=3.125ns})
  Destination:            muon_sorter_1/sr_p.sr_1_15.pt_ret_560/D
                            (rising edge-triggered cell FDRE clocked by clk  {rise@0.000ns fall@1.563ns period=3.125ns})
  Path Group:             clk
  Path Type:              Setup (Max at Slow Process Corner)
  Requirement:            3.125ns  (clk rise@3.125ns - clk rise@0.000ns)
  Data Path Delay:        13.576ns  (logic 3.215ns (23.682%)  route 10.361ns (76.319%))
  Logic Levels:           32  (LUT2=1 LUT4=2 LUT5=13 LUT6=16)
  Clock Path Skew:        -0.085ns (DCD - SCD + CPR)
    Destination Clock Delay (DCD):    2.762ns = ( 5.887 - 3.125 ) 
    Source Clock Delay      (SCD):    3.304ns
    Clock Pessimism Removal (CPR):    0.457ns
  Clock Uncertainty:      0.035ns  ((TSJ^2 + TIJ^2)^1/2 + DJ) / 2 + PE
    Total System Jitter     (TSJ):    0.071ns
    Total Input Jitter      (TIJ):    0.000ns
    Discrete Jitter          (DJ):    0.000ns
    Phase Error              (PE):    0.000ns
  Clock Net Delay (Source):      2.163ns (routing 1.237ns, distribution 0.926ns)
  Clock Net Delay (Destination): 1.932ns (routing 1.130ns, distribution 0.802ns)

    Location             Delay type                Incr(ns)  Path(ns)    Netlist Resource(s)
  -------------------------------------------------------------------    -------------------
                         (clock clk rise edge)        0.000     0.000 r  
    AV33                                              0.000     0.000 r  clk (IN)
                         net (fo=0)                   0.000     0.000    clk_ibuf_iso/I
    AV33                 INBUF (Prop_INBUF_HPIOB_M_PAD_O)
                                                      0.779     0.779 r  clk_ibuf_iso/INBUF_INST/O
                         net (fo=1, routed)           0.000     0.779    clk_ibuf_iso/OUT
    AV33                 IBUFCTRL (Prop_IBUFCTRL_HPIOB_M_I_O)
                                                      0.000     0.779 r  clk_ibuf_iso/IBUFCTRL_INST/O
                         net (fo=1, routed)           0.334     1.113    clk_ibuf_iso
    BUFGCE_X1Y224        BUFGCE (Prop_BUFCE_BUFGCE_I_O)
                                                      0.028     1.141 r  clk_ibuf/O
    X3Y7 (CLOCK_ROOT)    net (fo=4749, routed)        2.163     3.304    muon_sorter_1/clk_c
    SLICE_X103Y450       FDRE                                         r  muon_sorter_1/sr_p.sr_2_1.pt_ret_68_fast/C
  -------------------------------------------------------------------    -------------------
    SLICE_X103Y450       FDRE (Prop_AFF_SLICEL_C_Q)
                                                      0.096     3.400 r  muon_sorter_1/sr_p.sr_2_1.pt_ret_68_fast/Q
                         net (fo=5, routed)           0.241     3.641    muon_sorter_1/pt_ret_68_fast
    SLICE_X102Y452       LUT4 (Prop_D6LUT_SLICEM_I2_O)
                                                      0.062     3.703 r  muon_sorter_1/sr_p.sr_2_1.pt_ret_68_fast_RNIALR41/O
                         net (fo=14, routed)          0.451     4.154    muon_sorter_1/max_pt_2_2[1]
    SLICE_X102Y453       LUT6 (Prop_D6LUT_SLICEM_I3_O)
                                                      0.062     4.216 r  muon_sorter_1/sr_p.sr_2_1.pt_ret_65_RNI1B323/O
                         net (fo=5, routed)           0.505     4.721    muon_sorter_1/pt_compare_3_15_0_a2[1]
    SLICE_X103Y451       LUT5 (Prop_B6LUT_SLICEL_I1_O)
                                                      0.040     4.761 r  muon_sorter_1/sr_p.sr_2_8.pt_ret_51_RNIV9R3D/O
                         net (fo=1, routed)           0.231     4.992    muon_sorter_1/pt_ret_51_RNIV9R3D
    SLICE_X103Y454       LUT6 (Prop_C6LUT_SLICEL_I1_O)
                                                      0.113     5.105 r  muon_sorter_1/sr_p.sr_2_0.pt_ret_169_RNIR42KU/O
                         net (fo=4, routed)           0.175     5.280    muon_sorter_1/max_pt_3_3[1]
    SLICE_X105Y456       LUT6 (Prop_A6LUT_SLICEL_I5_O)
                                                      0.100     5.380 f  muon_sorter_1/sr_p.sr_2_1.pt_ret_67_RNI6AK252/O
                         net (fo=7, routed)           0.378     5.758    muon_sorter_1/pt_compare_12_10_23_0_a2[1]
    SLICE_X109Y456       LUT2 (Prop_E6LUT_SLICEL_I0_O)
                                                      0.064     5.822 r  muon_sorter_1/sr_p.sr_2_8.pt_ret_80_RNIDA5P0K_N_4L6_N_2L1/O
                         net (fo=1, routed)           0.206     6.028    muon_sorter_1/pt_ret_80_RNIDA5P0K_N_4L6_N_2L1
    SLICE_X108Y456       LUT6 (Prop_F6LUT_SLICEM_I3_O)
                                                      0.113     6.141 r  muon_sorter_1/sr_p.sr_2_8.pt_ret_80_RNIDA5P0K_N_4L6/O
                         net (fo=1, routed)           0.050     6.191    muon_sorter_1/pt_ret_80_RNIDA5P0K_N_4L6
    SLICE_X108Y456       LUT5 (Prop_G6LUT_SLICEM_I3_O)
                                                      0.064     6.255 r  muon_sorter_1/sr_p.sr_2_8.pt_ret_80_RNIDA5P0K/O
                         net (fo=16, routed)          0.225     6.480    muon_sorter_1/max_pt_4_3[10]
    SLICE_X108Y461       LUT6 (Prop_F6LUT_SLICEM_I4_O)
                                                      0.148     6.628 f  muon_sorter_1/sr_p.sr_2_8.pt_ret_95_RNII0G4QS1/O
                         net (fo=13, routed)          0.186     6.814    muon_sorter_1/pt_compare_13_14_25_0_a2[10]
    SLICE_X108Y459       LUT5 (Prop_C6LUT_SLICEM_I1_O)
                                                      0.147     6.961 r  muon_sorter_1/sr_p.sr_2_1.pt_ret_77_RNIURSK3Q2/O
                         net (fo=14, routed)          0.352     7.313    muon_sorter_1/max_pt_5_0[14]
    SLICE_X108Y461       LUT6 (Prop_H6LUT_SLICEM_I4_O)
                                                      0.151     7.464 r  muon_sorter_1/sr_p.sr_2_8.pt_ret_90_RNIR8MVI42_0/O
                         net (fo=15, routed)          0.325     7.789    muon_sorter_1/max_pt_5[14]
    SLICE_X105Y462       LUT6 (Prop_H6LUT_SLICEL_I4_O)
                                                      0.149     7.938 r  muon_sorter_1/sr_p.sr_2_0.pt_ret_123_RNI1TO6K42/O
                         net (fo=5, routed)           0.518     8.456    muon_sorter_1/pt_compare_14_14_27_0_a2_0_RNIQKUV1[13]
    SLICE_X103Y460       LUT5 (Prop_B6LUT_SLICEL_I4_O)
                                                      0.177     8.633 r  muon_sorter_1/sr_p.sr_2_8.pt_ret_85_RNICAFIQN/O
                         net (fo=1, routed)           0.405     9.038    muon_sorter_1/pt_ret_85_RNICAFIQN
    SLICE_X100Y463       LUT6 (Prop_H6LUT_SLICEM_I1_O)
                                                      0.066     9.104 r  muon_sorter_1/sr_p.sr_2_8.pt_ret_85_RNI7UUL09/O
                         net (fo=5, routed)           0.052     9.156    muon_sorter_1/pt_compare_15_14_29_0_a2[5]
    SLICE_X100Y463       LUT4 (Prop_F6LUT_SLICEM_I0_O)
                                                      0.098     9.254 f  muon_sorter_1/sr_p.sr_2_8.pt_ret_95_RNICDQS9K3_N_5L7/O
                         net (fo=1, routed)           0.126     9.380    muon_sorter_1/pt_ret_95_RNICDQS9K3_N_5L7
    SLICE_X100Y463       LUT6 (Prop_A6LUT_SLICEM_I5_O)
                                                      0.179     9.559 r  muon_sorter_1/sr_p.sr_2_8.pt_ret_95_RNICDQS9K3/O
                         net (fo=10, routed)          0.726    10.285    muon_sorter_1/max_pt_7_3[5]
    SLICE_X96Y460        LUT5 (Prop_E6LUT_SLICEL_I3_O)
                                                      0.064    10.349 f  muon_sorter_1/sr_p.sr_2_3.pt_ret_36_RNI2LQ2JM2/O
                         net (fo=5, routed)           0.522    10.871    muon_sorter_1/N_364
    SLICE_X94Y466        LUT5 (Prop_E6LUT_SLICEL_I4_O)
                                                      0.039    10.910 r  muon_sorter_1/sr_p.sr_2_8.pt_ret_50_RNICHBST91/O
                         net (fo=9, routed)           0.355    11.265    muon_sorter_1/max_pt_8_1[5]
    SLICE_X96Y468        LUT6 (Prop_D6LUT_SLICEL_I5_O)
                                                      0.063    11.328 r  muon_sorter_1/sr_p.sr_2_8.pt_ret_95_RNI5OB5PV2_0/O
                         net (fo=10, routed)          0.416    11.744    muon_sorter_1/max_pt_8_1_0[5]
    SLICE_X98Y469        LUT5 (Prop_E6LUT_SLICEL_I2_O)
                                                      0.148    11.892 r  muon_sorter_1/sr_p.sr_2_8.pt_ret_56_RNIFLS8OU2/O
                         net (fo=3, routed)           0.318    12.210    muon_sorter_1/max_pt_9_0_0[5]
    SLICE_X100Y468       LUT6 (Prop_H6LUT_SLICEM_I5_O)
                                                      0.041    12.251 r  muon_sorter_1/sr_p.sr_2_8.pt_ret_95_RNI3DV9ML2/O
                         net (fo=15, routed)          0.309    12.560    muon_sorter_1/max_pt_9_3[5]
    SLICE_X102Y468       LUT6 (Prop_D6LUT_SLICEM_I5_O)
                                                      0.098    12.658 f  muon_sorter_1/sr_p.sr_2_15.pt_ret_37_RNI7UN2EK3/O
                         net (fo=5, routed)           0.409    13.067    muon_sorter_1/N_636
    SLICE_X104Y469       LUT5 (Prop_B6LUT_SLICEM_I1_O)
                                                      0.100    13.167 r  muon_sorter_1/sr_p.sr_2_8.pt_ret_97_RNI72JO6V/O
                         net (fo=1, routed)           0.362    13.529    muon_sorter_1/pt_ret_97_RNI72JO6V
    SLICE_X106Y469       LUT6 (Prop_H6LUT_SLICEL_I1_O)
                                                      0.040    13.569 r  muon_sorter_1/sr_p.sr_2_1.pt_ret_81_RNIIB2CF73/O
                         net (fo=6, routed)           0.241    13.810    muon_sorter_1/max_pt_10_3[15]
    SLICE_X107Y468       LUT6 (Prop_D6LUT_SLICEM_I5_O)
                                                      0.147    13.957 f  muon_sorter_1/sr_p.sr_2_8.pt_ret_92_RNIMDV2HG3/O
                         net (fo=5, routed)           0.320    14.277    muon_sorter_1/N_842
    SLICE_X109Y472       LUT5 (Prop_G6LUT_SLICEL_I0_O)
                                                      0.114    14.391 r  muon_sorter_1/sr_p.sr_2_1.pt_ret_71_RNIKGHQIP/O
                         net (fo=1, routed)           0.280    14.671    muon_sorter_1/pt_ret_71_RNIKGHQIP
    SLICE_X107Y473       LUT6 (Prop_H6LUT_SLICEM_I1_O)
                                                      0.041    14.712 r  muon_sorter_1/sr_p.sr_2_1.pt_ret_71_RNI036CFM1/O
                         net (fo=13, routed)          0.454    15.166    muon_sorter_1/max_pt_11_3[15]
    SLICE_X104Y473       LUT5 (Prop_F6LUT_SLICEM_I4_O)
                                                      0.098    15.264 f  muon_sorter_1/sr_p.sr_2_8.pt_ret_88_RNIDR58T03/O
                         net (fo=5, routed)           0.334    15.598    muon_sorter_1/N_908
    SLICE_X104Y475       LUT5 (Prop_E6LUT_SLICEM_I0_O)
                                                      0.115    15.713 r  muon_sorter_1/sr_p.sr_2_8.pt_ret_88_RNI5AGLCJ1/O
                         net (fo=13, routed)          0.310    16.023    muon_sorter_1/max_pt_12_1[15]
    SLICE_X105Y476       LUT6 (Prop_B6LUT_SLICEL_I4_O)
                                                      0.040    16.063 r  muon_sorter_1/sr_p.sr_2_8.pt_ret_95_RNI8RAA6T1/O
                         net (fo=15, routed)          0.223    16.286    muon_sorter_1/max_pt_12_1_0[15]
    SLICE_X105Y479       LUT5 (Prop_C6LUT_SLICEL_I4_O)
                                                      0.174    16.460 f  muon_sorter_1/sr_p.sr_1_15.pt_ret_560_RNO_0/O
                         net (fo=1, routed)           0.296    16.756    muon_sorter_1/N_1038
    SLICE_X101Y479       LUT5 (Prop_H6LUT_SLICEL_I4_O)
                                                      0.064    16.820 r  muon_sorter_1/sr_p.sr_1_15.pt_ret_560_RNO/O
                         net (fo=1, routed)           0.060    16.880    muon_sorter_1/max_pt_13_N_4_3
    SLICE_X101Y479       FDRE                                         r  muon_sorter_1/sr_p.sr_1_15.pt_ret_560/D
  -------------------------------------------------------------------    -------------------

                         (clock clk rise edge)        3.125     3.125 r  
    AV33                                              0.000     3.125 r  clk (IN)
                         net (fo=0)                   0.000     3.125    clk_ibuf_iso/I
    AV33                 INBUF (Prop_INBUF_HPIOB_M_PAD_O)
                                                      0.510     3.635 r  clk_ibuf_iso/INBUF_INST/O
                         net (fo=1, routed)           0.000     3.635    clk_ibuf_iso/OUT
    AV33                 IBUFCTRL (Prop_IBUFCTRL_HPIOB_M_I_O)
                                                      0.000     3.635 r  clk_ibuf_iso/IBUFCTRL_INST/O
                         net (fo=1, routed)           0.296     3.931    clk_ibuf_iso
    BUFGCE_X1Y224        BUFGCE (Prop_BUFCE_BUFGCE_I_O)
                                                      0.024     3.955 r  clk_ibuf/O
    X3Y7 (CLOCK_ROOT)    net (fo=4749, routed)        1.932     5.887    muon_sorter_1/clk_c
    SLICE_X101Y479       FDRE                                         r  muon_sorter_1/sr_p.sr_1_15.pt_ret_560/C
                         clock pessimism              0.457     6.344    
                         clock uncertainty           -0.035     6.308    
    SLICE_X101Y479       FDRE (Setup_HFF_SLICEL_C_D)
                                                      0.027     6.335    muon_sorter_1/sr_p.sr_1_15.pt_ret_560
  -------------------------------------------------------------------
                         required time                          6.335    
                         arrival time                         -16.880    
  -------------------------------------------------------------------
                         slack                                -10.545    

Slack (VIOLATED) :        -10.545ns  (required time - arrival time)
  Source:                 muon_sorter_1/sr_p.sr_2_1.pt_ret_68_fast/C
                            (rising edge-triggered cell FDRE clocked by clk  {rise@0.000ns fall@1.563ns period=3.125ns})
  Destination:            muon_sorter_1/sr_p.sr_1_15.pt_ret_560/D
                            (rising edge-triggered cell FDRE clocked by clk  {rise@0.000ns fall@1.563ns period=3.125ns})
  Path Group:             clk
  Path Type:              Setup (Max at Slow Process Corner)
  Requirement:            3.125ns  (clk rise@3.125ns - clk rise@0.000ns)
  Data Path Delay:        13.576ns  (logic 3.215ns (23.682%)  route 10.361ns (76.319%))
  Logic Levels:           32  (LUT2=1 LUT4=2 LUT5=13 LUT6=16)
  Clock Path Skew:        -0.085ns (DCD - SCD + CPR)
    Destination Clock Delay (DCD):    2.762ns = ( 5.887 - 3.125 ) 
    Source Clock Delay      (SCD):    3.304ns
    Clock Pessimism Removal (CPR):    0.457ns
  Clock Uncertainty:      0.035ns  ((TSJ^2 + TIJ^2)^1/2 + DJ) / 2 + PE
    Total System Jitter     (TSJ):    0.071ns
    Total Input Jitter      (TIJ):    0.000ns
    Discrete Jitter          (DJ):    0.000ns
    Phase Error              (PE):    0.000ns
  Clock Net Delay (Source):      2.163ns (routing 1.237ns, distribution 0.926ns)
  Clock Net Delay (Destination): 1.932ns (routing 1.130ns, distribution 0.802ns)

    Location             Delay type                Incr(ns)  Path(ns)    Netlist Resource(s)
  -------------------------------------------------------------------    -------------------
                         (clock clk rise edge)        0.000     0.000 r  
    AV33                                              0.000     0.000 r  clk (IN)
                         net (fo=0)                   0.000     0.000    clk_ibuf_iso/I
    AV33                 INBUF (Prop_INBUF_HPIOB_M_PAD_O)
                                                      0.779     0.779 r  clk_ibuf_iso/INBUF_INST/O
                         net (fo=1, routed)           0.000     0.779    clk_ibuf_iso/OUT
    AV33                 IBUFCTRL (Prop_IBUFCTRL_HPIOB_M_I_O)
                                                      0.000     0.779 r  clk_ibuf_iso/IBUFCTRL_INST/O
                         net (fo=1, routed)           0.334     1.113    clk_ibuf_iso
    BUFGCE_X1Y224        BUFGCE (Prop_BUFCE_BUFGCE_I_O)
                                                      0.028     1.141 r  clk_ibuf/O
    X3Y7 (CLOCK_ROOT)    net (fo=4749, routed)        2.163     3.304    muon_sorter_1/clk_c
    SLICE_X103Y450       FDRE                                         r  muon_sorter_1/sr_p.sr_2_1.pt_ret_68_fast/C
  -------------------------------------------------------------------    -------------------
    SLICE_X103Y450       FDRE (Prop_AFF_SLICEL_C_Q)
                                                      0.096     3.400 r  muon_sorter_1/sr_p.sr_2_1.pt_ret_68_fast/Q
                         net (fo=5, routed)           0.241     3.641    muon_sorter_1/pt_ret_68_fast
    SLICE_X102Y452       LUT4 (Prop_D6LUT_SLICEM_I2_O)
                                                      0.062     3.703 r  muon_sorter_1/sr_p.sr_2_1.pt_ret_68_fast_RNIALR41/O
                         net (fo=14, routed)          0.451     4.154    muon_sorter_1/max_pt_2_2[1]
    SLICE_X102Y453       LUT6 (Prop_D6LUT_SLICEM_I3_O)
                                                      0.062     4.216 r  muon_sorter_1/sr_p.sr_2_1.pt_ret_65_RNI1B323/O
                         net (fo=5, routed)           0.505     4.721    muon_sorter_1/pt_compare_3_15_0_a2[1]
    SLICE_X103Y451       LUT5 (Prop_B6LUT_SLICEL_I1_O)
                                                      0.040     4.761 r  muon_sorter_1/sr_p.sr_2_8.pt_ret_51_RNIV9R3D/O
                         net (fo=1, routed)           0.231     4.992    muon_sorter_1/pt_ret_51_RNIV9R3D
    SLICE_X103Y454       LUT6 (Prop_C6LUT_SLICEL_I1_O)
                                                      0.113     5.105 r  muon_sorter_1/sr_p.sr_2_0.pt_ret_169_RNIR42KU/O
                         net (fo=4, routed)           0.175     5.280    muon_sorter_1/max_pt_3_3[1]
    SLICE_X105Y456       LUT6 (Prop_A6LUT_SLICEL_I5_O)
                                                      0.100     5.380 f  muon_sorter_1/sr_p.sr_2_1.pt_ret_67_RNI6AK252/O
                         net (fo=7, routed)           0.378     5.758    muon_sorter_1/pt_compare_12_10_23_0_a2[1]
    SLICE_X109Y456       LUT2 (Prop_E6LUT_SLICEL_I0_O)
                                                      0.064     5.822 r  muon_sorter_1/sr_p.sr_2_8.pt_ret_80_RNIDA5P0K_N_4L6_N_2L1/O
                         net (fo=1, routed)           0.206     6.028    muon_sorter_1/pt_ret_80_RNIDA5P0K_N_4L6_N_2L1
    SLICE_X108Y456       LUT6 (Prop_F6LUT_SLICEM_I3_O)
                                                      0.113     6.141 r  muon_sorter_1/sr_p.sr_2_8.pt_ret_80_RNIDA5P0K_N_4L6/O
                         net (fo=1, routed)           0.050     6.191    muon_sorter_1/pt_ret_80_RNIDA5P0K_N_4L6
    SLICE_X108Y456       LUT5 (Prop_G6LUT_SLICEM_I3_O)
                                                      0.064     6.255 r  muon_sorter_1/sr_p.sr_2_8.pt_ret_80_RNIDA5P0K/O
                         net (fo=16, routed)          0.225     6.480    muon_sorter_1/max_pt_4_3[10]
    SLICE_X108Y461       LUT6 (Prop_F6LUT_SLICEM_I4_O)
                                                      0.148     6.628 f  muon_sorter_1/sr_p.sr_2_8.pt_ret_95_RNII0G4QS1/O
                         net (fo=13, routed)          0.186     6.814    muon_sorter_1/pt_compare_13_14_25_0_a2[10]
    SLICE_X108Y459       LUT5 (Prop_C6LUT_SLICEM_I1_O)
                                                      0.147     6.961 r  muon_sorter_1/sr_p.sr_2_1.pt_ret_77_RNIURSK3Q2/O
                         net (fo=14, routed)          0.352     7.313    muon_sorter_1/max_pt_5_0[14]
    SLICE_X108Y461       LUT6 (Prop_H6LUT_SLICEM_I4_O)
                                                      0.151     7.464 r  muon_sorter_1/sr_p.sr_2_8.pt_ret_90_RNIR8MVI42_0/O
                         net (fo=15, routed)          0.325     7.789    muon_sorter_1/max_pt_5[14]
    SLICE_X105Y462       LUT6 (Prop_H6LUT_SLICEL_I4_O)
                                                      0.149     7.938 r  muon_sorter_1/sr_p.sr_2_0.pt_ret_123_RNI1TO6K42/O
                         net (fo=5, routed)           0.518     8.456    muon_sorter_1/pt_compare_14_14_27_0_a2_0_RNIQKUV1[13]
    SLICE_X103Y460       LUT5 (Prop_B6LUT_SLICEL_I4_O)
                                                      0.177     8.633 r  muon_sorter_1/sr_p.sr_2_8.pt_ret_85_RNICAFIQN/O
                         net (fo=1, routed)           0.405     9.038    muon_sorter_1/pt_ret_85_RNICAFIQN
    SLICE_X100Y463       LUT6 (Prop_H6LUT_SLICEM_I1_O)
                                                      0.066     9.104 r  muon_sorter_1/sr_p.sr_2_8.pt_ret_85_RNI7UUL09/O
                         net (fo=5, routed)           0.052     9.156    muon_sorter_1/pt_compare_15_14_29_0_a2[5]
    SLICE_X100Y463       LUT4 (Prop_F6LUT_SLICEM_I0_O)
                                                      0.098     9.254 f  muon_sorter_1/sr_p.sr_2_8.pt_ret_95_RNICDQS9K3_N_5L7/O
                         net (fo=1, routed)           0.126     9.380    muon_sorter_1/pt_ret_95_RNICDQS9K3_N_5L7
    SLICE_X100Y463       LUT6 (Prop_A6LUT_SLICEM_I5_O)
                                                      0.179     9.559 r  muon_sorter_1/sr_p.sr_2_8.pt_ret_95_RNICDQS9K3/O
                         net (fo=10, routed)          0.726    10.285    muon_sorter_1/max_pt_7_3[5]
    SLICE_X96Y460        LUT5 (Prop_E6LUT_SLICEL_I3_O)
                                                      0.064    10.349 r  muon_sorter_1/sr_p.sr_2_3.pt_ret_36_RNI2LQ2JM2/O
                         net (fo=5, routed)           0.522    10.871    muon_sorter_1/N_364
    SLICE_X94Y466        LUT5 (Prop_E6LUT_SLICEL_I4_O)
                                                      0.039    10.910 f  muon_sorter_1/sr_p.sr_2_8.pt_ret_50_RNICHBST91/O
                         net (fo=9, routed)           0.355    11.265    muon_sorter_1/max_pt_8_1[5]
    SLICE_X96Y468        LUT6 (Prop_D6LUT_SLICEL_I5_O)
                                                      0.063    11.328 f  muon_sorter_1/sr_p.sr_2_8.pt_ret_95_RNI5OB5PV2_0/O
                         net (fo=10, routed)          0.416    11.744    muon_sorter_1/max_pt_8_1_0[5]
    SLICE_X98Y469        LUT5 (Prop_E6LUT_SLICEL_I2_O)
                                                      0.148    11.892 r  muon_sorter_1/sr_p.sr_2_8.pt_ret_56_RNIFLS8OU2/O
                         net (fo=3, routed)           0.318    12.210    muon_sorter_1/max_pt_9_0_0[5]
    SLICE_X100Y468       LUT6 (Prop_H6LUT_SLICEM_I5_O)
                                                      0.041    12.251 r  muon_sorter_1/sr_p.sr_2_8.pt_ret_95_RNI3DV9ML2/O
                         net (fo=15, routed)          0.309    12.560    muon_sorter_1/max_pt_9_3[5]
    SLICE_X102Y468       LUT6 (Prop_D6LUT_SLICEM_I5_O)
                                                      0.098    12.658 f  muon_sorter_1/sr_p.sr_2_15.pt_ret_37_RNI7UN2EK3/O
                         net (fo=5, routed)           0.409    13.067    muon_sorter_1/N_636
    SLICE_X104Y469       LUT5 (Prop_B6LUT_SLICEM_I1_O)
                                                      0.100    13.167 r  muon_sorter_1/sr_p.sr_2_8.pt_ret_97_RNI72JO6V/O
                         net (fo=1, routed)           0.362    13.529    muon_sorter_1/pt_ret_97_RNI72JO6V
    SLICE_X106Y469       LUT6 (Prop_H6LUT_SLICEL_I1_O)
                                                      0.040    13.569 r  muon_sorter_1/sr_p.sr_2_1.pt_ret_81_RNIIB2CF73/O
                         net (fo=6, routed)           0.241    13.810    muon_sorter_1/max_pt_10_3[15]
    SLICE_X107Y468       LUT6 (Prop_D6LUT_SLICEM_I5_O)
                                                      0.147    13.957 f  muon_sorter_1/sr_p.sr_2_8.pt_ret_92_RNIMDV2HG3/O
                         net (fo=5, routed)           0.320    14.277    muon_sorter_1/N_842
    SLICE_X109Y472       LUT5 (Prop_G6LUT_SLICEL_I0_O)
                                                      0.114    14.391 r  muon_sorter_1/sr_p.sr_2_1.pt_ret_71_RNIKGHQIP/O
                         net (fo=1, routed)           0.280    14.671    muon_sorter_1/pt_ret_71_RNIKGHQIP
    SLICE_X107Y473       LUT6 (Prop_H6LUT_SLICEM_I1_O)
                                                      0.041    14.712 r  muon_sorter_1/sr_p.sr_2_1.pt_ret_71_RNI036CFM1/O
                         net (fo=13, routed)          0.454    15.166    muon_sorter_1/max_pt_11_3[15]
    SLICE_X104Y473       LUT5 (Prop_F6LUT_SLICEM_I4_O)
                                                      0.098    15.264 f  muon_sorter_1/sr_p.sr_2_8.pt_ret_88_RNIDR58T03/O
                         net (fo=5, routed)           0.334    15.598    muon_sorter_1/N_908
    SLICE_X104Y475       LUT5 (Prop_E6LUT_SLICEM_I0_O)
                                                      0.115    15.713 r  muon_sorter_1/sr_p.sr_2_8.pt_ret_88_RNI5AGLCJ1/O
                         net (fo=13, routed)          0.310    16.023    muon_sorter_1/max_pt_12_1[15]
    SLICE_X105Y476       LUT6 (Prop_B6LUT_SLICEL_I4_O)
                                                      0.040    16.063 r  muon_sorter_1/sr_p.sr_2_8.pt_ret_95_RNI8RAA6T1/O
                         net (fo=15, routed)          0.223    16.286    muon_sorter_1/max_pt_12_1_0[15]
    SLICE_X105Y479       LUT5 (Prop_C6LUT_SLICEL_I4_O)
                                                      0.174    16.460 f  muon_sorter_1/sr_p.sr_1_15.pt_ret_560_RNO_0/O
                         net (fo=1, routed)           0.296    16.756    muon_sorter_1/N_1038
    SLICE_X101Y479       LUT5 (Prop_H6LUT_SLICEL_I4_O)
                                                      0.064    16.820 r  muon_sorter_1/sr_p.sr_1_15.pt_ret_560_RNO/O
                         net (fo=1, routed)           0.060    16.880    muon_sorter_1/max_pt_13_N_4_3
    SLICE_X101Y479       FDRE                                         r  muon_sorter_1/sr_p.sr_1_15.pt_ret_560/D
  -------------------------------------------------------------------    -------------------

                         (clock clk rise edge)        3.125     3.125 r  
    AV33                                              0.000     3.125 r  clk (IN)
                         net (fo=0)                   0.000     3.125    clk_ibuf_iso/I
    AV33                 INBUF (Prop_INBUF_HPIOB_M_PAD_O)
                                                      0.510     3.635 r  clk_ibuf_iso/INBUF_INST/O
                         net (fo=1, routed)           0.000     3.635    clk_ibuf_iso/OUT
    AV33                 IBUFCTRL (Prop_IBUFCTRL_HPIOB_M_I_O)
                                                      0.000     3.635 r  clk_ibuf_iso/IBUFCTRL_INST/O
                         net (fo=1, routed)           0.296     3.931    clk_ibuf_iso
    BUFGCE_X1Y224        BUFGCE (Prop_BUFCE_BUFGCE_I_O)
                                                      0.024     3.955 r  clk_ibuf/O
    X3Y7 (CLOCK_ROOT)    net (fo=4749, routed)        1.932     5.887    muon_sorter_1/clk_c
    SLICE_X101Y479       FDRE                                         r  muon_sorter_1/sr_p.sr_1_15.pt_ret_560/C
                         clock pessimism              0.457     6.344    
                         clock uncertainty           -0.035     6.308    
    SLICE_X101Y479       FDRE (Setup_HFF_SLICEL_C_D)
                                                      0.027     6.335    muon_sorter_1/sr_p.sr_1_15.pt_ret_560
  -------------------------------------------------------------------
                         required time                          6.335    
                         arrival time                         -16.880    
  -------------------------------------------------------------------
                         slack                                -10.545    

Slack (VIOLATED) :        -10.545ns  (required time - arrival time)
  Source:                 muon_sorter_1/sr_p.sr_2_1.pt_ret_68_fast/C
                            (rising edge-triggered cell FDRE clocked by clk  {rise@0.000ns fall@1.563ns period=3.125ns})
  Destination:            muon_sorter_1/sr_p.sr_1_15.pt_ret_560/D
                            (rising edge-triggered cell FDRE clocked by clk  {rise@0.000ns fall@1.563ns period=3.125ns})
  Path Group:             clk
  Path Type:              Setup (Max at Slow Process Corner)
  Requirement:            3.125ns  (clk rise@3.125ns - clk rise@0.000ns)
  Data Path Delay:        13.576ns  (logic 3.215ns (23.682%)  route 10.361ns (76.319%))
  Logic Levels:           32  (LUT2=1 LUT4=2 LUT5=13 LUT6=16)
  Clock Path Skew:        -0.085ns (DCD - SCD + CPR)
    Destination Clock Delay (DCD):    2.762ns = ( 5.887 - 3.125 ) 
    Source Clock Delay      (SCD):    3.304ns
    Clock Pessimism Removal (CPR):    0.457ns
  Clock Uncertainty:      0.035ns  ((TSJ^2 + TIJ^2)^1/2 + DJ) / 2 + PE
    Total System Jitter     (TSJ):    0.071ns
    Total Input Jitter      (TIJ):    0.000ns
    Discrete Jitter          (DJ):    0.000ns
    Phase Error              (PE):    0.000ns
  Clock Net Delay (Source):      2.163ns (routing 1.237ns, distribution 0.926ns)
  Clock Net Delay (Destination): 1.932ns (routing 1.130ns, distribution 0.802ns)

    Location             Delay type                Incr(ns)  Path(ns)    Netlist Resource(s)
  -------------------------------------------------------------------    -------------------
                         (clock clk rise edge)        0.000     0.000 r  
    AV33                                              0.000     0.000 r  clk (IN)
                         net (fo=0)                   0.000     0.000    clk_ibuf_iso/I
    AV33                 INBUF (Prop_INBUF_HPIOB_M_PAD_O)
                                                      0.779     0.779 r  clk_ibuf_iso/INBUF_INST/O
                         net (fo=1, routed)           0.000     0.779    clk_ibuf_iso/OUT
    AV33                 IBUFCTRL (Prop_IBUFCTRL_HPIOB_M_I_O)
                                                      0.000     0.779 r  clk_ibuf_iso/IBUFCTRL_INST/O
                         net (fo=1, routed)           0.334     1.113    clk_ibuf_iso
    BUFGCE_X1Y224        BUFGCE (Prop_BUFCE_BUFGCE_I_O)
                                                      0.028     1.141 r  clk_ibuf/O
    X3Y7 (CLOCK_ROOT)    net (fo=4749, routed)        2.163     3.304    muon_sorter_1/clk_c
    SLICE_X103Y450       FDRE                                         r  muon_sorter_1/sr_p.sr_2_1.pt_ret_68_fast/C
  -------------------------------------------------------------------    -------------------
    SLICE_X103Y450       FDRE (Prop_AFF_SLICEL_C_Q)
                                                      0.096     3.400 r  muon_sorter_1/sr_p.sr_2_1.pt_ret_68_fast/Q
                         net (fo=5, routed)           0.241     3.641    muon_sorter_1/pt_ret_68_fast
    SLICE_X102Y452       LUT4 (Prop_D6LUT_SLICEM_I2_O)
                                                      0.062     3.703 r  muon_sorter_1/sr_p.sr_2_1.pt_ret_68_fast_RNIALR41/O
                         net (fo=14, routed)          0.451     4.154    muon_sorter_1/max_pt_2_2[1]
    SLICE_X102Y453       LUT6 (Prop_D6LUT_SLICEM_I3_O)
                                                      0.062     4.216 r  muon_sorter_1/sr_p.sr_2_1.pt_ret_65_RNI1B323/O
                         net (fo=5, routed)           0.505     4.721    muon_sorter_1/pt_compare_3_15_0_a2[1]
    SLICE_X103Y451       LUT5 (Prop_B6LUT_SLICEL_I1_O)
                                                      0.040     4.761 r  muon_sorter_1/sr_p.sr_2_8.pt_ret_51_RNIV9R3D/O
                         net (fo=1, routed)           0.231     4.992    muon_sorter_1/pt_ret_51_RNIV9R3D
    SLICE_X103Y454       LUT6 (Prop_C6LUT_SLICEL_I1_O)
                                                      0.113     5.105 r  muon_sorter_1/sr_p.sr_2_0.pt_ret_169_RNIR42KU/O
                         net (fo=4, routed)           0.175     5.280    muon_sorter_1/max_pt_3_3[1]
    SLICE_X105Y456       LUT6 (Prop_A6LUT_SLICEL_I5_O)
                                                      0.100     5.380 f  muon_sorter_1/sr_p.sr_2_1.pt_ret_67_RNI6AK252/O
                         net (fo=7, routed)           0.378     5.758    muon_sorter_1/pt_compare_12_10_23_0_a2[1]
    SLICE_X109Y456       LUT2 (Prop_E6LUT_SLICEL_I0_O)
                                                      0.064     5.822 r  muon_sorter_1/sr_p.sr_2_8.pt_ret_80_RNIDA5P0K_N_4L6_N_2L1/O
                         net (fo=1, routed)           0.206     6.028    muon_sorter_1/pt_ret_80_RNIDA5P0K_N_4L6_N_2L1
    SLICE_X108Y456       LUT6 (Prop_F6LUT_SLICEM_I3_O)
                                                      0.113     6.141 r  muon_sorter_1/sr_p.sr_2_8.pt_ret_80_RNIDA5P0K_N_4L6/O
                         net (fo=1, routed)           0.050     6.191    muon_sorter_1/pt_ret_80_RNIDA5P0K_N_4L6
    SLICE_X108Y456       LUT5 (Prop_G6LUT_SLICEM_I3_O)
                                                      0.064     6.255 r  muon_sorter_1/sr_p.sr_2_8.pt_ret_80_RNIDA5P0K/O
                         net (fo=16, routed)          0.225     6.480    muon_sorter_1/max_pt_4_3[10]
    SLICE_X108Y461       LUT6 (Prop_F6LUT_SLICEM_I4_O)
                                                      0.148     6.628 f  muon_sorter_1/sr_p.sr_2_8.pt_ret_95_RNII0G4QS1/O
                         net (fo=13, routed)          0.186     6.814    muon_sorter_1/pt_compare_13_14_25_0_a2[10]
    SLICE_X108Y459       LUT5 (Prop_C6LUT_SLICEM_I1_O)
                                                      0.147     6.961 r  muon_sorter_1/sr_p.sr_2_1.pt_ret_77_RNIURSK3Q2/O
                         net (fo=14, routed)          0.352     7.313    muon_sorter_1/max_pt_5_0[14]
    SLICE_X108Y461       LUT6 (Prop_H6LUT_SLICEM_I4_O)
                                                      0.151     7.464 r  muon_sorter_1/sr_p.sr_2_8.pt_ret_90_RNIR8MVI42_0/O
                         net (fo=15, routed)          0.325     7.789    muon_sorter_1/max_pt_5[14]
    SLICE_X105Y462       LUT6 (Prop_H6LUT_SLICEL_I4_O)
                                                      0.149     7.938 r  muon_sorter_1/sr_p.sr_2_0.pt_ret_123_RNI1TO6K42/O
                         net (fo=5, routed)           0.518     8.456    muon_sorter_1/pt_compare_14_14_27_0_a2_0_RNIQKUV1[13]
    SLICE_X103Y460       LUT5 (Prop_B6LUT_SLICEL_I4_O)
                                                      0.177     8.633 r  muon_sorter_1/sr_p.sr_2_8.pt_ret_85_RNICAFIQN/O
                         net (fo=1, routed)           0.405     9.038    muon_sorter_1/pt_ret_85_RNICAFIQN
    SLICE_X100Y463       LUT6 (Prop_H6LUT_SLICEM_I1_O)
                                                      0.066     9.104 r  muon_sorter_1/sr_p.sr_2_8.pt_ret_85_RNI7UUL09/O
                         net (fo=5, routed)           0.052     9.156    muon_sorter_1/pt_compare_15_14_29_0_a2[5]
    SLICE_X100Y463       LUT4 (Prop_F6LUT_SLICEM_I0_O)
                                                      0.098     9.254 f  muon_sorter_1/sr_p.sr_2_8.pt_ret_95_RNICDQS9K3_N_5L7/O
                         net (fo=1, routed)           0.126     9.380    muon_sorter_1/pt_ret_95_RNICDQS9K3_N_5L7
    SLICE_X100Y463       LUT6 (Prop_A6LUT_SLICEM_I5_O)
                                                      0.179     9.559 r  muon_sorter_1/sr_p.sr_2_8.pt_ret_95_RNICDQS9K3/O
                         net (fo=10, routed)          0.726    10.285    muon_sorter_1/max_pt_7_3[5]
    SLICE_X96Y460        LUT5 (Prop_E6LUT_SLICEL_I3_O)
                                                      0.064    10.349 f  muon_sorter_1/sr_p.sr_2_3.pt_ret_36_RNI2LQ2JM2/O
                         net (fo=5, routed)           0.522    10.871    muon_sorter_1/N_364
    SLICE_X94Y466        LUT5 (Prop_E6LUT_SLICEL_I4_O)
                                                      0.039    10.910 r  muon_sorter_1/sr_p.sr_2_8.pt_ret_50_RNICHBST91/O
                         net (fo=9, routed)           0.355    11.265    muon_sorter_1/max_pt_8_1[5]
    SLICE_X96Y468        LUT6 (Prop_D6LUT_SLICEL_I5_O)
                                                      0.063    11.328 r  muon_sorter_1/sr_p.sr_2_8.pt_ret_95_RNI5OB5PV2_0/O
                         net (fo=10, routed)          0.416    11.744    muon_sorter_1/max_pt_8_1_0[5]
    SLICE_X98Y469        LUT5 (Prop_E6LUT_SLICEL_I2_O)
                                                      0.148    11.892 r  muon_sorter_1/sr_p.sr_2_8.pt_ret_56_RNIFLS8OU2/O
                         net (fo=3, routed)           0.318    12.210    muon_sorter_1/max_pt_9_0_0[5]
    SLICE_X100Y468       LUT6 (Prop_H6LUT_SLICEM_I5_O)
                                                      0.041    12.251 r  muon_sorter_1/sr_p.sr_2_8.pt_ret_95_RNI3DV9ML2/O
                         net (fo=15, routed)          0.309    12.560    muon_sorter_1/max_pt_9_3[5]
    SLICE_X102Y468       LUT6 (Prop_D6LUT_SLICEM_I5_O)
                                                      0.098    12.658 r  muon_sorter_1/sr_p.sr_2_15.pt_ret_37_RNI7UN2EK3/O
                         net (fo=5, routed)           0.409    13.067    muon_sorter_1/N_636
    SLICE_X104Y469       LUT5 (Prop_B6LUT_SLICEM_I1_O)
                                                      0.100    13.167 f  muon_sorter_1/sr_p.sr_2_8.pt_ret_97_RNI72JO6V/O
                         net (fo=1, routed)           0.362    13.529    muon_sorter_1/pt_ret_97_RNI72JO6V
    SLICE_X106Y469       LUT6 (Prop_H6LUT_SLICEL_I1_O)
                                                      0.040    13.569 f  muon_sorter_1/sr_p.sr_2_1.pt_ret_81_RNIIB2CF73/O
                         net (fo=6, routed)           0.241    13.810    muon_sorter_1/max_pt_10_3[15]
    SLICE_X107Y468       LUT6 (Prop_D6LUT_SLICEM_I5_O)
                                                      0.147    13.957 f  muon_sorter_1/sr_p.sr_2_8.pt_ret_92_RNIMDV2HG3/O
                         net (fo=5, routed)           0.320    14.277    muon_sorter_1/N_842
    SLICE_X109Y472       LUT5 (Prop_G6LUT_SLICEL_I0_O)
                                                      0.114    14.391 r  muon_sorter_1/sr_p.sr_2_1.pt_ret_71_RNIKGHQIP/O
                         net (fo=1, routed)           0.280    14.671    muon_sorter_1/pt_ret_71_RNIKGHQIP
    SLICE_X107Y473       LUT6 (Prop_H6LUT_SLICEM_I1_O)
                                                      0.041    14.712 r  muon_sorter_1/sr_p.sr_2_1.pt_ret_71_RNI036CFM1/O
                         net (fo=13, routed)          0.454    15.166    muon_sorter_1/max_pt_11_3[15]
    SLICE_X104Y473       LUT5 (Prop_F6LUT_SLICEM_I4_O)
                                                      0.098    15.264 f  muon_sorter_1/sr_p.sr_2_8.pt_ret_88_RNIDR58T03/O
                         net (fo=5, routed)           0.334    15.598    muon_sorter_1/N_908
    SLICE_X104Y475       LUT5 (Prop_E6LUT_SLICEM_I0_O)
                                                      0.115    15.713 r  muon_sorter_1/sr_p.sr_2_8.pt_ret_88_RNI5AGLCJ1/O
                         net (fo=13, routed)          0.310    16.023    muon_sorter_1/max_pt_12_1[15]
    SLICE_X105Y476       LUT6 (Prop_B6LUT_SLICEL_I4_O)
                                                      0.040    16.063 r  muon_sorter_1/sr_p.sr_2_8.pt_ret_95_RNI8RAA6T1/O
                         net (fo=15, routed)          0.223    16.286    muon_sorter_1/max_pt_12_1_0[15]
    SLICE_X105Y479       LUT5 (Prop_C6LUT_SLICEL_I4_O)
                                                      0.174    16.460 f  muon_sorter_1/sr_p.sr_1_15.pt_ret_560_RNO_0/O
                         net (fo=1, routed)           0.296    16.756    muon_sorter_1/N_1038
    SLICE_X101Y479       LUT5 (Prop_H6LUT_SLICEL_I4_O)
                                                      0.064    16.820 r  muon_sorter_1/sr_p.sr_1_15.pt_ret_560_RNO/O
                         net (fo=1, routed)           0.060    16.880    muon_sorter_1/max_pt_13_N_4_3
    SLICE_X101Y479       FDRE                                         r  muon_sorter_1/sr_p.sr_1_15.pt_ret_560/D
  -------------------------------------------------------------------    -------------------

                         (clock clk rise edge)        3.125     3.125 r  
    AV33                                              0.000     3.125 r  clk (IN)
                         net (fo=0)                   0.000     3.125    clk_ibuf_iso/I
    AV33                 INBUF (Prop_INBUF_HPIOB_M_PAD_O)
                                                      0.510     3.635 r  clk_ibuf_iso/INBUF_INST/O
                         net (fo=1, routed)           0.000     3.635    clk_ibuf_iso/OUT
    AV33                 IBUFCTRL (Prop_IBUFCTRL_HPIOB_M_I_O)
                                                      0.000     3.635 r  clk_ibuf_iso/IBUFCTRL_INST/O
                         net (fo=1, routed)           0.296     3.931    clk_ibuf_iso
    BUFGCE_X1Y224        BUFGCE (Prop_BUFCE_BUFGCE_I_O)
                                                      0.024     3.955 r  clk_ibuf/O
    X3Y7 (CLOCK_ROOT)    net (fo=4749, routed)        1.932     5.887    muon_sorter_1/clk_c
    SLICE_X101Y479       FDRE                                         r  muon_sorter_1/sr_p.sr_1_15.pt_ret_560/C
                         clock pessimism              0.457     6.344    
                         clock uncertainty           -0.035     6.308    
    SLICE_X101Y479       FDRE (Setup_HFF_SLICEL_C_D)
                                                      0.027     6.335    muon_sorter_1/sr_p.sr_1_15.pt_ret_560
  -------------------------------------------------------------------
                         required time                          6.335    
                         arrival time                         -16.880    
  -------------------------------------------------------------------
                         slack                                -10.545    

Slack (VIOLATED) :        -10.545ns  (required time - arrival time)
  Source:                 muon_sorter_1/sr_p.sr_2_1.pt_ret_68_fast/C
                            (rising edge-triggered cell FDRE clocked by clk  {rise@0.000ns fall@1.563ns period=3.125ns})
  Destination:            muon_sorter_1/sr_p.sr_1_15.pt_ret_560/D
                            (rising edge-triggered cell FDRE clocked by clk  {rise@0.000ns fall@1.563ns period=3.125ns})
  Path Group:             clk
  Path Type:              Setup (Max at Slow Process Corner)
  Requirement:            3.125ns  (clk rise@3.125ns - clk rise@0.000ns)
  Data Path Delay:        13.576ns  (logic 3.215ns (23.682%)  route 10.361ns (76.319%))
  Logic Levels:           32  (LUT2=1 LUT4=2 LUT5=13 LUT6=16)
  Clock Path Skew:        -0.085ns (DCD - SCD + CPR)
    Destination Clock Delay (DCD):    2.762ns = ( 5.887 - 3.125 ) 
    Source Clock Delay      (SCD):    3.304ns
    Clock Pessimism Removal (CPR):    0.457ns
  Clock Uncertainty:      0.035ns  ((TSJ^2 + TIJ^2)^1/2 + DJ) / 2 + PE
    Total System Jitter     (TSJ):    0.071ns
    Total Input Jitter      (TIJ):    0.000ns
    Discrete Jitter          (DJ):    0.000ns
    Phase Error              (PE):    0.000ns
  Clock Net Delay (Source):      2.163ns (routing 1.237ns, distribution 0.926ns)
  Clock Net Delay (Destination): 1.932ns (routing 1.130ns, distribution 0.802ns)

    Location             Delay type                Incr(ns)  Path(ns)    Netlist Resource(s)
  -------------------------------------------------------------------    -------------------
                         (clock clk rise edge)        0.000     0.000 r  
    AV33                                              0.000     0.000 r  clk (IN)
                         net (fo=0)                   0.000     0.000    clk_ibuf_iso/I
    AV33                 INBUF (Prop_INBUF_HPIOB_M_PAD_O)
                                                      0.779     0.779 r  clk_ibuf_iso/INBUF_INST/O
                         net (fo=1, routed)           0.000     0.779    clk_ibuf_iso/OUT
    AV33                 IBUFCTRL (Prop_IBUFCTRL_HPIOB_M_I_O)
                                                      0.000     0.779 r  clk_ibuf_iso/IBUFCTRL_INST/O
                         net (fo=1, routed)           0.334     1.113    clk_ibuf_iso
    BUFGCE_X1Y224        BUFGCE (Prop_BUFCE_BUFGCE_I_O)
                                                      0.028     1.141 r  clk_ibuf/O
    X3Y7 (CLOCK_ROOT)    net (fo=4749, routed)        2.163     3.304    muon_sorter_1/clk_c
    SLICE_X103Y450       FDRE                                         r  muon_sorter_1/sr_p.sr_2_1.pt_ret_68_fast/C
  -------------------------------------------------------------------    -------------------
    SLICE_X103Y450       FDRE (Prop_AFF_SLICEL_C_Q)
                                                      0.096     3.400 r  muon_sorter_1/sr_p.sr_2_1.pt_ret_68_fast/Q
                         net (fo=5, routed)           0.241     3.641    muon_sorter_1/pt_ret_68_fast
    SLICE_X102Y452       LUT4 (Prop_D6LUT_SLICEM_I2_O)
                                                      0.062     3.703 r  muon_sorter_1/sr_p.sr_2_1.pt_ret_68_fast_RNIALR41/O
                         net (fo=14, routed)          0.451     4.154    muon_sorter_1/max_pt_2_2[1]
    SLICE_X102Y453       LUT6 (Prop_D6LUT_SLICEM_I3_O)
                                                      0.062     4.216 r  muon_sorter_1/sr_p.sr_2_1.pt_ret_65_RNI1B323/O
                         net (fo=5, routed)           0.505     4.721    muon_sorter_1/pt_compare_3_15_0_a2[1]
    SLICE_X103Y451       LUT5 (Prop_B6LUT_SLICEL_I1_O)
                                                      0.040     4.761 r  muon_sorter_1/sr_p.sr_2_8.pt_ret_51_RNIV9R3D/O
                         net (fo=1, routed)           0.231     4.992    muon_sorter_1/pt_ret_51_RNIV9R3D
    SLICE_X103Y454       LUT6 (Prop_C6LUT_SLICEL_I1_O)
                                                      0.113     5.105 r  muon_sorter_1/sr_p.sr_2_0.pt_ret_169_RNIR42KU/O
                         net (fo=4, routed)           0.175     5.280    muon_sorter_1/max_pt_3_3[1]
    SLICE_X105Y456       LUT6 (Prop_A6LUT_SLICEL_I5_O)
                                                      0.100     5.380 f  muon_sorter_1/sr_p.sr_2_1.pt_ret_67_RNI6AK252/O
                         net (fo=7, routed)           0.378     5.758    muon_sorter_1/pt_compare_12_10_23_0_a2[1]
    SLICE_X109Y456       LUT2 (Prop_E6LUT_SLICEL_I0_O)
                                                      0.064     5.822 r  muon_sorter_1/sr_p.sr_2_8.pt_ret_80_RNIDA5P0K_N_4L6_N_2L1/O
                         net (fo=1, routed)           0.206     6.028    muon_sorter_1/pt_ret_80_RNIDA5P0K_N_4L6_N_2L1
    SLICE_X108Y456       LUT6 (Prop_F6LUT_SLICEM_I3_O)
                                                      0.113     6.141 r  muon_sorter_1/sr_p.sr_2_8.pt_ret_80_RNIDA5P0K_N_4L6/O
                         net (fo=1, routed)           0.050     6.191    muon_sorter_1/pt_ret_80_RNIDA5P0K_N_4L6
    SLICE_X108Y456       LUT5 (Prop_G6LUT_SLICEM_I3_O)
                                                      0.064     6.255 r  muon_sorter_1/sr_p.sr_2_8.pt_ret_80_RNIDA5P0K/O
                         net (fo=16, routed)          0.225     6.480    muon_sorter_1/max_pt_4_3[10]
    SLICE_X108Y461       LUT6 (Prop_F6LUT_SLICEM_I4_O)
                                                      0.148     6.628 f  muon_sorter_1/sr_p.sr_2_8.pt_ret_95_RNII0G4QS1/O
                         net (fo=13, routed)          0.186     6.814    muon_sorter_1/pt_compare_13_14_25_0_a2[10]
    SLICE_X108Y459       LUT5 (Prop_C6LUT_SLICEM_I1_O)
                                                      0.147     6.961 r  muon_sorter_1/sr_p.sr_2_1.pt_ret_77_RNIURSK3Q2/O
                         net (fo=14, routed)          0.352     7.313    muon_sorter_1/max_pt_5_0[14]
    SLICE_X108Y461       LUT6 (Prop_H6LUT_SLICEM_I4_O)
                                                      0.151     7.464 r  muon_sorter_1/sr_p.sr_2_8.pt_ret_90_RNIR8MVI42_0/O
                         net (fo=15, routed)          0.325     7.789    muon_sorter_1/max_pt_5[14]
    SLICE_X105Y462       LUT6 (Prop_H6LUT_SLICEL_I4_O)
                                                      0.149     7.938 r  muon_sorter_1/sr_p.sr_2_0.pt_ret_123_RNI1TO6K42/O
                         net (fo=5, routed)           0.518     8.456    muon_sorter_1/pt_compare_14_14_27_0_a2_0_RNIQKUV1[13]
    SLICE_X103Y460       LUT5 (Prop_B6LUT_SLICEL_I4_O)
                                                      0.177     8.633 r  muon_sorter_1/sr_p.sr_2_8.pt_ret_85_RNICAFIQN/O
                         net (fo=1, routed)           0.405     9.038    muon_sorter_1/pt_ret_85_RNICAFIQN
    SLICE_X100Y463       LUT6 (Prop_H6LUT_SLICEM_I1_O)
                                                      0.066     9.104 r  muon_sorter_1/sr_p.sr_2_8.pt_ret_85_RNI7UUL09/O
                         net (fo=5, routed)           0.052     9.156    muon_sorter_1/pt_compare_15_14_29_0_a2[5]
    SLICE_X100Y463       LUT4 (Prop_F6LUT_SLICEM_I0_O)
                                                      0.098     9.254 f  muon_sorter_1/sr_p.sr_2_8.pt_ret_95_RNICDQS9K3_N_5L7/O
                         net (fo=1, routed)           0.126     9.380    muon_sorter_1/pt_ret_95_RNICDQS9K3_N_5L7
    SLICE_X100Y463       LUT6 (Prop_A6LUT_SLICEM_I5_O)
                                                      0.179     9.559 r  muon_sorter_1/sr_p.sr_2_8.pt_ret_95_RNICDQS9K3/O
                         net (fo=10, routed)          0.726    10.285    muon_sorter_1/max_pt_7_3[5]
    SLICE_X96Y460        LUT5 (Prop_E6LUT_SLICEL_I3_O)
                                                      0.064    10.349 r  muon_sorter_1/sr_p.sr_2_3.pt_ret_36_RNI2LQ2JM2/O
                         net (fo=5, routed)           0.522    10.871    muon_sorter_1/N_364
    SLICE_X94Y466        LUT5 (Prop_E6LUT_SLICEL_I4_O)
                                                      0.039    10.910 f  muon_sorter_1/sr_p.sr_2_8.pt_ret_50_RNICHBST91/O
                         net (fo=9, routed)           0.355    11.265    muon_sorter_1/max_pt_8_1[5]
    SLICE_X96Y468        LUT6 (Prop_D6LUT_SLICEL_I5_O)
                                                      0.063    11.328 f  muon_sorter_1/sr_p.sr_2_8.pt_ret_95_RNI5OB5PV2_0/O
                         net (fo=10, routed)          0.416    11.744    muon_sorter_1/max_pt_8_1_0[5]
    SLICE_X98Y469        LUT5 (Prop_E6LUT_SLICEL_I2_O)
                                                      0.148    11.892 r  muon_sorter_1/sr_p.sr_2_8.pt_ret_56_RNIFLS8OU2/O
                         net (fo=3, routed)           0.318    12.210    muon_sorter_1/max_pt_9_0_0[5]
    SLICE_X100Y468       LUT6 (Prop_H6LUT_SLICEM_I5_O)
                                                      0.041    12.251 r  muon_sorter_1/sr_p.sr_2_8.pt_ret_95_RNI3DV9ML2/O
                         net (fo=15, routed)          0.309    12.560    muon_sorter_1/max_pt_9_3[5]
    SLICE_X102Y468       LUT6 (Prop_D6LUT_SLICEM_I5_O)
                                                      0.098    12.658 r  muon_sorter_1/sr_p.sr_2_15.pt_ret_37_RNI7UN2EK3/O
                         net (fo=5, routed)           0.409    13.067    muon_sorter_1/N_636
    SLICE_X104Y469       LUT5 (Prop_B6LUT_SLICEM_I1_O)
                                                      0.100    13.167 f  muon_sorter_1/sr_p.sr_2_8.pt_ret_97_RNI72JO6V/O
                         net (fo=1, routed)           0.362    13.529    muon_sorter_1/pt_ret_97_RNI72JO6V
    SLICE_X106Y469       LUT6 (Prop_H6LUT_SLICEL_I1_O)
                                                      0.040    13.569 f  muon_sorter_1/sr_p.sr_2_1.pt_ret_81_RNIIB2CF73/O
                         net (fo=6, routed)           0.241    13.810    muon_sorter_1/max_pt_10_3[15]
    SLICE_X107Y468       LUT6 (Prop_D6LUT_SLICEM_I5_O)
                                                      0.147    13.957 f  muon_sorter_1/sr_p.sr_2_8.pt_ret_92_RNIMDV2HG3/O
                         net (fo=5, routed)           0.320    14.277    muon_sorter_1/N_842
    SLICE_X109Y472       LUT5 (Prop_G6LUT_SLICEL_I0_O)
                                                      0.114    14.391 r  muon_sorter_1/sr_p.sr_2_1.pt_ret_71_RNIKGHQIP/O
                         net (fo=1, routed)           0.280    14.671    muon_sorter_1/pt_ret_71_RNIKGHQIP
    SLICE_X107Y473       LUT6 (Prop_H6LUT_SLICEM_I1_O)
                                                      0.041    14.712 r  muon_sorter_1/sr_p.sr_2_1.pt_ret_71_RNI036CFM1/O
                         net (fo=13, routed)          0.454    15.166    muon_sorter_1/max_pt_11_3[15]
    SLICE_X104Y473       LUT5 (Prop_F6LUT_SLICEM_I4_O)
                                                      0.098    15.264 f  muon_sorter_1/sr_p.sr_2_8.pt_ret_88_RNIDR58T03/O
                         net (fo=5, routed)           0.334    15.598    muon_sorter_1/N_908
    SLICE_X104Y475       LUT5 (Prop_E6LUT_SLICEM_I0_O)
                                                      0.115    15.713 r  muon_sorter_1/sr_p.sr_2_8.pt_ret_88_RNI5AGLCJ1/O
                         net (fo=13, routed)          0.310    16.023    muon_sorter_1/max_pt_12_1[15]
    SLICE_X105Y476       LUT6 (Prop_B6LUT_SLICEL_I4_O)
                                                      0.040    16.063 r  muon_sorter_1/sr_p.sr_2_8.pt_ret_95_RNI8RAA6T1/O
                         net (fo=15, routed)          0.223    16.286    muon_sorter_1/max_pt_12_1_0[15]
    SLICE_X105Y479       LUT5 (Prop_C6LUT_SLICEL_I4_O)
                                                      0.174    16.460 f  muon_sorter_1/sr_p.sr_1_15.pt_ret_560_RNO_0/O
                         net (fo=1, routed)           0.296    16.756    muon_sorter_1/N_1038
    SLICE_X101Y479       LUT5 (Prop_H6LUT_SLICEL_I4_O)
                                                      0.064    16.820 r  muon_sorter_1/sr_p.sr_1_15.pt_ret_560_RNO/O
                         net (fo=1, routed)           0.060    16.880    muon_sorter_1/max_pt_13_N_4_3
    SLICE_X101Y479       FDRE                                         r  muon_sorter_1/sr_p.sr_1_15.pt_ret_560/D
  -------------------------------------------------------------------    -------------------

                         (clock clk rise edge)        3.125     3.125 r  
    AV33                                              0.000     3.125 r  clk (IN)
                         net (fo=0)                   0.000     3.125    clk_ibuf_iso/I
    AV33                 INBUF (Prop_INBUF_HPIOB_M_PAD_O)
                                                      0.510     3.635 r  clk_ibuf_iso/INBUF_INST/O
                         net (fo=1, routed)           0.000     3.635    clk_ibuf_iso/OUT
    AV33                 IBUFCTRL (Prop_IBUFCTRL_HPIOB_M_I_O)
                                                      0.000     3.635 r  clk_ibuf_iso/IBUFCTRL_INST/O
                         net (fo=1, routed)           0.296     3.931    clk_ibuf_iso
    BUFGCE_X1Y224        BUFGCE (Prop_BUFCE_BUFGCE_I_O)
                                                      0.024     3.955 r  clk_ibuf/O
    X3Y7 (CLOCK_ROOT)    net (fo=4749, routed)        1.932     5.887    muon_sorter_1/clk_c
    SLICE_X101Y479       FDRE                                         r  muon_sorter_1/sr_p.sr_1_15.pt_ret_560/C
                         clock pessimism              0.457     6.344    
                         clock uncertainty           -0.035     6.308    
    SLICE_X101Y479       FDRE (Setup_HFF_SLICEL_C_D)
                                                      0.027     6.335    muon_sorter_1/sr_p.sr_1_15.pt_ret_560
  -------------------------------------------------------------------
                         required time                          6.335    
                         arrival time                         -16.880    
  -------------------------------------------------------------------
                         slack                                -10.545    

Slack (VIOLATED) :        -10.545ns  (required time - arrival time)
  Source:                 muon_sorter_1/sr_p.sr_2_1.pt_ret_68_fast/C
                            (rising edge-triggered cell FDRE clocked by clk  {rise@0.000ns fall@1.563ns period=3.125ns})
  Destination:            muon_sorter_1/sr_p.sr_1_15.pt_ret_560/D
                            (rising edge-triggered cell FDRE clocked by clk  {rise@0.000ns fall@1.563ns period=3.125ns})
  Path Group:             clk
  Path Type:              Setup (Max at Slow Process Corner)
  Requirement:            3.125ns  (clk rise@3.125ns - clk rise@0.000ns)
  Data Path Delay:        13.576ns  (logic 3.215ns (23.682%)  route 10.361ns (76.319%))
  Logic Levels:           32  (LUT2=1 LUT4=2 LUT5=13 LUT6=16)
  Clock Path Skew:        -0.085ns (DCD - SCD + CPR)
    Destination Clock Delay (DCD):    2.762ns = ( 5.887 - 3.125 ) 
    Source Clock Delay      (SCD):    3.304ns
    Clock Pessimism Removal (CPR):    0.457ns
  Clock Uncertainty:      0.035ns  ((TSJ^2 + TIJ^2)^1/2 + DJ) / 2 + PE
    Total System Jitter     (TSJ):    0.071ns
    Total Input Jitter      (TIJ):    0.000ns
    Discrete Jitter          (DJ):    0.000ns
    Phase Error              (PE):    0.000ns
  Clock Net Delay (Source):      2.163ns (routing 1.237ns, distribution 0.926ns)
  Clock Net Delay (Destination): 1.932ns (routing 1.130ns, distribution 0.802ns)

    Location             Delay type                Incr(ns)  Path(ns)    Netlist Resource(s)
  -------------------------------------------------------------------    -------------------
                         (clock clk rise edge)        0.000     0.000 r  
    AV33                                              0.000     0.000 r  clk (IN)
                         net (fo=0)                   0.000     0.000    clk_ibuf_iso/I
    AV33                 INBUF (Prop_INBUF_HPIOB_M_PAD_O)
                                                      0.779     0.779 r  clk_ibuf_iso/INBUF_INST/O
                         net (fo=1, routed)           0.000     0.779    clk_ibuf_iso/OUT
    AV33                 IBUFCTRL (Prop_IBUFCTRL_HPIOB_M_I_O)
                                                      0.000     0.779 r  clk_ibuf_iso/IBUFCTRL_INST/O
                         net (fo=1, routed)           0.334     1.113    clk_ibuf_iso
    BUFGCE_X1Y224        BUFGCE (Prop_BUFCE_BUFGCE_I_O)
                                                      0.028     1.141 r  clk_ibuf/O
    X3Y7 (CLOCK_ROOT)    net (fo=4749, routed)        2.163     3.304    muon_sorter_1/clk_c
    SLICE_X103Y450       FDRE                                         r  muon_sorter_1/sr_p.sr_2_1.pt_ret_68_fast/C
  -------------------------------------------------------------------    -------------------
    SLICE_X103Y450       FDRE (Prop_AFF_SLICEL_C_Q)
                                                      0.096     3.400 r  muon_sorter_1/sr_p.sr_2_1.pt_ret_68_fast/Q
                         net (fo=5, routed)           0.241     3.641    muon_sorter_1/pt_ret_68_fast
    SLICE_X102Y452       LUT4 (Prop_D6LUT_SLICEM_I2_O)
                                                      0.062     3.703 r  muon_sorter_1/sr_p.sr_2_1.pt_ret_68_fast_RNIALR41/O
                         net (fo=14, routed)          0.451     4.154    muon_sorter_1/max_pt_2_2[1]
    SLICE_X102Y453       LUT6 (Prop_D6LUT_SLICEM_I3_O)
                                                      0.062     4.216 r  muon_sorter_1/sr_p.sr_2_1.pt_ret_65_RNI1B323/O
                         net (fo=5, routed)           0.505     4.721    muon_sorter_1/pt_compare_3_15_0_a2[1]
    SLICE_X103Y451       LUT5 (Prop_B6LUT_SLICEL_I1_O)
                                                      0.040     4.761 r  muon_sorter_1/sr_p.sr_2_8.pt_ret_51_RNIV9R3D/O
                         net (fo=1, routed)           0.231     4.992    muon_sorter_1/pt_ret_51_RNIV9R3D
    SLICE_X103Y454       LUT6 (Prop_C6LUT_SLICEL_I1_O)
                                                      0.113     5.105 r  muon_sorter_1/sr_p.sr_2_0.pt_ret_169_RNIR42KU/O
                         net (fo=4, routed)           0.175     5.280    muon_sorter_1/max_pt_3_3[1]
    SLICE_X105Y456       LUT6 (Prop_A6LUT_SLICEL_I5_O)
                                                      0.100     5.380 f  muon_sorter_1/sr_p.sr_2_1.pt_ret_67_RNI6AK252/O
                         net (fo=7, routed)           0.378     5.758    muon_sorter_1/pt_compare_12_10_23_0_a2[1]
    SLICE_X109Y456       LUT2 (Prop_E6LUT_SLICEL_I0_O)
                                                      0.064     5.822 r  muon_sorter_1/sr_p.sr_2_8.pt_ret_80_RNIDA5P0K_N_4L6_N_2L1/O
                         net (fo=1, routed)           0.206     6.028    muon_sorter_1/pt_ret_80_RNIDA5P0K_N_4L6_N_2L1
    SLICE_X108Y456       LUT6 (Prop_F6LUT_SLICEM_I3_O)
                                                      0.113     6.141 r  muon_sorter_1/sr_p.sr_2_8.pt_ret_80_RNIDA5P0K_N_4L6/O
                         net (fo=1, routed)           0.050     6.191    muon_sorter_1/pt_ret_80_RNIDA5P0K_N_4L6
    SLICE_X108Y456       LUT5 (Prop_G6LUT_SLICEM_I3_O)
                                                      0.064     6.255 r  muon_sorter_1/sr_p.sr_2_8.pt_ret_80_RNIDA5P0K/O
                         net (fo=16, routed)          0.225     6.480    muon_sorter_1/max_pt_4_3[10]
    SLICE_X108Y461       LUT6 (Prop_F6LUT_SLICEM_I4_O)
                                                      0.148     6.628 f  muon_sorter_1/sr_p.sr_2_8.pt_ret_95_RNII0G4QS1/O
                         net (fo=13, routed)          0.186     6.814    muon_sorter_1/pt_compare_13_14_25_0_a2[10]
    SLICE_X108Y459       LUT5 (Prop_C6LUT_SLICEM_I1_O)
                                                      0.147     6.961 r  muon_sorter_1/sr_p.sr_2_1.pt_ret_77_RNIURSK3Q2/O
                         net (fo=14, routed)          0.352     7.313    muon_sorter_1/max_pt_5_0[14]
    SLICE_X108Y461       LUT6 (Prop_H6LUT_SLICEM_I4_O)
                                                      0.151     7.464 r  muon_sorter_1/sr_p.sr_2_8.pt_ret_90_RNIR8MVI42_0/O
                         net (fo=15, routed)          0.325     7.789    muon_sorter_1/max_pt_5[14]
    SLICE_X105Y462       LUT6 (Prop_H6LUT_SLICEL_I4_O)
                                                      0.149     7.938 r  muon_sorter_1/sr_p.sr_2_0.pt_ret_123_RNI1TO6K42/O
                         net (fo=5, routed)           0.518     8.456    muon_sorter_1/pt_compare_14_14_27_0_a2_0_RNIQKUV1[13]
    SLICE_X103Y460       LUT5 (Prop_B6LUT_SLICEL_I4_O)
                                                      0.177     8.633 r  muon_sorter_1/sr_p.sr_2_8.pt_ret_85_RNICAFIQN/O
                         net (fo=1, routed)           0.405     9.038    muon_sorter_1/pt_ret_85_RNICAFIQN
    SLICE_X100Y463       LUT6 (Prop_H6LUT_SLICEM_I1_O)
                                                      0.066     9.104 r  muon_sorter_1/sr_p.sr_2_8.pt_ret_85_RNI7UUL09/O
                         net (fo=5, routed)           0.052     9.156    muon_sorter_1/pt_compare_15_14_29_0_a2[5]
    SLICE_X100Y463       LUT4 (Prop_F6LUT_SLICEM_I0_O)
                                                      0.098     9.254 f  muon_sorter_1/sr_p.sr_2_8.pt_ret_95_RNICDQS9K3_N_5L7/O
                         net (fo=1, routed)           0.126     9.380    muon_sorter_1/pt_ret_95_RNICDQS9K3_N_5L7
    SLICE_X100Y463       LUT6 (Prop_A6LUT_SLICEM_I5_O)
                                                      0.179     9.559 r  muon_sorter_1/sr_p.sr_2_8.pt_ret_95_RNICDQS9K3/O
                         net (fo=10, routed)          0.726    10.285    muon_sorter_1/max_pt_7_3[5]
    SLICE_X96Y460        LUT5 (Prop_E6LUT_SLICEL_I3_O)
                                                      0.064    10.349 f  muon_sorter_1/sr_p.sr_2_3.pt_ret_36_RNI2LQ2JM2/O
                         net (fo=5, routed)           0.522    10.871    muon_sorter_1/N_364
    SLICE_X94Y466        LUT5 (Prop_E6LUT_SLICEL_I4_O)
                                                      0.039    10.910 r  muon_sorter_1/sr_p.sr_2_8.pt_ret_50_RNICHBST91/O
                         net (fo=9, routed)           0.355    11.265    muon_sorter_1/max_pt_8_1[5]
    SLICE_X96Y468        LUT6 (Prop_D6LUT_SLICEL_I5_O)
                                                      0.063    11.328 r  muon_sorter_1/sr_p.sr_2_8.pt_ret_95_RNI5OB5PV2_0/O
                         net (fo=10, routed)          0.416    11.744    muon_sorter_1/max_pt_8_1_0[5]
    SLICE_X98Y469        LUT5 (Prop_E6LUT_SLICEL_I2_O)
                                                      0.148    11.892 r  muon_sorter_1/sr_p.sr_2_8.pt_ret_56_RNIFLS8OU2/O
                         net (fo=3, routed)           0.318    12.210    muon_sorter_1/max_pt_9_0_0[5]
    SLICE_X100Y468       LUT6 (Prop_H6LUT_SLICEM_I5_O)
                                                      0.041    12.251 r  muon_sorter_1/sr_p.sr_2_8.pt_ret_95_RNI3DV9ML2/O
                         net (fo=15, routed)          0.309    12.560    muon_sorter_1/max_pt_9_3[5]
    SLICE_X102Y468       LUT6 (Prop_D6LUT_SLICEM_I5_O)
                                                      0.098    12.658 f  muon_sorter_1/sr_p.sr_2_15.pt_ret_37_RNI7UN2EK3/O
                         net (fo=5, routed)           0.409    13.067    muon_sorter_1/N_636
    SLICE_X104Y469       LUT5 (Prop_B6LUT_SLICEM_I1_O)
                                                      0.100    13.167 r  muon_sorter_1/sr_p.sr_2_8.pt_ret_97_RNI72JO6V/O
                         net (fo=1, routed)           0.362    13.529    muon_sorter_1/pt_ret_97_RNI72JO6V
    SLICE_X106Y469       LUT6 (Prop_H6LUT_SLICEL_I1_O)
                                                      0.040    13.569 r  muon_sorter_1/sr_p.sr_2_1.pt_ret_81_RNIIB2CF73/O
                         net (fo=6, routed)           0.241    13.810    muon_sorter_1/max_pt_10_3[15]
    SLICE_X107Y468       LUT6 (Prop_D6LUT_SLICEM_I5_O)
                                                      0.147    13.957 f  muon_sorter_1/sr_p.sr_2_8.pt_ret_92_RNIMDV2HG3/O
                         net (fo=5, routed)           0.320    14.277    muon_sorter_1/N_842
    SLICE_X109Y472       LUT5 (Prop_G6LUT_SLICEL_I0_O)
                                                      0.114    14.391 r  muon_sorter_1/sr_p.sr_2_1.pt_ret_71_RNIKGHQIP/O
                         net (fo=1, routed)           0.280    14.671    muon_sorter_1/pt_ret_71_RNIKGHQIP
    SLICE_X107Y473       LUT6 (Prop_H6LUT_SLICEM_I1_O)
                                                      0.041    14.712 r  muon_sorter_1/sr_p.sr_2_1.pt_ret_71_RNI036CFM1/O
                         net (fo=13, routed)          0.454    15.166    muon_sorter_1/max_pt_11_3[15]
    SLICE_X104Y473       LUT5 (Prop_F6LUT_SLICEM_I4_O)
                                                      0.098    15.264 r  muon_sorter_1/sr_p.sr_2_8.pt_ret_88_RNIDR58T03/O
                         net (fo=5, routed)           0.334    15.598    muon_sorter_1/N_908
    SLICE_X104Y475       LUT5 (Prop_E6LUT_SLICEM_I0_O)
                                                      0.115    15.713 f  muon_sorter_1/sr_p.sr_2_8.pt_ret_88_RNI5AGLCJ1/O
                         net (fo=13, routed)          0.310    16.023    muon_sorter_1/max_pt_12_1[15]
    SLICE_X105Y476       LUT6 (Prop_B6LUT_SLICEL_I4_O)
                                                      0.040    16.063 f  muon_sorter_1/sr_p.sr_2_8.pt_ret_95_RNI8RAA6T1/O
                         net (fo=15, routed)          0.223    16.286    muon_sorter_1/max_pt_12_1_0[15]
    SLICE_X105Y479       LUT5 (Prop_C6LUT_SLICEL_I4_O)
                                                      0.174    16.460 f  muon_sorter_1/sr_p.sr_1_15.pt_ret_560_RNO_0/O
                         net (fo=1, routed)           0.296    16.756    muon_sorter_1/N_1038
    SLICE_X101Y479       LUT5 (Prop_H6LUT_SLICEL_I4_O)
                                                      0.064    16.820 r  muon_sorter_1/sr_p.sr_1_15.pt_ret_560_RNO/O
                         net (fo=1, routed)           0.060    16.880    muon_sorter_1/max_pt_13_N_4_3
    SLICE_X101Y479       FDRE                                         r  muon_sorter_1/sr_p.sr_1_15.pt_ret_560/D
  -------------------------------------------------------------------    -------------------

                         (clock clk rise edge)        3.125     3.125 r  
    AV33                                              0.000     3.125 r  clk (IN)
                         net (fo=0)                   0.000     3.125    clk_ibuf_iso/I
    AV33                 INBUF (Prop_INBUF_HPIOB_M_PAD_O)
                                                      0.510     3.635 r  clk_ibuf_iso/INBUF_INST/O
                         net (fo=1, routed)           0.000     3.635    clk_ibuf_iso/OUT
    AV33                 IBUFCTRL (Prop_IBUFCTRL_HPIOB_M_I_O)
                                                      0.000     3.635 r  clk_ibuf_iso/IBUFCTRL_INST/O
                         net (fo=1, routed)           0.296     3.931    clk_ibuf_iso
    BUFGCE_X1Y224        BUFGCE (Prop_BUFCE_BUFGCE_I_O)
                                                      0.024     3.955 r  clk_ibuf/O
    X3Y7 (CLOCK_ROOT)    net (fo=4749, routed)        1.932     5.887    muon_sorter_1/clk_c
    SLICE_X101Y479       FDRE                                         r  muon_sorter_1/sr_p.sr_1_15.pt_ret_560/C
                         clock pessimism              0.457     6.344    
                         clock uncertainty           -0.035     6.308    
    SLICE_X101Y479       FDRE (Setup_HFF_SLICEL_C_D)
                                                      0.027     6.335    muon_sorter_1/sr_p.sr_1_15.pt_ret_560
  -------------------------------------------------------------------
                         required time                          6.335    
                         arrival time                         -16.880    
  -------------------------------------------------------------------
                         slack                                -10.545    





Pulse Width Checks
--------------------------------------------------------------------------------------
Clock Name:         clk
Waveform(ns):       { 0.000 1.563 }
Period(ns):         3.125
Sources:            { clk }

Check Type        Corner  Lib Pin   Reference Pin  Required(ns)  Actual(ns)  Slack(ns)  Location        Pin
Min Period        n/a     BUFGCE/I  n/a            1.499         3.125       1.626      BUFGCE_X1Y224   clk_ibuf/I
Min Period        n/a     FDRE/C    n/a            0.550         3.125       2.575      SLICE_X99Y445   muon_sorter_1/sr_p.sr_1_0.pt_1[0]/C
Min Period        n/a     FDRE/C    n/a            0.550         3.125       2.575      SLICE_X99Y447   muon_sorter_1/sr_p.sr_1_0.pt_1[1]/C
Min Period        n/a     FDRE/C    n/a            0.550         3.125       2.575      SLICE_X99Y446   muon_sorter_1/sr_p.sr_1_0.pt_1[2]/C
Min Period        n/a     FDRE/C    n/a            0.550         3.125       2.575      SLICE_X101Y445  muon_sorter_1/sr_p.sr_1_0.pt_1[3]/C
Low Pulse Width   Fast    FDRE/C    n/a            0.275         1.562       1.287      SLICE_X99Y446   muon_sorter_1/sr_p.sr_1_0.pt_1[2]/C
Low Pulse Width   Slow    FDRE/C    n/a            0.275         1.562       1.287      SLICE_X92Y451   muon_sorter_1/sr_p.sr_1_13.sector_ret_77/C
Low Pulse Width   Fast    FDRE/C    n/a            0.275         1.562       1.287      SLICE_X93Y446   muon_sorter_1/sr_p.sr_2_5.pt_1[3]/C
Low Pulse Width   Fast    FDRE/C    n/a            0.275         1.562       1.287      SLICE_X90Y449   muon_sorter_1/sr_p.sr_2_5.roi_1[6]/C
Low Pulse Width   Fast    FDRE/C    n/a            0.275         1.562       1.287      SLICE_X108Y511  shift_reg_tap_o/sr_p.sr_11[33]/C
High Pulse Width  Slow    FDRE/C    n/a            0.275         1.563       1.288      SLICE_X91Y470   muon_sorter_1/sr_p.sr_1_13.sector_ret_80/C
High Pulse Width  Slow    FDRE/C    n/a            0.275         1.563       1.288      SLICE_X90Y479   muon_sorter_1/sr_p.sr_1_13.sector_ret_81/C
High Pulse Width  Slow    FDRE/C    n/a            0.275         1.563       1.288      SLICE_X88Y452   muon_sorter_1/sr_p.sr_1_13.sector_ret_82/C
High Pulse Width  Slow    FDRE/C    n/a            0.275         1.563       1.288      SLICE_X94Y481   muon_sorter_1/sr_p.sr_1_13.sector_ret_84/C
High Pulse Width  Slow    FDRE/C    n/a            0.275         1.563       1.288      SLICE_X103Y480  muon_sorter_1/sr_p.sr_1_13.sector_ret_98/C



---------------------------------------------------------------------------------------------------
From Clock:  clk_wrapper
  To Clock:  clk_wrapper

Setup :           NA  Failing Endpoints,  Worst Slack           NA  ,  Total Violation           NA
Hold  :           NA  Failing Endpoints,  Worst Slack           NA  ,  Total Violation           NA
PW    :            0  Failing Endpoints,  Worst Slack      498.562ns,  Total Violation        0.000ns
---------------------------------------------------------------------------------------------------


Pulse Width Checks
--------------------------------------------------------------------------------------
Clock Name:         clk_wrapper
Waveform(ns):       { 0.000 500.000 }
Period(ns):         1000.000
Sources:            { clk_wrapper }

Check Type        Corner  Lib Pin   Reference Pin  Required(ns)  Actual(ns)  Slack(ns)  Location               Pin
Min Period        n/a     FDRE/C    n/a            3.195         1000.000    996.805    BITSLICE_RX_TX_X1Y483  reducer_1/delay_block[4][0]/C
Min Period        n/a     BUFGCE/I  n/a            1.499         1000.000    998.501    BUFGCE_X1Y230          clk_wrapper_ibuf/I
Min Period        n/a     FDRE/C    n/a            0.550         1000.000    999.450    SLICE_X104Y526         reducer_1/delay_block[0][224]/C
Min Period        n/a     FDRE/C    n/a            0.550         1000.000    999.450    SLICE_X104Y526         reducer_1/delay_block[0][225]/C
Min Period        n/a     FDRE/C    n/a            0.550         1000.000    999.450    SLICE_X104Y526         reducer_1/delay_block[0][226]/C
Low Pulse Width   Slow    FDRE/C    n/a            1.438         500.000     498.562    BITSLICE_RX_TX_X1Y483  reducer_1/delay_block[4][0]/C
Low Pulse Width   Fast    FDRE/C    n/a            1.438         500.000     498.562    BITSLICE_RX_TX_X1Y483  reducer_1/delay_block[4][0]/C
Low Pulse Width   Slow    FDRE/C    n/a            0.275         500.000     499.725    SLICE_X92Y515          reducer_1/delay_block[0][240]/C
Low Pulse Width   Slow    FDRE/C    n/a            0.275         500.000     499.725    SLICE_X92Y515          reducer_1/delay_block[0][241]/C
Low Pulse Width   Slow    FDRE/C    n/a            0.275         500.000     499.725    SLICE_X92Y515          reducer_1/delay_block[0][242]/C
High Pulse Width  Fast    FDRE/C    n/a            1.438         500.000     498.562    BITSLICE_RX_TX_X1Y483  reducer_1/delay_block[4][0]/C
High Pulse Width  Slow    FDRE/C    n/a            1.438         500.000     498.562    BITSLICE_RX_TX_X1Y483  reducer_1/delay_block[4][0]/C
High Pulse Width  Fast    FDRE/C    n/a            0.275         500.000     499.725    SLICE_X104Y526         reducer_1/delay_block[0][224]/C
High Pulse Width  Fast    FDRE/C    n/a            0.275         500.000     499.725    SLICE_X104Y526         reducer_1/delay_block[0][225]/C
High Pulse Width  Fast    FDRE/C    n/a            0.275         500.000     499.725    SLICE_X104Y526         reducer_1/delay_block[0][226]/C



