Copyright 1986-2018 Xilinx, Inc. All Rights Reserved.
------------------------------------------------------------------------------------
| Tool Version : Vivado v.2018.2 (win64) Build 2258646 Thu Jun 14 20:03:12 MDT 2018
| Date         : Wed Mar 20 23:50:50 2019
| Host         : PCPHESEBE02 running 64-bit Service Pack 1  (build 7601)
| Command      : report_high_fanout_nets -file fanout.txt -max_nets 200
| Design       : wrapper
| Device       : xcvu9p
------------------------------------------------------------------------------------

High Fan-out Nets Information

1. Summary
----------

+-------------------------------------------------------------------------------------------------------------------------------------------------------------------------------------------------------------------------------------------------------------------------------+--------+-------------+
| Net Name                                                                                                                                                                                                                                                                      | Fanout | Driver Type |
+-------------------------------------------------------------------------------------------------------------------------------------------------------------------------------------------------------------------------------------------------------------------------------+--------+-------------+
| dut_inst/bitonic_inst/sorter_inst/genblk1.bitonic_merge_i/genblk1.bitonic_merge_low/genblk1.bitonic_merge_high/genblk1.cmp_g[12].compare_i/un1_compare_i_1_218_0                                                                                                              |     52 | LUT4        |
| dut_inst/bitonic_inst/sorter_inst/genblk1.bitonic_merge_i/genblk1.bitonic_merge_low/genblk1.bitonic_merge_high/genblk1.cmp_g[4].compare_i/un1_compare_i_1_212_0                                                                                                               |     52 | LUT6        |
| dut_inst/bitonic_inst/sorter_inst/genblk1.bitonic_sort_low/genblk1.bitonic_merge_i/genblk1.bitonic_merge_low/genblk1.bitonic_merge_high/genblk1.cmp_g[6].compare_i/un1_compare_i_484_0                                                                                        |     49 | LUT6        |
| dut_inst/bitonic_inst/sorter_inst/genblk1.bitonic_sort_high/genblk1.bitonic_merge_i/genblk1.bitonic_merge_high/genblk1.bitonic_merge_low/genblk1.bitonic_merge_high/genblk1.bitonic_merge_high/genblk1.bitonic_merge_high/genblk1.cmp_g[0].compare_i/pt_N_10_mux              |     48 | LUT6        |
| dut_inst/bitonic_inst/sorter_inst/genblk1.bitonic_sort_high/genblk1.bitonic_sort_low/genblk1.bitonic_merge_i/genblk1.bitonic_merge_low/genblk1.bitonic_merge_high/genblk1.bitonic_merge_high/genblk1.cmp_g[0].compare_i/un1_compare_i_1_14_0                                  |     48 | LUT5        |
| dut_inst/bitonic_inst/sorter_inst/genblk1.bitonic_sort_high/genblk1.bitonic_sort_high/genblk1.bitonic_merge_i/genblk1.cmp_g[7].compare_i/un1_compare_i_1_0_0                                                                                                                  |     47 | LUT6        |
| dut_inst/bitonic_inst/sorter_inst/genblk1.bitonic_sort_low/genblk1.bitonic_sort_low/genblk1.bitonic_sort_high/genblk1.bitonic_sort_low/genblk1.bitonic_merge_i/genblk1.cmp_g[3].compare_i/un1_compare_i_1_38_0                                                                |     47 | LUT5        |
| dut_inst/bitonic_inst/sorter_inst/genblk1.bitonic_sort_low/genblk1.bitonic_merge_i/genblk1.bitonic_merge_low/genblk1.bitonic_merge_high/genblk1.bitonic_merge_low/genblk1.bitonic_merge_low/genblk1.bitonic_merge_high/genblk1.cmp_g[0].compare_i/un1_bitonic_sort_low_0      |     46 | LUT5        |
| dut_inst/bitonic_inst/sorter_inst/genblk1.bitonic_sort_low/genblk1.bitonic_sort_low/genblk1.bitonic_merge_i/genblk1.bitonic_merge_low/genblk1.bitonic_merge_low/genblk1.bitonic_merge_high/genblk1.cmp_g[0].compare_i/un1_compare_i_421_0                                     |     46 | LUT5        |
| dut_inst/bitonic_inst/sorter_inst/genblk1.bitonic_merge_i/genblk1.bitonic_merge_high/genblk1.cmp_g[27].compare_i/un1_compare_i_1_231_0                                                                                                                                        |     45 | LUT5        |
| dut_inst/bitonic_inst/sorter_inst/genblk1.bitonic_sort_high/genblk1.bitonic_merge_i/genblk1.cmp_g[17].compare_i/un1_compare_i_1_167_0                                                                                                                                         |     45 | LUT6        |
| dut_inst/bitonic_inst/sorter_inst/genblk1.bitonic_sort_high/genblk1.bitonic_merge_i/genblk1.cmp_g[1].compare_i/un1_compare_i_1_168_0                                                                                                                                          |     45 | LUT5        |
| dut_inst/bitonic_inst/sorter_inst/genblk1.bitonic_sort_high/genblk1.bitonic_sort_high/genblk1.bitonic_merge_i/genblk1.bitonic_merge_high/genblk1.bitonic_merge_low/genblk1.bitonic_merge_high/genblk1.cmp_g[0].compare_i/un1_compare_i_1_370_0                                |     45 | LUT6        |
| dut_inst/bitonic_inst/sorter_inst/genblk1.bitonic_sort_high/genblk1.bitonic_sort_low/genblk1.bitonic_merge_i/genblk1.bitonic_merge_low/genblk1.bitonic_merge_high/genblk1.bitonic_merge_high/genblk1.cmp_g[1].compare_i/un1_compare_i_1_15_0                                  |     45 | LUT6        |
| dut_inst/bitonic_inst/sorter_inst/genblk1.bitonic_sort_low/genblk1.bitonic_merge_i/genblk1.bitonic_merge_high/genblk1.bitonic_merge_low/genblk1.bitonic_merge_high/genblk1.bitonic_merge_low/genblk1.bitonic_merge_low/genblk1.cmp_g[0].compare_i/un1_bitonic_sort_low_0      |     45 | LUT5        |
| dut_inst/bitonic_inst/sorter_inst/genblk1.bitonic_sort_high/genblk1.bitonic_merge_i/genblk1.bitonic_merge_high/genblk1.bitonic_merge_low/genblk1.bitonic_merge_high/genblk1.cmp_g[3].compare_i/un1_compare_i_159_0                                                            |     44 | LUT6        |
| dut_inst/bitonic_inst/sorter_inst/genblk1.bitonic_sort_low/genblk1.bitonic_merge_i/genblk1.bitonic_merge_low/genblk1.bitonic_merge_low/genblk1.bitonic_merge_low/genblk1.cmp_g[1].compare_i/un1_compare_i_1_521_0                                                             |     44 | LUT6        |
| dut_inst/bitonic_inst/sorter_inst/genblk1.bitonic_sort_low/genblk1.bitonic_sort_high/genblk1.bitonic_merge_i/genblk1.bitonic_merge_low/genblk1.bitonic_merge_high/genblk1.bitonic_merge_high/genblk1.bitonic_merge_high/genblk1.cmp_g[0].compare_i/un1_bitonic_sort_high_1_0  |     44 | LUT6        |
| dut_inst/bitonic_inst/sorter_inst/genblk1.bitonic_sort_high/genblk1.bitonic_sort_low/genblk1.bitonic_merge_i/genblk1.bitonic_merge_high/genblk1.cmp_g[1].compare_i/un1_compare_i_1_151_0                                                                                      |     43 | LUT6        |
| dut_inst/bitonic_inst/sorter_inst/genblk1.bitonic_sort_low/genblk1.bitonic_merge_i/genblk1.bitonic_merge_high/genblk1.cmp_g[14].compare_i/un1_compare_i_150_0                                                                                                                 |     43 | LUT5        |
| dut_inst/bitonic_inst/sorter_inst/genblk1.bitonic_merge_i/genblk1.bitonic_merge_low/genblk1.cmp_g[1].compare_i/un1_compare_i_1_571_0                                                                                                                                          |     42 | LUT6        |
| dut_inst/bitonic_inst/sorter_inst/genblk1.bitonic_sort_high/genblk1.bitonic_merge_i/genblk1.bitonic_merge_low/genblk1.bitonic_merge_high/genblk1.bitonic_merge_low/genblk1.bitonic_merge_low/genblk1.cmp_g[1].compare_i/un1_compare_i_1_196_0                                 |     42 | LUT6        |
| dut_inst/bitonic_inst/sorter_inst/genblk1.bitonic_sort_high/genblk1.bitonic_sort_low/genblk1.bitonic_sort_low/genblk1.bitonic_sort_high/genblk1.bitonic_merge_i/genblk1.bitonic_merge_high/genblk1.cmp_g[0].compare_i/un1_compare_i_1_22_0                                    |     42 | LUT5        |
| dut_inst/bitonic_inst/sorter_inst/genblk1.bitonic_sort_low/genblk1.bitonic_merge_i/genblk1.bitonic_merge_high/genblk1.bitonic_merge_high/genblk1.bitonic_merge_low/genblk1.bitonic_merge_high/genblk1.bitonic_merge_high/genblk1.cmp_g[0].compare_i/un1_bitonic_sort_low_0    |     42 | LUT4        |
| dut_inst/bitonic_inst/sorter_inst/genblk1.bitonic_sort_low/genblk1.bitonic_sort_high/genblk1.bitonic_sort_high/genblk1.bitonic_merge_i/genblk1.cmp_g[1].compare_i/un1_compare_i_1_248_0                                                                                       |     42 | LUT5        |
| dut_inst/bitonic_inst/sorter_inst/genblk1.bitonic_sort_high/genblk1.bitonic_merge_i/genblk1.bitonic_merge_high/genblk1.bitonic_merge_low/genblk1.cmp_g[1].compare_i/un1_compare_i_1_186_0                                                                                     |     41 | LUT3        |
| dut_inst/bitonic_inst/sorter_inst/genblk1.bitonic_sort_high/genblk1.bitonic_merge_i/genblk1.cmp_g[18].compare_i/un1_compare_i_1_2_0                                                                                                                                           |     41 | LUT5        |
| dut_inst/bitonic_inst/sorter_inst/genblk1.bitonic_sort_high/genblk1.bitonic_sort_high/genblk1.bitonic_merge_i/genblk1.bitonic_merge_high/genblk1.bitonic_merge_low/genblk1.bitonic_merge_high/genblk1.cmp_g[1].compare_i/un1_compare_i_1_389_0                                |     41 | LUT5        |
| dut_inst/bitonic_inst/sorter_inst/genblk1.bitonic_sort_low/genblk1.bitonic_merge_i/genblk1.bitonic_merge_high/genblk1.bitonic_merge_high/genblk1.bitonic_merge_high/genblk1.bitonic_merge_high/genblk1.cmp_g[1].compare_i/un1_compare_i_1_518_0                               |     41 | LUT6        |
| dut_inst/idx2_23                                                                                                                                                                                                                                                              |     41 | LUT6        |
| dut_inst/bitonic_inst/sorter_inst/genblk1.bitonic_merge_i/genblk1.cmp_g[2].compare_i/un1_compare_i_11_0                                                                                                                                                                       |     40 | LUT6        |
| dut_inst/bitonic_inst/sorter_inst/genblk1.bitonic_sort_high/genblk1.bitonic_merge_i/genblk1.bitonic_merge_high/genblk1.bitonic_merge_low/genblk1.bitonic_merge_low/genblk1.bitonic_merge_low/genblk1.bitonic_merge_high/genblk1.cmp_g[0].compare_i/un1_bitonic_sort_high_0    |     40 | LUT5        |
| dut_inst/bitonic_inst/sorter_inst/genblk1.bitonic_sort_high/genblk1.bitonic_merge_i/genblk1.cmp_g[2].compare_i/un1_compare_i_1_3_0                                                                                                                                            |     40 | LUT6        |
| dut_inst/bitonic_inst/sorter_inst/genblk1.bitonic_sort_high/genblk1.bitonic_sort_high/genblk1.bitonic_merge_i/genblk1.bitonic_merge_low/genblk1.bitonic_merge_high/genblk1.bitonic_merge_high/genblk1.bitonic_merge_high/genblk1.cmp_g[0].compare_i/un1_bitonic_sort_high_0_0 |     40 | LUT6        |
| dut_inst/bitonic_inst/sorter_inst/genblk1.bitonic_sort_low/genblk1.bitonic_merge_i/genblk1.bitonic_merge_high/genblk1.bitonic_merge_high/genblk1.bitonic_merge_high/genblk1.bitonic_merge_high/genblk1.cmp_g[0].compare_i/un1_compare_i_1_506_0                               |     40 | LUT6        |
| dut_inst/bitonic_inst/sorter_inst/genblk1.bitonic_sort_low/genblk1.bitonic_merge_i/genblk1.bitonic_merge_low/genblk1.bitonic_merge_high/genblk1.bitonic_merge_low/genblk1.bitonic_merge_high/genblk1.cmp_g[1].compare_i/un1_compare_i_1_205_0                                 |     40 | LUT6        |
| dut_inst/bitonic_inst/sorter_inst/genblk1.bitonic_merge_i/genblk1.bitonic_merge_low/genblk1.bitonic_merge_low/genblk1.bitonic_merge_low/genblk1.cmp_g[7].compare_i/un1_compare_i_1_228_0                                                                                      |     39 | LUT6        |
| dut_inst/bitonic_inst/sorter_inst/genblk1.bitonic_merge_i/genblk1.cmp_g[5].compare_i/un1_compare_i_185_0                                                                                                                                                                      |     39 | LUT6        |
| dut_inst/bitonic_inst/sorter_inst/genblk1.bitonic_sort_high/genblk1.bitonic_sort_low/genblk1.bitonic_sort_high/genblk1.bitonic_merge_i/genblk1.cmp_g[6].compare_i/un1_compare_i_1_83_0                                                                                        |     39 | LUT4        |
| dut_inst/bitonic_inst/sorter_inst/genblk1.bitonic_sort_low/genblk1.bitonic_merge_i/genblk1.bitonic_merge_low/genblk1.bitonic_merge_low/genblk1.bitonic_merge_high/genblk1.bitonic_merge_high/genblk1.cmp_g[1].compare_i/un1_compare_i_1_172_0                                 |     39 | LUT6        |
| dut_inst/bitonic_inst/sorter_inst/genblk1.bitonic_merge_i/genblk1.cmp_g[14].compare_i/un1_compare_i_1_5_0                                                                                                                                                                     |     38 | LUT6        |
| dut_inst/bitonic_inst/sorter_inst/genblk1.bitonic_merge_i/genblk1.cmp_g[46].compare_i/un1_compare_i_1_7_0                                                                                                                                                                     |     38 | LUT4        |
| dut_inst/bitonic_inst/sorter_inst/genblk1.bitonic_sort_high/genblk1.bitonic_merge_i/genblk1.bitonic_merge_high/genblk1.bitonic_merge_high/genblk1.bitonic_merge_high/genblk1.bitonic_merge_high/genblk1.bitonic_merge_low/genblk1.cmp_g[0].compare_i/un1_bitonic_sort_high_0  |     38 | LUT5        |
| dut_inst/bitonic_inst/sorter_inst/genblk1.bitonic_sort_high/genblk1.bitonic_sort_high/genblk1.bitonic_sort_low/genblk1.bitonic_sort_low/genblk1.bitonic_merge_i/genblk1.cmp_g[3].compare_i/pt_N_6_mux                                                                         |     38 | LUT6        |
| dut_inst/bitonic_inst/sorter_inst/genblk1.bitonic_sort_high/genblk1.bitonic_sort_low/genblk1.bitonic_merge_i/genblk1.bitonic_merge_low/genblk1.bitonic_merge_low/genblk1.bitonic_merge_low/genblk1.bitonic_merge_high/genblk1.cmp_g[0].compare_i/un1_bitonic_sort_low_12_0    |     38 | LUT6        |
| dut_inst/bitonic_inst/sorter_inst/genblk1.bitonic_sort_high/genblk1.bitonic_sort_low/genblk1.bitonic_sort_low/genblk1.bitonic_merge_i/genblk1.bitonic_merge_low/genblk1.bitonic_merge_low/genblk1.cmp_g[1].compare_i/un1_compare_i_1_301_0                                    |     38 | LUT5        |
| dut_inst/bitonic_inst/sorter_inst/genblk1.bitonic_sort_low/genblk1.bitonic_merge_i/genblk1.bitonic_merge_high/genblk1.bitonic_merge_low/genblk1.bitonic_merge_high/genblk1.bitonic_merge_low/genblk1.cmp_g[0].compare_i/un1_compare_i_1_190_0                                 |     38 | LUT6        |
| dut_inst/bitonic_inst/sorter_inst/genblk1.bitonic_sort_low/genblk1.bitonic_merge_i/genblk1.bitonic_merge_low/genblk1.bitonic_merge_high/genblk1.bitonic_merge_high/genblk1.bitonic_merge_low/genblk1.bitonic_merge_high/genblk1.cmp_g[0].compare_i/pt_m6                      |     38 | LUT5        |
| dut_inst/bitonic_inst/sorter_inst/genblk1.bitonic_sort_low/genblk1.bitonic_sort_high/genblk1.bitonic_merge_i/genblk1.cmp_g[1].compare_i/un1_compare_i_308_0                                                                                                                   |     38 | LUT5        |
| dut_inst/idx2_184                                                                                                                                                                                                                                                             |     38 | LUT4        |
| dut_inst/un1_compare_i_6[3]                                                                                                                                                                                                                                                   |     38 | LUT4        |
| shift_reg_tap_i/input_slr[28]                                                                                                                                                                                                                                                 |     38 | FDRE        |
| dut_inst/bitonic_inst/sorter_inst/genblk1.bitonic_merge_i/genblk1.bitonic_merge_high/genblk1.cmp_g[31].compare_i/un1_compare_i_204_0                                                                                                                                          |     37 | LUT6        |
| dut_inst/bitonic_inst/sorter_inst/genblk1.bitonic_merge_i/genblk1.bitonic_merge_low/genblk1.bitonic_merge_high/genblk1.cmp_g[14].compare_i/un1_compare_i_1_221_0                                                                                                              |     37 | LUT6        |
| dut_inst/bitonic_inst/sorter_inst/genblk1.bitonic_merge_i/genblk1.bitonic_merge_low/genblk1.cmp_g[12].compare_i/un1_compare_i_197_0                                                                                                                                           |     37 | LUT4        |
| dut_inst/bitonic_inst/sorter_inst/genblk1.bitonic_merge_i/genblk1.cmp_g[23].compare_i/un1_compare_i_178_0                                                                                                                                                                     |     37 | LUT6        |
| dut_inst/bitonic_inst/sorter_inst/genblk1.bitonic_sort_high/genblk1.bitonic_merge_i/genblk1.bitonic_merge_high/genblk1.bitonic_merge_high/genblk1.bitonic_merge_low/genblk1.bitonic_merge_high/genblk1.bitonic_merge_high/genblk1.cmp_g[0].compare_i/un1_bitonic_sort_high_0  |     37 | LUT6        |
| dut_inst/bitonic_inst/sorter_inst/genblk1.bitonic_sort_high/genblk1.bitonic_merge_i/genblk1.bitonic_merge_high/genblk1.bitonic_merge_low/genblk1.bitonic_merge_low/genblk1.cmp_g[1].compare_i/un1_compare_i_539_0                                                             |     37 | LUT5        |
| dut_inst/bitonic_inst/sorter_inst/genblk1.bitonic_sort_high/genblk1.bitonic_merge_i/genblk1.bitonic_merge_low/genblk1.cmp_g[0].compare_i/un1_compare_i_1_480_0                                                                                                                |     37 | LUT6        |
| dut_inst/bitonic_inst/sorter_inst/genblk1.bitonic_sort_low/genblk1.bitonic_sort_high/genblk1.bitonic_sort_low/genblk1.bitonic_sort_high/genblk1.bitonic_merge_i/genblk1.cmp_g[0].compare_i/un1_compare_i_1_25_0                                                               |     37 | LUT5        |
| dut_inst/idx2_144                                                                                                                                                                                                                                                             |     37 | LUT5        |
| shift_reg_tap_i/input_slr[29]                                                                                                                                                                                                                                                 |     37 | FDRE        |
| shift_reg_tap_i/input_slr[30]                                                                                                                                                                                                                                                 |     37 | FDRE        |
| shift_reg_tap_i/input_slr[31]                                                                                                                                                                                                                                                 |     37 | FDRE        |
| shift_reg_tap_i/input_slr[80]                                                                                                                                                                                                                                                 |     37 | FDRE        |
| dut_inst/bitonic_inst/sorter_inst/genblk1.bitonic_merge_i/genblk1.bitonic_merge_high/genblk1.bitonic_merge_high/genblk1.cmp_g[1].compare_i/un1_compare_i_195_0                                                                                                                |     36 | LUT6        |
| dut_inst/bitonic_inst/sorter_inst/genblk1.bitonic_merge_i/genblk1.cmp_g[11].compare_i/un1_compare_i_1_550_0                                                                                                                                                                   |     36 | LUT5        |
| dut_inst/bitonic_inst/sorter_inst/genblk1.bitonic_sort_high/genblk1.bitonic_merge_i/genblk1.bitonic_merge_low/genblk1.bitonic_merge_high/genblk1.bitonic_merge_high/genblk1.cmp_g[0].compare_i/un1_compare_i_1_i_4_0                                                          |     36 | LUT5        |
| dut_inst/bitonic_inst/sorter_inst/genblk1.bitonic_sort_high/genblk1.bitonic_merge_i/genblk1.bitonic_merge_low/genblk1.bitonic_merge_high/genblk1.bitonic_merge_low/genblk1.bitonic_merge_low/genblk1.cmp_g[0].compare_i/un1_compare_i_1_197_0                                 |     36 | LUT6        |
| dut_inst/bitonic_inst/sorter_inst/genblk1.bitonic_sort_high/genblk1.bitonic_sort_high/genblk1.bitonic_merge_i/genblk1.bitonic_merge_low/genblk1.bitonic_merge_low/genblk1.bitonic_merge_low/genblk1.bitonic_merge_low/genblk1.cmp_g[0].compare_i/un1_bitonic_sort_high_15_0   |     36 | LUT6        |
| dut_inst/bitonic_inst/sorter_inst/genblk1.bitonic_sort_high/genblk1.bitonic_sort_low/genblk1.bitonic_sort_low/genblk1.bitonic_sort_high/genblk1.bitonic_merge_i/genblk1.bitonic_merge_high/genblk1.cmp_g[1].compare_i/un1_compare_i_1_112_0                                   |     36 | LUT5        |
| dut_inst/bitonic_inst/sorter_inst/genblk1.bitonic_sort_low/genblk1.bitonic_sort_high/genblk1.bitonic_merge_i/genblk1.cmp_g[0].compare_i/un1_compare_i_1_125_0                                                                                                                 |     36 | LUT5        |
| dut_inst/bitonic_inst/sorter_inst/genblk1.bitonic_sort_low/genblk1.bitonic_sort_low/genblk1.bitonic_sort_high/genblk1.bitonic_sort_high/genblk1.bitonic_merge_i/genblk1.bitonic_merge_low/genblk1.bitonic_merge_high/genblk1.cmp_g[0].compare_i/un1_bitonic_sort_high_5_0     |     36 | LUT5        |
| dut_inst/idx2_496                                                                                                                                                                                                                                                             |     36 | LUT6        |
| dut_inst/un1_b_123                                                                                                                                                                                                                                                            |     36 | LUT6        |
| shift_reg_tap_i/input_slr[82]                                                                                                                                                                                                                                                 |     36 | FDRE        |
| shift_reg_tap_i/input_slr[83]                                                                                                                                                                                                                                                 |     36 | FDRE        |
| dut_inst/bitonic_inst/sorter_inst/genblk1.bitonic_merge_i/genblk1.bitonic_merge_low/genblk1.cmp_g[28].compare_i/un1_compare_i_1_211_0                                                                                                                                         |     35 | LUT6        |
| dut_inst/bitonic_inst/sorter_inst/genblk1.bitonic_merge_i/genblk1.cmp_g[51].compare_i/un1_compare_i_i_7_0                                                                                                                                                                     |     35 | LUT6        |
| dut_inst/bitonic_inst/sorter_inst/genblk1.bitonic_merge_i/genblk1.cmp_g[55].compare_i/un1_compare_i_181_0                                                                                                                                                                     |     35 | LUT5        |
| dut_inst/bitonic_inst/sorter_inst/genblk1.bitonic_sort_high/genblk1.bitonic_merge_i/genblk1.bitonic_merge_high/genblk1.bitonic_merge_high/genblk1.bitonic_merge_high/genblk1.bitonic_merge_low/genblk1.bitonic_merge_low/genblk1.cmp_g[0].compare_i/un1_bitonic_sort_high_10  |     35 | LUT6        |
| dut_inst/bitonic_inst/sorter_inst/genblk1.bitonic_sort_high/genblk1.bitonic_merge_i/genblk1.bitonic_merge_high/genblk1.bitonic_merge_high/genblk1.cmp_g[1].compare_i/un1_compare_i_501_0                                                                                      |     35 | LUT6        |
| dut_inst/bitonic_inst/sorter_inst/genblk1.bitonic_sort_high/genblk1.bitonic_merge_i/genblk1.bitonic_merge_low/genblk1.bitonic_merge_high/genblk1.bitonic_merge_low/genblk1.bitonic_merge_low/genblk1.cmp_g[0].compare_i/un1_compare_i_557_0                                   |     35 | LUT6        |
| dut_inst/bitonic_inst/sorter_inst/genblk1.bitonic_sort_high/genblk1.bitonic_merge_i/genblk1.bitonic_merge_low/genblk1.bitonic_merge_low/genblk1.bitonic_merge_low/genblk1.bitonic_merge_high/genblk1.bitonic_merge_low/genblk1.cmp_g[0].compare_i/un1_bitonic_sort_high_5_0   |     35 | LUT6        |
| dut_inst/bitonic_inst/sorter_inst/genblk1.bitonic_sort_high/genblk1.bitonic_sort_high/genblk1.bitonic_merge_i/genblk1.bitonic_merge_low/genblk1.bitonic_merge_high/genblk1.cmp_g[2].compare_i/un1_compare_i_152_0                                                             |     35 | LUT6        |
| dut_inst/bitonic_inst/sorter_inst/genblk1.bitonic_sort_high/genblk1.bitonic_sort_high/genblk1.bitonic_sort_high/genblk1.bitonic_merge_i/genblk1.bitonic_merge_high/genblk1.bitonic_merge_low/genblk1.cmp_g[0].compare_i/un1_compare_i_1_285_0                                 |     35 | LUT4        |
| dut_inst/bitonic_inst/sorter_inst/genblk1.bitonic_sort_high/genblk1.bitonic_sort_low/genblk1.bitonic_merge_i/genblk1.bitonic_merge_high/genblk1.bitonic_merge_high/genblk1.bitonic_merge_low/genblk1.bitonic_merge_high/genblk1.cmp_g[0].compare_i/un1_bitonic_sort_low_0     |     35 | LUT6        |
| dut_inst/bitonic_inst/sorter_inst/genblk1.bitonic_sort_high/genblk1.bitonic_sort_low/genblk1.bitonic_merge_i/genblk1.bitonic_merge_high/genblk1.cmp_g[3].compare_i/un1_compare_i_1_152_0                                                                                      |     35 | LUT6        |
| dut_inst/bitonic_inst/sorter_inst/genblk1.bitonic_sort_high/genblk1.bitonic_sort_low/genblk1.bitonic_merge_i/genblk1.bitonic_merge_high/genblk1.cmp_g[5].compare_i/un1_compare_i_1_150_0                                                                                      |     35 | LUT6        |
| dut_inst/bitonic_inst/sorter_inst/genblk1.bitonic_sort_low/genblk1.bitonic_merge_i/genblk1.bitonic_merge_high/genblk1.cmp_g[9].compare_i/un1_compare_i_165_0                                                                                                                  |     35 | LUT5        |
| dut_inst/bitonic_inst/sorter_inst/genblk1.bitonic_sort_low/genblk1.bitonic_merge_i/genblk1.bitonic_merge_low/genblk1.bitonic_merge_high/genblk1.bitonic_merge_low/genblk1.bitonic_merge_high/genblk1.cmp_g[0].compare_i/un1_compare_i_175_0                                   |     35 | LUT6        |
| dut_inst/bitonic_inst/sorter_inst/genblk1.bitonic_sort_low/genblk1.bitonic_merge_i/genblk1.bitonic_merge_low/genblk1.bitonic_merge_low/genblk1.bitonic_merge_low/genblk1.bitonic_merge_low/genblk1.cmp_g[0].compare_i/un1_compare_i_553_0                                     |     35 | LUT6        |
| dut_inst/bitonic_inst/sorter_inst/genblk1.bitonic_sort_low/genblk1.bitonic_sort_low/genblk1.bitonic_merge_i/genblk1.bitonic_merge_high/genblk1.bitonic_merge_high/genblk1.bitonic_merge_low/genblk1.cmp_g[1].compare_i/un1_compare_i_410_0                                    |     35 | LUT6        |
| dut_inst/bitonic_inst/sorter_inst/genblk1.bitonic_sort_low/genblk1.bitonic_sort_low/genblk1.bitonic_merge_i/genblk1.bitonic_merge_low/genblk1.bitonic_merge_low/genblk1.bitonic_merge_high/genblk1.cmp_g[1].compare_i/un1_compare_i_1_395_0                                   |     35 | LUT5        |
| dut_inst/bitonic_inst/sorter_inst/genblk1.bitonic_sort_low/genblk1.bitonic_sort_low/genblk1.bitonic_merge_i/genblk1.bitonic_merge_low/genblk1.cmp_g[4].compare_i/un1_compare_i_364_0                                                                                          |     35 | LUT5        |
| dut_inst/bitonic_inst/sorter_inst/genblk1.bitonic_sort_low/genblk1.bitonic_sort_low/genblk1.bitonic_sort_high/genblk1.bitonic_sort_high/genblk1.bitonic_merge_i/genblk1.bitonic_merge_low/genblk1.bitonic_merge_high/genblk1.cmp_g[0].compare_i/un1_bitonic_sort_high_4_0     |     35 | LUT5        |
| dut_inst/un1_b_361                                                                                                                                                                                                                                                            |     35 | LUT5        |
| shift_reg_tap_i/input_slr[81]                                                                                                                                                                                                                                                 |     35 | FDRE        |
| dut_inst/bitonic_inst/sorter_inst/genblk1.bitonic_merge_i/genblk1.bitonic_merge_high/genblk1.cmp_g[10].compare_i/un1_compare_i_610_0                                                                                                                                          |     34 | LUT6        |
| dut_inst/bitonic_inst/sorter_inst/genblk1.bitonic_merge_i/genblk1.bitonic_merge_high/genblk1.cmp_g[30].compare_i/un1_compare_i_1_8_0                                                                                                                                          |     34 | LUT6        |
| dut_inst/bitonic_inst/sorter_inst/genblk1.bitonic_sort_high/genblk1.bitonic_merge_i/genblk1.bitonic_merge_high/genblk1.bitonic_merge_high/genblk1.bitonic_merge_high/genblk1.bitonic_merge_high/genblk1.bitonic_merge_low/genblk1.cmp_g[0].compare_i/un1_bitonic_sort_high_10 |     34 | LUT5        |
| dut_inst/bitonic_inst/sorter_inst/genblk1.bitonic_sort_high/genblk1.bitonic_merge_i/genblk1.bitonic_merge_high/genblk1.bitonic_merge_high/genblk1.bitonic_merge_high/genblk1.bitonic_merge_low/genblk1.bitonic_merge_high/genblk1.cmp_g[0].compare_i/un1_bitonic_sort_high_0  |     34 | LUT6        |
| dut_inst/bitonic_inst/sorter_inst/genblk1.bitonic_sort_high/genblk1.bitonic_sort_high/genblk1.bitonic_merge_i/genblk1.bitonic_merge_high/genblk1.bitonic_merge_low/genblk1.bitonic_merge_low/genblk1.cmp_g[1].compare_i/un1_compare_i_1_394_0                                 |     34 | LUT5        |
| dut_inst/bitonic_inst/sorter_inst/genblk1.bitonic_sort_high/genblk1.bitonic_sort_high/genblk1.bitonic_sort_low/genblk1.bitonic_sort_low/genblk1.bitonic_merge_i/genblk1.bitonic_merge_high/genblk1.bitonic_merge_low/genblk1.cmp_g[0].compare_i/un1_bitonic_sort_low_4_10     |     34 | LUT4        |
| dut_inst/bitonic_inst/sorter_inst/genblk1.bitonic_sort_high/genblk1.bitonic_sort_low/genblk1.bitonic_merge_i/genblk1.bitonic_merge_high/genblk1.bitonic_merge_low/genblk1.bitonic_merge_high/genblk1.cmp_g[1].compare_i/un1_compare_i_1_375_0                                 |     34 | LUT6        |
| dut_inst/bitonic_inst/sorter_inst/genblk1.bitonic_sort_high/genblk1.bitonic_sort_low/genblk1.bitonic_merge_i/genblk1.bitonic_merge_high/genblk1.bitonic_merge_low/genblk1.bitonic_merge_low/genblk1.cmp_g[0].compare_i/un1_compare_i_382_0                                    |     34 | LUT4        |
| dut_inst/bitonic_inst/sorter_inst/genblk1.bitonic_sort_high/genblk1.bitonic_sort_low/genblk1.bitonic_merge_i/genblk1.cmp_g[9].compare_i/N_1105                                                                                                                                |     34 | LUT6        |
| dut_inst/bitonic_inst/sorter_inst/genblk1.bitonic_sort_low/genblk1.bitonic_merge_i/genblk1.bitonic_merge_high/genblk1.bitonic_merge_high/genblk1.bitonic_merge_low/genblk1.cmp_g[0].compare_i/un1_compare_i_1_179_0                                                           |     34 | LUT6        |
| dut_inst/bitonic_inst/sorter_inst/genblk1.bitonic_sort_low/genblk1.bitonic_merge_i/genblk1.bitonic_merge_low/genblk1.bitonic_merge_high/genblk1.cmp_g[2].compare_i/un1_compare_i_459_0                                                                                        |     34 | LUT6        |
| dut_inst/bitonic_inst/sorter_inst/genblk1.bitonic_sort_low/genblk1.bitonic_sort_high/genblk1.bitonic_merge_i/genblk1.bitonic_merge_low/genblk1.bitonic_merge_high/genblk1.bitonic_merge_low/genblk1.bitonic_merge_high/genblk1.cmp_g[0].compare_i/pt_m5_0_2                   |     34 | LUT6        |
| dut_inst/bitonic_inst/sorter_inst/genblk1.bitonic_sort_low/genblk1.bitonic_sort_low/genblk1.bitonic_sort_high/genblk1.bitonic_sort_low/genblk1.bitonic_merge_i/genblk1.cmp_g[3].compare_i/un1_compare_i_37_0                                                                  |     34 | LUT5        |
| dut_inst/idx2_118                                                                                                                                                                                                                                                             |     34 | LUT6        |
| dut_inst/idx2_390                                                                                                                                                                                                                                                             |     34 | LUT6        |
| dut_inst/un1_b_137                                                                                                                                                                                                                                                            |     34 | LUT6        |
| dut_inst/un1_compare_i_1_42[6]                                                                                                                                                                                                                                                |     34 | LUT6        |
| dut_inst/un1_compare_i_1_5[5]                                                                                                                                                                                                                                                 |     34 | LUT6        |
| shift_reg_tap_i/input_slr[10]                                                                                                                                                                                                                                                 |     34 | FDRE        |
| shift_reg_tap_i/input_slr[11]                                                                                                                                                                                                                                                 |     34 | FDRE        |
| shift_reg_tap_i/input_slr[8]                                                                                                                                                                                                                                                  |     34 | FDRE        |
| dut_inst/bitonic_inst/sorter_inst/genblk1.bitonic_sort_high/genblk1.bitonic_merge_i/genblk1.bitonic_merge_high/genblk1.bitonic_merge_low/genblk1.bitonic_merge_high/genblk1.bitonic_merge_low/genblk1.bitonic_merge_low/genblk1.cmp_g[0].compare_i/un1_bitonic_sort_high_0    |     33 | LUT6        |
| dut_inst/bitonic_inst/sorter_inst/genblk1.bitonic_sort_high/genblk1.bitonic_merge_i/genblk1.bitonic_merge_low/genblk1.bitonic_merge_high/genblk1.bitonic_merge_high/genblk1.bitonic_merge_high/genblk1.cmp_g[1].compare_i/un1_compare_i_527_0                                 |     33 | LUT6        |
| dut_inst/bitonic_inst/sorter_inst/genblk1.bitonic_sort_high/genblk1.bitonic_sort_high/genblk1.bitonic_sort_high/genblk1.bitonic_merge_i/genblk1.bitonic_merge_low/genblk1.bitonic_merge_low/genblk1.cmp_g[0].compare_i/un1_compare_i_85_0                                     |     33 | LUT4        |
| dut_inst/bitonic_inst/sorter_inst/genblk1.bitonic_sort_high/genblk1.bitonic_sort_low/genblk1.bitonic_sort_high/genblk1.bitonic_sort_high/genblk1.bitonic_merge_i/genblk1.bitonic_merge_high/genblk1.cmp_g[1].compare_i/un1_compare_i_1_53_0                                   |     33 | LUT5        |
| dut_inst/bitonic_inst/sorter_inst/genblk1.bitonic_sort_high/genblk1.bitonic_sort_low/genblk1.bitonic_sort_low/genblk1.bitonic_sort_high/genblk1.bitonic_merge_i/genblk1.bitonic_merge_high/genblk1.cmp_g[0].compare_i/un1_compare_i_274_0                                     |     33 | LUT6        |
| dut_inst/bitonic_inst/sorter_inst/genblk1.bitonic_sort_low/genblk1.bitonic_merge_i/genblk1.bitonic_merge_high/genblk1.bitonic_merge_high/genblk1.bitonic_merge_low/genblk1.bitonic_merge_high/genblk1.cmp_g[0].compare_i/N_406                                                |     33 | LUT6        |
| dut_inst/bitonic_inst/sorter_inst/genblk1.bitonic_sort_low/genblk1.bitonic_merge_i/genblk1.bitonic_merge_high/genblk1.bitonic_merge_low/genblk1.bitonic_merge_high/genblk1.cmp_g[3].compare_i/un1_compare_i_1_493_0                                                           |     33 | LUT6        |
| dut_inst/bitonic_inst/sorter_inst/genblk1.bitonic_sort_low/genblk1.bitonic_merge_i/genblk1.bitonic_merge_low/genblk1.bitonic_merge_high/genblk1.bitonic_merge_low/genblk1.bitonic_merge_low/genblk1.bitonic_merge_low/genblk1.cmp_g[0].compare_i/un1_bitonic_sort_low_0_10    |     33 | LUT6        |
| dut_inst/bitonic_inst/sorter_inst/genblk1.bitonic_sort_low/genblk1.bitonic_sort_high/genblk1.bitonic_merge_i/genblk1.bitonic_merge_low/genblk1.bitonic_merge_high/genblk1.bitonic_merge_high/genblk1.cmp_g[0].compare_i/un1_compare_i_1_169_0                                 |     33 | LUT6        |
| dut_inst/bitonic_inst/sorter_inst/genblk1.bitonic_sort_low/genblk1.bitonic_sort_high/genblk1.bitonic_sort_low/genblk1.bitonic_sort_low/genblk1.bitonic_merge_i/genblk1.cmp_g[3].compare_i/un1_compare_i_1_40_0                                                                |     33 | LUT5        |
| dut_inst/bitonic_inst/sorter_inst/genblk1.bitonic_sort_low/genblk1.bitonic_sort_low/genblk1.bitonic_merge_i/genblk1.bitonic_merge_low/genblk1.bitonic_merge_high/genblk1.bitonic_merge_low/genblk1.bitonic_merge_low/genblk1.cmp_g[0].compare_i/un1_bitonic_sort_low_4_0      |     33 | LUT6        |
| dut_inst/bitonic_inst/sorter_inst/genblk1.bitonic_sort_low/genblk1.bitonic_sort_low/genblk1.bitonic_merge_i/genblk1.bitonic_merge_low/genblk1.cmp_g[5].compare_i/un1_compare_i_1_356_0                                                                                        |     33 | LUT4        |
| dut_inst/bitonic_inst/sorter_inst/genblk1.bitonic_sort_low/genblk1.bitonic_sort_low/genblk1.bitonic_sort_low/genblk1.bitonic_merge_i/genblk1.bitonic_merge_high/genblk1.bitonic_merge_low/genblk1.cmp_g[0].compare_i/un1_compare_i_1_139_0                                    |     33 | LUT6        |
| dut_inst/bitonic_inst/sorter_inst/genblk1.bitonic_sort_low/genblk1.bitonic_sort_low/genblk1.bitonic_sort_low/genblk1.bitonic_sort_low/genblk1.bitonic_merge_i/genblk1.cmp_g[3].compare_i/un1_compare_i_20_0                                                                   |     33 | LUT6        |
| dut_inst/idx2_568                                                                                                                                                                                                                                                             |     33 | LUT5        |
| dut_inst/un1_b_136                                                                                                                                                                                                                                                            |     33 | LUT6        |
| dut_inst/un1_compare_i_1_31[6]                                                                                                                                                                                                                                                |     33 | LUT6        |
| shift_reg_tap_i/input_slr[9]                                                                                                                                                                                                                                                  |     33 | FDRE        |
| dut_inst/bitonic_inst/sorter_inst/genblk1.bitonic_merge_i/genblk1.bitonic_merge_low/genblk1.bitonic_merge_high/genblk1.bitonic_merge_low/genblk1.cmp_g[2].compare_i/un1_compare_i_638_0                                                                                       |     32 | LUT6        |
| dut_inst/bitonic_inst/sorter_inst/genblk1.bitonic_merge_i/genblk1.bitonic_merge_low/genblk1.bitonic_merge_high/genblk1.bitonic_merge_low/genblk1.cmp_g[6].compare_i/un1_compare_i_639_0                                                                                       |     32 | LUT6        |
| dut_inst/bitonic_inst/sorter_inst/genblk1.bitonic_merge_i/genblk1.bitonic_merge_low/genblk1.bitonic_merge_high/genblk1.cmp_g[11].compare_i/un1_compare_i_1_239_0                                                                                                              |     32 | LUT4        |
| dut_inst/bitonic_inst/sorter_inst/genblk1.bitonic_merge_i/genblk1.bitonic_merge_low/genblk1.cmp_g[28].compare_i/un1_compare_i_196_0                                                                                                                                           |     32 | LUT6        |
| dut_inst/bitonic_inst/sorter_inst/genblk1.bitonic_merge_i/genblk1.bitonic_merge_low/genblk1.cmp_g[7].compare_i/un1_compare_i_1_207_0                                                                                                                                          |     32 | LUT6        |
| dut_inst/bitonic_inst/sorter_inst/genblk1.bitonic_sort_high/genblk1.bitonic_merge_i/genblk1.bitonic_merge_high/genblk1.bitonic_merge_high/genblk1.cmp_g[5].compare_i/un1_compare_i_499_0                                                                                      |     32 | LUT5        |
| dut_inst/bitonic_inst/sorter_inst/genblk1.bitonic_sort_high/genblk1.bitonic_merge_i/genblk1.bitonic_merge_high/genblk1.cmp_g[9].compare_i/un1_compare_i_157_0                                                                                                                 |     32 | LUT6        |
| dut_inst/bitonic_inst/sorter_inst/genblk1.bitonic_sort_high/genblk1.bitonic_merge_i/genblk1.bitonic_merge_low/genblk1.bitonic_merge_low/genblk1.bitonic_merge_low/genblk1.cmp_g[3].compare_i/un1_compare_i_243_0                                                              |     32 | LUT5        |
| dut_inst/bitonic_inst/sorter_inst/genblk1.bitonic_sort_high/genblk1.bitonic_sort_high/genblk1.bitonic_sort_high/genblk1.bitonic_sort_high/genblk1.bitonic_merge_i/genblk1.bitonic_merge_high/genblk1.cmp_g[1].compare_i/un1_compare_i_1_79_0                                  |     32 | LUT6        |
| dut_inst/bitonic_inst/sorter_inst/genblk1.bitonic_sort_high/genblk1.bitonic_sort_low/genblk1.bitonic_merge_i/genblk1.cmp_g[4].compare_i/un1_compare_i_133_0                                                                                                                   |     32 | LUT5        |
| dut_inst/bitonic_inst/sorter_inst/genblk1.bitonic_sort_high/genblk1.bitonic_sort_low/genblk1.bitonic_sort_high/genblk1.bitonic_sort_low/genblk1.bitonic_merge_i/genblk1.cmp_g[3].compare_i/un1_compare_i_51_0                                                                 |     32 | LUT5        |
| dut_inst/bitonic_inst/sorter_inst/genblk1.bitonic_sort_low/genblk1.bitonic_merge_i/genblk1.bitonic_merge_high/genblk1.bitonic_merge_high/genblk1.bitonic_merge_high/genblk1.bitonic_merge_low/genblk1.bitonic_merge_high/genblk1.cmp_g[0].compare_i/un1_bitonic_sort_low_10   |     32 | LUT6        |
| dut_inst/bitonic_inst/sorter_inst/genblk1.bitonic_sort_low/genblk1.bitonic_merge_i/genblk1.bitonic_merge_high/genblk1.bitonic_merge_low/genblk1.bitonic_merge_high/genblk1.bitonic_merge_low/genblk1.cmp_g[1].compare_i/un1_compare_i_1_189_0                                 |     32 | LUT5        |
| dut_inst/bitonic_inst/sorter_inst/genblk1.bitonic_sort_low/genblk1.bitonic_merge_i/genblk1.bitonic_merge_high/genblk1.bitonic_merge_low/genblk1.bitonic_merge_low/genblk1.bitonic_merge_low/genblk1.bitonic_merge_high/genblk1.cmp_g[0].compare_i/un1_bitonic_sort_low_0      |     32 | LUT6        |
| dut_inst/bitonic_inst/sorter_inst/genblk1.bitonic_sort_low/genblk1.bitonic_merge_i/genblk1.cmp_g[0].compare_i/pt_N_9_mux_0                                                                                                                                                    |     32 | LUT6        |
| dut_inst/bitonic_inst/sorter_inst/genblk1.bitonic_sort_low/genblk1.bitonic_merge_i/genblk1.cmp_g[31].compare_i/N_515                                                                                                                                                          |     32 | LUT6        |
| dut_inst/bitonic_inst/sorter_inst/genblk1.bitonic_sort_low/genblk1.bitonic_sort_high/genblk1.bitonic_merge_i/genblk1.bitonic_merge_high/genblk1.bitonic_merge_low/genblk1.bitonic_merge_high/genblk1.cmp_g[0].compare_i/un1_compare_i_1_159_0                                 |     32 | LUT6        |
| dut_inst/bitonic_inst/sorter_inst/genblk1.bitonic_sort_low/genblk1.bitonic_sort_high/genblk1.bitonic_merge_i/genblk1.bitonic_merge_high/genblk1.bitonic_merge_low/genblk1.bitonic_merge_high/genblk1.cmp_g[1].compare_i/un1_compare_i_1_160_0                                 |     32 | LUT5        |
| dut_inst/bitonic_inst/sorter_inst/genblk1.bitonic_sort_low/genblk1.bitonic_sort_high/genblk1.bitonic_sort_low/genblk1.bitonic_sort_high/genblk1.bitonic_merge_i/genblk1.cmp_g[2].compare_i/un1_compare_i_1_24_0                                                               |     32 | LUT6        |
| dut_inst/idx2_141                                                                                                                                                                                                                                                             |     32 | LUT5        |
| dut_inst/idx2_449                                                                                                                                                                                                                                                             |     32 | LUT5        |
| dut_inst/idx2_5                                                                                                                                                                                                                                                               |     32 | LUT5        |
| dut_inst/un1_b_71                                                                                                                                                                                                                                                             |     32 | LUT6        |
| dut_inst/un1_compare_i_1_11[6]                                                                                                                                                                                                                                                |     32 | LUT6        |
| dut_inst/un1_compare_i_1_5[2]                                                                                                                                                                                                                                                 |     32 | LUT5        |
| shift_reg_tap_i/input_slr[46]                                                                                                                                                                                                                                                 |     32 | FDRE        |
| shift_reg_tap_i/input_slr[47]                                                                                                                                                                                                                                                 |     32 | FDRE        |
| dut_inst/bitonic_inst/sorter_inst/genblk1.bitonic_merge_i/genblk1.bitonic_merge_low/genblk1.bitonic_merge_low/genblk1.cmp_g[1].compare_i/un1_compare_i_605_0                                                                                                                  |     31 | LUT6        |
| dut_inst/bitonic_inst/sorter_inst/genblk1.bitonic_sort_high/genblk1.bitonic_merge_i/genblk1.bitonic_merge_high/genblk1.bitonic_merge_low/genblk1.bitonic_merge_high/genblk1.bitonic_merge_low/genblk1.cmp_g[0].compare_i/un1_compare_i_1_191_0                                |     31 | LUT5        |
| dut_inst/bitonic_inst/sorter_inst/genblk1.bitonic_sort_high/genblk1.bitonic_merge_i/genblk1.bitonic_merge_high/genblk1.bitonic_merge_low/genblk1.bitonic_merge_low/genblk1.cmp_g[1].compare_i/un1_compare_i_1_194_0                                                           |     31 | LUT5        |
| dut_inst/bitonic_inst/sorter_inst/genblk1.bitonic_sort_high/genblk1.bitonic_merge_i/genblk1.bitonic_merge_low/genblk1.bitonic_merge_low/genblk1.bitonic_merge_low/genblk1.bitonic_merge_low/genblk1.bitonic_merge_low/genblk1.cmp_g[0].compare_i/un1_bitonic_sort_high_17_0   |     31 | LUT5        |
| dut_inst/bitonic_inst/sorter_inst/genblk1.bitonic_sort_high/genblk1.bitonic_merge_i/genblk1.bitonic_merge_low/genblk1.cmp_g[9].compare_i/un1_compare_i_1_437_0                                                                                                                |     31 | LUT5        |
| dut_inst/bitonic_inst/sorter_inst/genblk1.bitonic_sort_low/genblk1.bitonic_merge_i/genblk1.bitonic_merge_high/genblk1.bitonic_merge_high/genblk1.bitonic_merge_low/genblk1.cmp_g[2].compare_i/N_494                                                                           |     31 | LUT6        |
| dut_inst/bitonic_inst/sorter_inst/genblk1.bitonic_sort_low/genblk1.bitonic_merge_i/genblk1.bitonic_merge_low/genblk1.bitonic_merge_high/genblk1.bitonic_merge_high/genblk1.bitonic_merge_high/genblk1.bitonic_merge_high/genblk1.cmp_g[0].compare_i/un1_bitonic_sort_low_0_0  |     31 | LUT6        |
| dut_inst/bitonic_inst/sorter_inst/genblk1.bitonic_sort_low/genblk1.bitonic_merge_i/genblk1.bitonic_merge_low/genblk1.bitonic_merge_high/genblk1.bitonic_merge_high/genblk1.bitonic_merge_high/genblk1.bitonic_merge_low/genblk1.cmp_g[0].compare_i/un1_bitonic_sort_low_0_d0  |     31 | LUT6        |
| dut_inst/bitonic_inst/sorter_inst/genblk1.bitonic_sort_low/genblk1.bitonic_merge_i/genblk1.bitonic_merge_low/genblk1.bitonic_merge_low/genblk1.bitonic_merge_low/genblk1.bitonic_merge_high/genblk1.bitonic_merge_high/genblk1.cmp_g[0].compare_i/un1_bitonic_sort_low_7_0    |     31 | LUT5        |
| dut_inst/bitonic_inst/sorter_inst/genblk1.bitonic_sort_low/genblk1.bitonic_merge_i/genblk1.bitonic_merge_low/genblk1.bitonic_merge_low/genblk1.cmp_g[3].compare_i/un1_compare_i_1_173_0                                                                                       |     31 | LUT5        |
| dut_inst/bitonic_inst/sorter_inst/genblk1.bitonic_sort_low/genblk1.bitonic_merge_i/genblk1.bitonic_merge_low/genblk1.bitonic_merge_low/genblk1.cmp_g[7].compare_i/un1_compare_i_1_174_0                                                                                       |     31 | LUT6        |
| dut_inst/bitonic_inst/sorter_inst/genblk1.bitonic_sort_low/genblk1.bitonic_sort_high/genblk1.bitonic_sort_high/genblk1.bitonic_sort_low/genblk1.bitonic_sort_low/genblk1.bitonic_merge_i/genblk1.bitonic_merge_high/genblk1.cmp_g[0].compare_i/un1_bitonic_sort_low_5_0       |     31 | LUT4        |
| dut_inst/bitonic_inst/sorter_inst/genblk1.bitonic_sort_low/genblk1.bitonic_sort_high/genblk1.bitonic_sort_low/genblk1.bitonic_sort_high/genblk1.bitonic_merge_i/genblk1.bitonic_merge_low/genblk1.cmp_g[1].compare_i/un1_compare_i_43_0                                       |     31 | LUT5        |
| dut_inst/bitonic_inst/sorter_inst/genblk1.bitonic_sort_low/genblk1.bitonic_sort_low/genblk1.bitonic_merge_i/genblk1.bitonic_merge_low/genblk1.bitonic_merge_high/genblk1.bitonic_merge_high/genblk1.bitonic_merge_high/genblk1.cmp_g[0].compare_i/un1_bitonic_sort_low_0_d0   |     31 | LUT6        |
| dut_inst/bitonic_inst/sorter_inst/genblk1.bitonic_sort_low/genblk1.bitonic_sort_low/genblk1.bitonic_sort_high/genblk1.bitonic_merge_i/genblk1.cmp_g[2].compare_i/N_976                                                                                                        |     31 | LUT5        |
| dut_inst/bitonic_inst/sorter_inst/genblk1.bitonic_sort_low/genblk1.bitonic_sort_low/genblk1.bitonic_sort_low/genblk1.bitonic_merge_i/genblk1.bitonic_merge_high/genblk1.bitonic_merge_low/genblk1.cmp_g[1].compare_i/un1_compare_i_1_138_0                                    |     31 | LUT6        |
| dut_inst/bitonic_inst/sorter_inst/genblk1.bitonic_sort_low/genblk1.bitonic_sort_low/genblk1.bitonic_sort_low/genblk1.bitonic_sort_high/genblk1.bitonic_merge_i/genblk1.bitonic_merge_high/genblk1.bitonic_merge_high/genblk1.cmp_g[0].compare_i/un1_bitonic_sort_high_i_1_0   |     31 | LUT5        |
| dut_inst/bitonic_inst/sorter_inst/genblk1.bitonic_sort_low/genblk1.bitonic_sort_low/genblk1.bitonic_sort_low/genblk1.bitonic_sort_low/genblk1.bitonic_merge_i/genblk1.bitonic_merge_low/genblk1.bitonic_merge_high/genblk1.cmp_g[0].compare_i/un1_bitonic_sort_low_8_0        |     31 | LUT6        |
| dut_inst/idx2_199                                                                                                                                                                                                                                                             |     31 | LUT6        |
| dut_inst/idx2_636                                                                                                                                                                                                                                                             |     31 | LUT6        |
| dut_inst/un1_compare_i_1_3[6]                                                                                                                                                                                                                                                 |     31 | LUT5        |
| dut_inst/bitonic_inst/sorter_inst/genblk1.bitonic_merge_i/genblk1.bitonic_merge_low/genblk1.bitonic_merge_high/genblk1.cmp_g[0].compare_i/un1_compare_i_190_0                                                                                                                 |     30 | LUT6        |
| dut_inst/bitonic_inst/sorter_inst/genblk1.bitonic_merge_i/genblk1.bitonic_merge_low/genblk1.bitonic_merge_high/genblk1.cmp_g[8].compare_i/un1_compare_i_191_0                                                                                                                 |     30 | LUT6        |
| dut_inst/bitonic_inst/sorter_inst/genblk1.bitonic_merge_i/genblk1.bitonic_merge_low/genblk1.bitonic_merge_low/genblk1.bitonic_merge_low/genblk1.cmp_g[4].compare_i/un1_compare_i_1_234_0                                                                                      |     30 | LUT6        |
| dut_inst/bitonic_inst/sorter_inst/genblk1.bitonic_merge_i/genblk1.bitonic_merge_low/genblk1.cmp_g[25].compare_i/un1_compare_i_576_0                                                                                                                                           |     30 | LUT6        |
| dut_inst/bitonic_inst/sorter_inst/genblk1.bitonic_merge_i/genblk1.bitonic_merge_low/genblk1.cmp_g[5].compare_i/un1_compare_i_259_0                                                                                                                                            |     30 | LUT5        |
| dut_inst/bitonic_inst/sorter_inst/genblk1.bitonic_sort_high/genblk1.bitonic_merge_i/genblk1.bitonic_merge_high/genblk1.bitonic_merge_low/genblk1.bitonic_merge_high/genblk1.bitonic_merge_low/genblk1.bitonic_merge_low/genblk1.cmp_g[0].compare_i/un1_bitonic_sort_high_10   |     30 | LUT6        |
| dut_inst/bitonic_inst/sorter_inst/genblk1.bitonic_sort_high/genblk1.bitonic_merge_i/genblk1.bitonic_merge_high/genblk1.bitonic_merge_low/genblk1.bitonic_merge_low/genblk1.bitonic_merge_high/genblk1.cmp_g[0].compare_i/un1_compare_i_1_193_0                                |     30 | LUT6        |
| dut_inst/bitonic_inst/sorter_inst/genblk1.bitonic_sort_high/genblk1.bitonic_merge_i/genblk1.bitonic_merge_high/genblk1.bitonic_merge_low/genblk1.bitonic_merge_low/genblk1.bitonic_merge_low/genblk1.cmp_g[0].compare_i/un1_compare_i_566_0                                   |     30 | LUT6        |
| dut_inst/bitonic_inst/sorter_inst/genblk1.bitonic_sort_high/genblk1.bitonic_merge_i/genblk1.bitonic_merge_high/genblk1.cmp_g[6].compare_i/un1_compare_i_461_0                                                                                                                 |     30 | LUT6        |
| dut_inst/bitonic_inst/sorter_inst/genblk1.bitonic_sort_high/genblk1.bitonic_merge_i/genblk1.bitonic_merge_low/genblk1.bitonic_merge_low/genblk1.bitonic_merge_low/genblk1.bitonic_merge_high/genblk1.cmp_g[1].compare_i/un1_compare_i_1_507_0                                 |     30 | LUT5        |
| dut_inst/bitonic_inst/sorter_inst/genblk1.bitonic_sort_high/genblk1.bitonic_sort_high/genblk1.bitonic_merge_i/genblk1.bitonic_merge_high/genblk1.bitonic_merge_high/genblk1.cmp_g[0].compare_i/un1_compare_i_1_376_0                                                          |     30 | LUT6        |
| dut_inst/bitonic_inst/sorter_inst/genblk1.bitonic_sort_high/genblk1.bitonic_sort_high/genblk1.bitonic_merge_i/genblk1.bitonic_merge_high/genblk1.cmp_g[1].compare_i/un1_compare_i_5                                                                                           |     30 | LUT6        |
| dut_inst/bitonic_inst/sorter_inst/genblk1.bitonic_sort_high/genblk1.bitonic_sort_low/genblk1.bitonic_merge_i/genblk1.bitonic_merge_high/genblk1.cmp_g[1].compare_i/un1_compare_i_327_0                                                                                        |     30 | LUT6        |
| dut_inst/bitonic_inst/sorter_inst/genblk1.bitonic_sort_high/genblk1.bitonic_sort_low/genblk1.bitonic_sort_low/genblk1.bitonic_merge_i/genblk1.bitonic_merge_low/genblk1.bitonic_merge_low/genblk1.cmp_g[0].compare_i/un1_compare_i_95_0                                       |     30 | LUT6        |
| dut_inst/bitonic_inst/sorter_inst/genblk1.bitonic_sort_high/genblk1.bitonic_sort_low/genblk1.bitonic_sort_low/genblk1.bitonic_merge_i/genblk1.bitonic_merge_low/genblk1.cmp_g[3].compare_i/un1_bitonic_sort_low_11_0                                                          |     30 | LUT6        |
+-------------------------------------------------------------------------------------------------------------------------------------------------------------------------------------------------------------------------------------------------------------------------------+--------+-------------+


