Copyright 1986-2018 Xilinx, Inc. All Rights Reserved.
-----------------------------------------------------------------------------------------------
| Tool Version      : Vivado v.2018.2 (win64) Build 2258646 Thu Jun 14 20:03:12 MDT 2018
| Date              : Wed Mar 13 11:19:19 2019
| Host              : PCPHESEBE02 running 64-bit Service Pack 1  (build 7601)
| Command           : report_timing_summary -hold -nworst 5 -max_paths 5 -file timing_hold.txt
| Design            : wrapper
| Device            : xcvu9p-flgc2104
| Speed File        : -1  PRODUCTION 1.20 05-21-2018
| Temperature Grade : E
-----------------------------------------------------------------------------------------------

Timing Summary Report

------------------------------------------------------------------------------------------------
| Timer Settings
| --------------
------------------------------------------------------------------------------------------------

  Enable Multi Corner Analysis               :  Yes
  Enable Pessimism Removal                   :  Yes
  Pessimism Removal Resolution               :  Nearest Common Node
  Enable Input Delay Default Clock           :  No
  Enable Preset / Clear Arcs                 :  No
  Disable Flight Delays                      :  No
  Ignore I/O Paths                           :  No
  Timing Early Launch at Borrowing Latches   :  false

  Corner  Analyze    Analyze    
  Name    Max Paths  Min Paths  
  ------  ---------  ---------  
  Slow    Yes        Yes        
  Fast    Yes        Yes        



check_timing report

Table of Contents
-----------------
1. checking no_clock
2. checking constant_clock
3. checking pulse_width_clock
4. checking unconstrained_internal_endpoints
5. checking no_input_delay
6. checking no_output_delay
7. checking multiple_clock
8. checking generated_clocks
9. checking loops
10. checking partial_input_delay
11. checking partial_output_delay
12. checking latch_loops

1. checking no_clock
--------------------
 There are 0 register/latch pins with no clock.


2. checking constant_clock
--------------------------
 There are 0 register/latch pins with constant_clock.


3. checking pulse_width_clock
-----------------------------
 There are 0 register/latch pins which need pulse_width check


4. checking unconstrained_internal_endpoints
--------------------------------------------
 There are 0 pins that are not constrained for maximum delay.

 There are 0 pins that are not constrained for maximum delay due to constant clock.


5. checking no_input_delay
--------------------------
 There is 1 input port with no input delay specified. (HIGH)

 There are 0 input ports with no input delay but user has a false path constraint.


6. checking no_output_delay
---------------------------
 There is 1 port with no output delay specified. (HIGH)

 There are 0 ports with no output delay but user has a false path constraint

 There are 0 ports with no output delay but with a timing clock defined on it or propagating through it


7. checking multiple_clock
--------------------------
 There are 0 register/latch pins with multiple clocks.


8. checking generated_clocks
----------------------------
 There are 0 generated clocks that are not connected to a clock source.


9. checking loops
-----------------
 There are 0 combinational loops in the design.


10. checking partial_input_delay
--------------------------------
 There are 0 input ports with partial input delay specified.


11. checking partial_output_delay
---------------------------------
 There are 0 ports with partial output delay specified.


12. checking latch_loops
------------------------
 There are 0 combinational latch loops in the design through latch input



------------------------------------------------------------------------------------------------
| Design Timing Summary
| ---------------------
------------------------------------------------------------------------------------------------

    WHS(ns)      THS(ns)  THS Failing Endpoints  THS Total Endpoints     WPWS(ns)     TPWS(ns)  TPWS Failing Endpoints  TPWS Total Endpoints  
    -------      -------  ---------------------  -------------------     --------     --------  ----------------------  --------------------  
      2.302        0.000                      0                 3328        1.511        0.000                       0                 14677  


All user specified timing constraints are met.


------------------------------------------------------------------------------------------------
| Clock Summary
| -------------
------------------------------------------------------------------------------------------------

Clock        Waveform(ns)         Period(ns)      Frequency(MHz)
-----        ------------         ----------      --------------
clk          {0.000 1.786}        3.572           279.955         
clk_wrapper  {0.000 500.000}      1000.000        1.000           


------------------------------------------------------------------------------------------------
| Intra Clock Table
| -----------------
------------------------------------------------------------------------------------------------

Clock             WHS(ns)      THS(ns)  THS Failing Endpoints  THS Total Endpoints     WPWS(ns)     TPWS(ns)  TPWS Failing Endpoints  TPWS Total Endpoints  
-----             -------      -------  ---------------------  -------------------     --------     --------  ----------------------  --------------------  
clk                 2.302        0.000                      0                 3328        1.511        0.000                       0                  6909  
clk_wrapper                                                                             498.562        0.000                       0                  7768  


------------------------------------------------------------------------------------------------
| Inter Clock Table
| -----------------
------------------------------------------------------------------------------------------------

From Clock    To Clock          WHS(ns)      THS(ns)  THS Failing Endpoints  THS Total Endpoints  
----------    --------          -------      -------  ---------------------  -------------------  


------------------------------------------------------------------------------------------------
| Other Path Groups Table
| -----------------------
------------------------------------------------------------------------------------------------

Path Group    From Clock    To Clock          WHS(ns)      THS(ns)  THS Failing Endpoints  THS Total Endpoints  
----------    ----------    --------          -------      -------  ---------------------  -------------------  


------------------------------------------------------------------------------------------------
| Timing Details
| --------------
------------------------------------------------------------------------------------------------


---------------------------------------------------------------------------------------------------
From Clock:  clk
  To Clock:  clk

Setup :           NA  Failing Endpoints,  Worst Slack           NA  ,  Total Violation           NA
Hold  :            0  Failing Endpoints,  Worst Slack        2.302ns,  Total Violation        0.000ns
PW    :            0  Failing Endpoints,  Worst Slack        1.511ns,  Total Violation        0.000ns
---------------------------------------------------------------------------------------------------


Min Delay Paths
--------------------------------------------------------------------------------------
Slack (MET) :             2.302ns  (arrival time - required time)
  Source:                 shift_reg_tap_i/sr_p.sr_1_rep_363[1901]/C
                            (rising edge-triggered cell FDRE clocked by clk  {rise@0.000ns fall@1.786ns period=3.572ns})
  Destination:            shift_reg_tap_o/sr_1[2303]/D
                            (rising edge-triggered cell FDRE clocked by clk  {rise@0.000ns fall@1.786ns period=3.572ns})
  Path Group:             clk
  Path Type:              Hold (Min at Fast Process Corner)
  Requirement:            0.000ns  (clk rise@0.000ns - clk rise@0.000ns)
  Data Path Delay:        2.569ns  (logic 0.390ns (15.181%)  route 2.179ns (84.819%))
  Logic Levels:           13  (LUT4=6 LUT6=7)
  Clock Path Skew:        0.221ns (DCD - SCD - CPR)
    Destination Clock Delay (DCD):    2.500ns
    Source Clock Delay      (SCD):    1.940ns
    Clock Pessimism Removal (CPR):    0.339ns
  Clock Net Delay (Source):      1.394ns (routing 0.638ns, distribution 0.756ns)
  Clock Net Delay (Destination): 1.728ns (routing 0.707ns, distribution 1.021ns)

    Location             Delay type                Incr(ns)  Path(ns)    Netlist Resource(s)
  -------------------------------------------------------------------    -------------------
                         (clock clk rise edge)        0.000     0.000 r  
    AV33                                              0.000     0.000 r  clk (IN)
                         net (fo=0)                   0.000     0.000    clk_ibuf_iso/I
    AV33                 INBUF (Prop_INBUF_HPIOB_M_PAD_O)
                                                      0.385     0.385 r  clk_ibuf_iso/INBUF_INST/O
                         net (fo=1, routed)           0.000     0.385    clk_ibuf_iso/OUT
    AV33                 IBUFCTRL (Prop_IBUFCTRL_HPIOB_M_I_O)
                                                      0.000     0.385 r  clk_ibuf_iso/IBUFCTRL_INST/O
                         net (fo=1, routed)           0.144     0.529    clk_ibuf_iso
    BUFGCE_X1Y224        BUFGCE (Prop_BUFCE_BUFGCE_I_O)
                                                      0.017     0.546 r  clk_ibuf/O
    X3Y7 (CLOCK_ROOT)    net (fo=6908, routed)        1.394     1.940    shift_reg_tap_i/clk_c
    SLICE_X71Y495        FDRE                                         r  shift_reg_tap_i/sr_p.sr_1_rep_363[1901]/C
  -------------------------------------------------------------------    -------------------
    SLICE_X71Y495        FDRE (Prop_FFF2_SLICEL_C_Q)
                                                      0.040     1.980 r  shift_reg_tap_i/sr_p.sr_1_rep_363[1901]/Q
                         net (fo=8, routed)           0.054     2.034    dut_inst/sorter_inst/genblk1.bitonic_sort_high/genblk1.bitonic_sort_low/genblk1.bitonic_sort_low/genblk1.bitonic_sort_high/genblk1.bitonic_sort_low/genblk1.bitonic_sort_low/genblk1.bitonic_merge_i/genblk1.bitonic_merge_high/genblk1.cmp_g[0].compare_i/input_slr_rep_363_0
    SLICE_X70Y495        LUT4 (Prop_B6LUT_SLICEM_I1_O)
                                                      0.014     2.048 r  dut_inst/sorter_inst/genblk1.bitonic_sort_high/genblk1.bitonic_sort_low/genblk1.bitonic_sort_low/genblk1.bitonic_sort_high/genblk1.bitonic_sort_low/genblk1.bitonic_sort_low/genblk1.bitonic_merge_i/genblk1.bitonic_merge_high/genblk1.cmp_g[0].compare_i/s0.pt[3]/O
                         net (fo=12, routed)          0.103     2.151    dut_inst/sorter_inst/genblk1.bitonic_sort_high/genblk1.bitonic_sort_low/genblk1.bitonic_sort_low/genblk1.bitonic_sort_high/genblk1.bitonic_sort_low/genblk1.bitonic_merge_i/genblk1.bitonic_merge_low/genblk1.bitonic_merge_low/genblk1.cmp_g[0].compare_i/un1_bitonic_sort_low[26]
    SLICE_X71Y492        LUT6 (Prop_C6LUT_SLICEL_I1_O)
                                                      0.014     2.165 r  dut_inst/sorter_inst/genblk1.bitonic_sort_high/genblk1.bitonic_sort_low/genblk1.bitonic_sort_low/genblk1.bitonic_sort_high/genblk1.bitonic_sort_low/genblk1.bitonic_merge_i/genblk1.bitonic_merge_low/genblk1.bitonic_merge_low/genblk1.cmp_g[0].compare_i/s1.pt[3]/O
                         net (fo=17, routed)          0.130     2.295    dut_inst/sorter_inst/genblk1.bitonic_sort_high/genblk1.bitonic_sort_low/genblk1.bitonic_sort_low/genblk1.bitonic_sort_high/genblk1.bitonic_merge_i/genblk1.bitonic_merge_low/genblk1.bitonic_merge_low/genblk1.cmp_g[1].compare_i/un1_bitonic_sort_low_0
    SLICE_X77Y492        LUT6 (Prop_G6LUT_SLICEL_I4_O)
                                                      0.014     2.309 r  dut_inst/sorter_inst/genblk1.bitonic_sort_high/genblk1.bitonic_sort_low/genblk1.bitonic_sort_low/genblk1.bitonic_sort_high/genblk1.bitonic_merge_i/genblk1.bitonic_merge_low/genblk1.bitonic_merge_low/genblk1.cmp_g[1].compare_i/s1.pt[3]/O
                         net (fo=12, routed)          0.080     2.389    dut_inst/sorter_inst/genblk1.bitonic_sort_high/genblk1.bitonic_sort_low/genblk1.bitonic_sort_low/genblk1.bitonic_merge_i/genblk1.bitonic_merge_high/genblk1.cmp_g[3].compare_i/un1_compare_i_1_9_12
    SLICE_X79Y492        LUT6 (Prop_D6LUT_SLICEL_I1_O)
                                                      0.035     2.424 r  dut_inst/sorter_inst/genblk1.bitonic_sort_high/genblk1.bitonic_sort_low/genblk1.bitonic_sort_low/genblk1.bitonic_merge_i/genblk1.bitonic_merge_high/genblk1.cmp_g[3].compare_i/s0.pt[3]/O
                         net (fo=20, routed)          0.222     2.646    dut_inst/sorter_inst/genblk1.bitonic_sort_high/genblk1.bitonic_sort_low/genblk1.bitonic_sort_low/genblk1.bitonic_merge_i/genblk1.bitonic_merge_high/genblk1.bitonic_merge_low/genblk1.bitonic_merge_high/genblk1.cmp_g[1].compare_i/un1_compare_i_9_0
    SLICE_X89Y497        LUT4 (Prop_E6LUT_SLICEL_I0_O)
                                                      0.014     2.660 r  dut_inst/sorter_inst/genblk1.bitonic_sort_high/genblk1.bitonic_sort_low/genblk1.bitonic_sort_low/genblk1.bitonic_merge_i/genblk1.bitonic_merge_high/genblk1.bitonic_merge_low/genblk1.bitonic_merge_high/genblk1.cmp_g[1].compare_i/s0.pt[3]/O
                         net (fo=28, routed)          0.153     2.813    dut_inst/sorter_inst/genblk1.bitonic_sort_high/genblk1.bitonic_sort_low/genblk1.bitonic_merge_i/genblk1.cmp_g[21].compare_i/un1_compare_i_23_0
    SLICE_X94Y496        LUT4 (Prop_A6LUT_SLICEL_I3_O)
                                                      0.014     2.827 r  dut_inst/sorter_inst/genblk1.bitonic_sort_high/genblk1.bitonic_sort_low/genblk1.bitonic_merge_i/genblk1.cmp_g[21].compare_i/s0.pt[3]/O
                         net (fo=8, routed)           0.058     2.885    dut_inst/sorter_inst/genblk1.bitonic_sort_high/genblk1.bitonic_sort_low/genblk1.bitonic_merge_i/genblk1.bitonic_merge_low/genblk1.bitonic_merge_low/genblk1.cmp_g[5].compare_i/un1_compare_i_58_0
    SLICE_X94Y493        LUT4 (Prop_E6LUT_SLICEL_I0_O)
                                                      0.035     2.920 r  dut_inst/sorter_inst/genblk1.bitonic_sort_high/genblk1.bitonic_sort_low/genblk1.bitonic_merge_i/genblk1.bitonic_merge_low/genblk1.bitonic_merge_low/genblk1.cmp_g[5].compare_i/s1.pt[3]/O
                         net (fo=47, routed)          0.250     3.170    dut_inst/sorter_inst/genblk1.bitonic_sort_high/genblk1.bitonic_merge_i/genblk1.cmp_g[10].compare_i/un1_compare_i_1_8_0
    SLICE_X104Y488       LUT6 (Prop_D6LUT_SLICEM_I0_O)
                                                      0.050     3.220 r  dut_inst/sorter_inst/genblk1.bitonic_sort_high/genblk1.bitonic_merge_i/genblk1.cmp_g[10].compare_i/s0.pt[3]/O
                         net (fo=26, routed)          0.521     3.741    dut_inst/sorter_inst/genblk1.bitonic_sort_high/genblk1.bitonic_merge_i/genblk1.bitonic_merge_low/genblk1.bitonic_merge_low/genblk1.cmp_g[10].compare_i/un1_compare_i_116_0
    SLICE_X122Y481       LUT4 (Prop_B6LUT_SLICEL_I3_O)
                                                      0.023     3.764 r  dut_inst/sorter_inst/genblk1.bitonic_sort_high/genblk1.bitonic_merge_i/genblk1.bitonic_merge_low/genblk1.bitonic_merge_low/genblk1.cmp_g[10].compare_i/s0.pt[3]/O
                         net (fo=12, routed)          0.150     3.914    dut_inst/sorter_inst/genblk1.bitonic_sort_high/genblk1.bitonic_merge_i/genblk1.bitonic_merge_low/genblk1.bitonic_merge_low/genblk1.bitonic_merge_low/genblk1.bitonic_merge_low/genblk1.bitonic_merge_high/genblk1.bitonic_merge_high/genblk1.cmp_g[0].compare_i/un1_compare_i_21_0
    SLICE_X125Y481       LUT6 (Prop_H6LUT_SLICEM_I0_O)
                                                      0.051     3.965 r  dut_inst/sorter_inst/genblk1.bitonic_sort_high/genblk1.bitonic_merge_i/genblk1.bitonic_merge_low/genblk1.bitonic_merge_low/genblk1.bitonic_merge_low/genblk1.bitonic_merge_low/genblk1.bitonic_merge_high/genblk1.bitonic_merge_high/genblk1.cmp_g[0].compare_i/s0.pt[3]/O
                         net (fo=36, routed)          0.267     4.232    dut_inst/sorter_inst/genblk1.bitonic_merge_i/genblk1.bitonic_merge_high/genblk1.bitonic_merge_low/genblk1.bitonic_merge_high/genblk1.cmp_g[6].compare_i/un1_bitonic_sort_high_0
    SLICE_X150Y486       LUT6 (Prop_G6LUT_SLICEM_I0_O)
                                                      0.014     4.246 r  dut_inst/sorter_inst/genblk1.bitonic_merge_i/genblk1.bitonic_merge_high/genblk1.bitonic_merge_low/genblk1.bitonic_merge_high/genblk1.cmp_g[6].compare_i/s1.pt[3]/O
                         net (fo=9, routed)           0.034     4.280    dut_inst/sorter_inst/genblk1.bitonic_merge_i/genblk1.bitonic_merge_high/genblk1.bitonic_merge_low/genblk1.bitonic_merge_high/genblk1.bitonic_merge_high/genblk1.bitonic_merge_low/genblk1.cmp_g[2].compare_i/un1_compare_i_1_36_0
    SLICE_X150Y486       LUT4 (Prop_B6LUT_SLICEM_I1_O)
                                                      0.050     4.330 r  dut_inst/sorter_inst/genblk1.bitonic_merge_i/genblk1.bitonic_merge_high/genblk1.bitonic_merge_low/genblk1.bitonic_merge_high/genblk1.bitonic_merge_high/genblk1.bitonic_merge_low/genblk1.cmp_g[2].compare_i/s0.pt[3]/O
                         net (fo=16, routed)          0.136     4.466    dut_inst/sorter_inst/genblk1.bitonic_merge_i/genblk1.bitonic_merge_high/genblk1.bitonic_merge_low/genblk1.bitonic_merge_high/genblk1.bitonic_merge_high/genblk1.bitonic_merge_low/genblk1.bitonic_merge_low/genblk1.bitonic_merge_low/genblk1.cmp_g[0].compare_i/un1_compare_i_1_0
    SLICE_X153Y488       LUT6 (Prop_B6LUT_SLICEM_I1_O)
                                                      0.022     4.488 r  dut_inst/sorter_inst/genblk1.bitonic_merge_i/genblk1.bitonic_merge_high/genblk1.bitonic_merge_low/genblk1.bitonic_merge_high/genblk1.bitonic_merge_high/genblk1.bitonic_merge_low/genblk1.bitonic_merge_low/genblk1.bitonic_merge_low/genblk1.cmp_g[0].compare_i/s1.pt_0[2]/O
                         net (fo=1, routed)           0.021     4.509    shift_reg_tap_o/pt_0_15_0_0
    SLICE_X153Y488       FDRE                                         r  shift_reg_tap_o/sr_1[2303]/D
  -------------------------------------------------------------------    -------------------

                         (clock clk rise edge)        0.000     0.000 r  
    AV33                                              0.000     0.000 r  clk (IN)
                         net (fo=0)                   0.000     0.000    clk_ibuf_iso/I
    AV33                 INBUF (Prop_INBUF_HPIOB_M_PAD_O)
                                                      0.572     0.572 r  clk_ibuf_iso/INBUF_INST/O
                         net (fo=1, routed)           0.000     0.572    clk_ibuf_iso/OUT
    AV33                 IBUFCTRL (Prop_IBUFCTRL_HPIOB_M_I_O)
                                                      0.000     0.572 r  clk_ibuf_iso/IBUFCTRL_INST/O
                         net (fo=1, routed)           0.181     0.753    clk_ibuf_iso
    BUFGCE_X1Y224        BUFGCE (Prop_BUFCE_BUFGCE_I_O)
                                                      0.019     0.772 r  clk_ibuf/O
    X3Y7 (CLOCK_ROOT)    net (fo=6908, routed)        1.728     2.500    shift_reg_tap_o/clk_c
    SLICE_X153Y488       FDRE                                         r  shift_reg_tap_o/sr_1[2303]/C
                         clock pessimism             -0.339     2.161    
    SLICE_X153Y488       FDRE (Hold_BFF_SLICEM_C_D)
                                                      0.046     2.207    shift_reg_tap_o/sr_1[2303]
  -------------------------------------------------------------------
                         required time                         -2.207    
                         arrival time                           4.509    
  -------------------------------------------------------------------
                         slack                                  2.302    

Slack (MET) :             2.302ns  (arrival time - required time)
  Source:                 shift_reg_tap_i/sr_p.sr_1_rep_363[1901]/C
                            (rising edge-triggered cell FDRE clocked by clk  {rise@0.000ns fall@1.786ns period=3.572ns})
  Destination:            shift_reg_tap_o/sr_1[2303]/D
                            (rising edge-triggered cell FDRE clocked by clk  {rise@0.000ns fall@1.786ns period=3.572ns})
  Path Group:             clk
  Path Type:              Hold (Min at Fast Process Corner)
  Requirement:            0.000ns  (clk rise@0.000ns - clk rise@0.000ns)
  Data Path Delay:        2.569ns  (logic 0.390ns (15.181%)  route 2.179ns (84.819%))
  Logic Levels:           13  (LUT4=6 LUT6=7)
  Clock Path Skew:        0.221ns (DCD - SCD - CPR)
    Destination Clock Delay (DCD):    2.500ns
    Source Clock Delay      (SCD):    1.940ns
    Clock Pessimism Removal (CPR):    0.339ns
  Clock Net Delay (Source):      1.394ns (routing 0.638ns, distribution 0.756ns)
  Clock Net Delay (Destination): 1.728ns (routing 0.707ns, distribution 1.021ns)

    Location             Delay type                Incr(ns)  Path(ns)    Netlist Resource(s)
  -------------------------------------------------------------------    -------------------
                         (clock clk rise edge)        0.000     0.000 r  
    AV33                                              0.000     0.000 r  clk (IN)
                         net (fo=0)                   0.000     0.000    clk_ibuf_iso/I
    AV33                 INBUF (Prop_INBUF_HPIOB_M_PAD_O)
                                                      0.385     0.385 r  clk_ibuf_iso/INBUF_INST/O
                         net (fo=1, routed)           0.000     0.385    clk_ibuf_iso/OUT
    AV33                 IBUFCTRL (Prop_IBUFCTRL_HPIOB_M_I_O)
                                                      0.000     0.385 r  clk_ibuf_iso/IBUFCTRL_INST/O
                         net (fo=1, routed)           0.144     0.529    clk_ibuf_iso
    BUFGCE_X1Y224        BUFGCE (Prop_BUFCE_BUFGCE_I_O)
                                                      0.017     0.546 r  clk_ibuf/O
    X3Y7 (CLOCK_ROOT)    net (fo=6908, routed)        1.394     1.940    shift_reg_tap_i/clk_c
    SLICE_X71Y495        FDRE                                         r  shift_reg_tap_i/sr_p.sr_1_rep_363[1901]/C
  -------------------------------------------------------------------    -------------------
    SLICE_X71Y495        FDRE (Prop_FFF2_SLICEL_C_Q)
                                                      0.040     1.980 f  shift_reg_tap_i/sr_p.sr_1_rep_363[1901]/Q
                         net (fo=8, routed)           0.054     2.034    dut_inst/sorter_inst/genblk1.bitonic_sort_high/genblk1.bitonic_sort_low/genblk1.bitonic_sort_low/genblk1.bitonic_sort_high/genblk1.bitonic_sort_low/genblk1.bitonic_sort_low/genblk1.bitonic_merge_i/genblk1.bitonic_merge_high/genblk1.cmp_g[0].compare_i/input_slr_rep_363_0
    SLICE_X70Y495        LUT4 (Prop_B6LUT_SLICEM_I1_O)
                                                      0.014     2.048 f  dut_inst/sorter_inst/genblk1.bitonic_sort_high/genblk1.bitonic_sort_low/genblk1.bitonic_sort_low/genblk1.bitonic_sort_high/genblk1.bitonic_sort_low/genblk1.bitonic_sort_low/genblk1.bitonic_merge_i/genblk1.bitonic_merge_high/genblk1.cmp_g[0].compare_i/s0.pt[3]/O
                         net (fo=12, routed)          0.103     2.151    dut_inst/sorter_inst/genblk1.bitonic_sort_high/genblk1.bitonic_sort_low/genblk1.bitonic_sort_low/genblk1.bitonic_sort_high/genblk1.bitonic_sort_low/genblk1.bitonic_merge_i/genblk1.bitonic_merge_low/genblk1.bitonic_merge_low/genblk1.cmp_g[0].compare_i/un1_bitonic_sort_low[26]
    SLICE_X71Y492        LUT6 (Prop_C6LUT_SLICEL_I1_O)
                                                      0.014     2.165 f  dut_inst/sorter_inst/genblk1.bitonic_sort_high/genblk1.bitonic_sort_low/genblk1.bitonic_sort_low/genblk1.bitonic_sort_high/genblk1.bitonic_sort_low/genblk1.bitonic_merge_i/genblk1.bitonic_merge_low/genblk1.bitonic_merge_low/genblk1.cmp_g[0].compare_i/s1.pt[3]/O
                         net (fo=17, routed)          0.130     2.295    dut_inst/sorter_inst/genblk1.bitonic_sort_high/genblk1.bitonic_sort_low/genblk1.bitonic_sort_low/genblk1.bitonic_sort_high/genblk1.bitonic_merge_i/genblk1.bitonic_merge_low/genblk1.bitonic_merge_low/genblk1.cmp_g[1].compare_i/un1_bitonic_sort_low_0
    SLICE_X77Y492        LUT6 (Prop_G6LUT_SLICEL_I4_O)
                                                      0.014     2.309 f  dut_inst/sorter_inst/genblk1.bitonic_sort_high/genblk1.bitonic_sort_low/genblk1.bitonic_sort_low/genblk1.bitonic_sort_high/genblk1.bitonic_merge_i/genblk1.bitonic_merge_low/genblk1.bitonic_merge_low/genblk1.cmp_g[1].compare_i/s1.pt[3]/O
                         net (fo=12, routed)          0.080     2.389    dut_inst/sorter_inst/genblk1.bitonic_sort_high/genblk1.bitonic_sort_low/genblk1.bitonic_sort_low/genblk1.bitonic_merge_i/genblk1.bitonic_merge_high/genblk1.cmp_g[3].compare_i/un1_compare_i_1_9_12
    SLICE_X79Y492        LUT6 (Prop_D6LUT_SLICEL_I1_O)
                                                      0.035     2.424 f  dut_inst/sorter_inst/genblk1.bitonic_sort_high/genblk1.bitonic_sort_low/genblk1.bitonic_sort_low/genblk1.bitonic_merge_i/genblk1.bitonic_merge_high/genblk1.cmp_g[3].compare_i/s0.pt[3]/O
                         net (fo=20, routed)          0.222     2.646    dut_inst/sorter_inst/genblk1.bitonic_sort_high/genblk1.bitonic_sort_low/genblk1.bitonic_sort_low/genblk1.bitonic_merge_i/genblk1.bitonic_merge_high/genblk1.bitonic_merge_low/genblk1.bitonic_merge_high/genblk1.cmp_g[1].compare_i/un1_compare_i_9_0
    SLICE_X89Y497        LUT4 (Prop_E6LUT_SLICEL_I0_O)
                                                      0.014     2.660 f  dut_inst/sorter_inst/genblk1.bitonic_sort_high/genblk1.bitonic_sort_low/genblk1.bitonic_sort_low/genblk1.bitonic_merge_i/genblk1.bitonic_merge_high/genblk1.bitonic_merge_low/genblk1.bitonic_merge_high/genblk1.cmp_g[1].compare_i/s0.pt[3]/O
                         net (fo=28, routed)          0.153     2.813    dut_inst/sorter_inst/genblk1.bitonic_sort_high/genblk1.bitonic_sort_low/genblk1.bitonic_merge_i/genblk1.cmp_g[21].compare_i/un1_compare_i_23_0
    SLICE_X94Y496        LUT4 (Prop_A6LUT_SLICEL_I3_O)
                                                      0.014     2.827 f  dut_inst/sorter_inst/genblk1.bitonic_sort_high/genblk1.bitonic_sort_low/genblk1.bitonic_merge_i/genblk1.cmp_g[21].compare_i/s0.pt[3]/O
                         net (fo=8, routed)           0.058     2.885    dut_inst/sorter_inst/genblk1.bitonic_sort_high/genblk1.bitonic_sort_low/genblk1.bitonic_merge_i/genblk1.bitonic_merge_low/genblk1.bitonic_merge_low/genblk1.cmp_g[5].compare_i/un1_compare_i_58_0
    SLICE_X94Y493        LUT4 (Prop_E6LUT_SLICEL_I0_O)
                                                      0.035     2.920 f  dut_inst/sorter_inst/genblk1.bitonic_sort_high/genblk1.bitonic_sort_low/genblk1.bitonic_merge_i/genblk1.bitonic_merge_low/genblk1.bitonic_merge_low/genblk1.cmp_g[5].compare_i/s1.pt[3]/O
                         net (fo=47, routed)          0.250     3.170    dut_inst/sorter_inst/genblk1.bitonic_sort_high/genblk1.bitonic_merge_i/genblk1.cmp_g[10].compare_i/un1_compare_i_1_8_0
    SLICE_X104Y488       LUT6 (Prop_D6LUT_SLICEM_I0_O)
                                                      0.050     3.220 f  dut_inst/sorter_inst/genblk1.bitonic_sort_high/genblk1.bitonic_merge_i/genblk1.cmp_g[10].compare_i/s0.pt[3]/O
                         net (fo=26, routed)          0.521     3.741    dut_inst/sorter_inst/genblk1.bitonic_sort_high/genblk1.bitonic_merge_i/genblk1.bitonic_merge_low/genblk1.bitonic_merge_low/genblk1.cmp_g[10].compare_i/un1_compare_i_116_0
    SLICE_X122Y481       LUT4 (Prop_B6LUT_SLICEL_I3_O)
                                                      0.023     3.764 f  dut_inst/sorter_inst/genblk1.bitonic_sort_high/genblk1.bitonic_merge_i/genblk1.bitonic_merge_low/genblk1.bitonic_merge_low/genblk1.cmp_g[10].compare_i/s0.pt[3]/O
                         net (fo=12, routed)          0.150     3.914    dut_inst/sorter_inst/genblk1.bitonic_sort_high/genblk1.bitonic_merge_i/genblk1.bitonic_merge_low/genblk1.bitonic_merge_low/genblk1.bitonic_merge_low/genblk1.bitonic_merge_low/genblk1.bitonic_merge_high/genblk1.bitonic_merge_high/genblk1.cmp_g[0].compare_i/un1_compare_i_21_0
    SLICE_X125Y481       LUT6 (Prop_H6LUT_SLICEM_I0_O)
                                                      0.051     3.965 f  dut_inst/sorter_inst/genblk1.bitonic_sort_high/genblk1.bitonic_merge_i/genblk1.bitonic_merge_low/genblk1.bitonic_merge_low/genblk1.bitonic_merge_low/genblk1.bitonic_merge_low/genblk1.bitonic_merge_high/genblk1.bitonic_merge_high/genblk1.cmp_g[0].compare_i/s0.pt[3]/O
                         net (fo=36, routed)          0.267     4.232    dut_inst/sorter_inst/genblk1.bitonic_merge_i/genblk1.bitonic_merge_high/genblk1.bitonic_merge_low/genblk1.bitonic_merge_high/genblk1.cmp_g[6].compare_i/un1_bitonic_sort_high_0
    SLICE_X150Y486       LUT6 (Prop_G6LUT_SLICEM_I0_O)
                                                      0.014     4.246 f  dut_inst/sorter_inst/genblk1.bitonic_merge_i/genblk1.bitonic_merge_high/genblk1.bitonic_merge_low/genblk1.bitonic_merge_high/genblk1.cmp_g[6].compare_i/s1.pt[3]/O
                         net (fo=9, routed)           0.034     4.280    dut_inst/sorter_inst/genblk1.bitonic_merge_i/genblk1.bitonic_merge_high/genblk1.bitonic_merge_low/genblk1.bitonic_merge_high/genblk1.bitonic_merge_high/genblk1.bitonic_merge_low/genblk1.cmp_g[2].compare_i/un1_compare_i_1_36_0
    SLICE_X150Y486       LUT4 (Prop_B6LUT_SLICEM_I1_O)
                                                      0.050     4.330 f  dut_inst/sorter_inst/genblk1.bitonic_merge_i/genblk1.bitonic_merge_high/genblk1.bitonic_merge_low/genblk1.bitonic_merge_high/genblk1.bitonic_merge_high/genblk1.bitonic_merge_low/genblk1.cmp_g[2].compare_i/s0.pt[3]/O
                         net (fo=16, routed)          0.136     4.466    dut_inst/sorter_inst/genblk1.bitonic_merge_i/genblk1.bitonic_merge_high/genblk1.bitonic_merge_low/genblk1.bitonic_merge_high/genblk1.bitonic_merge_high/genblk1.bitonic_merge_low/genblk1.bitonic_merge_low/genblk1.bitonic_merge_low/genblk1.cmp_g[0].compare_i/un1_compare_i_1_0
    SLICE_X153Y488       LUT6 (Prop_B6LUT_SLICEM_I1_O)
                                                      0.022     4.488 r  dut_inst/sorter_inst/genblk1.bitonic_merge_i/genblk1.bitonic_merge_high/genblk1.bitonic_merge_low/genblk1.bitonic_merge_high/genblk1.bitonic_merge_high/genblk1.bitonic_merge_low/genblk1.bitonic_merge_low/genblk1.bitonic_merge_low/genblk1.cmp_g[0].compare_i/s1.pt_0[2]/O
                         net (fo=1, routed)           0.021     4.509    shift_reg_tap_o/pt_0_15_0_0
    SLICE_X153Y488       FDRE                                         r  shift_reg_tap_o/sr_1[2303]/D
  -------------------------------------------------------------------    -------------------

                         (clock clk rise edge)        0.000     0.000 r  
    AV33                                              0.000     0.000 r  clk (IN)
                         net (fo=0)                   0.000     0.000    clk_ibuf_iso/I
    AV33                 INBUF (Prop_INBUF_HPIOB_M_PAD_O)
                                                      0.572     0.572 r  clk_ibuf_iso/INBUF_INST/O
                         net (fo=1, routed)           0.000     0.572    clk_ibuf_iso/OUT
    AV33                 IBUFCTRL (Prop_IBUFCTRL_HPIOB_M_I_O)
                                                      0.000     0.572 r  clk_ibuf_iso/IBUFCTRL_INST/O
                         net (fo=1, routed)           0.181     0.753    clk_ibuf_iso
    BUFGCE_X1Y224        BUFGCE (Prop_BUFCE_BUFGCE_I_O)
                                                      0.019     0.772 r  clk_ibuf/O
    X3Y7 (CLOCK_ROOT)    net (fo=6908, routed)        1.728     2.500    shift_reg_tap_o/clk_c
    SLICE_X153Y488       FDRE                                         r  shift_reg_tap_o/sr_1[2303]/C
                         clock pessimism             -0.339     2.161    
    SLICE_X153Y488       FDRE (Hold_BFF_SLICEM_C_D)
                                                      0.046     2.207    shift_reg_tap_o/sr_1[2303]
  -------------------------------------------------------------------
                         required time                         -2.207    
                         arrival time                           4.509    
  -------------------------------------------------------------------
                         slack                                  2.302    

Slack (MET) :             2.302ns  (arrival time - required time)
  Source:                 shift_reg_tap_i/sr_p.sr_1_rep_363[1901]/C
                            (rising edge-triggered cell FDRE clocked by clk  {rise@0.000ns fall@1.786ns period=3.572ns})
  Destination:            shift_reg_tap_o/sr_1[2303]/D
                            (rising edge-triggered cell FDRE clocked by clk  {rise@0.000ns fall@1.786ns period=3.572ns})
  Path Group:             clk
  Path Type:              Hold (Min at Fast Process Corner)
  Requirement:            0.000ns  (clk rise@0.000ns - clk rise@0.000ns)
  Data Path Delay:        2.569ns  (logic 0.390ns (15.181%)  route 2.179ns (84.819%))
  Logic Levels:           13  (LUT4=6 LUT6=7)
  Clock Path Skew:        0.221ns (DCD - SCD - CPR)
    Destination Clock Delay (DCD):    2.500ns
    Source Clock Delay      (SCD):    1.940ns
    Clock Pessimism Removal (CPR):    0.339ns
  Clock Net Delay (Source):      1.394ns (routing 0.638ns, distribution 0.756ns)
  Clock Net Delay (Destination): 1.728ns (routing 0.707ns, distribution 1.021ns)

    Location             Delay type                Incr(ns)  Path(ns)    Netlist Resource(s)
  -------------------------------------------------------------------    -------------------
                         (clock clk rise edge)        0.000     0.000 r  
    AV33                                              0.000     0.000 r  clk (IN)
                         net (fo=0)                   0.000     0.000    clk_ibuf_iso/I
    AV33                 INBUF (Prop_INBUF_HPIOB_M_PAD_O)
                                                      0.385     0.385 r  clk_ibuf_iso/INBUF_INST/O
                         net (fo=1, routed)           0.000     0.385    clk_ibuf_iso/OUT
    AV33                 IBUFCTRL (Prop_IBUFCTRL_HPIOB_M_I_O)
                                                      0.000     0.385 r  clk_ibuf_iso/IBUFCTRL_INST/O
                         net (fo=1, routed)           0.144     0.529    clk_ibuf_iso
    BUFGCE_X1Y224        BUFGCE (Prop_BUFCE_BUFGCE_I_O)
                                                      0.017     0.546 r  clk_ibuf/O
    X3Y7 (CLOCK_ROOT)    net (fo=6908, routed)        1.394     1.940    shift_reg_tap_i/clk_c
    SLICE_X71Y495        FDRE                                         r  shift_reg_tap_i/sr_p.sr_1_rep_363[1901]/C
  -------------------------------------------------------------------    -------------------
    SLICE_X71Y495        FDRE (Prop_FFF2_SLICEL_C_Q)
                                                      0.040     1.980 r  shift_reg_tap_i/sr_p.sr_1_rep_363[1901]/Q
                         net (fo=8, routed)           0.054     2.034    dut_inst/sorter_inst/genblk1.bitonic_sort_high/genblk1.bitonic_sort_low/genblk1.bitonic_sort_low/genblk1.bitonic_sort_high/genblk1.bitonic_sort_low/genblk1.bitonic_sort_low/genblk1.bitonic_merge_i/genblk1.bitonic_merge_high/genblk1.cmp_g[0].compare_i/input_slr_rep_363_0
    SLICE_X70Y495        LUT4 (Prop_B6LUT_SLICEM_I1_O)
                                                      0.014     2.048 r  dut_inst/sorter_inst/genblk1.bitonic_sort_high/genblk1.bitonic_sort_low/genblk1.bitonic_sort_low/genblk1.bitonic_sort_high/genblk1.bitonic_sort_low/genblk1.bitonic_sort_low/genblk1.bitonic_merge_i/genblk1.bitonic_merge_high/genblk1.cmp_g[0].compare_i/s0.pt[3]/O
                         net (fo=12, routed)          0.103     2.151    dut_inst/sorter_inst/genblk1.bitonic_sort_high/genblk1.bitonic_sort_low/genblk1.bitonic_sort_low/genblk1.bitonic_sort_high/genblk1.bitonic_sort_low/genblk1.bitonic_merge_i/genblk1.bitonic_merge_low/genblk1.bitonic_merge_low/genblk1.cmp_g[0].compare_i/un1_bitonic_sort_low[26]
    SLICE_X71Y492        LUT6 (Prop_C6LUT_SLICEL_I1_O)
                                                      0.014     2.165 r  dut_inst/sorter_inst/genblk1.bitonic_sort_high/genblk1.bitonic_sort_low/genblk1.bitonic_sort_low/genblk1.bitonic_sort_high/genblk1.bitonic_sort_low/genblk1.bitonic_merge_i/genblk1.bitonic_merge_low/genblk1.bitonic_merge_low/genblk1.cmp_g[0].compare_i/s1.pt[3]/O
                         net (fo=17, routed)          0.130     2.295    dut_inst/sorter_inst/genblk1.bitonic_sort_high/genblk1.bitonic_sort_low/genblk1.bitonic_sort_low/genblk1.bitonic_sort_high/genblk1.bitonic_merge_i/genblk1.bitonic_merge_low/genblk1.bitonic_merge_low/genblk1.cmp_g[1].compare_i/un1_bitonic_sort_low_0
    SLICE_X77Y492        LUT6 (Prop_G6LUT_SLICEL_I4_O)
                                                      0.014     2.309 r  dut_inst/sorter_inst/genblk1.bitonic_sort_high/genblk1.bitonic_sort_low/genblk1.bitonic_sort_low/genblk1.bitonic_sort_high/genblk1.bitonic_merge_i/genblk1.bitonic_merge_low/genblk1.bitonic_merge_low/genblk1.cmp_g[1].compare_i/s1.pt[3]/O
                         net (fo=12, routed)          0.080     2.389    dut_inst/sorter_inst/genblk1.bitonic_sort_high/genblk1.bitonic_sort_low/genblk1.bitonic_sort_low/genblk1.bitonic_merge_i/genblk1.bitonic_merge_high/genblk1.cmp_g[3].compare_i/un1_compare_i_1_9_12
    SLICE_X79Y492        LUT6 (Prop_D6LUT_SLICEL_I1_O)
                                                      0.035     2.424 r  dut_inst/sorter_inst/genblk1.bitonic_sort_high/genblk1.bitonic_sort_low/genblk1.bitonic_sort_low/genblk1.bitonic_merge_i/genblk1.bitonic_merge_high/genblk1.cmp_g[3].compare_i/s0.pt[3]/O
                         net (fo=20, routed)          0.222     2.646    dut_inst/sorter_inst/genblk1.bitonic_sort_high/genblk1.bitonic_sort_low/genblk1.bitonic_sort_low/genblk1.bitonic_merge_i/genblk1.bitonic_merge_high/genblk1.bitonic_merge_low/genblk1.bitonic_merge_high/genblk1.cmp_g[1].compare_i/un1_compare_i_9_0
    SLICE_X89Y497        LUT4 (Prop_E6LUT_SLICEL_I0_O)
                                                      0.014     2.660 r  dut_inst/sorter_inst/genblk1.bitonic_sort_high/genblk1.bitonic_sort_low/genblk1.bitonic_sort_low/genblk1.bitonic_merge_i/genblk1.bitonic_merge_high/genblk1.bitonic_merge_low/genblk1.bitonic_merge_high/genblk1.cmp_g[1].compare_i/s0.pt[3]/O
                         net (fo=28, routed)          0.153     2.813    dut_inst/sorter_inst/genblk1.bitonic_sort_high/genblk1.bitonic_sort_low/genblk1.bitonic_merge_i/genblk1.cmp_g[21].compare_i/un1_compare_i_23_0
    SLICE_X94Y496        LUT4 (Prop_A6LUT_SLICEL_I3_O)
                                                      0.014     2.827 r  dut_inst/sorter_inst/genblk1.bitonic_sort_high/genblk1.bitonic_sort_low/genblk1.bitonic_merge_i/genblk1.cmp_g[21].compare_i/s0.pt[3]/O
                         net (fo=8, routed)           0.058     2.885    dut_inst/sorter_inst/genblk1.bitonic_sort_high/genblk1.bitonic_sort_low/genblk1.bitonic_merge_i/genblk1.bitonic_merge_low/genblk1.bitonic_merge_low/genblk1.cmp_g[5].compare_i/un1_compare_i_58_0
    SLICE_X94Y493        LUT4 (Prop_E6LUT_SLICEL_I0_O)
                                                      0.035     2.920 r  dut_inst/sorter_inst/genblk1.bitonic_sort_high/genblk1.bitonic_sort_low/genblk1.bitonic_merge_i/genblk1.bitonic_merge_low/genblk1.bitonic_merge_low/genblk1.cmp_g[5].compare_i/s1.pt[3]/O
                         net (fo=47, routed)          0.250     3.170    dut_inst/sorter_inst/genblk1.bitonic_sort_high/genblk1.bitonic_merge_i/genblk1.cmp_g[10].compare_i/un1_compare_i_1_8_0
    SLICE_X104Y488       LUT6 (Prop_D6LUT_SLICEM_I0_O)
                                                      0.050     3.220 r  dut_inst/sorter_inst/genblk1.bitonic_sort_high/genblk1.bitonic_merge_i/genblk1.cmp_g[10].compare_i/s0.pt[3]/O
                         net (fo=26, routed)          0.521     3.741    dut_inst/sorter_inst/genblk1.bitonic_sort_high/genblk1.bitonic_merge_i/genblk1.bitonic_merge_low/genblk1.bitonic_merge_low/genblk1.cmp_g[10].compare_i/un1_compare_i_116_0
    SLICE_X122Y481       LUT4 (Prop_B6LUT_SLICEL_I3_O)
                                                      0.023     3.764 r  dut_inst/sorter_inst/genblk1.bitonic_sort_high/genblk1.bitonic_merge_i/genblk1.bitonic_merge_low/genblk1.bitonic_merge_low/genblk1.cmp_g[10].compare_i/s0.pt[3]/O
                         net (fo=12, routed)          0.150     3.914    dut_inst/sorter_inst/genblk1.bitonic_sort_high/genblk1.bitonic_merge_i/genblk1.bitonic_merge_low/genblk1.bitonic_merge_low/genblk1.bitonic_merge_low/genblk1.bitonic_merge_low/genblk1.bitonic_merge_high/genblk1.bitonic_merge_high/genblk1.cmp_g[0].compare_i/un1_compare_i_21_0
    SLICE_X125Y481       LUT6 (Prop_H6LUT_SLICEM_I0_O)
                                                      0.051     3.965 r  dut_inst/sorter_inst/genblk1.bitonic_sort_high/genblk1.bitonic_merge_i/genblk1.bitonic_merge_low/genblk1.bitonic_merge_low/genblk1.bitonic_merge_low/genblk1.bitonic_merge_low/genblk1.bitonic_merge_high/genblk1.bitonic_merge_high/genblk1.cmp_g[0].compare_i/s0.pt[3]/O
                         net (fo=36, routed)          0.267     4.232    dut_inst/sorter_inst/genblk1.bitonic_merge_i/genblk1.bitonic_merge_high/genblk1.bitonic_merge_low/genblk1.bitonic_merge_high/genblk1.cmp_g[6].compare_i/un1_bitonic_sort_high_0
    SLICE_X150Y486       LUT6 (Prop_G6LUT_SLICEM_I0_O)
                                                      0.014     4.246 r  dut_inst/sorter_inst/genblk1.bitonic_merge_i/genblk1.bitonic_merge_high/genblk1.bitonic_merge_low/genblk1.bitonic_merge_high/genblk1.cmp_g[6].compare_i/s1.pt[3]/O
                         net (fo=9, routed)           0.034     4.280    dut_inst/sorter_inst/genblk1.bitonic_merge_i/genblk1.bitonic_merge_high/genblk1.bitonic_merge_low/genblk1.bitonic_merge_high/genblk1.bitonic_merge_high/genblk1.bitonic_merge_low/genblk1.cmp_g[2].compare_i/un1_compare_i_1_36_0
    SLICE_X150Y486       LUT4 (Prop_B6LUT_SLICEM_I1_O)
                                                      0.050     4.330 r  dut_inst/sorter_inst/genblk1.bitonic_merge_i/genblk1.bitonic_merge_high/genblk1.bitonic_merge_low/genblk1.bitonic_merge_high/genblk1.bitonic_merge_high/genblk1.bitonic_merge_low/genblk1.cmp_g[2].compare_i/s0.pt[3]/O
                         net (fo=16, routed)          0.136     4.466    dut_inst/sorter_inst/genblk1.bitonic_merge_i/genblk1.bitonic_merge_high/genblk1.bitonic_merge_low/genblk1.bitonic_merge_high/genblk1.bitonic_merge_high/genblk1.bitonic_merge_low/genblk1.bitonic_merge_low/genblk1.bitonic_merge_low/genblk1.cmp_g[0].compare_i/un1_compare_i_1_0
    SLICE_X153Y488       LUT6 (Prop_B6LUT_SLICEM_I1_O)
                                                      0.022     4.488 f  dut_inst/sorter_inst/genblk1.bitonic_merge_i/genblk1.bitonic_merge_high/genblk1.bitonic_merge_low/genblk1.bitonic_merge_high/genblk1.bitonic_merge_high/genblk1.bitonic_merge_low/genblk1.bitonic_merge_low/genblk1.bitonic_merge_low/genblk1.cmp_g[0].compare_i/s1.pt_0[2]/O
                         net (fo=1, routed)           0.021     4.509    shift_reg_tap_o/pt_0_15_0_0
    SLICE_X153Y488       FDRE                                         f  shift_reg_tap_o/sr_1[2303]/D
  -------------------------------------------------------------------    -------------------

                         (clock clk rise edge)        0.000     0.000 r  
    AV33                                              0.000     0.000 r  clk (IN)
                         net (fo=0)                   0.000     0.000    clk_ibuf_iso/I
    AV33                 INBUF (Prop_INBUF_HPIOB_M_PAD_O)
                                                      0.572     0.572 r  clk_ibuf_iso/INBUF_INST/O
                         net (fo=1, routed)           0.000     0.572    clk_ibuf_iso/OUT
    AV33                 IBUFCTRL (Prop_IBUFCTRL_HPIOB_M_I_O)
                                                      0.000     0.572 r  clk_ibuf_iso/IBUFCTRL_INST/O
                         net (fo=1, routed)           0.181     0.753    clk_ibuf_iso
    BUFGCE_X1Y224        BUFGCE (Prop_BUFCE_BUFGCE_I_O)
                                                      0.019     0.772 r  clk_ibuf/O
    X3Y7 (CLOCK_ROOT)    net (fo=6908, routed)        1.728     2.500    shift_reg_tap_o/clk_c
    SLICE_X153Y488       FDRE                                         r  shift_reg_tap_o/sr_1[2303]/C
                         clock pessimism             -0.339     2.161    
    SLICE_X153Y488       FDRE (Hold_BFF_SLICEM_C_D)
                                                      0.046     2.207    shift_reg_tap_o/sr_1[2303]
  -------------------------------------------------------------------
                         required time                         -2.207    
                         arrival time                           4.509    
  -------------------------------------------------------------------
                         slack                                  2.302    

Slack (MET) :             2.302ns  (arrival time - required time)
  Source:                 shift_reg_tap_i/sr_p.sr_1_rep_363[1901]/C
                            (rising edge-triggered cell FDRE clocked by clk  {rise@0.000ns fall@1.786ns period=3.572ns})
  Destination:            shift_reg_tap_o/sr_1[2303]/D
                            (rising edge-triggered cell FDRE clocked by clk  {rise@0.000ns fall@1.786ns period=3.572ns})
  Path Group:             clk
  Path Type:              Hold (Min at Fast Process Corner)
  Requirement:            0.000ns  (clk rise@0.000ns - clk rise@0.000ns)
  Data Path Delay:        2.569ns  (logic 0.390ns (15.181%)  route 2.179ns (84.819%))
  Logic Levels:           13  (LUT4=6 LUT6=7)
  Clock Path Skew:        0.221ns (DCD - SCD - CPR)
    Destination Clock Delay (DCD):    2.500ns
    Source Clock Delay      (SCD):    1.940ns
    Clock Pessimism Removal (CPR):    0.339ns
  Clock Net Delay (Source):      1.394ns (routing 0.638ns, distribution 0.756ns)
  Clock Net Delay (Destination): 1.728ns (routing 0.707ns, distribution 1.021ns)

    Location             Delay type                Incr(ns)  Path(ns)    Netlist Resource(s)
  -------------------------------------------------------------------    -------------------
                         (clock clk rise edge)        0.000     0.000 r  
    AV33                                              0.000     0.000 r  clk (IN)
                         net (fo=0)                   0.000     0.000    clk_ibuf_iso/I
    AV33                 INBUF (Prop_INBUF_HPIOB_M_PAD_O)
                                                      0.385     0.385 r  clk_ibuf_iso/INBUF_INST/O
                         net (fo=1, routed)           0.000     0.385    clk_ibuf_iso/OUT
    AV33                 IBUFCTRL (Prop_IBUFCTRL_HPIOB_M_I_O)
                                                      0.000     0.385 r  clk_ibuf_iso/IBUFCTRL_INST/O
                         net (fo=1, routed)           0.144     0.529    clk_ibuf_iso
    BUFGCE_X1Y224        BUFGCE (Prop_BUFCE_BUFGCE_I_O)
                                                      0.017     0.546 r  clk_ibuf/O
    X3Y7 (CLOCK_ROOT)    net (fo=6908, routed)        1.394     1.940    shift_reg_tap_i/clk_c
    SLICE_X71Y495        FDRE                                         r  shift_reg_tap_i/sr_p.sr_1_rep_363[1901]/C
  -------------------------------------------------------------------    -------------------
    SLICE_X71Y495        FDRE (Prop_FFF2_SLICEL_C_Q)
                                                      0.040     1.980 f  shift_reg_tap_i/sr_p.sr_1_rep_363[1901]/Q
                         net (fo=8, routed)           0.054     2.034    dut_inst/sorter_inst/genblk1.bitonic_sort_high/genblk1.bitonic_sort_low/genblk1.bitonic_sort_low/genblk1.bitonic_sort_high/genblk1.bitonic_sort_low/genblk1.bitonic_sort_low/genblk1.bitonic_merge_i/genblk1.bitonic_merge_high/genblk1.cmp_g[0].compare_i/input_slr_rep_363_0
    SLICE_X70Y495        LUT4 (Prop_B6LUT_SLICEM_I1_O)
                                                      0.014     2.048 f  dut_inst/sorter_inst/genblk1.bitonic_sort_high/genblk1.bitonic_sort_low/genblk1.bitonic_sort_low/genblk1.bitonic_sort_high/genblk1.bitonic_sort_low/genblk1.bitonic_sort_low/genblk1.bitonic_merge_i/genblk1.bitonic_merge_high/genblk1.cmp_g[0].compare_i/s0.pt[3]/O
                         net (fo=12, routed)          0.103     2.151    dut_inst/sorter_inst/genblk1.bitonic_sort_high/genblk1.bitonic_sort_low/genblk1.bitonic_sort_low/genblk1.bitonic_sort_high/genblk1.bitonic_sort_low/genblk1.bitonic_merge_i/genblk1.bitonic_merge_low/genblk1.bitonic_merge_low/genblk1.cmp_g[0].compare_i/un1_bitonic_sort_low[26]
    SLICE_X71Y492        LUT6 (Prop_C6LUT_SLICEL_I1_O)
                                                      0.014     2.165 f  dut_inst/sorter_inst/genblk1.bitonic_sort_high/genblk1.bitonic_sort_low/genblk1.bitonic_sort_low/genblk1.bitonic_sort_high/genblk1.bitonic_sort_low/genblk1.bitonic_merge_i/genblk1.bitonic_merge_low/genblk1.bitonic_merge_low/genblk1.cmp_g[0].compare_i/s1.pt[3]/O
                         net (fo=17, routed)          0.130     2.295    dut_inst/sorter_inst/genblk1.bitonic_sort_high/genblk1.bitonic_sort_low/genblk1.bitonic_sort_low/genblk1.bitonic_sort_high/genblk1.bitonic_merge_i/genblk1.bitonic_merge_low/genblk1.bitonic_merge_low/genblk1.cmp_g[1].compare_i/un1_bitonic_sort_low_0
    SLICE_X77Y492        LUT6 (Prop_G6LUT_SLICEL_I4_O)
                                                      0.014     2.309 f  dut_inst/sorter_inst/genblk1.bitonic_sort_high/genblk1.bitonic_sort_low/genblk1.bitonic_sort_low/genblk1.bitonic_sort_high/genblk1.bitonic_merge_i/genblk1.bitonic_merge_low/genblk1.bitonic_merge_low/genblk1.cmp_g[1].compare_i/s1.pt[3]/O
                         net (fo=12, routed)          0.080     2.389    dut_inst/sorter_inst/genblk1.bitonic_sort_high/genblk1.bitonic_sort_low/genblk1.bitonic_sort_low/genblk1.bitonic_merge_i/genblk1.bitonic_merge_high/genblk1.cmp_g[3].compare_i/un1_compare_i_1_9_12
    SLICE_X79Y492        LUT6 (Prop_D6LUT_SLICEL_I1_O)
                                                      0.035     2.424 f  dut_inst/sorter_inst/genblk1.bitonic_sort_high/genblk1.bitonic_sort_low/genblk1.bitonic_sort_low/genblk1.bitonic_merge_i/genblk1.bitonic_merge_high/genblk1.cmp_g[3].compare_i/s0.pt[3]/O
                         net (fo=20, routed)          0.222     2.646    dut_inst/sorter_inst/genblk1.bitonic_sort_high/genblk1.bitonic_sort_low/genblk1.bitonic_sort_low/genblk1.bitonic_merge_i/genblk1.bitonic_merge_high/genblk1.bitonic_merge_low/genblk1.bitonic_merge_high/genblk1.cmp_g[1].compare_i/un1_compare_i_9_0
    SLICE_X89Y497        LUT4 (Prop_E6LUT_SLICEL_I0_O)
                                                      0.014     2.660 f  dut_inst/sorter_inst/genblk1.bitonic_sort_high/genblk1.bitonic_sort_low/genblk1.bitonic_sort_low/genblk1.bitonic_merge_i/genblk1.bitonic_merge_high/genblk1.bitonic_merge_low/genblk1.bitonic_merge_high/genblk1.cmp_g[1].compare_i/s0.pt[3]/O
                         net (fo=28, routed)          0.153     2.813    dut_inst/sorter_inst/genblk1.bitonic_sort_high/genblk1.bitonic_sort_low/genblk1.bitonic_merge_i/genblk1.cmp_g[21].compare_i/un1_compare_i_23_0
    SLICE_X94Y496        LUT4 (Prop_A6LUT_SLICEL_I3_O)
                                                      0.014     2.827 f  dut_inst/sorter_inst/genblk1.bitonic_sort_high/genblk1.bitonic_sort_low/genblk1.bitonic_merge_i/genblk1.cmp_g[21].compare_i/s0.pt[3]/O
                         net (fo=8, routed)           0.058     2.885    dut_inst/sorter_inst/genblk1.bitonic_sort_high/genblk1.bitonic_sort_low/genblk1.bitonic_merge_i/genblk1.bitonic_merge_low/genblk1.bitonic_merge_low/genblk1.cmp_g[5].compare_i/un1_compare_i_58_0
    SLICE_X94Y493        LUT4 (Prop_E6LUT_SLICEL_I0_O)
                                                      0.035     2.920 f  dut_inst/sorter_inst/genblk1.bitonic_sort_high/genblk1.bitonic_sort_low/genblk1.bitonic_merge_i/genblk1.bitonic_merge_low/genblk1.bitonic_merge_low/genblk1.cmp_g[5].compare_i/s1.pt[3]/O
                         net (fo=47, routed)          0.250     3.170    dut_inst/sorter_inst/genblk1.bitonic_sort_high/genblk1.bitonic_merge_i/genblk1.cmp_g[10].compare_i/un1_compare_i_1_8_0
    SLICE_X104Y488       LUT6 (Prop_D6LUT_SLICEM_I0_O)
                                                      0.050     3.220 f  dut_inst/sorter_inst/genblk1.bitonic_sort_high/genblk1.bitonic_merge_i/genblk1.cmp_g[10].compare_i/s0.pt[3]/O
                         net (fo=26, routed)          0.521     3.741    dut_inst/sorter_inst/genblk1.bitonic_sort_high/genblk1.bitonic_merge_i/genblk1.bitonic_merge_low/genblk1.bitonic_merge_low/genblk1.cmp_g[10].compare_i/un1_compare_i_116_0
    SLICE_X122Y481       LUT4 (Prop_B6LUT_SLICEL_I3_O)
                                                      0.023     3.764 f  dut_inst/sorter_inst/genblk1.bitonic_sort_high/genblk1.bitonic_merge_i/genblk1.bitonic_merge_low/genblk1.bitonic_merge_low/genblk1.cmp_g[10].compare_i/s0.pt[3]/O
                         net (fo=12, routed)          0.150     3.914    dut_inst/sorter_inst/genblk1.bitonic_sort_high/genblk1.bitonic_merge_i/genblk1.bitonic_merge_low/genblk1.bitonic_merge_low/genblk1.bitonic_merge_low/genblk1.bitonic_merge_low/genblk1.bitonic_merge_high/genblk1.bitonic_merge_high/genblk1.cmp_g[0].compare_i/un1_compare_i_21_0
    SLICE_X125Y481       LUT6 (Prop_H6LUT_SLICEM_I0_O)
                                                      0.051     3.965 f  dut_inst/sorter_inst/genblk1.bitonic_sort_high/genblk1.bitonic_merge_i/genblk1.bitonic_merge_low/genblk1.bitonic_merge_low/genblk1.bitonic_merge_low/genblk1.bitonic_merge_low/genblk1.bitonic_merge_high/genblk1.bitonic_merge_high/genblk1.cmp_g[0].compare_i/s0.pt[3]/O
                         net (fo=36, routed)          0.267     4.232    dut_inst/sorter_inst/genblk1.bitonic_merge_i/genblk1.bitonic_merge_high/genblk1.bitonic_merge_low/genblk1.bitonic_merge_high/genblk1.cmp_g[6].compare_i/un1_bitonic_sort_high_0
    SLICE_X150Y486       LUT6 (Prop_G6LUT_SLICEM_I0_O)
                                                      0.014     4.246 f  dut_inst/sorter_inst/genblk1.bitonic_merge_i/genblk1.bitonic_merge_high/genblk1.bitonic_merge_low/genblk1.bitonic_merge_high/genblk1.cmp_g[6].compare_i/s1.pt[3]/O
                         net (fo=9, routed)           0.034     4.280    dut_inst/sorter_inst/genblk1.bitonic_merge_i/genblk1.bitonic_merge_high/genblk1.bitonic_merge_low/genblk1.bitonic_merge_high/genblk1.bitonic_merge_high/genblk1.bitonic_merge_low/genblk1.cmp_g[2].compare_i/un1_compare_i_1_36_0
    SLICE_X150Y486       LUT4 (Prop_B6LUT_SLICEM_I1_O)
                                                      0.050     4.330 f  dut_inst/sorter_inst/genblk1.bitonic_merge_i/genblk1.bitonic_merge_high/genblk1.bitonic_merge_low/genblk1.bitonic_merge_high/genblk1.bitonic_merge_high/genblk1.bitonic_merge_low/genblk1.cmp_g[2].compare_i/s0.pt[3]/O
                         net (fo=16, routed)          0.136     4.466    dut_inst/sorter_inst/genblk1.bitonic_merge_i/genblk1.bitonic_merge_high/genblk1.bitonic_merge_low/genblk1.bitonic_merge_high/genblk1.bitonic_merge_high/genblk1.bitonic_merge_low/genblk1.bitonic_merge_low/genblk1.bitonic_merge_low/genblk1.cmp_g[0].compare_i/un1_compare_i_1_0
    SLICE_X153Y488       LUT6 (Prop_B6LUT_SLICEM_I1_O)
                                                      0.022     4.488 f  dut_inst/sorter_inst/genblk1.bitonic_merge_i/genblk1.bitonic_merge_high/genblk1.bitonic_merge_low/genblk1.bitonic_merge_high/genblk1.bitonic_merge_high/genblk1.bitonic_merge_low/genblk1.bitonic_merge_low/genblk1.bitonic_merge_low/genblk1.cmp_g[0].compare_i/s1.pt_0[2]/O
                         net (fo=1, routed)           0.021     4.509    shift_reg_tap_o/pt_0_15_0_0
    SLICE_X153Y488       FDRE                                         f  shift_reg_tap_o/sr_1[2303]/D
  -------------------------------------------------------------------    -------------------

                         (clock clk rise edge)        0.000     0.000 r  
    AV33                                              0.000     0.000 r  clk (IN)
                         net (fo=0)                   0.000     0.000    clk_ibuf_iso/I
    AV33                 INBUF (Prop_INBUF_HPIOB_M_PAD_O)
                                                      0.572     0.572 r  clk_ibuf_iso/INBUF_INST/O
                         net (fo=1, routed)           0.000     0.572    clk_ibuf_iso/OUT
    AV33                 IBUFCTRL (Prop_IBUFCTRL_HPIOB_M_I_O)
                                                      0.000     0.572 r  clk_ibuf_iso/IBUFCTRL_INST/O
                         net (fo=1, routed)           0.181     0.753    clk_ibuf_iso
    BUFGCE_X1Y224        BUFGCE (Prop_BUFCE_BUFGCE_I_O)
                                                      0.019     0.772 r  clk_ibuf/O
    X3Y7 (CLOCK_ROOT)    net (fo=6908, routed)        1.728     2.500    shift_reg_tap_o/clk_c
    SLICE_X153Y488       FDRE                                         r  shift_reg_tap_o/sr_1[2303]/C
                         clock pessimism             -0.339     2.161    
    SLICE_X153Y488       FDRE (Hold_BFF_SLICEM_C_D)
                                                      0.046     2.207    shift_reg_tap_o/sr_1[2303]
  -------------------------------------------------------------------
                         required time                         -2.207    
                         arrival time                           4.509    
  -------------------------------------------------------------------
                         slack                                  2.302    

Slack (MET) :             2.304ns  (arrival time - required time)
  Source:                 shift_reg_tap_i/sr_p.sr_1_rep_363[1901]/C
                            (rising edge-triggered cell FDRE clocked by clk  {rise@0.000ns fall@1.786ns period=3.572ns})
  Destination:            shift_reg_tap_o/sr_1[2303]/D
                            (rising edge-triggered cell FDRE clocked by clk  {rise@0.000ns fall@1.786ns period=3.572ns})
  Path Group:             clk
  Path Type:              Hold (Min at Fast Process Corner)
  Requirement:            0.000ns  (clk rise@0.000ns - clk rise@0.000ns)
  Data Path Delay:        2.571ns  (logic 0.373ns (14.508%)  route 2.198ns (85.492%))
  Logic Levels:           14  (LUT4=5 LUT6=9)
  Clock Path Skew:        0.221ns (DCD - SCD - CPR)
    Destination Clock Delay (DCD):    2.500ns
    Source Clock Delay      (SCD):    1.940ns
    Clock Pessimism Removal (CPR):    0.339ns
  Clock Net Delay (Source):      1.394ns (routing 0.638ns, distribution 0.756ns)
  Clock Net Delay (Destination): 1.728ns (routing 0.707ns, distribution 1.021ns)

    Location             Delay type                Incr(ns)  Path(ns)    Netlist Resource(s)
  -------------------------------------------------------------------    -------------------
                         (clock clk rise edge)        0.000     0.000 r  
    AV33                                              0.000     0.000 r  clk (IN)
                         net (fo=0)                   0.000     0.000    clk_ibuf_iso/I
    AV33                 INBUF (Prop_INBUF_HPIOB_M_PAD_O)
                                                      0.385     0.385 r  clk_ibuf_iso/INBUF_INST/O
                         net (fo=1, routed)           0.000     0.385    clk_ibuf_iso/OUT
    AV33                 IBUFCTRL (Prop_IBUFCTRL_HPIOB_M_I_O)
                                                      0.000     0.385 r  clk_ibuf_iso/IBUFCTRL_INST/O
                         net (fo=1, routed)           0.144     0.529    clk_ibuf_iso
    BUFGCE_X1Y224        BUFGCE (Prop_BUFCE_BUFGCE_I_O)
                                                      0.017     0.546 r  clk_ibuf/O
    X3Y7 (CLOCK_ROOT)    net (fo=6908, routed)        1.394     1.940    shift_reg_tap_i/clk_c
    SLICE_X71Y495        FDRE                                         r  shift_reg_tap_i/sr_p.sr_1_rep_363[1901]/C
  -------------------------------------------------------------------    -------------------
    SLICE_X71Y495        FDRE (Prop_FFF2_SLICEL_C_Q)
                                                      0.040     1.980 r  shift_reg_tap_i/sr_p.sr_1_rep_363[1901]/Q
                         net (fo=8, routed)           0.054     2.034    dut_inst/sorter_inst/genblk1.bitonic_sort_high/genblk1.bitonic_sort_low/genblk1.bitonic_sort_low/genblk1.bitonic_sort_high/genblk1.bitonic_sort_low/genblk1.bitonic_sort_low/genblk1.bitonic_merge_i/genblk1.bitonic_merge_high/genblk1.cmp_g[0].compare_i/input_slr_rep_363_0
    SLICE_X70Y495        LUT4 (Prop_B6LUT_SLICEM_I1_O)
                                                      0.014     2.048 r  dut_inst/sorter_inst/genblk1.bitonic_sort_high/genblk1.bitonic_sort_low/genblk1.bitonic_sort_low/genblk1.bitonic_sort_high/genblk1.bitonic_sort_low/genblk1.bitonic_sort_low/genblk1.bitonic_merge_i/genblk1.bitonic_merge_high/genblk1.cmp_g[0].compare_i/s0.pt[3]/O
                         net (fo=12, routed)          0.103     2.151    dut_inst/sorter_inst/genblk1.bitonic_sort_high/genblk1.bitonic_sort_low/genblk1.bitonic_sort_low/genblk1.bitonic_sort_high/genblk1.bitonic_sort_low/genblk1.bitonic_merge_i/genblk1.bitonic_merge_low/genblk1.bitonic_merge_low/genblk1.cmp_g[0].compare_i/un1_bitonic_sort_low[26]
    SLICE_X71Y492        LUT6 (Prop_C6LUT_SLICEL_I1_O)
                                                      0.014     2.165 r  dut_inst/sorter_inst/genblk1.bitonic_sort_high/genblk1.bitonic_sort_low/genblk1.bitonic_sort_low/genblk1.bitonic_sort_high/genblk1.bitonic_sort_low/genblk1.bitonic_merge_i/genblk1.bitonic_merge_low/genblk1.bitonic_merge_low/genblk1.cmp_g[0].compare_i/s1.pt[3]/O
                         net (fo=17, routed)          0.130     2.295    dut_inst/sorter_inst/genblk1.bitonic_sort_high/genblk1.bitonic_sort_low/genblk1.bitonic_sort_low/genblk1.bitonic_sort_high/genblk1.bitonic_merge_i/genblk1.bitonic_merge_low/genblk1.bitonic_merge_low/genblk1.cmp_g[1].compare_i/un1_bitonic_sort_low_0
    SLICE_X77Y492        LUT6 (Prop_G6LUT_SLICEL_I4_O)
                                                      0.014     2.309 r  dut_inst/sorter_inst/genblk1.bitonic_sort_high/genblk1.bitonic_sort_low/genblk1.bitonic_sort_low/genblk1.bitonic_sort_high/genblk1.bitonic_merge_i/genblk1.bitonic_merge_low/genblk1.bitonic_merge_low/genblk1.cmp_g[1].compare_i/s1.pt[3]/O
                         net (fo=12, routed)          0.080     2.389    dut_inst/sorter_inst/genblk1.bitonic_sort_high/genblk1.bitonic_sort_low/genblk1.bitonic_sort_low/genblk1.bitonic_merge_i/genblk1.bitonic_merge_high/genblk1.cmp_g[3].compare_i/un1_compare_i_1_9_12
    SLICE_X79Y492        LUT6 (Prop_D6LUT_SLICEL_I1_O)
                                                      0.035     2.424 r  dut_inst/sorter_inst/genblk1.bitonic_sort_high/genblk1.bitonic_sort_low/genblk1.bitonic_sort_low/genblk1.bitonic_merge_i/genblk1.bitonic_merge_high/genblk1.cmp_g[3].compare_i/s0.pt[3]/O
                         net (fo=20, routed)          0.222     2.646    dut_inst/sorter_inst/genblk1.bitonic_sort_high/genblk1.bitonic_sort_low/genblk1.bitonic_sort_low/genblk1.bitonic_merge_i/genblk1.bitonic_merge_high/genblk1.bitonic_merge_low/genblk1.bitonic_merge_high/genblk1.cmp_g[1].compare_i/un1_compare_i_9_0
    SLICE_X89Y497        LUT4 (Prop_E6LUT_SLICEL_I0_O)
                                                      0.014     2.660 r  dut_inst/sorter_inst/genblk1.bitonic_sort_high/genblk1.bitonic_sort_low/genblk1.bitonic_sort_low/genblk1.bitonic_merge_i/genblk1.bitonic_merge_high/genblk1.bitonic_merge_low/genblk1.bitonic_merge_high/genblk1.cmp_g[1].compare_i/s0.pt[3]/O
                         net (fo=28, routed)          0.153     2.813    dut_inst/sorter_inst/genblk1.bitonic_sort_high/genblk1.bitonic_sort_low/genblk1.bitonic_merge_i/genblk1.cmp_g[21].compare_i/un1_compare_i_23_0
    SLICE_X94Y496        LUT4 (Prop_A6LUT_SLICEL_I3_O)
                                                      0.014     2.827 r  dut_inst/sorter_inst/genblk1.bitonic_sort_high/genblk1.bitonic_sort_low/genblk1.bitonic_merge_i/genblk1.cmp_g[21].compare_i/s0.pt[3]/O
                         net (fo=8, routed)           0.058     2.885    dut_inst/sorter_inst/genblk1.bitonic_sort_high/genblk1.bitonic_sort_low/genblk1.bitonic_merge_i/genblk1.bitonic_merge_low/genblk1.bitonic_merge_low/genblk1.cmp_g[5].compare_i/un1_compare_i_58_0
    SLICE_X94Y493        LUT4 (Prop_E6LUT_SLICEL_I0_O)
                                                      0.035     2.920 r  dut_inst/sorter_inst/genblk1.bitonic_sort_high/genblk1.bitonic_sort_low/genblk1.bitonic_merge_i/genblk1.bitonic_merge_low/genblk1.bitonic_merge_low/genblk1.cmp_g[5].compare_i/s1.pt[3]/O
                         net (fo=47, routed)          0.266     3.186    dut_inst/sorter_inst/genblk1.bitonic_sort_high/genblk1.bitonic_merge_i/genblk1.cmp_g[9].compare_i/un1_compare_i_1_8_0
    SLICE_X104Y490       LUT6 (Prop_B6LUT_SLICEM_I0_O)
                                                      0.035     3.221 r  dut_inst/sorter_inst/genblk1.bitonic_sort_high/genblk1.bitonic_merge_i/genblk1.cmp_g[9].compare_i/s0.pt[3]/O
                         net (fo=13, routed)          0.241     3.462    dut_inst/sorter_inst/genblk1.bitonic_sort_high/genblk1.bitonic_merge_i/genblk1.bitonic_merge_low/genblk1.bitonic_merge_low/genblk1.bitonic_merge_low/genblk1.cmp_g[1].compare_i/un1_compare_i_3_0
    SLICE_X110Y482       LUT6 (Prop_G6LUT_SLICEM_I2_O)
                                                      0.035     3.497 r  dut_inst/sorter_inst/genblk1.bitonic_sort_high/genblk1.bitonic_merge_i/genblk1.bitonic_merge_low/genblk1.bitonic_merge_low/genblk1.bitonic_merge_low/genblk1.cmp_g[1].compare_i/s0.pt[3]/O
                         net (fo=19, routed)          0.223     3.720    dut_inst/sorter_inst/genblk1.bitonic_sort_high/genblk1.bitonic_merge_i/genblk1.bitonic_merge_low/genblk1.bitonic_merge_low/genblk1.bitonic_merge_low/genblk1.bitonic_merge_low/genblk1.cmp_g[1].compare_i/un1_compare_i_44_0
    SLICE_X113Y483       LUT6 (Prop_G6LUT_SLICEM_I5_O)
                                                      0.022     3.742 r  dut_inst/sorter_inst/genblk1.bitonic_sort_high/genblk1.bitonic_merge_i/genblk1.bitonic_merge_low/genblk1.bitonic_merge_low/genblk1.bitonic_merge_low/genblk1.bitonic_merge_low/genblk1.cmp_g[1].compare_i/s1.pt[3]/O
                         net (fo=10, routed)          0.210     3.952    dut_inst/sorter_inst/genblk1.bitonic_sort_high/genblk1.bitonic_merge_i/genblk1.bitonic_merge_low/genblk1.bitonic_merge_low/genblk1.bitonic_merge_low/genblk1.bitonic_merge_low/genblk1.bitonic_merge_high/genblk1.bitonic_merge_high/genblk1.cmp_g[0].compare_i/un1_compare_i_1_3[12]
    SLICE_X125Y481       LUT6 (Prop_H6LUT_SLICEM_I4_O)
                                                      0.015     3.967 r  dut_inst/sorter_inst/genblk1.bitonic_sort_high/genblk1.bitonic_merge_i/genblk1.bitonic_merge_low/genblk1.bitonic_merge_low/genblk1.bitonic_merge_low/genblk1.bitonic_merge_low/genblk1.bitonic_merge_high/genblk1.bitonic_merge_high/genblk1.cmp_g[0].compare_i/s0.pt[3]/O
                         net (fo=36, routed)          0.267     4.234    dut_inst/sorter_inst/genblk1.bitonic_merge_i/genblk1.bitonic_merge_high/genblk1.bitonic_merge_low/genblk1.bitonic_merge_high/genblk1.cmp_g[6].compare_i/un1_bitonic_sort_high_0
    SLICE_X150Y486       LUT6 (Prop_G6LUT_SLICEM_I0_O)
                                                      0.014     4.248 r  dut_inst/sorter_inst/genblk1.bitonic_merge_i/genblk1.bitonic_merge_high/genblk1.bitonic_merge_low/genblk1.bitonic_merge_high/genblk1.cmp_g[6].compare_i/s1.pt[3]/O
                         net (fo=9, routed)           0.034     4.282    dut_inst/sorter_inst/genblk1.bitonic_merge_i/genblk1.bitonic_merge_high/genblk1.bitonic_merge_low/genblk1.bitonic_merge_high/genblk1.bitonic_merge_high/genblk1.bitonic_merge_low/genblk1.cmp_g[2].compare_i/un1_compare_i_1_36_0
    SLICE_X150Y486       LUT4 (Prop_B6LUT_SLICEM_I1_O)
                                                      0.050     4.332 r  dut_inst/sorter_inst/genblk1.bitonic_merge_i/genblk1.bitonic_merge_high/genblk1.bitonic_merge_low/genblk1.bitonic_merge_high/genblk1.bitonic_merge_high/genblk1.bitonic_merge_low/genblk1.cmp_g[2].compare_i/s0.pt[3]/O
                         net (fo=16, routed)          0.136     4.468    dut_inst/sorter_inst/genblk1.bitonic_merge_i/genblk1.bitonic_merge_high/genblk1.bitonic_merge_low/genblk1.bitonic_merge_high/genblk1.bitonic_merge_high/genblk1.bitonic_merge_low/genblk1.bitonic_merge_low/genblk1.bitonic_merge_low/genblk1.cmp_g[0].compare_i/un1_compare_i_1_0
    SLICE_X153Y488       LUT6 (Prop_B6LUT_SLICEM_I1_O)
                                                      0.022     4.490 r  dut_inst/sorter_inst/genblk1.bitonic_merge_i/genblk1.bitonic_merge_high/genblk1.bitonic_merge_low/genblk1.bitonic_merge_high/genblk1.bitonic_merge_high/genblk1.bitonic_merge_low/genblk1.bitonic_merge_low/genblk1.bitonic_merge_low/genblk1.cmp_g[0].compare_i/s1.pt_0[2]/O
                         net (fo=1, routed)           0.021     4.511    shift_reg_tap_o/pt_0_15_0_0
    SLICE_X153Y488       FDRE                                         r  shift_reg_tap_o/sr_1[2303]/D
  -------------------------------------------------------------------    -------------------

                         (clock clk rise edge)        0.000     0.000 r  
    AV33                                              0.000     0.000 r  clk (IN)
                         net (fo=0)                   0.000     0.000    clk_ibuf_iso/I
    AV33                 INBUF (Prop_INBUF_HPIOB_M_PAD_O)
                                                      0.572     0.572 r  clk_ibuf_iso/INBUF_INST/O
                         net (fo=1, routed)           0.000     0.572    clk_ibuf_iso/OUT
    AV33                 IBUFCTRL (Prop_IBUFCTRL_HPIOB_M_I_O)
                                                      0.000     0.572 r  clk_ibuf_iso/IBUFCTRL_INST/O
                         net (fo=1, routed)           0.181     0.753    clk_ibuf_iso
    BUFGCE_X1Y224        BUFGCE (Prop_BUFCE_BUFGCE_I_O)
                                                      0.019     0.772 r  clk_ibuf/O
    X3Y7 (CLOCK_ROOT)    net (fo=6908, routed)        1.728     2.500    shift_reg_tap_o/clk_c
    SLICE_X153Y488       FDRE                                         r  shift_reg_tap_o/sr_1[2303]/C
                         clock pessimism             -0.339     2.161    
    SLICE_X153Y488       FDRE (Hold_BFF_SLICEM_C_D)
                                                      0.046     2.207    shift_reg_tap_o/sr_1[2303]
  -------------------------------------------------------------------
                         required time                         -2.207    
                         arrival time                           4.511    
  -------------------------------------------------------------------
                         slack                                  2.304    





Pulse Width Checks
--------------------------------------------------------------------------------------
Clock Name:         clk
Waveform(ns):       { 0.000 1.786 }
Period(ns):         3.572
Sources:            { clk }

Check Type        Corner  Lib Pin   Reference Pin  Required(ns)  Actual(ns)  Slack(ns)  Location       Pin
Min Period        n/a     BUFGCE/I  n/a            1.499         3.572       2.073      BUFGCE_X1Y224  clk_ibuf/I
Min Period        n/a     FDRE/C    n/a            0.550         3.572       3.022      SLICE_X83Y538  shift_reg_tap_i/sr_p.sr_1[2125]/C
Min Period        n/a     FDRE/C    n/a            0.550         3.572       3.022      SLICE_X83Y538  shift_reg_tap_i/sr_p.sr_1[2126]/C
Min Period        n/a     FDRE/C    n/a            0.550         3.572       3.022      SLICE_X83Y538  shift_reg_tap_i/sr_p.sr_1[2127]/C
Min Period        n/a     FDRE/C    n/a            0.550         3.572       3.022      SLICE_X83Y538  shift_reg_tap_i/sr_p.sr_1[2128]/C
Low Pulse Width   Slow    FDRE/C    n/a            0.275         1.786       1.511      SLICE_X83Y538  shift_reg_tap_i/sr_p.sr_1[2125]/C
Low Pulse Width   Slow    FDRE/C    n/a            0.275         1.786       1.511      SLICE_X83Y538  shift_reg_tap_i/sr_p.sr_1[2126]/C
Low Pulse Width   Slow    FDRE/C    n/a            0.275         1.786       1.511      SLICE_X83Y538  shift_reg_tap_i/sr_p.sr_1[2127]/C
Low Pulse Width   Slow    FDRE/C    n/a            0.275         1.786       1.511      SLICE_X83Y538  shift_reg_tap_i/sr_p.sr_1[2128]/C
Low Pulse Width   Slow    FDRE/C    n/a            0.275         1.786       1.511      SLICE_X83Y538  shift_reg_tap_i/sr_p.sr_1[2129]/C
High Pulse Width  Fast    FDRE/C    n/a            0.275         1.786       1.511      SLICE_X83Y538  shift_reg_tap_i/sr_p.sr_1[2125]/C
High Pulse Width  Fast    FDRE/C    n/a            0.275         1.786       1.511      SLICE_X83Y538  shift_reg_tap_i/sr_p.sr_1[2126]/C
High Pulse Width  Fast    FDRE/C    n/a            0.275         1.786       1.511      SLICE_X83Y538  shift_reg_tap_i/sr_p.sr_1[2127]/C
High Pulse Width  Fast    FDRE/C    n/a            0.275         1.786       1.511      SLICE_X83Y538  shift_reg_tap_i/sr_p.sr_1[2128]/C
High Pulse Width  Fast    FDRE/C    n/a            0.275         1.786       1.511      SLICE_X83Y538  shift_reg_tap_i/sr_p.sr_1[2129]/C



---------------------------------------------------------------------------------------------------
From Clock:  clk_wrapper
  To Clock:  clk_wrapper

Setup :           NA  Failing Endpoints,  Worst Slack           NA  ,  Total Violation           NA
Hold  :           NA  Failing Endpoints,  Worst Slack           NA  ,  Total Violation           NA
PW    :            0  Failing Endpoints,  Worst Slack      498.562ns,  Total Violation        0.000ns
---------------------------------------------------------------------------------------------------


Pulse Width Checks
--------------------------------------------------------------------------------------
Clock Name:         clk_wrapper
Waveform(ns):       { 0.000 500.000 }
Period(ns):         1000.000
Sources:            { clk_wrapper }

Check Type        Corner  Lib Pin   Reference Pin  Required(ns)  Actual(ns)  Slack(ns)  Location               Pin
Min Period        n/a     FDRE/C    n/a            3.195         1000.000    996.805    BITSLICE_RX_TX_X1Y483  reducer_1/delay_block[6][0]/C
Min Period        n/a     BUFGCE/I  n/a            1.499         1000.000    998.501    BUFGCE_X1Y230          clk_wrapper_ibuf/I
Min Period        n/a     FDRE/C    n/a            0.550         1000.000    999.450    SLICE_X166Y431         reducer_1/delay_block[0][0]/C
Min Period        n/a     FDRE/C    n/a            0.550         1000.000    999.450    SLICE_X162Y437         reducer_1/delay_block[0][1000]/C
Min Period        n/a     FDRE/C    n/a            0.550         1000.000    999.450    SLICE_X162Y437         reducer_1/delay_block[0][1001]/C
Low Pulse Width   Slow    FDRE/C    n/a            1.438         500.000     498.562    BITSLICE_RX_TX_X1Y483  reducer_1/delay_block[6][0]/C
Low Pulse Width   Fast    FDRE/C    n/a            1.438         500.000     498.562    BITSLICE_RX_TX_X1Y483  reducer_1/delay_block[6][0]/C
Low Pulse Width   Slow    FDRE/C    n/a            0.275         500.000     499.725    SLICE_X162Y437         reducer_1/delay_block[0][1000]/C
Low Pulse Width   Slow    FDRE/C    n/a            0.275         500.000     499.725    SLICE_X162Y437         reducer_1/delay_block[0][1001]/C
Low Pulse Width   Slow    FDRE/C    n/a            0.275         500.000     499.725    SLICE_X162Y437         reducer_1/delay_block[0][1002]/C
High Pulse Width  Fast    FDRE/C    n/a            1.438         500.000     498.562    BITSLICE_RX_TX_X1Y483  reducer_1/delay_block[6][0]/C
High Pulse Width  Slow    FDRE/C    n/a            1.438         500.000     498.562    BITSLICE_RX_TX_X1Y483  reducer_1/delay_block[6][0]/C
High Pulse Width  Fast    FDRE/C    n/a            0.275         500.000     499.725    SLICE_X166Y431         reducer_1/delay_block[0][0]/C
High Pulse Width  Fast    FDRE/C    n/a            0.275         500.000     499.725    SLICE_X159Y435         reducer_1/delay_block[0][1004]/C
High Pulse Width  Fast    FDRE/C    n/a            0.275         500.000     499.725    SLICE_X159Y435         reducer_1/delay_block[0][1005]/C



