Copyright 1986-2018 Xilinx, Inc. All Rights Reserved.
------------------------------------------------------------------------------------
| Tool Version : Vivado v.2018.2 (win64) Build 2258646 Thu Jun 14 20:03:12 MDT 2018
| Date         : Wed Feb 13 21:22:02 2019
| Host         : PCPHESEBE02 running 64-bit Service Pack 1  (build 7601)
| Command      : report_high_fanout_nets -file fanout.txt -max_nets 200
| Design       : wrapper
| Device       : xcvu9p
------------------------------------------------------------------------------------

High Fan-out Nets Information

1. Summary
----------

+----------------------------------------------------+--------+-------------+
| Net Name                                           | Fanout | Driver Type |
+----------------------------------------------------+--------+-------------+
| muon_sorter_1/max_pt_14_reto[14]                   |     26 | FDRE        |
| muon_sorter_1/pt_3_rep1                            |     23 | FDSE        |
| muon_sorter_1/un1_muon_sorter_1_1_80               |     23 | FDRE        |
| muon_sorter_1/max_pt_15_o[0]                       |     22 | FDRE        |
| muon_sorter_1/max_pt_2_o[15]                       |     21 | FDRE        |
| muon_sorter_1/un1_muon_sorter_1_1_64               |     21 | FDSE        |
| muon_sorter_1/un1_muon_sorter_1_1[209]             |     20 | FDRE        |
| muon_sorter_1/un1_muon_sorter_1_1[212]             |     20 | FDRE        |
| muon_sorter_1/top_cand_rep_3[200]                  |     19 | FDRE        |
| muon_sorter_1/un1_muon_sorter_1_1[210]             |     19 | FDRE        |
| muon_sorter_1/un1_muon_sorter_1_1[211]             |     19 | FDRE        |
| muon_sorter_1/un1_muon_sorter_1_1[213]             |     19 | FDRE        |
| muon_sorter_1/un1_muon_sorter_1_1[214]             |     19 | FDRE        |
| muon_sorter_1/un1_muon_sorter_1_1[222]             |     19 | FDRE        |
| muon_sorter_1/max_pt_14[10]                        |     18 | LUT6        |
| muon_sorter_1/max_pt_15_iso[0]                     |     18 | LUT5        |
| muon_sorter_1/max_pt_15_o[8]                       |     18 | FDRE        |
| muon_sorter_1/un1_muon_sorter_1_1_112              |     18 | FDRE        |
| muon_sorter_1/un1_muon_sorter_1_1_81               |     18 | FDRE        |
| muon_sorter_1/max_pt_0_o[15]                       |     17 | FDRE        |
| muon_sorter_1/max_pt_5_1[4]                        |     17 | LUT5        |
| muon_sorter_1/max_pt_6_1[2]                        |     17 | LUT5        |
| muon_sorter_1/max_pt_7_1[5]                        |     17 | LUT5        |
| muon_sorter_1/sr_p.sr_1_11.pt_1_1_RNIC80UOB3[1]/O6 |     17 | LUT6        |
| muon_sorter_1/top_cand_1_1[251]                    |     17 | FDSE        |
| muon_sorter_1/un1_muon_sorter_1_1[146]             |     17 | FDRE        |
| muon_sorter_1/un1_muon_sorter_1_1_145              |     17 | FDRE        |
| muon_sorter_1/un1_muon_sorter_1_1_32               |     17 | FDSE        |
| muon_sorter_1/un1_muon_sorter_1_1_33               |     17 | FDRE        |
| muon_sorter_1/un1_muon_sorter_1_2_0                |     17 | FDSE        |
| muon_sorter_1/N_1400_1                             |     16 | LUT6        |
| muon_sorter_1/N_601                                |     16 | LUT6        |
| muon_sorter_1/N_618                                |     16 | LUT6        |
| muon_sorter_1/N_636                                |     16 | LUT6        |
| muon_sorter_1/max_pt_0[5]                          |     16 | LUT4        |
| muon_sorter_1/max_pt_0_0[8]                        |     16 | LUT6        |
| muon_sorter_1/max_pt_0_1_2[10]                     |     16 | LUT6        |
| muon_sorter_1/max_pt_0_1_2[3]                      |     16 | LUT3        |
| muon_sorter_1/max_pt_0_3[11]                       |     16 | LUT6        |
| muon_sorter_1/max_pt_0_3[8]                        |     16 | LUT5        |
| muon_sorter_1/max_pt_10[12]                        |     16 | LUT5        |
| muon_sorter_1/max_pt_10[13]                        |     16 | LUT6        |
| muon_sorter_1/max_pt_10[2]                         |     16 | LUT6        |
| muon_sorter_1/max_pt_10[6]                         |     16 | LUT6        |
| muon_sorter_1/max_pt_10[9]                         |     16 | LUT6        |
| muon_sorter_1/max_pt_10_1[13]                      |     16 | LUT5        |
| muon_sorter_1/max_pt_11[6]                         |     16 | LUT6        |
| muon_sorter_1/max_pt_11_0[12]                      |     16 | LUT6        |
| muon_sorter_1/max_pt_11_1[5]                       |     16 | LUT5        |
| muon_sorter_1/max_pt_12[10]                        |     16 | LUT6        |
| muon_sorter_1/max_pt_12[15]                        |     16 | LUT6        |
| muon_sorter_1/max_pt_12[6]                         |     16 | LUT6        |
| muon_sorter_1/max_pt_12[9]                         |     16 | LUT6        |
| muon_sorter_1/max_pt_12_0[14]                      |     16 | LUT6        |
| muon_sorter_1/max_pt_12_1[15]                      |     16 | LUT5        |
| muon_sorter_1/max_pt_12_1[1]                       |     16 | LUT5        |
| muon_sorter_1/max_pt_12_1_0_1[0]                   |     16 | LUT6        |
| muon_sorter_1/max_pt_12_1_0_2[0]                   |     16 | LUT6        |
| muon_sorter_1/max_pt_12_1_1[13]                    |     16 | LUT6        |
| muon_sorter_1/max_pt_13[12]                        |     16 | LUT6        |
| muon_sorter_1/max_pt_13[15]                        |     16 | LUT5        |
| muon_sorter_1/max_pt_13_1_0[10]                    |     16 | LUT6        |
| muon_sorter_1/max_pt_13_1_0[12]                    |     16 | LUT6        |
| muon_sorter_1/max_pt_13_1_0[2]                     |     16 | LUT6        |
| muon_sorter_1/max_pt_13_2[12]                      |     16 | LUT6        |
| muon_sorter_1/max_pt_13_2[13]                      |     16 | LUT6        |
| muon_sorter_1/max_pt_14[0]                         |     16 | LUT4        |
| muon_sorter_1/max_pt_14[15]                        |     16 | LUT6        |
| muon_sorter_1/max_pt_14_1[10]                      |     16 | LUT5        |
| muon_sorter_1/max_pt_14_1[13]                      |     16 | LUT6        |
| muon_sorter_1/max_pt_14_1[7]                       |     16 | LUT6        |
| muon_sorter_1/max_pt_14_1_0[0]                     |     16 | LUT4        |
| muon_sorter_1/max_pt_1_0[12]                       |     16 | LUT6        |
| muon_sorter_1/max_pt_1_1[12]                       |     16 | LUT5        |
| muon_sorter_1/max_pt_1_3[3]                        |     16 | LUT5        |
| muon_sorter_1/max_pt_1_o[15]                       |     16 | FDRE        |
| muon_sorter_1/max_pt_2[0]                          |     16 | LUT6        |
| muon_sorter_1/max_pt_2[10]                         |     16 | LUT5        |
| muon_sorter_1/max_pt_2_0[1]                        |     16 | LUT6        |
| muon_sorter_1/max_pt_2_0[3]                        |     16 | LUT6        |
| muon_sorter_1/max_pt_2_0[5]                        |     16 | LUT6        |
| muon_sorter_1/max_pt_2_1[13]                       |     16 | LUT4        |
| muon_sorter_1/max_pt_2_1[3]                        |     16 | LUT5        |
| muon_sorter_1/max_pt_2_1[5]                        |     16 | LUT5        |
| muon_sorter_1/max_pt_2_3[0]                        |     16 | LUT6        |
| muon_sorter_1/max_pt_3[12]                         |     16 | LUT4        |
| muon_sorter_1/max_pt_3[2]                          |     16 | LUT3        |
| muon_sorter_1/max_pt_3[6]                          |     16 | LUT6        |
| muon_sorter_1/max_pt_3_3[1]                        |     16 | LUT5        |
| muon_sorter_1/max_pt_4[0]                          |     16 | LUT6        |
| muon_sorter_1/max_pt_4[11]                         |     16 | LUT6        |
| muon_sorter_1/max_pt_4[13]                         |     16 | LUT6        |
| muon_sorter_1/max_pt_4[7]                          |     16 | LUT6        |
| muon_sorter_1/max_pt_4[8]                          |     16 | LUT5        |
| muon_sorter_1/max_pt_4_1[8]                        |     16 | LUT5        |
| muon_sorter_1/max_pt_4_2[0]                        |     16 | LUT4        |
| muon_sorter_1/max_pt_4_3[12]                       |     16 | LUT5        |
| muon_sorter_1/max_pt_4_3[6]                        |     16 | LUT6        |
| muon_sorter_1/max_pt_5[0]                          |     16 | LUT6        |
| muon_sorter_1/max_pt_5[5]                          |     16 | LUT3        |
| muon_sorter_1/max_pt_5[6]                          |     16 | LUT5        |
| muon_sorter_1/max_pt_5[7]                          |     16 | LUT6        |
| muon_sorter_1/max_pt_5_0[0]                        |     16 | LUT6        |
| muon_sorter_1/max_pt_5_0[10]                       |     16 | LUT6        |
| muon_sorter_1/max_pt_5_1[0]                        |     16 | LUT5        |
| muon_sorter_1/max_pt_5_1_0[9]                      |     16 | LUT6        |
| muon_sorter_1/max_pt_5_2[2]                        |     16 | LUT4        |
| muon_sorter_1/max_pt_5_2[4]                        |     16 | LUT4        |
| muon_sorter_1/max_pt_5_2[6]                        |     16 | LUT4        |
| muon_sorter_1/max_pt_6[11]                         |     16 | LUT5        |
| muon_sorter_1/max_pt_6[14]                         |     16 | LUT6        |
| muon_sorter_1/max_pt_6[2]                          |     16 | LUT6        |
| muon_sorter_1/max_pt_6[3]                          |     16 | LUT6        |
| muon_sorter_1/max_pt_6[5]                          |     16 | LUT6        |
| muon_sorter_1/max_pt_6[9]                          |     16 | LUT6        |
| muon_sorter_1/max_pt_6_1[3]                        |     16 | LUT6        |
| muon_sorter_1/max_pt_6_1[6]                        |     16 | LUT6        |
| muon_sorter_1/max_pt_6_1_1[4]                      |     16 | LUT5        |
| muon_sorter_1/max_pt_6_1_2[4]                      |     16 | LUT5        |
| muon_sorter_1/max_pt_6_3[0]                        |     16 | LUT6        |
| muon_sorter_1/max_pt_6_3[10]                       |     16 | LUT4        |
| muon_sorter_1/max_pt_6_3[11]                       |     16 | LUT5        |
| muon_sorter_1/max_pt_6_3[12]                       |     16 | LUT6        |
| muon_sorter_1/max_pt_6_3[5]                        |     16 | LUT6        |
| muon_sorter_1/max_pt_6_3[9]                        |     16 | LUT6        |
| muon_sorter_1/max_pt_7[1]                          |     16 | LUT6        |
| muon_sorter_1/max_pt_7[5]                          |     16 | LUT6        |
| muon_sorter_1/max_pt_7[9]                          |     16 | LUT6        |
| muon_sorter_1/max_pt_7_0[3]                        |     16 | LUT6        |
| muon_sorter_1/max_pt_7_1[6]                        |     16 | LUT5        |
| muon_sorter_1/max_pt_7_2[13]                       |     16 | LUT4        |
| muon_sorter_1/max_pt_8[11]                         |     16 | LUT6        |
| muon_sorter_1/max_pt_8[13]                         |     16 | LUT6        |
| muon_sorter_1/max_pt_8[6]                          |     16 | LUT6        |
| muon_sorter_1/max_pt_8_1[13]                       |     16 | LUT6        |
| muon_sorter_1/max_pt_8_1_0[6]                      |     16 | LUT6        |
| muon_sorter_1/max_pt_8_2[0]                        |     16 | LUT5        |
| muon_sorter_1/max_pt_8_3[10]                       |     16 | LUT5        |
| muon_sorter_1/max_pt_9[1]                          |     16 | LUT5        |
| muon_sorter_1/max_pt_9_1[10]                       |     16 | LUT6        |
| muon_sorter_1/max_pt_9_2[13]                       |     16 | LUT5        |
| muon_sorter_1/pt_0_0                               |     16 | FDSE        |
| muon_sorter_1/pt_0_2                               |     16 | FDSE        |
| muon_sorter_1/pt_1_0                               |     16 | FDSE        |
| muon_sorter_1/pt_1_d0                              |     16 | FDSE        |
| muon_sorter_1/pt_2[0]                              |     16 | FDSE        |
| muon_sorter_1/pt_2[2]                              |     16 | FDSE        |
| muon_sorter_1/pt_3_d0                              |     16 | FDSE        |
| muon_sorter_1/pt_5[0]                              |     16 | FDSE        |
| muon_sorter_1/pt_6_0                               |     16 | FDRE        |
| muon_sorter_1/pt_6_1                               |     16 | FDRE        |
| muon_sorter_1/pt_7_0                               |     16 | FDRE        |
| muon_sorter_1/pt_compare_13_15_0_a2[8]             |     16 | LUT6        |
| muon_sorter_1/pt_compare_13_9_0_a2[7]              |     16 | LUT6        |
| muon_sorter_1/sr_p.sr_1_1.pt_1_RNI0CIQ9V[2]/O6     |     16 | LUT6        |
| muon_sorter_1/sr_p.sr_1_11.pt_1_RNI72SVSJ3[1]/O6   |     16 | LUT6        |
| muon_sorter_1/sr_p.sr_1_7.pt_RNIS4743S2[1]/O6      |     16 | LUT6        |
| muon_sorter_1/top_cand_1[107]                      |     16 | FDSE        |
| muon_sorter_1/top_cand_1[251]                      |     16 | FDSE        |
| muon_sorter_1/top_candoi[218]                      |     16 | LUT6        |
| muon_sorter_1/top_candoi[219]                      |     16 | LUT6        |
| muon_sorter_1/top_candz[137]                       |     16 | FDSE        |
| muon_sorter_1/top_candz[251]                       |     16 | FDSE        |
| muon_sorter_1/top_candz[44]                        |     16 | LUT6        |
| muon_sorter_1/un1_muon_sorter_1_1[112]             |     16 | FDRE        |
| muon_sorter_1/un1_muon_sorter_1_1[113]             |     16 | FDRE        |
| muon_sorter_1/un1_muon_sorter_1_1[114]             |     16 | FDRE        |
| muon_sorter_1/un1_muon_sorter_1_1[115]             |     16 | FDRE        |
| muon_sorter_1/un1_muon_sorter_1_1[116]             |     16 | FDRE        |
| muon_sorter_1/un1_muon_sorter_1_1[117]             |     16 | FDRE        |
| muon_sorter_1/un1_muon_sorter_1_1[118]             |     16 | FDRE        |
| muon_sorter_1/un1_muon_sorter_1_1[124]             |     16 | FDRE        |
| muon_sorter_1/un1_muon_sorter_1_1[125]             |     16 | FDRE        |
| muon_sorter_1/un1_muon_sorter_1_1[126]             |     16 | FDRE        |
| muon_sorter_1/un1_muon_sorter_1_1[144]             |     16 | FDRE        |
| muon_sorter_1/un1_muon_sorter_1_1[145]             |     16 | FDRE        |
| muon_sorter_1/un1_muon_sorter_1_1[147]             |     16 | FDRE        |
| muon_sorter_1/un1_muon_sorter_1_1[148]             |     16 | FDRE        |
| muon_sorter_1/un1_muon_sorter_1_1[149]             |     16 | FDRE        |
| muon_sorter_1/un1_muon_sorter_1_1[150]             |     16 | FDRE        |
| muon_sorter_1/un1_muon_sorter_1_1[156]             |     16 | FDRE        |
| muon_sorter_1/un1_muon_sorter_1_1[157]             |     16 | FDRE        |
| muon_sorter_1/un1_muon_sorter_1_1[158]             |     16 | FDRE        |
| muon_sorter_1/un1_muon_sorter_1_1[160]             |     16 | FDRE        |
| muon_sorter_1/un1_muon_sorter_1_1[161]             |     16 | FDRE        |
| muon_sorter_1/un1_muon_sorter_1_1[162]             |     16 | FDRE        |
| muon_sorter_1/un1_muon_sorter_1_1[163]             |     16 | FDRE        |
| muon_sorter_1/un1_muon_sorter_1_1[164]             |     16 | FDRE        |
| muon_sorter_1/un1_muon_sorter_1_1[165]             |     16 | FDRE        |
| muon_sorter_1/un1_muon_sorter_1_1[166]             |     16 | FDRE        |
| muon_sorter_1/un1_muon_sorter_1_1[172]             |     16 | FDRE        |
| muon_sorter_1/un1_muon_sorter_1_1[173]             |     16 | FDRE        |
| muon_sorter_1/un1_muon_sorter_1_1[174]             |     16 | FDRE        |
| muon_sorter_1/un1_muon_sorter_1_1[176]             |     16 | FDRE        |
| muon_sorter_1/un1_muon_sorter_1_1[178]             |     16 | FDRE        |
| muon_sorter_1/un1_muon_sorter_1_1[180]             |     16 | FDRE        |
| muon_sorter_1/un1_muon_sorter_1_1[182]             |     16 | FDRE        |
| muon_sorter_1/un1_muon_sorter_1_1[188]             |     16 | FDRE        |
| muon_sorter_1/un1_muon_sorter_1_1[190]             |     16 | FDRE        |
| muon_sorter_1/un1_muon_sorter_1_1[196]             |     16 | FDRE        |
+----------------------------------------------------+--------+-------------+


