Copyright 1986-2018 Xilinx, Inc. All Rights Reserved.
-----------------------------------------------------------------------------------------------
| Tool Version      : Vivado v.2018.2 (win64) Build 2258646 Thu Jun 14 20:03:12 MDT 2018
| Date              : Tue Mar 12 16:08:44 2019
| Host              : PCPHESEBE02 running 64-bit Service Pack 1  (build 7601)
| Command           : report_timing_summary -hold -nworst 5 -max_paths 5 -file timing_hold.txt
| Design            : wrapper
| Device            : xcvu9p-flgc2104
| Speed File        : -1  PRODUCTION 1.20 05-21-2018
| Temperature Grade : E
-----------------------------------------------------------------------------------------------

Timing Summary Report

------------------------------------------------------------------------------------------------
| Timer Settings
| --------------
------------------------------------------------------------------------------------------------

  Enable Multi Corner Analysis               :  Yes
  Enable Pessimism Removal                   :  Yes
  Pessimism Removal Resolution               :  Nearest Common Node
  Enable Input Delay Default Clock           :  No
  Enable Preset / Clear Arcs                 :  No
  Disable Flight Delays                      :  No
  Ignore I/O Paths                           :  No
  Timing Early Launch at Borrowing Latches   :  false

  Corner  Analyze    Analyze    
  Name    Max Paths  Min Paths  
  ------  ---------  ---------  
  Slow    Yes        Yes        
  Fast    Yes        Yes        



check_timing report

Table of Contents
-----------------
1. checking no_clock
2. checking constant_clock
3. checking pulse_width_clock
4. checking unconstrained_internal_endpoints
5. checking no_input_delay
6. checking no_output_delay
7. checking multiple_clock
8. checking generated_clocks
9. checking loops
10. checking partial_input_delay
11. checking partial_output_delay
12. checking latch_loops

1. checking no_clock
--------------------
 There are 0 register/latch pins with no clock.


2. checking constant_clock
--------------------------
 There are 0 register/latch pins with constant_clock.


3. checking pulse_width_clock
-----------------------------
 There are 0 register/latch pins which need pulse_width check


4. checking unconstrained_internal_endpoints
--------------------------------------------
 There are 0 pins that are not constrained for maximum delay.

 There are 0 pins that are not constrained for maximum delay due to constant clock.


5. checking no_input_delay
--------------------------
 There is 1 input port with no input delay specified. (HIGH)

 There are 0 input ports with no input delay but user has a false path constraint.


6. checking no_output_delay
---------------------------
 There is 1 port with no output delay specified. (HIGH)

 There are 0 ports with no output delay but user has a false path constraint

 There are 0 ports with no output delay but with a timing clock defined on it or propagating through it


7. checking multiple_clock
--------------------------
 There are 0 register/latch pins with multiple clocks.


8. checking generated_clocks
----------------------------
 There are 0 generated clocks that are not connected to a clock source.


9. checking loops
-----------------
 There are 0 combinational loops in the design.


10. checking partial_input_delay
--------------------------------
 There are 0 input ports with partial input delay specified.


11. checking partial_output_delay
---------------------------------
 There are 0 ports with partial output delay specified.


12. checking latch_loops
------------------------
 There are 0 combinational latch loops in the design through latch input



------------------------------------------------------------------------------------------------
| Design Timing Summary
| ---------------------
------------------------------------------------------------------------------------------------

    WHS(ns)      THS(ns)  THS Failing Endpoints  THS Total Endpoints     WPWS(ns)     TPWS(ns)  TPWS Failing Endpoints  TPWS Total Endpoints  
    -------      -------  ---------------------  -------------------     --------     --------  ----------------------  --------------------  
      0.617        0.000                      0                  416        1.511        0.000                       0                  1833  


All user specified timing constraints are met.


------------------------------------------------------------------------------------------------
| Clock Summary
| -------------
------------------------------------------------------------------------------------------------

Clock        Waveform(ns)         Period(ns)      Frequency(MHz)
-----        ------------         ----------      --------------
clk          {0.000 1.786}        3.572           279.955         
clk_wrapper  {0.000 500.000}      1000.000        1.000           


------------------------------------------------------------------------------------------------
| Intra Clock Table
| -----------------
------------------------------------------------------------------------------------------------

Clock             WHS(ns)      THS(ns)  THS Failing Endpoints  THS Total Endpoints     WPWS(ns)     TPWS(ns)  TPWS Failing Endpoints  TPWS Total Endpoints  
-----             -------      -------  ---------------------  -------------------     --------     --------  ----------------------  --------------------  
clk                 0.617        0.000                      0                  416        1.511        0.000                       0                   859  
clk_wrapper                                                                             498.562        0.000                       0                   974  


------------------------------------------------------------------------------------------------
| Inter Clock Table
| -----------------
------------------------------------------------------------------------------------------------

From Clock    To Clock          WHS(ns)      THS(ns)  THS Failing Endpoints  THS Total Endpoints  
----------    --------          -------      -------  ---------------------  -------------------  


------------------------------------------------------------------------------------------------
| Other Path Groups Table
| -----------------------
------------------------------------------------------------------------------------------------

Path Group    From Clock    To Clock          WHS(ns)      THS(ns)  THS Failing Endpoints  THS Total Endpoints  
----------    ----------    --------          -------      -------  ---------------------  -------------------  


------------------------------------------------------------------------------------------------
| Timing Details
| --------------
------------------------------------------------------------------------------------------------


---------------------------------------------------------------------------------------------------
From Clock:  clk
  To Clock:  clk

Setup :           NA  Failing Endpoints,  Worst Slack           NA  ,  Total Violation           NA
Hold  :            0  Failing Endpoints,  Worst Slack        0.617ns,  Total Violation        0.000ns
PW    :            0  Failing Endpoints,  Worst Slack        1.511ns,  Total Violation        0.000ns
---------------------------------------------------------------------------------------------------


Min Delay Paths
--------------------------------------------------------------------------------------
Slack (MET) :             0.617ns  (arrival time - required time)
  Source:                 shift_reg_tap_i/sr_p.sr_1[211]/C
                            (rising edge-triggered cell FDRE clocked by clk  {rise@0.000ns fall@1.786ns period=3.572ns})
  Destination:            shift_reg_tap_o/sr_p.sr_1[328]/D
                            (rising edge-triggered cell FDRE clocked by clk  {rise@0.000ns fall@1.786ns period=3.572ns})
  Path Group:             clk
  Path Type:              Hold (Min at Fast Process Corner)
  Requirement:            0.000ns  (clk rise@0.000ns - clk rise@0.000ns)
  Data Path Delay:        0.865ns  (logic 0.182ns (21.040%)  route 0.683ns (78.960%))
  Logic Levels:           6  (LUT4=1 LUT5=3 LUT6=2)
  Clock Path Skew:        0.202ns (DCD - SCD - CPR)
    Destination Clock Delay (DCD):    2.476ns
    Source Clock Delay      (SCD):    1.956ns
    Clock Pessimism Removal (CPR):    0.318ns
  Clock Net Delay (Source):      1.410ns (routing 0.884ns, distribution 0.526ns)
  Clock Net Delay (Destination): 1.704ns (routing 0.976ns, distribution 0.728ns)

    Location             Delay type                Incr(ns)  Path(ns)    Netlist Resource(s)
  -------------------------------------------------------------------    -------------------
                         (clock clk rise edge)        0.000     0.000 r  
    AV33                                              0.000     0.000 r  clk (IN)
                         net (fo=0)                   0.000     0.000    clk_ibuf_iso/I
    AV33                 INBUF (Prop_INBUF_HPIOB_M_PAD_O)
                                                      0.385     0.385 r  clk_ibuf_iso/INBUF_INST/O
                         net (fo=1, routed)           0.000     0.385    clk_ibuf_iso/OUT
    AV33                 IBUFCTRL (Prop_IBUFCTRL_HPIOB_M_I_O)
                                                      0.000     0.385 r  clk_ibuf_iso/IBUFCTRL_INST/O
                         net (fo=1, routed)           0.144     0.529    clk_ibuf_iso
    BUFGCE_X1Y224        BUFGCE (Prop_BUFCE_BUFGCE_I_O)
                                                      0.017     0.546 r  clk_ibuf/O
    X2Y6 (CLOCK_ROOT)    net (fo=858, routed)         1.410     1.956    shift_reg_tap_i/clk_c
    SLICE_X94Y411        FDRE                                         r  shift_reg_tap_i/sr_p.sr_1[211]/C
  -------------------------------------------------------------------    -------------------
    SLICE_X94Y411        FDRE (Prop_FFF2_SLICEL_C_Q)
                                                      0.040     1.996 r  shift_reg_tap_i/sr_p.sr_1[211]/Q
                         net (fo=21, routed)          0.067     2.063    dut_inst/sorter_inst/genblk1.bitonic_sort_high/genblk1.bitonic_sort_low/genblk1.bitonic_merge_i/genblk1.cmp_g[3].compare_i/input_slr_0
    SLICE_X94Y409        LUT6 (Prop_D6LUT_SLICEL_I0_O)
                                                      0.035     2.098 r  dut_inst/sorter_inst/genblk1.bitonic_sort_high/genblk1.bitonic_sort_low/genblk1.bitonic_merge_i/genblk1.cmp_g[3].compare_i/s0.pt[3]/O
                         net (fo=11, routed)          0.053     2.151    dut_inst/sorter_inst/genblk1.bitonic_sort_high/genblk1.bitonic_sort_low/genblk1.bitonic_merge_i/genblk1.bitonic_merge_low/genblk1.bitonic_merge_low/genblk1.cmp_g[0].compare_i/pt_62_0
    SLICE_X93Y409        LUT5 (Prop_E6LUT_SLICEM_I2_O)
                                                      0.014     2.165 r  dut_inst/sorter_inst/genblk1.bitonic_sort_high/genblk1.bitonic_sort_low/genblk1.bitonic_merge_i/genblk1.bitonic_merge_low/genblk1.bitonic_merge_low/genblk1.cmp_g[0].compare_i/s0.pt[3]/O
                         net (fo=7, routed)           0.206     2.371    dut_inst/sorter_inst/genblk1.bitonic_sort_high/genblk1.bitonic_merge_i/genblk1.bitonic_merge_high/genblk1.cmp_g[0].compare_i/pt_110_0
    SLICE_X101Y413       LUT4 (Prop_G6LUT_SLICEL_I1_O)
                                                      0.022     2.393 r  dut_inst/sorter_inst/genblk1.bitonic_sort_high/genblk1.bitonic_merge_i/genblk1.bitonic_merge_high/genblk1.cmp_g[0].compare_i/s1.pt[3]/O
                         net (fo=10, routed)          0.130     2.523    dut_inst/sorter_inst/genblk1.bitonic_merge_i/genblk1.cmp_g[14].compare_i/pt_146_0
    SLICE_X101Y419       LUT5 (Prop_D6LUT_SLICEL_I1_O)
                                                      0.014     2.537 r  dut_inst/sorter_inst/genblk1.bitonic_merge_i/genblk1.cmp_g[14].compare_i/s1.pt[3]/O
                         net (fo=6, routed)           0.155     2.692    dut_inst/sorter_inst/genblk1.bitonic_merge_i/genblk1.bitonic_merge_high/genblk1.bitonic_merge_high/genblk1.cmp_g[2].compare_i/pt_134_0
    SLICE_X105Y422       LUT6 (Prop_D6LUT_SLICEL_I3_O)
                                                      0.022     2.714 r  dut_inst/sorter_inst/genblk1.bitonic_merge_i/genblk1.bitonic_merge_high/genblk1.bitonic_merge_high/genblk1.cmp_g[2].compare_i/s0.pt[3]/O
                         net (fo=11, routed)          0.056     2.770    dut_inst/sorter_inst/genblk1.bitonic_merge_i/genblk1.bitonic_merge_high/genblk1.bitonic_merge_high/genblk1.bitonic_merge_low/genblk1.bitonic_merge_low/genblk1.cmp_g[0].compare_i/pt_138[3]
    SLICE_X105Y423       LUT5 (Prop_D6LUT_SLICEL_I4_O)
                                                      0.035     2.805 r  dut_inst/sorter_inst/genblk1.bitonic_merge_i/genblk1.bitonic_merge_high/genblk1.bitonic_merge_high/genblk1.bitonic_merge_low/genblk1.bitonic_merge_low/genblk1.cmp_g[0].compare_i/s1.pt[3]/O
                         net (fo=1, routed)           0.016     2.821    shift_reg_tap_o/pt_198_0_0
    SLICE_X105Y423       FDRE                                         r  shift_reg_tap_o/sr_p.sr_1[328]/D
  -------------------------------------------------------------------    -------------------

                         (clock clk rise edge)        0.000     0.000 r  
    AV33                                              0.000     0.000 r  clk (IN)
                         net (fo=0)                   0.000     0.000    clk_ibuf_iso/I
    AV33                 INBUF (Prop_INBUF_HPIOB_M_PAD_O)
                                                      0.572     0.572 r  clk_ibuf_iso/INBUF_INST/O
                         net (fo=1, routed)           0.000     0.572    clk_ibuf_iso/OUT
    AV33                 IBUFCTRL (Prop_IBUFCTRL_HPIOB_M_I_O)
                                                      0.000     0.572 r  clk_ibuf_iso/IBUFCTRL_INST/O
                         net (fo=1, routed)           0.181     0.753    clk_ibuf_iso
    BUFGCE_X1Y224        BUFGCE (Prop_BUFCE_BUFGCE_I_O)
                                                      0.019     0.772 r  clk_ibuf/O
    X2Y6 (CLOCK_ROOT)    net (fo=858, routed)         1.704     2.476    shift_reg_tap_o/clk_c
    SLICE_X105Y423       FDRE                                         r  shift_reg_tap_o/sr_p.sr_1[328]/C
                         clock pessimism             -0.318     2.158    
    SLICE_X105Y423       FDRE (Hold_DFF_SLICEL_C_D)
                                                      0.046     2.204    shift_reg_tap_o/sr_p.sr_1[328]
  -------------------------------------------------------------------
                         required time                         -2.204    
                         arrival time                           2.821    
  -------------------------------------------------------------------
                         slack                                  0.617    

Slack (MET) :             0.617ns  (arrival time - required time)
  Source:                 shift_reg_tap_i/sr_p.sr_1[211]/C
                            (rising edge-triggered cell FDRE clocked by clk  {rise@0.000ns fall@1.786ns period=3.572ns})
  Destination:            shift_reg_tap_o/sr_p.sr_1[328]/D
                            (rising edge-triggered cell FDRE clocked by clk  {rise@0.000ns fall@1.786ns period=3.572ns})
  Path Group:             clk
  Path Type:              Hold (Min at Fast Process Corner)
  Requirement:            0.000ns  (clk rise@0.000ns - clk rise@0.000ns)
  Data Path Delay:        0.865ns  (logic 0.182ns (21.040%)  route 0.683ns (78.960%))
  Logic Levels:           6  (LUT4=1 LUT5=3 LUT6=2)
  Clock Path Skew:        0.202ns (DCD - SCD - CPR)
    Destination Clock Delay (DCD):    2.476ns
    Source Clock Delay      (SCD):    1.956ns
    Clock Pessimism Removal (CPR):    0.318ns
  Clock Net Delay (Source):      1.410ns (routing 0.884ns, distribution 0.526ns)
  Clock Net Delay (Destination): 1.704ns (routing 0.976ns, distribution 0.728ns)

    Location             Delay type                Incr(ns)  Path(ns)    Netlist Resource(s)
  -------------------------------------------------------------------    -------------------
                         (clock clk rise edge)        0.000     0.000 r  
    AV33                                              0.000     0.000 r  clk (IN)
                         net (fo=0)                   0.000     0.000    clk_ibuf_iso/I
    AV33                 INBUF (Prop_INBUF_HPIOB_M_PAD_O)
                                                      0.385     0.385 r  clk_ibuf_iso/INBUF_INST/O
                         net (fo=1, routed)           0.000     0.385    clk_ibuf_iso/OUT
    AV33                 IBUFCTRL (Prop_IBUFCTRL_HPIOB_M_I_O)
                                                      0.000     0.385 r  clk_ibuf_iso/IBUFCTRL_INST/O
                         net (fo=1, routed)           0.144     0.529    clk_ibuf_iso
    BUFGCE_X1Y224        BUFGCE (Prop_BUFCE_BUFGCE_I_O)
                                                      0.017     0.546 r  clk_ibuf/O
    X2Y6 (CLOCK_ROOT)    net (fo=858, routed)         1.410     1.956    shift_reg_tap_i/clk_c
    SLICE_X94Y411        FDRE                                         r  shift_reg_tap_i/sr_p.sr_1[211]/C
  -------------------------------------------------------------------    -------------------
    SLICE_X94Y411        FDRE (Prop_FFF2_SLICEL_C_Q)
                                                      0.040     1.996 f  shift_reg_tap_i/sr_p.sr_1[211]/Q
                         net (fo=21, routed)          0.067     2.063    dut_inst/sorter_inst/genblk1.bitonic_sort_high/genblk1.bitonic_sort_low/genblk1.bitonic_merge_i/genblk1.cmp_g[3].compare_i/input_slr_0
    SLICE_X94Y409        LUT6 (Prop_D6LUT_SLICEL_I0_O)
                                                      0.035     2.098 f  dut_inst/sorter_inst/genblk1.bitonic_sort_high/genblk1.bitonic_sort_low/genblk1.bitonic_merge_i/genblk1.cmp_g[3].compare_i/s0.pt[3]/O
                         net (fo=11, routed)          0.053     2.151    dut_inst/sorter_inst/genblk1.bitonic_sort_high/genblk1.bitonic_sort_low/genblk1.bitonic_merge_i/genblk1.bitonic_merge_low/genblk1.bitonic_merge_low/genblk1.cmp_g[0].compare_i/pt_62_0
    SLICE_X93Y409        LUT5 (Prop_E6LUT_SLICEM_I2_O)
                                                      0.014     2.165 f  dut_inst/sorter_inst/genblk1.bitonic_sort_high/genblk1.bitonic_sort_low/genblk1.bitonic_merge_i/genblk1.bitonic_merge_low/genblk1.bitonic_merge_low/genblk1.cmp_g[0].compare_i/s0.pt[3]/O
                         net (fo=7, routed)           0.206     2.371    dut_inst/sorter_inst/genblk1.bitonic_sort_high/genblk1.bitonic_merge_i/genblk1.bitonic_merge_high/genblk1.cmp_g[0].compare_i/pt_110_0
    SLICE_X101Y413       LUT4 (Prop_G6LUT_SLICEL_I1_O)
                                                      0.022     2.393 f  dut_inst/sorter_inst/genblk1.bitonic_sort_high/genblk1.bitonic_merge_i/genblk1.bitonic_merge_high/genblk1.cmp_g[0].compare_i/s1.pt[3]/O
                         net (fo=10, routed)          0.130     2.523    dut_inst/sorter_inst/genblk1.bitonic_merge_i/genblk1.cmp_g[14].compare_i/pt_146_0
    SLICE_X101Y419       LUT5 (Prop_D6LUT_SLICEL_I1_O)
                                                      0.014     2.537 f  dut_inst/sorter_inst/genblk1.bitonic_merge_i/genblk1.cmp_g[14].compare_i/s1.pt[3]/O
                         net (fo=6, routed)           0.155     2.692    dut_inst/sorter_inst/genblk1.bitonic_merge_i/genblk1.bitonic_merge_high/genblk1.bitonic_merge_high/genblk1.cmp_g[2].compare_i/pt_134_0
    SLICE_X105Y422       LUT6 (Prop_D6LUT_SLICEL_I3_O)
                                                      0.022     2.714 f  dut_inst/sorter_inst/genblk1.bitonic_merge_i/genblk1.bitonic_merge_high/genblk1.bitonic_merge_high/genblk1.cmp_g[2].compare_i/s0.pt[3]/O
                         net (fo=11, routed)          0.056     2.770    dut_inst/sorter_inst/genblk1.bitonic_merge_i/genblk1.bitonic_merge_high/genblk1.bitonic_merge_high/genblk1.bitonic_merge_low/genblk1.bitonic_merge_low/genblk1.cmp_g[0].compare_i/pt_138[3]
    SLICE_X105Y423       LUT5 (Prop_D6LUT_SLICEL_I4_O)
                                                      0.035     2.805 f  dut_inst/sorter_inst/genblk1.bitonic_merge_i/genblk1.bitonic_merge_high/genblk1.bitonic_merge_high/genblk1.bitonic_merge_low/genblk1.bitonic_merge_low/genblk1.cmp_g[0].compare_i/s1.pt[3]/O
                         net (fo=1, routed)           0.016     2.821    shift_reg_tap_o/pt_198_0_0
    SLICE_X105Y423       FDRE                                         f  shift_reg_tap_o/sr_p.sr_1[328]/D
  -------------------------------------------------------------------    -------------------

                         (clock clk rise edge)        0.000     0.000 r  
    AV33                                              0.000     0.000 r  clk (IN)
                         net (fo=0)                   0.000     0.000    clk_ibuf_iso/I
    AV33                 INBUF (Prop_INBUF_HPIOB_M_PAD_O)
                                                      0.572     0.572 r  clk_ibuf_iso/INBUF_INST/O
                         net (fo=1, routed)           0.000     0.572    clk_ibuf_iso/OUT
    AV33                 IBUFCTRL (Prop_IBUFCTRL_HPIOB_M_I_O)
                                                      0.000     0.572 r  clk_ibuf_iso/IBUFCTRL_INST/O
                         net (fo=1, routed)           0.181     0.753    clk_ibuf_iso
    BUFGCE_X1Y224        BUFGCE (Prop_BUFCE_BUFGCE_I_O)
                                                      0.019     0.772 r  clk_ibuf/O
    X2Y6 (CLOCK_ROOT)    net (fo=858, routed)         1.704     2.476    shift_reg_tap_o/clk_c
    SLICE_X105Y423       FDRE                                         r  shift_reg_tap_o/sr_p.sr_1[328]/C
                         clock pessimism             -0.318     2.158    
    SLICE_X105Y423       FDRE (Hold_DFF_SLICEL_C_D)
                                                      0.046     2.204    shift_reg_tap_o/sr_p.sr_1[328]
  -------------------------------------------------------------------
                         required time                         -2.204    
                         arrival time                           2.821    
  -------------------------------------------------------------------
                         slack                                  0.617    

Slack (MET) :             0.657ns  (arrival time - required time)
  Source:                 shift_reg_tap_i/sr_p.sr_1[237]/C
                            (rising edge-triggered cell FDRE clocked by clk  {rise@0.000ns fall@1.786ns period=3.572ns})
  Destination:            shift_reg_tap_o/sr_p.sr_1[328]/D
                            (rising edge-triggered cell FDRE clocked by clk  {rise@0.000ns fall@1.786ns period=3.572ns})
  Path Group:             clk
  Path Type:              Hold (Min at Fast Process Corner)
  Requirement:            0.000ns  (clk rise@0.000ns - clk rise@0.000ns)
  Data Path Delay:        0.899ns  (logic 0.159ns (17.686%)  route 0.740ns (82.314%))
  Logic Levels:           6  (LUT4=1 LUT5=3 LUT6=2)
  Clock Path Skew:        0.196ns (DCD - SCD - CPR)
    Destination Clock Delay (DCD):    2.476ns
    Source Clock Delay      (SCD):    1.962ns
    Clock Pessimism Removal (CPR):    0.318ns
  Clock Net Delay (Source):      1.416ns (routing 0.884ns, distribution 0.532ns)
  Clock Net Delay (Destination): 1.704ns (routing 0.976ns, distribution 0.728ns)

    Location             Delay type                Incr(ns)  Path(ns)    Netlist Resource(s)
  -------------------------------------------------------------------    -------------------
                         (clock clk rise edge)        0.000     0.000 r  
    AV33                                              0.000     0.000 r  clk (IN)
                         net (fo=0)                   0.000     0.000    clk_ibuf_iso/I
    AV33                 INBUF (Prop_INBUF_HPIOB_M_PAD_O)
                                                      0.385     0.385 r  clk_ibuf_iso/INBUF_INST/O
                         net (fo=1, routed)           0.000     0.385    clk_ibuf_iso/OUT
    AV33                 IBUFCTRL (Prop_IBUFCTRL_HPIOB_M_I_O)
                                                      0.000     0.385 r  clk_ibuf_iso/IBUFCTRL_INST/O
                         net (fo=1, routed)           0.144     0.529    clk_ibuf_iso
    BUFGCE_X1Y224        BUFGCE (Prop_BUFCE_BUFGCE_I_O)
                                                      0.017     0.546 r  clk_ibuf/O
    X2Y6 (CLOCK_ROOT)    net (fo=858, routed)         1.416     1.962    shift_reg_tap_i/clk_c
    SLICE_X95Y411        FDRE                                         r  shift_reg_tap_i/sr_p.sr_1[237]/C
  -------------------------------------------------------------------    -------------------
    SLICE_X95Y411        FDRE (Prop_BFF_SLICEM_C_Q)
                                                      0.038     2.000 r  shift_reg_tap_i/sr_p.sr_1[237]/Q
                         net (fo=26, routed)          0.124     2.124    dut_inst/sorter_inst/genblk1.bitonic_sort_high/genblk1.bitonic_sort_low/genblk1.bitonic_merge_i/genblk1.cmp_g[3].compare_i/input_slr_26
    SLICE_X94Y409        LUT6 (Prop_D6LUT_SLICEL_I2_O)
                                                      0.014     2.138 r  dut_inst/sorter_inst/genblk1.bitonic_sort_high/genblk1.bitonic_sort_low/genblk1.bitonic_merge_i/genblk1.cmp_g[3].compare_i/s0.pt[3]/O
                         net (fo=11, routed)          0.053     2.191    dut_inst/sorter_inst/genblk1.bitonic_sort_high/genblk1.bitonic_sort_low/genblk1.bitonic_merge_i/genblk1.bitonic_merge_low/genblk1.bitonic_merge_low/genblk1.cmp_g[0].compare_i/pt_62_0
    SLICE_X93Y409        LUT5 (Prop_E6LUT_SLICEM_I2_O)
                                                      0.014     2.205 r  dut_inst/sorter_inst/genblk1.bitonic_sort_high/genblk1.bitonic_sort_low/genblk1.bitonic_merge_i/genblk1.bitonic_merge_low/genblk1.bitonic_merge_low/genblk1.cmp_g[0].compare_i/s0.pt[3]/O
                         net (fo=7, routed)           0.206     2.411    dut_inst/sorter_inst/genblk1.bitonic_sort_high/genblk1.bitonic_merge_i/genblk1.bitonic_merge_high/genblk1.cmp_g[0].compare_i/pt_110_0
    SLICE_X101Y413       LUT4 (Prop_G6LUT_SLICEL_I1_O)
                                                      0.022     2.433 r  dut_inst/sorter_inst/genblk1.bitonic_sort_high/genblk1.bitonic_merge_i/genblk1.bitonic_merge_high/genblk1.cmp_g[0].compare_i/s1.pt[3]/O
                         net (fo=10, routed)          0.130     2.563    dut_inst/sorter_inst/genblk1.bitonic_merge_i/genblk1.cmp_g[14].compare_i/pt_146_0
    SLICE_X101Y419       LUT5 (Prop_D6LUT_SLICEL_I1_O)
                                                      0.014     2.577 r  dut_inst/sorter_inst/genblk1.bitonic_merge_i/genblk1.cmp_g[14].compare_i/s1.pt[3]/O
                         net (fo=6, routed)           0.155     2.732    dut_inst/sorter_inst/genblk1.bitonic_merge_i/genblk1.bitonic_merge_high/genblk1.bitonic_merge_high/genblk1.cmp_g[2].compare_i/pt_134_0
    SLICE_X105Y422       LUT6 (Prop_D6LUT_SLICEL_I3_O)
                                                      0.022     2.754 r  dut_inst/sorter_inst/genblk1.bitonic_merge_i/genblk1.bitonic_merge_high/genblk1.bitonic_merge_high/genblk1.cmp_g[2].compare_i/s0.pt[3]/O
                         net (fo=11, routed)          0.056     2.810    dut_inst/sorter_inst/genblk1.bitonic_merge_i/genblk1.bitonic_merge_high/genblk1.bitonic_merge_high/genblk1.bitonic_merge_low/genblk1.bitonic_merge_low/genblk1.cmp_g[0].compare_i/pt_138[3]
    SLICE_X105Y423       LUT5 (Prop_D6LUT_SLICEL_I4_O)
                                                      0.035     2.845 r  dut_inst/sorter_inst/genblk1.bitonic_merge_i/genblk1.bitonic_merge_high/genblk1.bitonic_merge_high/genblk1.bitonic_merge_low/genblk1.bitonic_merge_low/genblk1.cmp_g[0].compare_i/s1.pt[3]/O
                         net (fo=1, routed)           0.016     2.861    shift_reg_tap_o/pt_198_0_0
    SLICE_X105Y423       FDRE                                         r  shift_reg_tap_o/sr_p.sr_1[328]/D
  -------------------------------------------------------------------    -------------------

                         (clock clk rise edge)        0.000     0.000 r  
    AV33                                              0.000     0.000 r  clk (IN)
                         net (fo=0)                   0.000     0.000    clk_ibuf_iso/I
    AV33                 INBUF (Prop_INBUF_HPIOB_M_PAD_O)
                                                      0.572     0.572 r  clk_ibuf_iso/INBUF_INST/O
                         net (fo=1, routed)           0.000     0.572    clk_ibuf_iso/OUT
    AV33                 IBUFCTRL (Prop_IBUFCTRL_HPIOB_M_I_O)
                                                      0.000     0.572 r  clk_ibuf_iso/IBUFCTRL_INST/O
                         net (fo=1, routed)           0.181     0.753    clk_ibuf_iso
    BUFGCE_X1Y224        BUFGCE (Prop_BUFCE_BUFGCE_I_O)
                                                      0.019     0.772 r  clk_ibuf/O
    X2Y6 (CLOCK_ROOT)    net (fo=858, routed)         1.704     2.476    shift_reg_tap_o/clk_c
    SLICE_X105Y423       FDRE                                         r  shift_reg_tap_o/sr_p.sr_1[328]/C
                         clock pessimism             -0.318     2.158    
    SLICE_X105Y423       FDRE (Hold_DFF_SLICEL_C_D)
                                                      0.046     2.204    shift_reg_tap_o/sr_p.sr_1[328]
  -------------------------------------------------------------------
                         required time                         -2.204    
                         arrival time                           2.861    
  -------------------------------------------------------------------
                         slack                                  0.657    

Slack (MET) :             0.657ns  (arrival time - required time)
  Source:                 shift_reg_tap_i/sr_p.sr_1[237]/C
                            (rising edge-triggered cell FDRE clocked by clk  {rise@0.000ns fall@1.786ns period=3.572ns})
  Destination:            shift_reg_tap_o/sr_p.sr_1[328]/D
                            (rising edge-triggered cell FDRE clocked by clk  {rise@0.000ns fall@1.786ns period=3.572ns})
  Path Group:             clk
  Path Type:              Hold (Min at Fast Process Corner)
  Requirement:            0.000ns  (clk rise@0.000ns - clk rise@0.000ns)
  Data Path Delay:        0.899ns  (logic 0.159ns (17.686%)  route 0.740ns (82.314%))
  Logic Levels:           6  (LUT4=1 LUT5=3 LUT6=2)
  Clock Path Skew:        0.196ns (DCD - SCD - CPR)
    Destination Clock Delay (DCD):    2.476ns
    Source Clock Delay      (SCD):    1.962ns
    Clock Pessimism Removal (CPR):    0.318ns
  Clock Net Delay (Source):      1.416ns (routing 0.884ns, distribution 0.532ns)
  Clock Net Delay (Destination): 1.704ns (routing 0.976ns, distribution 0.728ns)

    Location             Delay type                Incr(ns)  Path(ns)    Netlist Resource(s)
  -------------------------------------------------------------------    -------------------
                         (clock clk rise edge)        0.000     0.000 r  
    AV33                                              0.000     0.000 r  clk (IN)
                         net (fo=0)                   0.000     0.000    clk_ibuf_iso/I
    AV33                 INBUF (Prop_INBUF_HPIOB_M_PAD_O)
                                                      0.385     0.385 r  clk_ibuf_iso/INBUF_INST/O
                         net (fo=1, routed)           0.000     0.385    clk_ibuf_iso/OUT
    AV33                 IBUFCTRL (Prop_IBUFCTRL_HPIOB_M_I_O)
                                                      0.000     0.385 r  clk_ibuf_iso/IBUFCTRL_INST/O
                         net (fo=1, routed)           0.144     0.529    clk_ibuf_iso
    BUFGCE_X1Y224        BUFGCE (Prop_BUFCE_BUFGCE_I_O)
                                                      0.017     0.546 r  clk_ibuf/O
    X2Y6 (CLOCK_ROOT)    net (fo=858, routed)         1.416     1.962    shift_reg_tap_i/clk_c
    SLICE_X95Y411        FDRE                                         r  shift_reg_tap_i/sr_p.sr_1[237]/C
  -------------------------------------------------------------------    -------------------
    SLICE_X95Y411        FDRE (Prop_BFF_SLICEM_C_Q)
                                                      0.038     2.000 r  shift_reg_tap_i/sr_p.sr_1[237]/Q
                         net (fo=26, routed)          0.124     2.124    dut_inst/sorter_inst/genblk1.bitonic_sort_high/genblk1.bitonic_sort_low/genblk1.bitonic_merge_i/genblk1.cmp_g[3].compare_i/input_slr_26
    SLICE_X94Y409        LUT6 (Prop_D6LUT_SLICEL_I2_O)
                                                      0.014     2.138 r  dut_inst/sorter_inst/genblk1.bitonic_sort_high/genblk1.bitonic_sort_low/genblk1.bitonic_merge_i/genblk1.cmp_g[3].compare_i/s0.pt[3]/O
                         net (fo=11, routed)          0.053     2.191    dut_inst/sorter_inst/genblk1.bitonic_sort_high/genblk1.bitonic_sort_low/genblk1.bitonic_merge_i/genblk1.bitonic_merge_low/genblk1.bitonic_merge_low/genblk1.cmp_g[0].compare_i/pt_62_0
    SLICE_X93Y409        LUT5 (Prop_E6LUT_SLICEM_I2_O)
                                                      0.014     2.205 r  dut_inst/sorter_inst/genblk1.bitonic_sort_high/genblk1.bitonic_sort_low/genblk1.bitonic_merge_i/genblk1.bitonic_merge_low/genblk1.bitonic_merge_low/genblk1.cmp_g[0].compare_i/s0.pt[3]/O
                         net (fo=7, routed)           0.206     2.411    dut_inst/sorter_inst/genblk1.bitonic_sort_high/genblk1.bitonic_merge_i/genblk1.bitonic_merge_high/genblk1.cmp_g[0].compare_i/pt_110_0
    SLICE_X101Y413       LUT4 (Prop_G6LUT_SLICEL_I1_O)
                                                      0.022     2.433 r  dut_inst/sorter_inst/genblk1.bitonic_sort_high/genblk1.bitonic_merge_i/genblk1.bitonic_merge_high/genblk1.cmp_g[0].compare_i/s1.pt[3]/O
                         net (fo=10, routed)          0.130     2.563    dut_inst/sorter_inst/genblk1.bitonic_merge_i/genblk1.cmp_g[14].compare_i/pt_146_0
    SLICE_X101Y419       LUT5 (Prop_D6LUT_SLICEL_I1_O)
                                                      0.014     2.577 r  dut_inst/sorter_inst/genblk1.bitonic_merge_i/genblk1.cmp_g[14].compare_i/s1.pt[3]/O
                         net (fo=6, routed)           0.155     2.732    dut_inst/sorter_inst/genblk1.bitonic_merge_i/genblk1.bitonic_merge_high/genblk1.bitonic_merge_high/genblk1.cmp_g[2].compare_i/pt_134_0
    SLICE_X105Y422       LUT6 (Prop_D6LUT_SLICEL_I3_O)
                                                      0.022     2.754 r  dut_inst/sorter_inst/genblk1.bitonic_merge_i/genblk1.bitonic_merge_high/genblk1.bitonic_merge_high/genblk1.cmp_g[2].compare_i/s0.pt[3]/O
                         net (fo=11, routed)          0.056     2.810    dut_inst/sorter_inst/genblk1.bitonic_merge_i/genblk1.bitonic_merge_high/genblk1.bitonic_merge_high/genblk1.bitonic_merge_low/genblk1.bitonic_merge_low/genblk1.cmp_g[0].compare_i/pt_138[3]
    SLICE_X105Y423       LUT5 (Prop_D6LUT_SLICEL_I4_O)
                                                      0.035     2.845 r  dut_inst/sorter_inst/genblk1.bitonic_merge_i/genblk1.bitonic_merge_high/genblk1.bitonic_merge_high/genblk1.bitonic_merge_low/genblk1.bitonic_merge_low/genblk1.cmp_g[0].compare_i/s1.pt[3]/O
                         net (fo=1, routed)           0.016     2.861    shift_reg_tap_o/pt_198_0_0
    SLICE_X105Y423       FDRE                                         r  shift_reg_tap_o/sr_p.sr_1[328]/D
  -------------------------------------------------------------------    -------------------

                         (clock clk rise edge)        0.000     0.000 r  
    AV33                                              0.000     0.000 r  clk (IN)
                         net (fo=0)                   0.000     0.000    clk_ibuf_iso/I
    AV33                 INBUF (Prop_INBUF_HPIOB_M_PAD_O)
                                                      0.572     0.572 r  clk_ibuf_iso/INBUF_INST/O
                         net (fo=1, routed)           0.000     0.572    clk_ibuf_iso/OUT
    AV33                 IBUFCTRL (Prop_IBUFCTRL_HPIOB_M_I_O)
                                                      0.000     0.572 r  clk_ibuf_iso/IBUFCTRL_INST/O
                         net (fo=1, routed)           0.181     0.753    clk_ibuf_iso
    BUFGCE_X1Y224        BUFGCE (Prop_BUFCE_BUFGCE_I_O)
                                                      0.019     0.772 r  clk_ibuf/O
    X2Y6 (CLOCK_ROOT)    net (fo=858, routed)         1.704     2.476    shift_reg_tap_o/clk_c
    SLICE_X105Y423       FDRE                                         r  shift_reg_tap_o/sr_p.sr_1[328]/C
                         clock pessimism             -0.318     2.158    
    SLICE_X105Y423       FDRE (Hold_DFF_SLICEL_C_D)
                                                      0.046     2.204    shift_reg_tap_o/sr_p.sr_1[328]
  -------------------------------------------------------------------
                         required time                         -2.204    
                         arrival time                           2.861    
  -------------------------------------------------------------------
                         slack                                  0.657    

Slack (MET) :             0.657ns  (arrival time - required time)
  Source:                 shift_reg_tap_i/sr_p.sr_1[237]/C
                            (rising edge-triggered cell FDRE clocked by clk  {rise@0.000ns fall@1.786ns period=3.572ns})
  Destination:            shift_reg_tap_o/sr_p.sr_1[328]/D
                            (rising edge-triggered cell FDRE clocked by clk  {rise@0.000ns fall@1.786ns period=3.572ns})
  Path Group:             clk
  Path Type:              Hold (Min at Fast Process Corner)
  Requirement:            0.000ns  (clk rise@0.000ns - clk rise@0.000ns)
  Data Path Delay:        0.899ns  (logic 0.159ns (17.686%)  route 0.740ns (82.314%))
  Logic Levels:           6  (LUT4=1 LUT5=3 LUT6=2)
  Clock Path Skew:        0.196ns (DCD - SCD - CPR)
    Destination Clock Delay (DCD):    2.476ns
    Source Clock Delay      (SCD):    1.962ns
    Clock Pessimism Removal (CPR):    0.318ns
  Clock Net Delay (Source):      1.416ns (routing 0.884ns, distribution 0.532ns)
  Clock Net Delay (Destination): 1.704ns (routing 0.976ns, distribution 0.728ns)

    Location             Delay type                Incr(ns)  Path(ns)    Netlist Resource(s)
  -------------------------------------------------------------------    -------------------
                         (clock clk rise edge)        0.000     0.000 r  
    AV33                                              0.000     0.000 r  clk (IN)
                         net (fo=0)                   0.000     0.000    clk_ibuf_iso/I
    AV33                 INBUF (Prop_INBUF_HPIOB_M_PAD_O)
                                                      0.385     0.385 r  clk_ibuf_iso/INBUF_INST/O
                         net (fo=1, routed)           0.000     0.385    clk_ibuf_iso/OUT
    AV33                 IBUFCTRL (Prop_IBUFCTRL_HPIOB_M_I_O)
                                                      0.000     0.385 r  clk_ibuf_iso/IBUFCTRL_INST/O
                         net (fo=1, routed)           0.144     0.529    clk_ibuf_iso
    BUFGCE_X1Y224        BUFGCE (Prop_BUFCE_BUFGCE_I_O)
                                                      0.017     0.546 r  clk_ibuf/O
    X2Y6 (CLOCK_ROOT)    net (fo=858, routed)         1.416     1.962    shift_reg_tap_i/clk_c
    SLICE_X95Y411        FDRE                                         r  shift_reg_tap_i/sr_p.sr_1[237]/C
  -------------------------------------------------------------------    -------------------
    SLICE_X95Y411        FDRE (Prop_BFF_SLICEM_C_Q)
                                                      0.038     2.000 f  shift_reg_tap_i/sr_p.sr_1[237]/Q
                         net (fo=26, routed)          0.124     2.124    dut_inst/sorter_inst/genblk1.bitonic_sort_high/genblk1.bitonic_sort_low/genblk1.bitonic_merge_i/genblk1.cmp_g[3].compare_i/input_slr_26
    SLICE_X94Y409        LUT6 (Prop_D6LUT_SLICEL_I2_O)
                                                      0.014     2.138 f  dut_inst/sorter_inst/genblk1.bitonic_sort_high/genblk1.bitonic_sort_low/genblk1.bitonic_merge_i/genblk1.cmp_g[3].compare_i/s0.pt[3]/O
                         net (fo=11, routed)          0.053     2.191    dut_inst/sorter_inst/genblk1.bitonic_sort_high/genblk1.bitonic_sort_low/genblk1.bitonic_merge_i/genblk1.bitonic_merge_low/genblk1.bitonic_merge_low/genblk1.cmp_g[0].compare_i/pt_62_0
    SLICE_X93Y409        LUT5 (Prop_E6LUT_SLICEM_I2_O)
                                                      0.014     2.205 f  dut_inst/sorter_inst/genblk1.bitonic_sort_high/genblk1.bitonic_sort_low/genblk1.bitonic_merge_i/genblk1.bitonic_merge_low/genblk1.bitonic_merge_low/genblk1.cmp_g[0].compare_i/s0.pt[3]/O
                         net (fo=7, routed)           0.206     2.411    dut_inst/sorter_inst/genblk1.bitonic_sort_high/genblk1.bitonic_merge_i/genblk1.bitonic_merge_high/genblk1.cmp_g[0].compare_i/pt_110_0
    SLICE_X101Y413       LUT4 (Prop_G6LUT_SLICEL_I1_O)
                                                      0.022     2.433 f  dut_inst/sorter_inst/genblk1.bitonic_sort_high/genblk1.bitonic_merge_i/genblk1.bitonic_merge_high/genblk1.cmp_g[0].compare_i/s1.pt[3]/O
                         net (fo=10, routed)          0.130     2.563    dut_inst/sorter_inst/genblk1.bitonic_merge_i/genblk1.cmp_g[14].compare_i/pt_146_0
    SLICE_X101Y419       LUT5 (Prop_D6LUT_SLICEL_I1_O)
                                                      0.014     2.577 f  dut_inst/sorter_inst/genblk1.bitonic_merge_i/genblk1.cmp_g[14].compare_i/s1.pt[3]/O
                         net (fo=6, routed)           0.155     2.732    dut_inst/sorter_inst/genblk1.bitonic_merge_i/genblk1.bitonic_merge_high/genblk1.bitonic_merge_high/genblk1.cmp_g[2].compare_i/pt_134_0
    SLICE_X105Y422       LUT6 (Prop_D6LUT_SLICEL_I3_O)
                                                      0.022     2.754 f  dut_inst/sorter_inst/genblk1.bitonic_merge_i/genblk1.bitonic_merge_high/genblk1.bitonic_merge_high/genblk1.cmp_g[2].compare_i/s0.pt[3]/O
                         net (fo=11, routed)          0.056     2.810    dut_inst/sorter_inst/genblk1.bitonic_merge_i/genblk1.bitonic_merge_high/genblk1.bitonic_merge_high/genblk1.bitonic_merge_low/genblk1.bitonic_merge_low/genblk1.cmp_g[0].compare_i/pt_138[3]
    SLICE_X105Y423       LUT5 (Prop_D6LUT_SLICEL_I4_O)
                                                      0.035     2.845 f  dut_inst/sorter_inst/genblk1.bitonic_merge_i/genblk1.bitonic_merge_high/genblk1.bitonic_merge_high/genblk1.bitonic_merge_low/genblk1.bitonic_merge_low/genblk1.cmp_g[0].compare_i/s1.pt[3]/O
                         net (fo=1, routed)           0.016     2.861    shift_reg_tap_o/pt_198_0_0
    SLICE_X105Y423       FDRE                                         f  shift_reg_tap_o/sr_p.sr_1[328]/D
  -------------------------------------------------------------------    -------------------

                         (clock clk rise edge)        0.000     0.000 r  
    AV33                                              0.000     0.000 r  clk (IN)
                         net (fo=0)                   0.000     0.000    clk_ibuf_iso/I
    AV33                 INBUF (Prop_INBUF_HPIOB_M_PAD_O)
                                                      0.572     0.572 r  clk_ibuf_iso/INBUF_INST/O
                         net (fo=1, routed)           0.000     0.572    clk_ibuf_iso/OUT
    AV33                 IBUFCTRL (Prop_IBUFCTRL_HPIOB_M_I_O)
                                                      0.000     0.572 r  clk_ibuf_iso/IBUFCTRL_INST/O
                         net (fo=1, routed)           0.181     0.753    clk_ibuf_iso
    BUFGCE_X1Y224        BUFGCE (Prop_BUFCE_BUFGCE_I_O)
                                                      0.019     0.772 r  clk_ibuf/O
    X2Y6 (CLOCK_ROOT)    net (fo=858, routed)         1.704     2.476    shift_reg_tap_o/clk_c
    SLICE_X105Y423       FDRE                                         r  shift_reg_tap_o/sr_p.sr_1[328]/C
                         clock pessimism             -0.318     2.158    
    SLICE_X105Y423       FDRE (Hold_DFF_SLICEL_C_D)
                                                      0.046     2.204    shift_reg_tap_o/sr_p.sr_1[328]
  -------------------------------------------------------------------
                         required time                         -2.204    
                         arrival time                           2.861    
  -------------------------------------------------------------------
                         slack                                  0.657    





Pulse Width Checks
--------------------------------------------------------------------------------------
Clock Name:         clk
Waveform(ns):       { 0.000 1.786 }
Period(ns):         3.572
Sources:            { clk }

Check Type        Corner  Lib Pin   Reference Pin  Required(ns)  Actual(ns)  Slack(ns)  Location        Pin
Min Period        n/a     BUFGCE/I  n/a            1.499         3.572       2.073      BUFGCE_X1Y224   clk_ibuf/I
Min Period        n/a     FDRE/C    n/a            0.550         3.572       3.022      SLICE_X98Y394   shift_reg_tap_i/sr_p.sr_1[212]/C
Min Period        n/a     FDRE/C    n/a            0.550         3.572       3.022      SLICE_X99Y391   shift_reg_tap_i/sr_p.sr_1[213]/C
Min Period        n/a     FDRE/C    n/a            0.550         3.572       3.022      SLICE_X99Y392   shift_reg_tap_i/sr_p.sr_1[214]/C
Min Period        n/a     FDRE/C    n/a            0.550         3.572       3.022      SLICE_X100Y391  shift_reg_tap_i/sr_p.sr_1[215]/C
Low Pulse Width   Slow    FDRE/C    n/a            0.275         1.786       1.511      SLICE_X105Y397  shift_reg_tap_o/sr_p.sr_1[154]/C
Low Pulse Width   Slow    FDRE/C    n/a            0.275         1.786       1.511      SLICE_X88Y416   shift_reg_tap_i/sr_p.sr_1[23]/C
Low Pulse Width   Slow    FDRE/C    n/a            0.275         1.786       1.511      SLICE_X101Y396  shift_reg_tap_o/sr_p.sr_1[166]/C
Low Pulse Width   Slow    FDRE/C    n/a            0.275         1.786       1.511      SLICE_X103Y397  shift_reg_tap_o/sr_p.sr_1[178]/C
Low Pulse Width   Slow    FDRE/C    n/a            0.275         1.786       1.511      SLICE_X101Y396  shift_reg_tap_o/sr_p.sr_1[179]/C
High Pulse Width  Fast    FDRE/C    n/a            0.275         1.786       1.511      SLICE_X98Y394   shift_reg_tap_i/sr_p.sr_1[212]/C
High Pulse Width  Slow    FDRE/C    n/a            0.275         1.786       1.511      SLICE_X99Y391   shift_reg_tap_i/sr_p.sr_1[213]/C
High Pulse Width  Fast    FDRE/C    n/a            0.275         1.786       1.511      SLICE_X99Y391   shift_reg_tap_i/sr_p.sr_1[213]/C
High Pulse Width  Fast    FDRE/C    n/a            0.275         1.786       1.511      SLICE_X99Y392   shift_reg_tap_i/sr_p.sr_1[214]/C
High Pulse Width  Slow    FDRE/C    n/a            0.275         1.786       1.511      SLICE_X97Y392   shift_reg_tap_i/sr_p.sr_1[218]/C



---------------------------------------------------------------------------------------------------
From Clock:  clk_wrapper
  To Clock:  clk_wrapper

Setup :           NA  Failing Endpoints,  Worst Slack           NA  ,  Total Violation           NA
Hold  :           NA  Failing Endpoints,  Worst Slack           NA  ,  Total Violation           NA
PW    :            0  Failing Endpoints,  Worst Slack      498.562ns,  Total Violation        0.000ns
---------------------------------------------------------------------------------------------------


Pulse Width Checks
--------------------------------------------------------------------------------------
Clock Name:         clk_wrapper
Waveform(ns):       { 0.000 500.000 }
Period(ns):         1000.000
Sources:            { clk_wrapper }

Check Type        Corner  Lib Pin   Reference Pin  Required(ns)  Actual(ns)  Slack(ns)  Location               Pin
Min Period        n/a     FDRE/C    n/a            3.195         1000.000    996.805    BITSLICE_RX_TX_X1Y483  reducer_1/delay_block[5][0]/C
Min Period        n/a     BUFGCE/I  n/a            1.499         1000.000    998.501    BUFGCE_X1Y230          clk_wrapper_ibuf/I
Min Period        n/a     FDRE/C    n/a            0.550         1000.000    999.450    SLICE_X88Y391          lsfr_1/shiftreg_vector[151]/C
Min Period        n/a     FDRE/C    n/a            0.550         1000.000    999.450    SLICE_X89Y391          lsfr_1/shiftreg_vector[152]/C
Min Period        n/a     FDRE/C    n/a            0.550         1000.000    999.450    SLICE_X89Y392          lsfr_1/shiftreg_vector[153]/C
Low Pulse Width   Slow    FDRE/C    n/a            1.438         500.000     498.562    BITSLICE_RX_TX_X1Y483  reducer_1/delay_block[5][0]/C
Low Pulse Width   Fast    FDRE/C    n/a            1.438         500.000     498.562    BITSLICE_RX_TX_X1Y483  reducer_1/delay_block[5][0]/C
Low Pulse Width   Slow    FDRE/C    n/a            0.275         500.000     499.725    SLICE_X88Y391          lsfr_1/shiftreg_vector[151]/C
Low Pulse Width   Slow    FDRE/C    n/a            0.275         500.000     499.725    SLICE_X109Y392         reducer_1/delay_block[0][37]/C
Low Pulse Width   Slow    FDRE/C    n/a            0.275         500.000     499.725    SLICE_X102Y421         reducer_1/delay_block[0][380]/C
High Pulse Width  Fast    FDRE/C    n/a            1.438         500.000     498.562    BITSLICE_RX_TX_X1Y483  reducer_1/delay_block[5][0]/C
High Pulse Width  Slow    FDRE/C    n/a            1.438         500.000     498.562    BITSLICE_RX_TX_X1Y483  reducer_1/delay_block[5][0]/C
High Pulse Width  Fast    FDRE/C    n/a            0.275         500.000     499.725    SLICE_X88Y391          lsfr_1/shiftreg_vector[151]/C
High Pulse Width  Fast    FDRE/C    n/a            0.275         500.000     499.725    SLICE_X89Y393          lsfr_1/shiftreg_vector[157]/C
High Pulse Width  Fast    FDRE/C    n/a            0.275         500.000     499.725    SLICE_X91Y402          lsfr_1/shiftreg_vector[15]/C



