Copyright 1986-2018 Xilinx, Inc. All Rights Reserved.
------------------------------------------------------------------------------------
| Tool Version : Vivado v.2018.2 (win64) Build 2258646 Thu Jun 14 20:03:12 MDT 2018
| Date         : Mon Mar 11 22:43:00 2019
| Host         : PCPHESEBE02 running 64-bit Service Pack 1  (build 7601)
| Command      : report_high_fanout_nets -file fanout.txt -max_nets 200
| Design       : wrapper_csn
| Device       : xcvu9p
------------------------------------------------------------------------------------

High Fan-out Nets Information

1. Summary
----------

+--------------------------------------------------------------------------+--------+-------------+
| Net Name                                                                 | Fanout | Driver Type |
+--------------------------------------------------------------------------+--------+-------------+
| dut_inst/stage_g.10.pair_g.6.csn_cmp_inst/un1_b_i_ac0_5_0_30             |     46 | LUT6        |
| dut_inst/stage_g.6.pair_g.0.csn_cmp_inst/un1_b_i_d0_ac0_5_RNIF2G31_1z    |     45 | LUT5        |
| dut_inst/stage_g.9.pair_g.5.csn_cmp_inst/un1_b_i_ac0_5_0_54              |     45 | LUT6        |
| dut_inst/stage_g.8.pair_g.0.csn_cmp_inst/un1_b_i_c4_1                    |     42 | LUT5        |
| dut_inst/stage_g.9.pair_g.7.csn_cmp_inst/un1_b_i_ac0_5_d_1z              |     38 | LUT6        |
| dut_inst/stage_g.2.pair_g.0.csn_cmp_inst/un1_b_i_ac0_5_0_58              |     37 | LUT6        |
| dut_inst/stage_g.7.pair_g.5.csn_cmp_inst/un1_b_i_ac0_5_0_6               |     37 | LUT5        |
| dut_inst/stage_g.0.pair_g.0.csn_cmp_inst/un1_b_i_ac0_5_0_4               |     36 | LUT5        |
| dut_inst/stage_g.4.pair_g.0.csn_cmp_inst/un1_b_i_ac0_5_0_16              |     35 | LUT5        |
| dut_inst/stage_g.7.pair_g.4.csn_cmp_inst/un1_b_i_ac0_5_0_20              |     35 | LUT5        |
| dut_inst/stage_g.6.pair_g.9.csn_cmp_inst/un1_b_i_d0_c3_RNIH4NB1_1z       |     34 | LUT6        |
| dut_inst/stage_g.7.pair_g.7.csn_cmp_inst/un1_b_i_d0_ac0_6_RNII75P_1z     |     34 | LUT5        |
| dut_inst/stage_g.8.pair_g.4.csn_cmp_inst/un1_b_i_ac0_5_0_78              |     34 | LUT5        |
| dut_inst/stage_g.9.pair_g.8.csn_cmp_inst/un1_b_i_d0_c3_RNIDR4Q1_1z       |     34 | LUT6        |
| dut_inst/stage_g.10.pair_g.0.csn_cmp_inst/N_111                          |     33 | LUT6        |
| dut_inst/stage_g.10.pair_g.4.csn_cmp_inst/un1_b_i_ac0_5_0_32             |     33 | LUT5        |
| dut_inst/stage_g.6.pair_g.2.csn_cmp_inst/un1_b_i_ac0_5_0_47              |     33 | LUT5        |
| dut_inst/stage_g.8.pair_g.6.csn_cmp_inst/un1_b_i_ac0_5_0_73              |     33 | LUT5        |
| dut_inst/stage_g.9.pair_g.3.csn_cmp_inst/un1_b_i_ac0_5_0_0_4             |     33 | LUT6        |
| dut_inst/stage_g.9.pair_g.3.csn_cmp_inst/un1_b_i_ac0_5_d_4               |     33 | LUT6        |
| dut_inst/stage_g.5.pair_g.3.csn_cmp_inst/un1_b_i_ac0_5_0_67              |     32 | LUT5        |
| dut_inst/stage_g.6.pair_g.6.csn_cmp_inst/un1_b_i_ac0_5_0_37              |     32 | LUT6        |
| dut_inst/stage_g.8.pair_g.7.csn_cmp_inst/un1_b_i_c4_6                    |     32 | LUT5        |
| dut_inst/stage_g.0.pair_g.7.csn_cmp_inst/un1_b_i_ac0_5_0_18              |     31 | LUT5        |
| dut_inst/stage_g.5.pair_g.7.csn_cmp_inst/un1_b_i_ac0_5_0_59              |     31 | LUT5        |
| dut_inst/stage_g.0.pair_g.3.csn_cmp_inst/un1_b_i_ac0_5_0_8               |     30 | LUT5        |
| dut_inst/stage_g.0.pair_g.5.csn_cmp_inst/un1_b_i_ac0_5_0_13              |     30 | LUT5        |
| dut_inst/stage_g.1.pair_g.8.csn_cmp_inst/un1_b_i_ac0_5_0_64              |     30 | LUT6        |
| dut_inst/stage_g.7.pair_g.8.csn_cmp_inst/un1_b_i_ac0_5_d_2               |     30 | LUT6        |
| dut_inst/stage_g.9.pair_g.4.csn_cmp_inst/un1_b_i_ac0_5_0_57              |     30 | LUT5        |
| dut_inst/stage_g.1.pair_g.9.csn_cmp_inst/un1_b_i_ac0_5_0_62              |     29 | LUT6        |
| dut_inst/stage_g.10.pair_g.1.csn_cmp_inst/un1_b_i_ac0_5_0_41             |     29 | LUT6        |
| dut_inst/stage_g.2.pair_g.3.csn_cmp_inst/un1_b_i_ac0_5_0_51              |     29 | LUT5        |
| dut_inst/stage_g.4.pair_g.5.csn_cmp_inst/un1_b_i_ac0_5_0_23              |     29 | LUT5        |
| dut_inst/stage_g.8.pair_g.5.csn_cmp_inst/un1_b_i_ac0_5_1                 |     29 | LUT6        |
| dut_inst/stage_g.9.pair_g.0.csn_cmp_inst/un1_b_i_d0_c3_RNI23G12_1z       |     29 | LUT6        |
| dut_inst/stage_g.9.pair_g.7.csn_cmp_inst/un1_b_i_ac0_5_0_0_12            |     29 | LUT6        |
| dut_inst/stage_g.1.pair_g.0.csn_cmp_inst/un1_b_i_ac0_5_0_79              |     28 | LUT6        |
| dut_inst/stage_g.2.pair_g.2.csn_cmp_inst/un1_b_i_ac0_5_0_52              |     28 | LUT5        |
| dut_inst/stage_g.4.pair_g.1.csn_cmp_inst/un1_b_i_ac0_5_0_14              |     28 | LUT5        |
| dut_inst/stage_g.2.pair_g.1.csn_cmp_inst/un1_b_i_ac0_5_0_55              |     27 | LUT5        |
| dut_inst/stage_g.5.pair_g.1.csn_cmp_inst/un1_b_i_d0_c3_RNIMCFJ1_1z       |     27 | LUT6        |
| dut_inst/stage_g.5.pair_g.4.csn_cmp_inst/un1_b_i_ac0_5_0_65              |     27 | LUT5        |
| dut_inst/stage_g.7.pair_g.8.csn_cmp_inst/un1_b_i_ac0_5_0_0_2             |     27 | LUT6        |
| dut_inst/stage_g.7.pair_g.9.csn_cmp_inst/un1_b_i_c4_0                    |     27 | LUT5        |
| dut_inst/stage_g.9.pair_g.2.csn_cmp_inst/un1_b_i_ac0_5_0_0_5             |     27 | LUT6        |
| dut_inst/stage_g.9.pair_g.2.csn_cmp_inst/un1_b_i_ac0_5_d_5               |     27 | LUT6        |
| dut_inst/stage_g.0.pair_g.10.csn_cmp_inst/un1_b_i_ac0_5_0_82             |     26 | LUT5        |
| dut_inst/stage_g.0.pair_g.6.csn_cmp_inst/un1_b_i_ac0_5_0_3               |     26 | LUT5        |
| dut_inst/stage_g.0.pair_g.9.csn_cmp_inst/un1_b_i_ac0_5_0_12              |     26 | LUT5        |
| dut_inst/stage_g.10.pair_g.5.csn_cmp_inst/un1_b_i_ac0_5_0_31             |     26 | LUT5        |
| dut_inst/stage_g.4.pair_g.7.csn_cmp_inst/un1_b_i_ac0_5_0_11              |     26 | LUT5        |
| dut_inst/stage_g.7.pair_g.7.csn_cmp_inst/pt_26_2                         |     26 | LUT6        |
| dut_inst/stage_g.0.pair_g.4.csn_cmp_inst/un1_b_i_ac0_5_0_80              |     25 | LUT5        |
| dut_inst/stage_g.1.pair_g.5.csn_cmp_inst/un1_b_i_ac0_5_0_70              |     25 | LUT6        |
| dut_inst/stage_g.10.pair_g.7.csn_cmp_inst/N_34_0                         |     25 | LUT6        |
| dut_inst/stage_g.2.pair_g.5.csn_cmp_inst/un1_b_i_ac0_5_0_48              |     25 | LUT5        |
| dut_inst/stage_g.2.pair_g.8.csn_cmp_inst/un1_b_i_ac0_5_0_42              |     25 | LUT5        |
| dut_inst/stage_g.2.pair_g.9.csn_cmp_inst/un1_b_i_ac0_5_0_39              |     25 | LUT5        |
| dut_inst/stage_g.4.pair_g.8.csn_cmp_inst/un1_b_i_ac0_5_0_77              |     25 | LUT5        |
| dut_inst/stage_g.5.pair_g.0.csn_cmp_inst/un1_b_i_s1_1                    |     25 | LUT5        |
| dut_inst/stage_g.8.pair_g.3.csn_cmp_inst/un1_b_i_c4_2                    |     25 | LUT5        |
| dut_inst/stage_g.8.pair_g.5.csn_cmp_inst/un1_b_i_ac0_6_1                 |     25 | LUT6        |
| dut_inst/stage_g.9.pair_g.1.csn_cmp_inst/un1_b_i_c4_5                    |     25 | LUT6        |
| shift_reg_tap_i/input_slr[159]                                           |     25 | FDRE        |
| shift_reg_tap_i/input_slr[172]                                           |     25 | FDRE        |
| shift_reg_tap_i/input_slr[237]                                           |     25 | FDRE        |
| shift_reg_tap_i/input_slr[250]                                           |     25 | FDRE        |
| shift_reg_tap_i/input_slr[81]                                            |     25 | FDRE        |
| shift_reg_tap_i/input_slr[94]                                            |     25 | FDRE        |
| dut_inst/stage_g.11.pair_g.0.csn_cmp_inst/N_23                           |     24 | LUT6        |
| dut_inst/stage_g.11.pair_g.6.csn_cmp_inst/N_32                           |     24 | LUT6        |
| dut_inst/stage_g.2.pair_g.4.csn_cmp_inst/un1_b_i_ac0_5_0_49              |     24 | LUT5        |
| dut_inst/stage_g.2.pair_g.6.csn_cmp_inst/un1_b_i_ac0_5_0_46              |     24 | LUT5        |
| dut_inst/stage_g.5.pair_g.0.csn_cmp_inst/un1_b_i_s0_0                    |     24 | LUT5        |
| dut_inst/stage_g.1.pair_g.2.csn_cmp_inst/un1_b_i_ac0_5_0_74              |     23 | LUT6        |
| dut_inst/stage_g.2.pair_g.10.csn_cmp_inst/un1_b_i_ac0_5_0_36             |     23 | LUT5        |
| dut_inst/stage_g.2.pair_g.7.csn_cmp_inst/un1_b_i_ac0_5_0_44              |     23 | LUT5        |
| dut_inst/stage_g.5.pair_g.2.csn_cmp_inst/un1_b_i_ac0_5_0_69              |     23 | LUT6        |
| dut_inst/stage_g.6.pair_g.7.csn_cmp_inst/un1_b_i_ac0_5_0_34              |     23 | LUT6        |
| dut_inst/stage_g.0.pair_g.1.csn_cmp_inst/un1_b_i_ac0_5_0_lut6_2_o6_0     |     22 | LUT5        |
| dut_inst/stage_g.0.pair_g.8.csn_cmp_inst/un1_b_i_ac0_5_0_83              |     22 | LUT5        |
| dut_inst/stage_g.1.pair_g.4.csn_cmp_inst/un1_b_i_ac0_5_0_71              |     22 | LUT6        |
| dut_inst/stage_g.11.pair_g.3.csn_cmp_inst/un1_b_i_ac0_5_0_0_lut6_2_o6_34 |     22 | LUT4        |
| dut_inst/stage_g.11.pair_g.3.csn_cmp_inst/un1_b_i_ac0_5_d_0_lut6_2_o6_36 |     22 | LUT4        |
| dut_inst/stage_g.4.pair_g.9.csn_cmp_inst/un1_b_i_ac0_5_0_75              |     22 | LUT6        |
| dut_inst/stage_g.6.pair_g.5.csn_cmp_inst/un1_b_i_ac0_5_0_40              |     22 | LUT5        |
| shift_reg_tap_i/input_slr[120]                                           |     22 | FDRE        |
| dut_inst/stage_g.0.pair_g.2.csn_cmp_inst/un1_b_i_ac0_5_0_22              |     21 | LUT5        |
| dut_inst/stage_g.3.pair_g.0.csn_cmp_inst/un1_b_i_ac0_5_0_33              |     21 | LUT5        |
| dut_inst/stage_g.3.pair_g.10.csn_cmp_inst/un1_b_i_ac0_5_0_9              |     21 | LUT5        |
| dut_inst/stage_g.5.pair_g.5.csn_cmp_inst/un1_b_i_ac0_5_0_0_10            |     21 | LUT4        |
| dut_inst/stage_g.5.pair_g.9.csn_cmp_inst/un1_b_i_ac0_5_0_53              |     21 | LUT5        |
| dut_inst/stage_g.6.pair_g.3.csn_cmp_inst/un1_b_i_ac0_5_0_45              |     21 | LUT5        |
| dut_inst/stage_g.8.pair_g.1.csn_cmp_inst/un1_b_i_ac0_5_0_24              |     21 | LUT6        |
| shift_reg_tap_i/input_slr[263]                                           |     21 | FDRE        |
| shift_reg_tap_i/input_slr[276]                                           |     21 | FDRE        |
| dut_inst/stage_g.1.pair_g.1.csn_cmp_inst/un1_b_i_ac0_5_0_76              |     20 | LUT6        |
| dut_inst/stage_g.1.pair_g.10.csn_cmp_inst/un1_b_i_ac0_5_0_60             |     20 | LUT6        |
| dut_inst/stage_g.1.pair_g.6.csn_cmp_inst/un1_b_i_ac0_5_0_68              |     20 | LUT6        |
| dut_inst/stage_g.1.pair_g.7.csn_cmp_inst/un1_b_i_ac0_5_0_66              |     20 | LUT6        |
| dut_inst/stage_g.11.pair_g.3.csn_cmp_inst/un1_b_i_c2_75                  |     20 | LUT6        |
| dut_inst/stage_g.11.pair_g.5.csn_cmp_inst/un1_b_i_ac0_5_0                |     20 | LUT6        |
| dut_inst/stage_g.3.pair_g.3.csn_cmp_inst/un1_b_i_ac0_5_0_29              |     20 | LUT5        |
| dut_inst/stage_g.3.pair_g.7.csn_cmp_inst/un1_b_i_ac0_5_0_5               |     20 | LUT5        |
| dut_inst/stage_g.3.pair_g.8.csn_cmp_inst/un1_b_i_ac0_5_0_25              |     20 | LUT5        |
| dut_inst/stage_g.5.pair_g.8.csn_cmp_inst/un1_b_i_ac0_5_0_56              |     20 | LUT5        |
| dut_inst/stage_g.6.pair_g.4.csn_cmp_inst/un1_b_i_ac0_5_0_43              |     20 | LUT5        |
| dut_inst/stage_g.7.pair_g.0.csn_cmp_inst/pt_99_0                         |     20 | LUT6        |
| dut_inst/stage_g.7.pair_g.2.csn_cmp_inst/pt_98_0                         |     20 | LUT6        |
| dut_inst/stage_g.7.pair_g.3.csn_cmp_inst/un1_b_i_ac0_5_0_7               |     20 | LUT5        |
| dut_inst/stage_g.7.pair_g.5.csn_cmp_inst/pt_22_0                         |     20 | LUT4        |
| dut_inst/stage_g.8.pair_g.1.csn_cmp_inst/un1_b_i_ac0_5_0_0_10            |     20 | LUT4        |
| dut_inst/stage_g.1.pair_g.3.csn_cmp_inst/un1_b_i_ac0_5_0_72              |     19 | LUT6        |
| dut_inst/stage_g.3.pair_g.5.csn_cmp_inst/un1_b_i_ac0_5_0_27              |     19 | LUT5        |
| dut_inst/stage_g.3.pair_g.6.csn_cmp_inst/un1_b_i_ac0_5_0_26              |     19 | LUT5        |
| dut_inst/stage_g.4.pair_g.4.csn_cmp_inst/un1_b_i_ac0_5_0_17              |     19 | LUT6        |
| dut_inst/stage_g.4.pair_g.9.csn_cmp_inst/pt_70_3                         |     19 | LUT4        |
| dut_inst/stage_g.6.pair_g.7.csn_cmp_inst/un1_b_i_ac0_5_0_0_0             |     19 | LUT4        |
| dut_inst/stage_g.7.pair_g.1.csn_cmp_inst/un1_b_i_ac0_5_0                 |     19 | LUT6        |
| dut_inst/stage_g.7.pair_g.6.csn_cmp_inst/un1_b_i_ac0_5_0_10              |     19 | LUT5        |
| dut_inst/stage_g.9.pair_g.6.csn_cmp_inst/un1_b_i_c4_4                    |     19 | LUT4        |
| dut_inst/stage_g.10.pair_g.2.csn_cmp_inst/un1_b_i_ac0_5_0_38             |     18 | LUT5        |
| dut_inst/stage_g.3.pair_g.4.csn_cmp_inst/un1_b_i_ac0_5_0_28              |     18 | LUT5        |
| dut_inst/stage_g.4.pair_g.6.csn_cmp_inst/un1_b_i_ac0_5_0_81              |     18 | LUT5        |
| dut_inst/stage_g.5.pair_g.2.csn_cmp_inst/un1_b_i_ac0_5_0_0_14            |     18 | LUT4        |
| dut_inst/stage_g.5.pair_g.6.csn_cmp_inst/un1_b_i_ac0_5_0_lut6_2_o6_4     |     18 | LUT5        |
| dut_inst/stage_g.6.pair_g.8.csn_cmp_inst/un1_b_i_d0_c4_RNI8HMN_1z        |     18 | LUT4        |
| dut_inst/stage_g.8.pair_g.2.csn_cmp_inst/un1_b_i_ac0_5_1z                |     18 | LUT6        |
| dut_inst/stage_g.9.pair_g.2.csn_cmp_inst/pt_87_0                         |     18 | LUT6        |
| dut_inst/stage_g.10.pair_g.2.csn_cmp_inst/pt_88_0                        |     17 | LUT4        |
| dut_inst/stage_g.3.pair_g.2.csn_cmp_inst/un1_b_i_ac0_5_0_lut6_2_o6_1     |     17 | LUT5        |
| dut_inst/stage_g.4.pair_g.2.csn_cmp_inst/un1_b_i_ac0_5_0_0_1             |     17 | LUT4        |
| dut_inst/stage_g.4.pair_g.2.csn_cmp_inst/un1_b_i_ac0_5_d_0_lut6_2_o6_4   |     17 | LUT4        |
| dut_inst/stage_g.4.pair_g.4.csn_cmp_inst/pt_69_0                         |     17 | LUT4        |
| dut_inst/stage_g.7.pair_g.2.csn_cmp_inst/un1_b_i_d0_c4                   |     17 | LUT2        |
| dut_inst/stage_g.11.pair_g.4.csn_cmp_inst/un1_b_i_ac0_5_0_89             |     16 | LUT5        |
| dut_inst/stage_g.3.pair_g.1.csn_cmp_inst/un1_b_i_ac0_5_0_lut6_2_o6_2     |     16 | LUT5        |
| dut_inst/stage_g.4.pair_g.2.csn_cmp_inst/un1_b_i_c2_9                    |     16 | LUT6        |
| dut_inst/stage_g.6.pair_g.1.csn_cmp_inst/un1_b_i_d0_c4_RNISI1O_1z        |     16 | LUT4        |
| dut_inst/stage_g.7.pair_g.0.csn_cmp_inst/un1_b_i_c4                      |     16 | LUT6        |
| dut_inst/stage_g.7.pair_g.1.csn_cmp_inst/un1_b_i_ac0_6_0                 |     16 | LUT6        |
| dut_inst/stage_g.7.pair_g.2.csn_cmp_inst/pt_106[3]                       |     16 | LUT6        |
| dut_inst/stage_g.7.pair_g.2.csn_cmp_inst/un1_b_i_d0_ac0_6_RNIPT3R_1z     |     16 | LUT5        |
| dut_inst/stage_g.8.pair_g.4.csn_cmp_inst/pt_165_0                        |     16 | LUT6        |
| dut_inst/stage_g.10.pair_g.3.csn_cmp_inst/un1_b_i_ac0_5_0_35             |     15 | LUT5        |
| dut_inst/stage_g.3.pair_g.9.csn_cmp_inst/un1_b_i_ac0_5_0_21              |     15 | LUT5        |
| dut_inst/stage_g.4.pair_g.3.csn_cmp_inst/pt_103_0                        |     15 | LUT4        |
| dut_inst/stage_g.4.pair_g.3.csn_cmp_inst/un1_b_i_ac0_5_0_0_7             |     15 | LUT4        |
| dut_inst/stage_g.4.pair_g.3.csn_cmp_inst/un1_b_i_ac0_5_0_19              |     15 | LUT5        |
| dut_inst/stage_g.4.pair_g.3.csn_cmp_inst/un1_b_i_ac0_5_d_0_4             |     15 | LUT4        |
| dut_inst/stage_g.5.pair_g.5.csn_cmp_inst/un1_b_i_ac0_5_d                 |     15 | LUT5        |
| dut_inst/stage_g.7.pair_g.2.csn_cmp_inst/un1_b_i_d1_c4                   |     15 | LUT2        |
| dut_inst/stage_g.8.pair_g.2.csn_cmp_inst/un1_b_i_ac0_6_1z                |     15 | LUT6        |
| shift_reg_tap_i/input_slr[16]                                            |     15 | FDRE        |
| shift_reg_tap_i/input_slr[29]                                            |     15 | FDRE        |
| shift_reg_tap_i/input_slr[3]                                             |     15 | FDRE        |
| shift_reg_tap_i/input_slr[42]                                            |     15 | FDRE        |
| shift_reg_tap_i/input_slr[55]                                            |     15 | FDRE        |
| shift_reg_tap_i/input_slr[68]                                            |     15 | FDRE        |
| shift_reg_tap_i/sr_1_fast_132                                            |     15 | FDRE        |
| shift_reg_tap_i/sr_1_fast_145                                            |     15 | FDRE        |
| dut_inst/stage_g.10.pair_g.3.csn_cmp_inst/un1_b_i_ac0_5_0_0_15           |     14 | LUT4        |
| dut_inst/stage_g.10.pair_g.3.csn_cmp_inst/un1_b_i_ac0_5_d_0_8            |     14 | LUT4        |
| dut_inst/stage_g.11.pair_g.1.csn_cmp_inst/un1_b_i_ac0_5_0_1              |     14 | LUT6        |
| dut_inst/stage_g.11.pair_g.2.csn_cmp_inst/un1_b_i_ac0_5_0_2              |     14 | LUT6        |
| dut_inst/stage_g.3.pair_g.1.csn_cmp_inst/pt_41_0                         |     14 | LUT4        |
| dut_inst/stage_g.3.pair_g.4.csn_cmp_inst/pt_40_0                         |     14 | LUT4        |
| dut_inst/stage_g.7.pair_g.1.csn_cmp_inst/pt_126_2                        |     14 | LUT6        |
| dut_inst/stage_g.7.pair_g.1.csn_cmp_inst/un1_b_i_ac0_5_0_0_11            |     14 | LUT4        |
| dut_inst/stage_g.7.pair_g.3.csn_cmp_inst/pt_27_0                         |     14 | LUT4        |
| dut_inst/stage_g.8.pair_g.1.csn_cmp_inst/un1_b_i_ac0_5_d_6               |     14 | LUT6        |
| dut_inst/stage_g.8.pair_g.6.csn_cmp_inst/pt_5_0                          |     14 | LUT6        |
| shift_reg_tap_i/input_slr[107]                                           |     14 | FDRE        |
| shift_reg_tap_i/input_slr[133]                                           |     14 | FDRE        |
| shift_reg_tap_i/input_slr[146]                                           |     14 | FDRE        |
| shift_reg_tap_i/sr_1_fast_15                                             |     14 | FDRE        |
| shift_reg_tap_i/sr_1_fast_2                                              |     14 | FDRE        |
| shift_reg_tap_i/sr_1_fast_28                                             |     14 | FDRE        |
| shift_reg_tap_i/sr_1_fast_41                                             |     14 | FDRE        |
| shift_reg_tap_i/sr_1_fast_54                                             |     14 | FDRE        |
| shift_reg_tap_i/sr_1_fast_67                                             |     14 | FDRE        |
| dut_inst/stage_g.10.pair_g.3.csn_cmp_inst/un1_b_i_c2_0                   |     13 | LUT6        |
| dut_inst/stage_g.3.pair_g.2.csn_cmp_inst/pt_144_0                        |     13 | LUT4        |
| dut_inst/stage_g.3.pair_g.4.csn_cmp_inst/pt_146_0                        |     13 | LUT4        |
| dut_inst/stage_g.4.pair_g.3.csn_cmp_inst/un1_b_i_c2_16                   |     13 | LUT6        |
| dut_inst/stage_g.4.pair_g.6.csn_cmp_inst/un1_b_i_ac0_5_0_0_20            |     13 | LUT4        |
| dut_inst/stage_g.4.pair_g.6.csn_cmp_inst/un1_b_i_ac0_5_d_0_12            |     13 | LUT4        |
| dut_inst/stage_g.5.pair_g.7.csn_cmp_inst/pt_142_0                        |     13 | LUT4        |
| dut_inst/stage_g.5.pair_g.9.csn_cmp_inst/pt_143_0                        |     13 | LUT4        |
| dut_inst/stage_g.6.pair_g.2.csn_cmp_inst/un1_b_i_ac0_5_d_7               |     13 | LUT5        |
| dut_inst/stage_g.6.pair_g.6.csn_cmp_inst/pt_48_0                         |     13 | LUT4        |
| dut_inst/stage_g.6.pair_g.7.csn_cmp_inst/pt_54_0                         |     13 | LUT4        |
| dut_inst/stage_g.6.pair_g.7.csn_cmp_inst/un1_b_i_ac0_5_d_0_0             |     13 | LUT4        |
| dut_inst/stage_g.7.pair_g.7.csn_cmp_inst/pt_33_0                         |     13 | LUT6        |
| dut_inst/stage_g.8.pair_g.1.csn_cmp_inst/pt_127_0                        |     13 | LUT4        |
| dut_inst/stage_g.9.pair_g.2.csn_cmp_inst/pt_86_0                         |     13 | LUT6        |
| shift_reg_tap_i/input_slr[211]                                           |     13 | FDRE        |
| shift_reg_tap_i/input_slr[224]                                           |     13 | FDRE        |
| dut_inst/stage_g.1.pair_g.5.csn_cmp_inst/pt_84_0                         |     12 | LUT6        |
+--------------------------------------------------------------------------+--------+-------------+


