Copyright 1986-2018 Xilinx, Inc. All Rights Reserved.
-----------------------------------------------------------------------------------------------
| Tool Version      : Vivado v.2018.2 (win64) Build 2258646 Thu Jun 14 20:03:12 MDT 2018
| Date              : Fri Feb  8 01:35:47 2019
| Host              : PCPHESEBE02 running 64-bit Service Pack 1  (build 7601)
| Command           : report_timing_summary -hold -nworst 5 -max_paths 5 -file timing_hold.txt
| Design            : wrapper
| Device            : xcvu9p-flgc2104
| Speed File        : -1  PRODUCTION 1.20 05-21-2018
| Temperature Grade : E
-----------------------------------------------------------------------------------------------

Timing Summary Report

------------------------------------------------------------------------------------------------
| Timer Settings
| --------------
------------------------------------------------------------------------------------------------

  Enable Multi Corner Analysis               :  Yes
  Enable Pessimism Removal                   :  Yes
  Pessimism Removal Resolution               :  Nearest Common Node
  Enable Input Delay Default Clock           :  No
  Enable Preset / Clear Arcs                 :  No
  Disable Flight Delays                      :  No
  Ignore I/O Paths                           :  No
  Timing Early Launch at Borrowing Latches   :  false

  Corner  Analyze    Analyze    
  Name    Max Paths  Min Paths  
  ------  ---------  ---------  
  Slow    Yes        Yes        
  Fast    Yes        Yes        



check_timing report

Table of Contents
-----------------
1. checking no_clock
2. checking constant_clock
3. checking pulse_width_clock
4. checking unconstrained_internal_endpoints
5. checking no_input_delay
6. checking no_output_delay
7. checking multiple_clock
8. checking generated_clocks
9. checking loops
10. checking partial_input_delay
11. checking partial_output_delay
12. checking latch_loops

1. checking no_clock
--------------------
 There are 0 register/latch pins with no clock.


2. checking constant_clock
--------------------------
 There are 0 register/latch pins with constant_clock.


3. checking pulse_width_clock
-----------------------------
 There are 0 register/latch pins which need pulse_width check


4. checking unconstrained_internal_endpoints
--------------------------------------------
 There are 0 pins that are not constrained for maximum delay.

 There are 0 pins that are not constrained for maximum delay due to constant clock.


5. checking no_input_delay
--------------------------
 There is 1 input port with no input delay specified. (HIGH)

 There are 0 input ports with no input delay but user has a false path constraint.


6. checking no_output_delay
---------------------------
 There is 1 port with no output delay specified. (HIGH)

 There are 0 ports with no output delay but user has a false path constraint

 There are 0 ports with no output delay but with a timing clock defined on it or propagating through it


7. checking multiple_clock
--------------------------
 There are 0 register/latch pins with multiple clocks.


8. checking generated_clocks
----------------------------
 There are 0 generated clocks that are not connected to a clock source.


9. checking loops
-----------------
 There are 0 combinational loops in the design.


10. checking partial_input_delay
--------------------------------
 There are 0 input ports with partial input delay specified.


11. checking partial_output_delay
---------------------------------
 There are 0 ports with partial output delay specified.


12. checking latch_loops
------------------------
 There are 0 combinational latch loops in the design through latch input



------------------------------------------------------------------------------------------------
| Design Timing Summary
| ---------------------
------------------------------------------------------------------------------------------------

    WHS(ns)      THS(ns)  THS Failing Endpoints  THS Total Endpoints     WPWS(ns)     TPWS(ns)  TPWS Failing Endpoints  TPWS Total Endpoints  
    -------      -------  ---------------------  -------------------     --------     --------  ----------------------  --------------------  
      0.011        0.000                      0                11868        2.850        0.000                       0                 13236  


All user specified timing constraints are met.


------------------------------------------------------------------------------------------------
| Clock Summary
| -------------
------------------------------------------------------------------------------------------------

Clock        Waveform(ns)         Period(ns)      Frequency(MHz)
-----        ------------         ----------      --------------
clk          {0.000 3.125}        6.250           160.000         
clk_wrapper  {0.000 500.000}      1000.000        1.000           


------------------------------------------------------------------------------------------------
| Intra Clock Table
| -----------------
------------------------------------------------------------------------------------------------

Clock             WHS(ns)      THS(ns)  THS Failing Endpoints  THS Total Endpoints     WPWS(ns)     TPWS(ns)  TPWS Failing Endpoints  TPWS Total Endpoints  
-----             -------      -------  ---------------------  -------------------     --------     --------  ----------------------  --------------------  
clk                 0.011        0.000                      0                11868        2.850        0.000                       0                 12381  
clk_wrapper                                                                             498.562        0.000                       0                   855  


------------------------------------------------------------------------------------------------
| Inter Clock Table
| -----------------
------------------------------------------------------------------------------------------------

From Clock    To Clock          WHS(ns)      THS(ns)  THS Failing Endpoints  THS Total Endpoints  
----------    --------          -------      -------  ---------------------  -------------------  


------------------------------------------------------------------------------------------------
| Other Path Groups Table
| -----------------------
------------------------------------------------------------------------------------------------

Path Group    From Clock    To Clock          WHS(ns)      THS(ns)  THS Failing Endpoints  THS Total Endpoints  
----------    ----------    --------          -------      -------  ---------------------  -------------------  


------------------------------------------------------------------------------------------------
| Timing Details
| --------------
------------------------------------------------------------------------------------------------


---------------------------------------------------------------------------------------------------
From Clock:  clk
  To Clock:  clk

Setup :           NA  Failing Endpoints,  Worst Slack           NA  ,  Total Violation           NA
Hold  :            0  Failing Endpoints,  Worst Slack        0.011ns,  Total Violation        0.000ns
PW    :            0  Failing Endpoints,  Worst Slack        2.850ns,  Total Violation        0.000ns
---------------------------------------------------------------------------------------------------


Min Delay Paths
--------------------------------------------------------------------------------------
Slack (MET) :             0.011ns  (arrival time - required time)
  Source:                 shift_reg_tap_i/sr_p.sr_8[475]/C
                            (rising edge-triggered cell FDRE clocked by clk  {rise@0.000ns fall@3.125ns period=6.250ns})
  Destination:            shift_reg_tap_i/sr_p.sr_9[475]/D
                            (rising edge-triggered cell FDRE clocked by clk  {rise@0.000ns fall@3.125ns period=6.250ns})
  Path Group:             clk
  Path Type:              Hold (Min at Slow Process Corner)
  Requirement:            0.000ns  (clk rise@0.000ns - clk rise@0.000ns)
  Data Path Delay:        0.184ns  (logic 0.070ns (38.043%)  route 0.114ns (61.957%))
  Logic Levels:           0  
  Clock Path Skew:        0.118ns (DCD - SCD - CPR)
    Destination Clock Delay (DCD):    4.381ns
    Source Clock Delay      (SCD):    3.728ns
    Clock Pessimism Removal (CPR):    0.535ns
  Clock Net Delay (Source):      2.898ns (routing 1.538ns, distribution 1.360ns)
  Clock Net Delay (Destination): 3.240ns (routing 1.683ns, distribution 1.557ns)

    Location             Delay type                Incr(ns)  Path(ns)    Netlist Resource(s)
  -------------------------------------------------------------------    -------------------
                         (clock clk rise edge)        0.000     0.000 r  
    AV33                                              0.000     0.000 r  clk (IN)
                         net (fo=0)                   0.000     0.000    clk_ibuf_iso/I
    AV33                 INBUF (Prop_INBUF_HPIOB_M_PAD_O)
                                                      0.510     0.510 r  clk_ibuf_iso/INBUF_INST/O
                         net (fo=1, routed)           0.000     0.510    clk_ibuf_iso/OUT
    AV33                 IBUFCTRL (Prop_IBUFCTRL_HPIOB_M_I_O)
                                                      0.000     0.510 r  clk_ibuf_iso/IBUFCTRL_INST/O
                         net (fo=1, routed)           0.296     0.806    clk_ibuf_iso
    BUFGCE_X1Y224        BUFGCE (Prop_BUFCE_BUFGCE_I_O)
                                                      0.024     0.830 r  clk_ibuf/O
    X3Y5 (CLOCK_ROOT)    net (fo=12380, routed)       2.898     3.728    shift_reg_tap_i/clk_c
    SLICE_X61Y375        FDRE                                         r  shift_reg_tap_i/sr_p.sr_8[475]/C
  -------------------------------------------------------------------    -------------------
    SLICE_X61Y375        FDRE (Prop_AFF_SLICEL_C_Q)
                                                      0.070     3.798 r  shift_reg_tap_i/sr_p.sr_8[475]/Q
                         net (fo=1, routed)           0.114     3.912    shift_reg_tap_i/sr_8[475]
    SLICE_X63Y376        FDRE                                         r  shift_reg_tap_i/sr_p.sr_9[475]/D
  -------------------------------------------------------------------    -------------------

                         (clock clk rise edge)        0.000     0.000 r  
    AV33                                              0.000     0.000 r  clk (IN)
                         net (fo=0)                   0.000     0.000    clk_ibuf_iso/I
    AV33                 INBUF (Prop_INBUF_HPIOB_M_PAD_O)
                                                      0.779     0.779 r  clk_ibuf_iso/INBUF_INST/O
                         net (fo=1, routed)           0.000     0.779    clk_ibuf_iso/OUT
    AV33                 IBUFCTRL (Prop_IBUFCTRL_HPIOB_M_I_O)
                                                      0.000     0.779 r  clk_ibuf_iso/IBUFCTRL_INST/O
                         net (fo=1, routed)           0.334     1.113    clk_ibuf_iso
    BUFGCE_X1Y224        BUFGCE (Prop_BUFCE_BUFGCE_I_O)
                                                      0.028     1.141 r  clk_ibuf/O
    X3Y5 (CLOCK_ROOT)    net (fo=12380, routed)       3.240     4.381    shift_reg_tap_i/clk_c
    SLICE_X63Y376        FDRE                                         r  shift_reg_tap_i/sr_p.sr_9[475]/C
                         clock pessimism             -0.535     3.846    
    SLICE_X63Y376        FDRE (Hold_DFF2_SLICEL_C_D)
                                                      0.055     3.901    shift_reg_tap_i/sr_p.sr_9[475]
  -------------------------------------------------------------------
                         required time                         -3.901    
                         arrival time                           3.912    
  -------------------------------------------------------------------
                         slack                                  0.011    

Slack (MET) :             0.011ns  (arrival time - required time)
  Source:                 shift_reg_tap_i/sr_p.sr_8[475]/C
                            (rising edge-triggered cell FDRE clocked by clk  {rise@0.000ns fall@3.125ns period=6.250ns})
  Destination:            shift_reg_tap_i/sr_p.sr_9[475]/D
                            (rising edge-triggered cell FDRE clocked by clk  {rise@0.000ns fall@3.125ns period=6.250ns})
  Path Group:             clk
  Path Type:              Hold (Min at Slow Process Corner)
  Requirement:            0.000ns  (clk rise@0.000ns - clk rise@0.000ns)
  Data Path Delay:        0.184ns  (logic 0.070ns (38.043%)  route 0.114ns (61.957%))
  Logic Levels:           0  
  Clock Path Skew:        0.118ns (DCD - SCD - CPR)
    Destination Clock Delay (DCD):    4.381ns
    Source Clock Delay      (SCD):    3.728ns
    Clock Pessimism Removal (CPR):    0.535ns
  Clock Net Delay (Source):      2.898ns (routing 1.538ns, distribution 1.360ns)
  Clock Net Delay (Destination): 3.240ns (routing 1.683ns, distribution 1.557ns)

    Location             Delay type                Incr(ns)  Path(ns)    Netlist Resource(s)
  -------------------------------------------------------------------    -------------------
                         (clock clk rise edge)        0.000     0.000 r  
    AV33                                              0.000     0.000 r  clk (IN)
                         net (fo=0)                   0.000     0.000    clk_ibuf_iso/I
    AV33                 INBUF (Prop_INBUF_HPIOB_M_PAD_O)
                                                      0.510     0.510 r  clk_ibuf_iso/INBUF_INST/O
                         net (fo=1, routed)           0.000     0.510    clk_ibuf_iso/OUT
    AV33                 IBUFCTRL (Prop_IBUFCTRL_HPIOB_M_I_O)
                                                      0.000     0.510 r  clk_ibuf_iso/IBUFCTRL_INST/O
                         net (fo=1, routed)           0.296     0.806    clk_ibuf_iso
    BUFGCE_X1Y224        BUFGCE (Prop_BUFCE_BUFGCE_I_O)
                                                      0.024     0.830 r  clk_ibuf/O
    X3Y5 (CLOCK_ROOT)    net (fo=12380, routed)       2.898     3.728    shift_reg_tap_i/clk_c
    SLICE_X61Y375        FDRE                                         r  shift_reg_tap_i/sr_p.sr_8[475]/C
  -------------------------------------------------------------------    -------------------
    SLICE_X61Y375        FDRE (Prop_AFF_SLICEL_C_Q)
                                                      0.070     3.798 f  shift_reg_tap_i/sr_p.sr_8[475]/Q
                         net (fo=1, routed)           0.114     3.912    shift_reg_tap_i/sr_8[475]
    SLICE_X63Y376        FDRE                                         f  shift_reg_tap_i/sr_p.sr_9[475]/D
  -------------------------------------------------------------------    -------------------

                         (clock clk rise edge)        0.000     0.000 r  
    AV33                                              0.000     0.000 r  clk (IN)
                         net (fo=0)                   0.000     0.000    clk_ibuf_iso/I
    AV33                 INBUF (Prop_INBUF_HPIOB_M_PAD_O)
                                                      0.779     0.779 r  clk_ibuf_iso/INBUF_INST/O
                         net (fo=1, routed)           0.000     0.779    clk_ibuf_iso/OUT
    AV33                 IBUFCTRL (Prop_IBUFCTRL_HPIOB_M_I_O)
                                                      0.000     0.779 r  clk_ibuf_iso/IBUFCTRL_INST/O
                         net (fo=1, routed)           0.334     1.113    clk_ibuf_iso
    BUFGCE_X1Y224        BUFGCE (Prop_BUFCE_BUFGCE_I_O)
                                                      0.028     1.141 r  clk_ibuf/O
    X3Y5 (CLOCK_ROOT)    net (fo=12380, routed)       3.240     4.381    shift_reg_tap_i/clk_c
    SLICE_X63Y376        FDRE                                         r  shift_reg_tap_i/sr_p.sr_9[475]/C
                         clock pessimism             -0.535     3.846    
    SLICE_X63Y376        FDRE (Hold_DFF2_SLICEL_C_D)
                                                      0.055     3.901    shift_reg_tap_i/sr_p.sr_9[475]
  -------------------------------------------------------------------
                         required time                         -3.901    
                         arrival time                           3.912    
  -------------------------------------------------------------------
                         slack                                  0.011    

Slack (MET) :             0.011ns  (arrival time - required time)
  Source:                 shift_reg_tap_i/sr_p.sr_10[491]/C
                            (rising edge-triggered cell FDRE clocked by clk  {rise@0.000ns fall@3.125ns period=6.250ns})
  Destination:            shift_reg_tap_i/sr_p.sr_11[491]/D
                            (rising edge-triggered cell FDRE clocked by clk  {rise@0.000ns fall@3.125ns period=6.250ns})
  Path Group:             clk
  Path Type:              Hold (Min at Slow Process Corner)
  Requirement:            0.000ns  (clk rise@0.000ns - clk rise@0.000ns)
  Data Path Delay:        0.183ns  (logic 0.072ns (39.344%)  route 0.111ns (60.656%))
  Logic Levels:           0  
  Clock Path Skew:        0.119ns (DCD - SCD - CPR)
    Destination Clock Delay (DCD):    4.380ns
    Source Clock Delay      (SCD):    3.726ns
    Clock Pessimism Removal (CPR):    0.535ns
  Clock Net Delay (Source):      2.896ns (routing 1.538ns, distribution 1.358ns)
  Clock Net Delay (Destination): 3.239ns (routing 1.683ns, distribution 1.556ns)

    Location             Delay type                Incr(ns)  Path(ns)    Netlist Resource(s)
  -------------------------------------------------------------------    -------------------
                         (clock clk rise edge)        0.000     0.000 r  
    AV33                                              0.000     0.000 r  clk (IN)
                         net (fo=0)                   0.000     0.000    clk_ibuf_iso/I
    AV33                 INBUF (Prop_INBUF_HPIOB_M_PAD_O)
                                                      0.510     0.510 r  clk_ibuf_iso/INBUF_INST/O
                         net (fo=1, routed)           0.000     0.510    clk_ibuf_iso/OUT
    AV33                 IBUFCTRL (Prop_IBUFCTRL_HPIOB_M_I_O)
                                                      0.000     0.510 r  clk_ibuf_iso/IBUFCTRL_INST/O
                         net (fo=1, routed)           0.296     0.806    clk_ibuf_iso
    BUFGCE_X1Y224        BUFGCE (Prop_BUFCE_BUFGCE_I_O)
                                                      0.024     0.830 r  clk_ibuf/O
    X3Y5 (CLOCK_ROOT)    net (fo=12380, routed)       2.896     3.726    shift_reg_tap_i/clk_c
    SLICE_X60Y385        FDRE                                         r  shift_reg_tap_i/sr_p.sr_10[491]/C
  -------------------------------------------------------------------    -------------------
    SLICE_X60Y385        FDRE (Prop_EFF2_SLICEM_C_Q)
                                                      0.072     3.798 r  shift_reg_tap_i/sr_p.sr_10[491]/Q
                         net (fo=1, routed)           0.111     3.909    shift_reg_tap_i/sr_10[491]
    SLICE_X62Y385        FDRE                                         r  shift_reg_tap_i/sr_p.sr_11[491]/D
  -------------------------------------------------------------------    -------------------

                         (clock clk rise edge)        0.000     0.000 r  
    AV33                                              0.000     0.000 r  clk (IN)
                         net (fo=0)                   0.000     0.000    clk_ibuf_iso/I
    AV33                 INBUF (Prop_INBUF_HPIOB_M_PAD_O)
                                                      0.779     0.779 r  clk_ibuf_iso/INBUF_INST/O
                         net (fo=1, routed)           0.000     0.779    clk_ibuf_iso/OUT
    AV33                 IBUFCTRL (Prop_IBUFCTRL_HPIOB_M_I_O)
                                                      0.000     0.779 r  clk_ibuf_iso/IBUFCTRL_INST/O
                         net (fo=1, routed)           0.334     1.113    clk_ibuf_iso
    BUFGCE_X1Y224        BUFGCE (Prop_BUFCE_BUFGCE_I_O)
                                                      0.028     1.141 r  clk_ibuf/O
    X3Y5 (CLOCK_ROOT)    net (fo=12380, routed)       3.239     4.380    shift_reg_tap_i/clk_c
    SLICE_X62Y385        FDRE                                         r  shift_reg_tap_i/sr_p.sr_11[491]/C
                         clock pessimism             -0.535     3.845    
    SLICE_X62Y385        FDRE (Hold_EFF_SLICEM_C_D)
                                                      0.053     3.898    shift_reg_tap_i/sr_p.sr_11[491]
  -------------------------------------------------------------------
                         required time                         -3.898    
                         arrival time                           3.909    
  -------------------------------------------------------------------
                         slack                                  0.011    

Slack (MET) :             0.011ns  (arrival time - required time)
  Source:                 shift_reg_tap_i/sr_p.sr_10[491]/C
                            (rising edge-triggered cell FDRE clocked by clk  {rise@0.000ns fall@3.125ns period=6.250ns})
  Destination:            shift_reg_tap_i/sr_p.sr_11[491]/D
                            (rising edge-triggered cell FDRE clocked by clk  {rise@0.000ns fall@3.125ns period=6.250ns})
  Path Group:             clk
  Path Type:              Hold (Min at Slow Process Corner)
  Requirement:            0.000ns  (clk rise@0.000ns - clk rise@0.000ns)
  Data Path Delay:        0.183ns  (logic 0.072ns (39.344%)  route 0.111ns (60.656%))
  Logic Levels:           0  
  Clock Path Skew:        0.119ns (DCD - SCD - CPR)
    Destination Clock Delay (DCD):    4.380ns
    Source Clock Delay      (SCD):    3.726ns
    Clock Pessimism Removal (CPR):    0.535ns
  Clock Net Delay (Source):      2.896ns (routing 1.538ns, distribution 1.358ns)
  Clock Net Delay (Destination): 3.239ns (routing 1.683ns, distribution 1.556ns)

    Location             Delay type                Incr(ns)  Path(ns)    Netlist Resource(s)
  -------------------------------------------------------------------    -------------------
                         (clock clk rise edge)        0.000     0.000 r  
    AV33                                              0.000     0.000 r  clk (IN)
                         net (fo=0)                   0.000     0.000    clk_ibuf_iso/I
    AV33                 INBUF (Prop_INBUF_HPIOB_M_PAD_O)
                                                      0.510     0.510 r  clk_ibuf_iso/INBUF_INST/O
                         net (fo=1, routed)           0.000     0.510    clk_ibuf_iso/OUT
    AV33                 IBUFCTRL (Prop_IBUFCTRL_HPIOB_M_I_O)
                                                      0.000     0.510 r  clk_ibuf_iso/IBUFCTRL_INST/O
                         net (fo=1, routed)           0.296     0.806    clk_ibuf_iso
    BUFGCE_X1Y224        BUFGCE (Prop_BUFCE_BUFGCE_I_O)
                                                      0.024     0.830 r  clk_ibuf/O
    X3Y5 (CLOCK_ROOT)    net (fo=12380, routed)       2.896     3.726    shift_reg_tap_i/clk_c
    SLICE_X60Y385        FDRE                                         r  shift_reg_tap_i/sr_p.sr_10[491]/C
  -------------------------------------------------------------------    -------------------
    SLICE_X60Y385        FDRE (Prop_EFF2_SLICEM_C_Q)
                                                      0.072     3.798 f  shift_reg_tap_i/sr_p.sr_10[491]/Q
                         net (fo=1, routed)           0.111     3.909    shift_reg_tap_i/sr_10[491]
    SLICE_X62Y385        FDRE                                         f  shift_reg_tap_i/sr_p.sr_11[491]/D
  -------------------------------------------------------------------    -------------------

                         (clock clk rise edge)        0.000     0.000 r  
    AV33                                              0.000     0.000 r  clk (IN)
                         net (fo=0)                   0.000     0.000    clk_ibuf_iso/I
    AV33                 INBUF (Prop_INBUF_HPIOB_M_PAD_O)
                                                      0.779     0.779 r  clk_ibuf_iso/INBUF_INST/O
                         net (fo=1, routed)           0.000     0.779    clk_ibuf_iso/OUT
    AV33                 IBUFCTRL (Prop_IBUFCTRL_HPIOB_M_I_O)
                                                      0.000     0.779 r  clk_ibuf_iso/IBUFCTRL_INST/O
                         net (fo=1, routed)           0.334     1.113    clk_ibuf_iso
    BUFGCE_X1Y224        BUFGCE (Prop_BUFCE_BUFGCE_I_O)
                                                      0.028     1.141 r  clk_ibuf/O
    X3Y5 (CLOCK_ROOT)    net (fo=12380, routed)       3.239     4.380    shift_reg_tap_i/clk_c
    SLICE_X62Y385        FDRE                                         r  shift_reg_tap_i/sr_p.sr_11[491]/C
                         clock pessimism             -0.535     3.845    
    SLICE_X62Y385        FDRE (Hold_EFF_SLICEM_C_D)
                                                      0.053     3.898    shift_reg_tap_i/sr_p.sr_11[491]
  -------------------------------------------------------------------
                         required time                         -3.898    
                         arrival time                           3.909    
  -------------------------------------------------------------------
                         slack                                  0.011    

Slack (MET) :             0.012ns  (arrival time - required time)
  Source:                 shift_reg_tap_i/sr_p.sr_10[433]/C
                            (rising edge-triggered cell FDRE clocked by clk  {rise@0.000ns fall@3.125ns period=6.250ns})
  Destination:            shift_reg_tap_i/sr_p.sr_11[433]/D
                            (rising edge-triggered cell FDRE clocked by clk  {rise@0.000ns fall@3.125ns period=6.250ns})
  Path Group:             clk
  Path Type:              Hold (Min at Slow Process Corner)
  Requirement:            0.000ns  (clk rise@0.000ns - clk rise@0.000ns)
  Data Path Delay:        0.184ns  (logic 0.070ns (38.044%)  route 0.114ns (61.957%))
  Logic Levels:           0  
  Clock Path Skew:        0.119ns (DCD - SCD - CPR)
    Destination Clock Delay (DCD):    4.351ns
    Source Clock Delay      (SCD):    3.697ns
    Clock Pessimism Removal (CPR):    0.535ns
  Clock Net Delay (Source):      2.867ns (routing 1.538ns, distribution 1.329ns)
  Clock Net Delay (Destination): 3.210ns (routing 1.683ns, distribution 1.527ns)

    Location             Delay type                Incr(ns)  Path(ns)    Netlist Resource(s)
  -------------------------------------------------------------------    -------------------
                         (clock clk rise edge)        0.000     0.000 r  
    AV33                                              0.000     0.000 r  clk (IN)
                         net (fo=0)                   0.000     0.000    clk_ibuf_iso/I
    AV33                 INBUF (Prop_INBUF_HPIOB_M_PAD_O)
                                                      0.510     0.510 r  clk_ibuf_iso/INBUF_INST/O
                         net (fo=1, routed)           0.000     0.510    clk_ibuf_iso/OUT
    AV33                 IBUFCTRL (Prop_IBUFCTRL_HPIOB_M_I_O)
                                                      0.000     0.510 r  clk_ibuf_iso/IBUFCTRL_INST/O
                         net (fo=1, routed)           0.296     0.806    clk_ibuf_iso
    BUFGCE_X1Y224        BUFGCE (Prop_BUFCE_BUFGCE_I_O)
                                                      0.024     0.830 r  clk_ibuf/O
    X3Y5 (CLOCK_ROOT)    net (fo=12380, routed)       2.867     3.697    shift_reg_tap_i/clk_c
    SLICE_X65Y375        FDRE                                         r  shift_reg_tap_i/sr_p.sr_10[433]/C
  -------------------------------------------------------------------    -------------------
    SLICE_X65Y375        FDRE (Prop_EFF_SLICEL_C_Q)
                                                      0.070     3.767 r  shift_reg_tap_i/sr_p.sr_10[433]/Q
                         net (fo=1, routed)           0.114     3.881    shift_reg_tap_i/sr_10[433]
    SLICE_X67Y376        FDRE                                         r  shift_reg_tap_i/sr_p.sr_11[433]/D
  -------------------------------------------------------------------    -------------------

                         (clock clk rise edge)        0.000     0.000 r  
    AV33                                              0.000     0.000 r  clk (IN)
                         net (fo=0)                   0.000     0.000    clk_ibuf_iso/I
    AV33                 INBUF (Prop_INBUF_HPIOB_M_PAD_O)
                                                      0.779     0.779 r  clk_ibuf_iso/INBUF_INST/O
                         net (fo=1, routed)           0.000     0.779    clk_ibuf_iso/OUT
    AV33                 IBUFCTRL (Prop_IBUFCTRL_HPIOB_M_I_O)
                                                      0.000     0.779 r  clk_ibuf_iso/IBUFCTRL_INST/O
                         net (fo=1, routed)           0.334     1.113    clk_ibuf_iso
    BUFGCE_X1Y224        BUFGCE (Prop_BUFCE_BUFGCE_I_O)
                                                      0.028     1.141 r  clk_ibuf/O
    X3Y5 (CLOCK_ROOT)    net (fo=12380, routed)       3.210     4.351    shift_reg_tap_i/clk_c
    SLICE_X67Y376        FDRE                                         r  shift_reg_tap_i/sr_p.sr_11[433]/C
                         clock pessimism             -0.535     3.816    
    SLICE_X67Y376        FDRE (Hold_AFF_SLICEL_C_D)
                                                      0.053     3.869    shift_reg_tap_i/sr_p.sr_11[433]
  -------------------------------------------------------------------
                         required time                         -3.869    
                         arrival time                           3.881    
  -------------------------------------------------------------------
                         slack                                  0.012    





Pulse Width Checks
--------------------------------------------------------------------------------------
Clock Name:         clk
Waveform(ns):       { 0.000 3.125 }
Period(ns):         6.250
Sources:            { clk }

Check Type        Corner  Lib Pin   Reference Pin  Required(ns)  Actual(ns)  Slack(ns)  Location       Pin
Min Period        n/a     BUFGCE/I  n/a            1.499         6.250       4.751      BUFGCE_X1Y224  clk_ibuf/I
Min Period        n/a     FDRE/C    n/a            0.550         6.250       5.700      SLICE_X84Y341  shift_reg_tap_i/sr_p.sr_11[422]/C
Min Period        n/a     FDRE/C    n/a            0.550         6.250       5.700      SLICE_X82Y340  shift_reg_tap_i/sr_p.sr_11[423]/C
Min Period        n/a     FDRE/C    n/a            0.550         6.250       5.700      SLICE_X60Y382  shift_reg_tap_i/sr_p.sr_11[424]/C
Min Period        n/a     FDRE/C    n/a            0.550         6.250       5.700      SLICE_X59Y381  shift_reg_tap_i/sr_p.sr_11[425]/C
Low Pulse Width   Fast    FDRE/C    n/a            0.275         3.125       2.850      SLICE_X85Y319  shift_reg_tap_i/sr_p.sr_11[436]/C
Low Pulse Width   Fast    FDRE/C    n/a            0.275         3.125       2.850      SLICE_X85Y389  shift_reg_tap_i/sr_p.sr_15[18]/C
Low Pulse Width   Slow    FDRE/C    n/a            0.275         3.125       2.850      SLICE_X63Y373  shift_reg_tap_i/sr_p.sr_15[203]/C
Low Pulse Width   Slow    FDRE/C    n/a            0.275         3.125       2.850      SLICE_X63Y377  shift_reg_tap_i/sr_p.sr_15[204]/C
Low Pulse Width   Slow    FDRE/C    n/a            0.275         3.125       2.850      SLICE_X54Y379  shift_reg_tap_i/sr_p.sr_3[425]/C
High Pulse Width  Slow    FDRE/C    n/a            0.275         3.125       2.850      SLICE_X62Y376  shift_reg_tap_i/sr_p.sr_11[430]/C
High Pulse Width  Slow    FDRE/C    n/a            0.275         3.125       2.850      SLICE_X62Y376  shift_reg_tap_i/sr_p.sr_11[434]/C
High Pulse Width  Slow    FDRE/C    n/a            0.275         3.125       2.850      SLICE_X62Y372  shift_reg_tap_i/sr_p.sr_15[179]/C
High Pulse Width  Slow    FDRE/C    n/a            0.275         3.125       2.850      SLICE_X62Y377  shift_reg_tap_i/sr_p.sr_15[185]/C
High Pulse Width  Slow    FDRE/C    n/a            0.275         3.125       2.850      SLICE_X62Y374  shift_reg_tap_i/sr_p.sr_15[187]/C



---------------------------------------------------------------------------------------------------
From Clock:  clk_wrapper
  To Clock:  clk_wrapper

Setup :           NA  Failing Endpoints,  Worst Slack           NA  ,  Total Violation           NA
Hold  :           NA  Failing Endpoints,  Worst Slack           NA  ,  Total Violation           NA
PW    :            0  Failing Endpoints,  Worst Slack      498.562ns,  Total Violation        0.000ns
---------------------------------------------------------------------------------------------------


Pulse Width Checks
--------------------------------------------------------------------------------------
Clock Name:         clk_wrapper
Waveform(ns):       { 0.000 500.000 }
Period(ns):         1000.000
Sources:            { clk_wrapper }

Check Type        Corner  Lib Pin   Reference Pin  Required(ns)  Actual(ns)  Slack(ns)  Location               Pin
Min Period        n/a     FDRE/C    n/a            3.195         1000.000    996.805    BITSLICE_RX_TX_X1Y483  reducer_1/delay_block[4][0]/C
Min Period        n/a     BUFGCE/I  n/a            1.499         1000.000    998.501    BUFGCE_X1Y230          clk_wrapper_ibuf/I
Min Period        n/a     FDRE/C    n/a            0.550         1000.000    999.450    SLICE_X65Y487          lsfr_1/output_vector_1[511]/C
Min Period        n/a     FDRE/C    n/a            0.550         1000.000    999.450    SLICE_X64Y493          lsfr_1/shiftreg_vector[0]/C
Min Period        n/a     FDRE/C    n/a            0.550         1000.000    999.450    SLICE_X57Y382          lsfr_1/shiftreg_vector[100]/C
Low Pulse Width   Slow    FDRE/C    n/a            1.438         500.000     498.562    BITSLICE_RX_TX_X1Y483  reducer_1/delay_block[4][0]/C
Low Pulse Width   Fast    FDRE/C    n/a            1.438         500.000     498.562    BITSLICE_RX_TX_X1Y483  reducer_1/delay_block[4][0]/C
Low Pulse Width   Slow    FDRE/C    n/a            0.275         500.000     499.725    SLICE_X64Y493          lsfr_1/shiftreg_vector[0]/C
Low Pulse Width   Slow    FDRE/C    n/a            0.275         500.000     499.725    SLICE_X58Y384          lsfr_1/shiftreg_vector[102]/C
Low Pulse Width   Slow    FDRE/C    n/a            0.275         500.000     499.725    SLICE_X58Y384          lsfr_1/shiftreg_vector[103]/C
High Pulse Width  Fast    FDRE/C    n/a            1.438         500.000     498.562    BITSLICE_RX_TX_X1Y483  reducer_1/delay_block[4][0]/C
High Pulse Width  Slow    FDRE/C    n/a            1.438         500.000     498.562    BITSLICE_RX_TX_X1Y483  reducer_1/delay_block[4][0]/C
High Pulse Width  Fast    FDRE/C    n/a            0.275         500.000     499.725    SLICE_X58Y384          lsfr_1/shiftreg_vector[102]/C
High Pulse Width  Fast    FDRE/C    n/a            0.275         500.000     499.725    SLICE_X58Y384          lsfr_1/shiftreg_vector[103]/C
High Pulse Width  Fast    FDRE/C    n/a            0.275         500.000     499.725    SLICE_X54Y382          lsfr_1/shiftreg_vector[105]/C



