Copyright 1986-2018 Xilinx, Inc. All Rights Reserved.
------------------------------------------------------------------------------------
| Tool Version : Vivado v.2018.2 (win64) Build 2258646 Thu Jun 14 20:03:12 MDT 2018
| Date         : Tue Mar  5 23:49:58 2019
| Host         : PCPHESEBE02 running 64-bit Service Pack 1  (build 7601)
| Command      : report_high_fanout_nets -histogram -file fanout_hist.txt
| Design       : wrapper_csn
| Device       : xcvu9p
------------------------------------------------------------------------------------

High Fan-out Nets Information

1. Histogram
------------

+---------+------+--------+
|  Fanout | Nets |      % |
+---------+------+--------+
|       1 | 1584 |  49.81 |
|       2 |  658 |  20.69 |
|       3 |  493 |  15.50 |
|       4 |  205 |   6.44 |
|    5-10 |  141 |   4.43 |
|   11-50 |   99 |   3.11 |
|  51-100 |    0 |   0.00 |
| 101-500 |    0 |   0.00 |
|    >500 |    0 |   0.00 |
+---------+------+--------+
|     ALL | 3180 | 100.00 |
+---------+------+--------+


