Copyright 1986-2018 Xilinx, Inc. All Rights Reserved.
------------------------------------------------------------------------------------
| Tool Version : Vivado v.2018.2 (win64) Build 2258646 Thu Jun 14 20:03:12 MDT 2018
| Date         : Fri Feb  8 09:45:12 2019
| Host         : PCPHESEBE02 running 64-bit Service Pack 1  (build 7601)
| Command      : report_high_fanout_nets -file fanout.txt -max_nets 200
| Design       : wrapper
| Device       : xcvu9p
------------------------------------------------------------------------------------

High Fan-out Nets Information

1. Summary
----------

+------------------------------------------------------------------+--------+-------------+
| Net Name                                                         | Fanout | Driver Type |
+------------------------------------------------------------------+--------+-------------+
| muon_sorter_1/max_pt_1_0                                         |     77 | LUT6        |
| muon_cand_16.pt[3]                                               |     75 | FDRE        |
| muon_cand_16.pt[2]                                               |     74 | FDRE        |
| muon_sorter_1/max_pt_1[16]                                       |     72 | LUT6        |
| muon_cand_17.pt[3]                                               |     71 | FDRE        |
| muon_sorter_1/N_9400_0                                           |     65 | LUT3        |
| muon_sorter_1/max_pt_12_rep_44[4]                                |     65 | LUT6        |
| muon_sorter_1/max_pt_1[7]                                        |     65 | LUT5        |
| muon_sorter_1/max_pt_4_10                                        |     65 | LUT6        |
| muon_cand_15.pt[3]                                               |     64 | FDRE        |
| muon_cand_15.pt[2]                                               |     63 | FDRE        |
| muon_cand_31.pt[3]                                               |     63 | FDRE        |
| muon_sorter_1/N_14281                                            |     63 | LUT6        |
| muon_sorter_1/max_pt_13_rep_80[4]                                |     63 | LUT6        |
| muon_cand_6.pt[3]                                                |     62 | FDRE        |
| muon_sorter_1/max_pt_0[19]                                       |     62 | LUT6        |
| muon_sorter_1/max_pt_8_20                                        |     62 | LUT6        |
| muon_cand_31.pt[2]                                               |     61 | FDRE        |
| muon_sorter_1/max_pt_0[11]                                       |     61 | LUT6        |
| muon_sorter_1/max_pt_0[16]                                       |     61 | LUT6        |
| muon_sorter_1/max_pt_0[7]                                        |     61 | LUT6        |
| muon_cand_20.pt[3]                                               |     60 | FDRE        |
| muon_cand_7.pt[2]                                                |     60 | FDRE        |
| muon_sorter_1/max_pt_0[21]                                       |     60 | LUT6        |
| muon_sorter_1/max_pt_1[23]                                       |     60 | LUT6        |
| muon_sorter_1/max_pt_4[22]                                       |     60 | LUT5        |
| muon_sorter_1/max_pt_0[5]                                        |     59 | LUT6        |
| muon_sorter_1/max_pt_10[15]                                      |     59 | LUT6        |
| muon_sorter_1/max_pt_11[27]                                      |     59 | LUT6        |
| muon_sorter_1/max_pt_12_rep_138[25]                              |     59 | LUT4        |
| muon_sorter_1/max_pt_13[3]                                       |     59 | LUT6        |
| muon_sorter_1/max_pt_13_17                                       |     59 | LUT5        |
| muon_sorter_1/max_pt_1[19]                                       |     59 | LUT6        |
| muon_sorter_1/max_pt_1[24]                                       |     59 | LUT6        |
| muon_sorter_1/max_pt_4[13]                                       |     59 | LUT6        |
| muon_sorter_1/max_pt_4[30]                                       |     59 | LUT6        |
| muon_sorter_1/max_pt_4[8]                                        |     59 | LUT4        |
| muon_sorter_1/max_pt_5[11]                                       |     59 | LUT4        |
| muon_sorter_1/max_pt_5[15]                                       |     59 | LUT5        |
| muon_sorter_1/max_pt_5[25]                                       |     59 | LUT6        |
| muon_sorter_1/max_pt_5[28]                                       |     59 | LUT5        |
| muon_sorter_1/max_pt_6[23]                                       |     59 | LUT6        |
| muon_sorter_1/max_pt_6[24]                                       |     59 | LUT6        |
| muon_sorter_1/max_pt_6[25]                                       |     59 | LUT4        |
| muon_sorter_1/max_pt_6[30]                                       |     59 | LUT5        |
| muon_sorter_1/max_pt_7[11]                                       |     59 | LUT6        |
| muon_sorter_1/max_pt_9[2]                                        |     59 | LUT5        |
| muon_sorter_1/max_pt_9_rep_140[13]                               |     59 | LUT6        |
| muon_sorter_1/max_pt_0_3_4[23]                                   |     58 | LUT6        |
| muon_sorter_1/max_pt_11[29]                                      |     58 | LUT6        |
| muon_sorter_1/max_pt_14[1]                                       |     58 | LUT6        |
| muon_sorter_1/max_pt_14[21]                                      |     58 | LUT6        |
| muon_sorter_1/max_pt_1[3]                                        |     58 | LUT6        |
| muon_sorter_1/max_pt_2[26]                                       |     58 | LUT4        |
| muon_sorter_1/max_pt_2_rep_13[1]                                 |     58 | LUT6        |
| muon_sorter_1/max_pt_4_rep_215[2]                                |     58 | LUT6        |
| muon_sorter_1/max_pt_6_7                                         |     58 | LUT6        |
| muon_sorter_1/pt_compare_12_29_0_a3_0_a2_0_0                     |     58 | LUT6        |
| muon_cand_19.pt[3]                                               |     57 | FDRE        |
| muon_cand_5.pt[3]                                                |     57 | FDRE        |
| muon_sorter_1/N_14256                                            |     57 | LUT6        |
| muon_sorter_1/N_14280                                            |     57 | LUT6        |
| muon_sorter_1/max_pt_0[31]                                       |     57 | LUT6        |
| muon_sorter_1/max_pt_0[6]                                        |     57 | LUT6        |
| muon_sorter_1/max_pt_0[8]                                        |     57 | LUT5        |
| muon_sorter_1/max_pt_0[9]                                        |     57 | LUT6        |
| muon_sorter_1/max_pt_10_rep_153[3]                               |     57 | LUT4        |
| muon_sorter_1/max_pt_12[2]                                       |     57 | LUT5        |
| muon_sorter_1/max_pt_14[18]                                      |     57 | LUT6        |
| muon_sorter_1/max_pt_1[31]                                       |     57 | LUT6        |
| muon_sorter_1/max_pt_1_rep_160[4]                                |     57 | LUT4        |
| muon_sorter_1/max_pt_5[12]                                       |     57 | LUT5        |
| muon_sorter_1/max_pt_5_17                                        |     57 | LUT5        |
| muon_sorter_1/max_pt_6[12]                                       |     57 | LUT5        |
| muon_sorter_1/max_pt_6_rep_65[2]                                 |     57 | LUT6        |
| muon_sorter_1/max_pt_7[25]                                       |     57 | LUT4        |
| muon_sorter_1/pt_compare_4_15_0_a2_0_0_a2_0_1_N_11_mux           |     57 | LUT6        |
| muon_sorter_1/N_9394_0                                           |     56 | LUT5        |
| muon_sorter_1/max_pt_0[12]                                       |     56 | LUT6        |
| muon_sorter_1/max_pt_12[8]                                       |     56 | LUT6        |
| muon_sorter_1/max_pt_14[26]                                      |     56 | LUT6        |
| muon_sorter_1/max_pt_14[4]                                       |     56 | LUT4        |
| muon_sorter_1/max_pt_1[6]                                        |     56 | LUT6        |
| muon_sorter_1/max_pt_3_rep_30[2]                                 |     56 | LUT6        |
| muon_sorter_1/max_pt_5[0]                                        |     56 | LUT6        |
| muon_sorter_1/max_pt_6_rep_386_0                                 |     56 | LUT6        |
| muon_sorter_1/max_pt_7[8]                                        |     56 | LUT6        |
| muon_sorter_1/max_pt_8[12]                                       |     56 | LUT4        |
| muon_sorter_1/max_pt_8[6]                                        |     56 | LUT5        |
| muon_sorter_1/max_pt_9_2_4[11]                                   |     56 | LUT6        |
| muon_sorter_1/max_pt_9_3_4[11]                                   |     56 | LUT6        |
| muon_sorter_1/max_pt_9_rep_188[3]                                |     56 | LUT6        |
| muon_cand_28.pt[2]                                               |     55 | FDRE        |
| muon_cand_28.pt[3]                                               |     55 | FDRE        |
| muon_sorter_1.max_pt_11_rep_133[4]                               |     55 | LUT6        |
| muon_sorter_1/N_14512                                            |     55 | LUT6        |
| muon_sorter_1/N_2113                                             |     55 | LUT6        |
| muon_sorter_1/max_pt_10[17]                                      |     55 | LUT6        |
| muon_sorter_1/max_pt_11[13]                                      |     55 | LUT6        |
| muon_sorter_1/max_pt_12_rep_129[21]                              |     55 | LUT6        |
| muon_sorter_1/max_pt_12_rep_41[24]                               |     55 | LUT6        |
| muon_sorter_1/max_pt_1_2_4[11]                                   |     55 | LUT6        |
| muon_sorter_1/max_pt_1_3_4[11]                                   |     55 | LUT6        |
| muon_sorter_1/max_pt_2[15]                                       |     55 | LUT6        |
| muon_sorter_1/max_pt_2[3]                                        |     55 | LUT5        |
| muon_sorter_1/max_pt_6_3_d0                                      |     55 | LUT5        |
| muon_sorter_1/max_pt_6_rep_297[6]                                |     55 | LUT6        |
| muon_sorter_1/max_pt_9[10]                                       |     55 | LUT6        |
| muon_sorter_1/max_pt_9[19]                                       |     55 | LUT5        |
| muon_sorter_1/max_pt_9[24]                                       |     55 | LUT6        |
| muon_cand_3.pt[2]                                                |     54 | FDRE        |
| muon_cand_3.pt[3]                                                |     54 | FDRE        |
| muon_sorter_1/max_pt_0[10]                                       |     54 | LUT6        |
| muon_sorter_1/max_pt_0_2_4[23]                                   |     54 | LUT5        |
| muon_sorter_1/max_pt_11[1]                                       |     54 | LUT4        |
| muon_sorter_1/max_pt_1[22]                                       |     54 | LUT5        |
| muon_sorter_1/max_pt_4[5]                                        |     54 | LUT6        |
| muon_sorter_1/max_pt_6[5]                                        |     54 | LUT6        |
| muon_sorter_1/max_pt_6[9]                                        |     54 | LUT5        |
| muon_sorter_1/max_pt_7_5                                         |     54 | LUT6        |
| muon_sorter_1/max_pt_8[26]                                       |     54 | LUT5        |
| muon_sorter_1/max_pt_9[14]                                       |     54 | LUT6        |
| muon_sorter_1/max_pt_9[17]                                       |     54 | LUT4        |
| muon_cand_22.pt[2]                                               |     53 | FDRE        |
| muon_cand_22.pt[3]                                               |     53 | FDRE        |
| muon_sorter_1/N_14270                                            |     53 | LUT6        |
| muon_sorter_1/N_14293                                            |     53 | LUT5        |
| muon_sorter_1/max_pt_0[18]                                       |     53 | LUT6        |
| muon_sorter_1/max_pt_10[0]                                       |     53 | LUT6        |
| muon_sorter_1/max_pt_11[30]                                      |     53 | LUT5        |
| muon_sorter_1/max_pt_12[18]                                      |     53 | LUT4        |
| muon_sorter_1/max_pt_13[10]                                      |     53 | LUT5        |
| muon_sorter_1/max_pt_14[15]                                      |     53 | LUT4        |
| muon_sorter_1/max_pt_14[16]                                      |     53 | LUT4        |
| muon_sorter_1/max_pt_14[5]                                       |     53 | LUT6        |
| muon_sorter_1/max_pt_1[13]                                       |     53 | LUT6        |
| muon_sorter_1/max_pt_1[30]                                       |     53 | LUT6        |
| muon_sorter_1/max_pt_2[27]                                       |     53 | LUT6        |
| muon_sorter_1/max_pt_2_rep_8[31]                                 |     53 | LUT6        |
| muon_sorter_1/max_pt_3_rep_468[18]                               |     53 | LUT6        |
| muon_sorter_1/max_pt_5_rep_232[22]                               |     53 | LUT6        |
| muon_sorter_1/max_pt_5_rep_264[4]                                |     53 | LUT6        |
| muon_sorter_1/max_pt_6_rep_57[13]                                |     53 | LUT6        |
| muon_sorter_1/max_pt_7[18]                                       |     53 | LUT6        |
| muon_sorter_1/max_pt_7[24]                                       |     53 | LUT6        |
| muon_sorter_1/max_pt_7_1                                         |     53 | LUT6        |
| muon_sorter_1/max_pt_8[0]                                        |     53 | LUT4        |
| muon_sorter_1/max_pt_8[1]                                        |     53 | LUT6        |
| muon_sorter_1/pt_compare_12_21_0_a2_1_a2_1[10]                   |     53 | LUT4        |
| muon_sorter_1/pt_compare_4_21_0_a2_1_a2_1[14]                    |     53 | LUT6        |
| muon_sorter_1/pt_compare_9_19_0_a2_0_a2_0_a2_15_N_11_mux_rep_302 |     53 | LUT6        |
| muon_cand_17.pt[2]                                               |     52 | FDRE        |
| muon_cand_26.pt[3]                                               |     52 | FDRE        |
| muon_sorter_1/N_14334                                            |     52 | LUT6        |
| muon_sorter_1/N_14398                                            |     52 | LUT6        |
| muon_sorter_1/N_9345_0_rep_277                                   |     52 | LUT6        |
| muon_sorter_1/N_9383_0                                           |     52 | LUT6        |
| muon_sorter_1/max_pt_11[11]                                      |     52 | LUT5        |
| muon_sorter_1/max_pt_11[8]                                       |     52 | LUT6        |
| muon_sorter_1/max_pt_14[27]                                      |     52 | LUT4        |
| muon_sorter_1/max_pt_1[14]                                       |     52 | LUT6        |
| muon_sorter_1/max_pt_1[2]                                        |     52 | LUT6        |
| muon_sorter_1/max_pt_3[4]                                        |     52 | LUT4        |
| muon_sorter_1/max_pt_4[17]                                       |     52 | LUT6        |
| muon_sorter_1/max_pt_4_0                                         |     52 | LUT5        |
| muon_sorter_1/max_pt_5_rep_121[3]                                |     52 | LUT6        |
| muon_sorter_1/max_pt_7[15]                                       |     52 | LUT5        |
| muon_sorter_1/max_pt_7_11                                        |     52 | LUT4        |
| muon_sorter_1/max_pt_8[14]                                       |     52 | LUT6        |
| muon_sorter_1/max_pt_9_0_d0                                      |     52 | LUT6        |
| muon_cand_26.pt[2]                                               |     51 | FDRE        |
| muon_sorter_1.max_pt_8[20]                                       |     51 | LUT6        |
| muon_sorter_1/N_14258                                            |     51 | LUT4        |
| muon_sorter_1/max_pt_0[27]                                       |     51 | LUT6        |
| muon_sorter_1/max_pt_0_4[16]                                     |     51 | LUT6        |
| muon_sorter_1/max_pt_10[28]                                      |     51 | LUT6        |
| muon_sorter_1/max_pt_10[7]                                       |     51 | LUT6        |
| muon_sorter_1/max_pt_14[29]                                      |     51 | LUT6        |
| muon_sorter_1/max_pt_14[30]                                      |     51 | LUT6        |
| muon_sorter_1/max_pt_14[31]                                      |     51 | LUT6        |
| muon_sorter_1/max_pt_14[7]                                       |     51 | LUT4        |
| muon_sorter_1/max_pt_1[25]                                       |     51 | LUT6        |
| muon_sorter_1/max_pt_2[10]                                       |     51 | LUT6        |
| muon_sorter_1/max_pt_4_rep_194[19]                               |     51 | LUT6        |
| muon_sorter_1/max_pt_5[17]                                       |     51 | LUT5        |
| muon_sorter_1/max_pt_6_21                                        |     51 | LUT6        |
| muon_sorter_1/max_pt_7[30]                                       |     51 | LUT6        |
| muon_sorter_1/max_pt_9_rep_245[18]                               |     51 | LUT6        |
| muon_sorter_1/max_pt_9_rep_348[20]                               |     51 | LUT6        |
| muon_sorter_1/pt_compare_12_31_0_a2_1_a2_0_0[24]                 |     51 | LUT6        |
| muon_sorter_1/max_pt_10[2]                                       |     50 | LUT6        |
| muon_sorter_1/max_pt_11[18]                                      |     50 | LUT5        |
| muon_sorter_1/max_pt_11_rep_199[2]                               |     50 | LUT6        |
| muon_sorter_1/max_pt_11_rep_69[3]                                |     50 | LUT6        |
| muon_sorter_1/max_pt_12_rep_110[20]                              |     50 | LUT6        |
| muon_sorter_1/max_pt_12_rep_403_0                                |     50 | LUT6        |
| muon_sorter_1/max_pt_13[18]                                      |     50 | LUT6        |
| muon_sorter_1/max_pt_13[1]                                       |     50 | LUT6        |
| muon_sorter_1/max_pt_13[31]                                      |     50 | LUT5        |
| muon_sorter_1/max_pt_14[10]                                      |     50 | LUT4        |
+------------------------------------------------------------------+--------+-------------+


