Copyright 1986-2018 Xilinx, Inc. All Rights Reserved.
-----------------------------------------------------------------------------------------------
| Tool Version      : Vivado v.2018.2 (win64) Build 2258646 Thu Jun 14 20:03:12 MDT 2018
| Date              : Fri Feb  8 09:42:53 2019
| Host              : PCPHESEBE02 running 64-bit Service Pack 1  (build 7601)
| Command           : report_timing_summary -hold -nworst 5 -max_paths 5 -file timing_hold.txt
| Design            : wrapper
| Device            : xcvu9p-flgc2104
| Speed File        : -1  PRODUCTION 1.20 05-21-2018
| Temperature Grade : E
-----------------------------------------------------------------------------------------------

Timing Summary Report

------------------------------------------------------------------------------------------------
| Timer Settings
| --------------
------------------------------------------------------------------------------------------------

  Enable Multi Corner Analysis               :  Yes
  Enable Pessimism Removal                   :  Yes
  Pessimism Removal Resolution               :  Nearest Common Node
  Enable Input Delay Default Clock           :  No
  Enable Preset / Clear Arcs                 :  No
  Disable Flight Delays                      :  No
  Ignore I/O Paths                           :  No
  Timing Early Launch at Borrowing Latches   :  false

  Corner  Analyze    Analyze    
  Name    Max Paths  Min Paths  
  ------  ---------  ---------  
  Slow    Yes        Yes        
  Fast    Yes        Yes        



check_timing report

Table of Contents
-----------------
1. checking no_clock
2. checking constant_clock
3. checking pulse_width_clock
4. checking unconstrained_internal_endpoints
5. checking no_input_delay
6. checking no_output_delay
7. checking multiple_clock
8. checking generated_clocks
9. checking loops
10. checking partial_input_delay
11. checking partial_output_delay
12. checking latch_loops

1. checking no_clock
--------------------
 There are 0 register/latch pins with no clock.


2. checking constant_clock
--------------------------
 There are 0 register/latch pins with constant_clock.


3. checking pulse_width_clock
-----------------------------
 There are 0 register/latch pins which need pulse_width check


4. checking unconstrained_internal_endpoints
--------------------------------------------
 There are 0 pins that are not constrained for maximum delay.

 There are 0 pins that are not constrained for maximum delay due to constant clock.


5. checking no_input_delay
--------------------------
 There is 1 input port with no input delay specified. (HIGH)

 There are 0 input ports with no input delay but user has a false path constraint.


6. checking no_output_delay
---------------------------
 There is 1 port with no output delay specified. (HIGH)

 There are 0 ports with no output delay but user has a false path constraint

 There are 0 ports with no output delay but with a timing clock defined on it or propagating through it


7. checking multiple_clock
--------------------------
 There are 0 register/latch pins with multiple clocks.


8. checking generated_clocks
----------------------------
 There are 0 generated clocks that are not connected to a clock source.


9. checking loops
-----------------
 There are 0 combinational loops in the design.


10. checking partial_input_delay
--------------------------------
 There are 0 input ports with partial input delay specified.


11. checking partial_output_delay
---------------------------------
 There are 0 ports with partial output delay specified.


12. checking latch_loops
------------------------
 There are 0 combinational latch loops in the design through latch input



------------------------------------------------------------------------------------------------
| Design Timing Summary
| ---------------------
------------------------------------------------------------------------------------------------

    WHS(ns)      THS(ns)  THS Failing Endpoints  THS Total Endpoints     WPWS(ns)     TPWS(ns)  TPWS Failing Endpoints  TPWS Total Endpoints  
    -------      -------  ---------------------  -------------------     --------     --------  ----------------------  --------------------  
      0.000        0.000                      0                11801       12.225        0.000                       0                 13169  


All user specified timing constraints are met.


------------------------------------------------------------------------------------------------
| Clock Summary
| -------------
------------------------------------------------------------------------------------------------

Clock        Waveform(ns)         Period(ns)      Frequency(MHz)
-----        ------------         ----------      --------------
clk          {0.000 12.500}       25.000          40.000          
clk_wrapper  {0.000 500.000}      1000.000        1.000           


------------------------------------------------------------------------------------------------
| Intra Clock Table
| -----------------
------------------------------------------------------------------------------------------------

Clock             WHS(ns)      THS(ns)  THS Failing Endpoints  THS Total Endpoints     WPWS(ns)     TPWS(ns)  TPWS Failing Endpoints  TPWS Total Endpoints  
-----             -------      -------  ---------------------  -------------------     --------     --------  ----------------------  --------------------  
clk                 0.000        0.000                      0                11801       12.225        0.000                       0                 12314  
clk_wrapper                                                                             498.562        0.000                       0                   855  


------------------------------------------------------------------------------------------------
| Inter Clock Table
| -----------------
------------------------------------------------------------------------------------------------

From Clock    To Clock          WHS(ns)      THS(ns)  THS Failing Endpoints  THS Total Endpoints  
----------    --------          -------      -------  ---------------------  -------------------  


------------------------------------------------------------------------------------------------
| Other Path Groups Table
| -----------------------
------------------------------------------------------------------------------------------------

Path Group    From Clock    To Clock          WHS(ns)      THS(ns)  THS Failing Endpoints  THS Total Endpoints  
----------    ----------    --------          -------      -------  ---------------------  -------------------  


------------------------------------------------------------------------------------------------
| Timing Details
| --------------
------------------------------------------------------------------------------------------------


---------------------------------------------------------------------------------------------------
From Clock:  clk
  To Clock:  clk

Setup :           NA  Failing Endpoints,  Worst Slack           NA  ,  Total Violation           NA
Hold  :            0  Failing Endpoints,  Worst Slack        0.000ns,  Total Violation        0.000ns
PW    :            0  Failing Endpoints,  Worst Slack       12.225ns,  Total Violation        0.000ns
---------------------------------------------------------------------------------------------------


Min Delay Paths
--------------------------------------------------------------------------------------
Slack (MET) :             0.000ns  (arrival time - required time)
  Source:                 shift_reg_tap_i/sr_p.sr_14[473]/C
                            (rising edge-triggered cell FDRE clocked by clk  {rise@0.000ns fall@12.500ns period=25.000ns})
  Destination:            shift_reg_tap_i/sr_p.sr_15[473]/D
                            (rising edge-triggered cell FDRE clocked by clk  {rise@0.000ns fall@12.500ns period=25.000ns})
  Path Group:             clk
  Path Type:              Hold (Min at Slow Process Corner)
  Requirement:            0.000ns  (clk rise@0.000ns - clk rise@0.000ns)
  Data Path Delay:        0.222ns  (logic 0.070ns (31.532%)  route 0.152ns (68.468%))
  Logic Levels:           0  
  Clock Path Skew:        0.167ns (DCD - SCD - CPR)
    Destination Clock Delay (DCD):    3.584ns
    Source Clock Delay      (SCD):    2.944ns
    Clock Pessimism Removal (CPR):    0.474ns
  Clock Net Delay (Source):      2.114ns (routing 1.128ns, distribution 0.986ns)
  Clock Net Delay (Destination): 2.443ns (routing 1.234ns, distribution 1.209ns)

    Location             Delay type                Incr(ns)  Path(ns)    Netlist Resource(s)
  -------------------------------------------------------------------    -------------------
                         (clock clk rise edge)        0.000     0.000 r  
    AV33                                              0.000     0.000 r  clk (IN)
                         net (fo=0)                   0.000     0.000    clk_ibuf_iso/I
    AV33                 INBUF (Prop_INBUF_HPIOB_M_PAD_O)
                                                      0.510     0.510 r  clk_ibuf_iso/INBUF_INST/O
                         net (fo=1, routed)           0.000     0.510    clk_ibuf_iso/OUT
    AV33                 IBUFCTRL (Prop_IBUFCTRL_HPIOB_M_I_O)
                                                      0.000     0.510 r  clk_ibuf_iso/IBUFCTRL_INST/O
                         net (fo=1, routed)           0.296     0.806    clk_ibuf_iso
    BUFGCE_X1Y224        BUFGCE (Prop_BUFCE_BUFGCE_I_O)
                                                      0.024     0.830 r  clk_ibuf/O
    X4Y6 (CLOCK_ROOT)    net (fo=12313, routed)       2.114     2.944    shift_reg_tap_i/clk_c
    SLICE_X125Y349       FDRE                                         r  shift_reg_tap_i/sr_p.sr_14[473]/C
  -------------------------------------------------------------------    -------------------
    SLICE_X125Y349       FDRE (Prop_HFF_SLICEM_C_Q)
                                                      0.070     3.014 r  shift_reg_tap_i/sr_p.sr_14[473]/Q
                         net (fo=1, routed)           0.152     3.166    shift_reg_tap_i/sr_14[473]
    SLICE_X122Y350       FDRE                                         r  shift_reg_tap_i/sr_p.sr_15[473]/D
  -------------------------------------------------------------------    -------------------

                         (clock clk rise edge)        0.000     0.000 r  
    AV33                                              0.000     0.000 r  clk (IN)
                         net (fo=0)                   0.000     0.000    clk_ibuf_iso/I
    AV33                 INBUF (Prop_INBUF_HPIOB_M_PAD_O)
                                                      0.779     0.779 r  clk_ibuf_iso/INBUF_INST/O
                         net (fo=1, routed)           0.000     0.779    clk_ibuf_iso/OUT
    AV33                 IBUFCTRL (Prop_IBUFCTRL_HPIOB_M_I_O)
                                                      0.000     0.779 r  clk_ibuf_iso/IBUFCTRL_INST/O
                         net (fo=1, routed)           0.334     1.113    clk_ibuf_iso
    BUFGCE_X1Y224        BUFGCE (Prop_BUFCE_BUFGCE_I_O)
                                                      0.028     1.141 r  clk_ibuf/O
    X4Y6 (CLOCK_ROOT)    net (fo=12313, routed)       2.443     3.584    shift_reg_tap_i/clk_c
    SLICE_X122Y350       FDRE                                         r  shift_reg_tap_i/sr_p.sr_15[473]/C
                         clock pessimism             -0.474     3.110    
    SLICE_X122Y350       FDRE (Hold_HFF2_SLICEL_C_D)
                                                      0.055     3.165    shift_reg_tap_i/sr_p.sr_15[473]
  -------------------------------------------------------------------
                         required time                         -3.165    
                         arrival time                           3.166    
  -------------------------------------------------------------------
                         slack                                  0.000    

Slack (MET) :             0.000ns  (arrival time - required time)
  Source:                 shift_reg_tap_i/sr_p.sr_14[473]/C
                            (rising edge-triggered cell FDRE clocked by clk  {rise@0.000ns fall@12.500ns period=25.000ns})
  Destination:            shift_reg_tap_i/sr_p.sr_15[473]/D
                            (rising edge-triggered cell FDRE clocked by clk  {rise@0.000ns fall@12.500ns period=25.000ns})
  Path Group:             clk
  Path Type:              Hold (Min at Slow Process Corner)
  Requirement:            0.000ns  (clk rise@0.000ns - clk rise@0.000ns)
  Data Path Delay:        0.222ns  (logic 0.070ns (31.532%)  route 0.152ns (68.468%))
  Logic Levels:           0  
  Clock Path Skew:        0.167ns (DCD - SCD - CPR)
    Destination Clock Delay (DCD):    3.584ns
    Source Clock Delay      (SCD):    2.944ns
    Clock Pessimism Removal (CPR):    0.474ns
  Clock Net Delay (Source):      2.114ns (routing 1.128ns, distribution 0.986ns)
  Clock Net Delay (Destination): 2.443ns (routing 1.234ns, distribution 1.209ns)

    Location             Delay type                Incr(ns)  Path(ns)    Netlist Resource(s)
  -------------------------------------------------------------------    -------------------
                         (clock clk rise edge)        0.000     0.000 r  
    AV33                                              0.000     0.000 r  clk (IN)
                         net (fo=0)                   0.000     0.000    clk_ibuf_iso/I
    AV33                 INBUF (Prop_INBUF_HPIOB_M_PAD_O)
                                                      0.510     0.510 r  clk_ibuf_iso/INBUF_INST/O
                         net (fo=1, routed)           0.000     0.510    clk_ibuf_iso/OUT
    AV33                 IBUFCTRL (Prop_IBUFCTRL_HPIOB_M_I_O)
                                                      0.000     0.510 r  clk_ibuf_iso/IBUFCTRL_INST/O
                         net (fo=1, routed)           0.296     0.806    clk_ibuf_iso
    BUFGCE_X1Y224        BUFGCE (Prop_BUFCE_BUFGCE_I_O)
                                                      0.024     0.830 r  clk_ibuf/O
    X4Y6 (CLOCK_ROOT)    net (fo=12313, routed)       2.114     2.944    shift_reg_tap_i/clk_c
    SLICE_X125Y349       FDRE                                         r  shift_reg_tap_i/sr_p.sr_14[473]/C
  -------------------------------------------------------------------    -------------------
    SLICE_X125Y349       FDRE (Prop_HFF_SLICEM_C_Q)
                                                      0.070     3.014 f  shift_reg_tap_i/sr_p.sr_14[473]/Q
                         net (fo=1, routed)           0.152     3.166    shift_reg_tap_i/sr_14[473]
    SLICE_X122Y350       FDRE                                         f  shift_reg_tap_i/sr_p.sr_15[473]/D
  -------------------------------------------------------------------    -------------------

                         (clock clk rise edge)        0.000     0.000 r  
    AV33                                              0.000     0.000 r  clk (IN)
                         net (fo=0)                   0.000     0.000    clk_ibuf_iso/I
    AV33                 INBUF (Prop_INBUF_HPIOB_M_PAD_O)
                                                      0.779     0.779 r  clk_ibuf_iso/INBUF_INST/O
                         net (fo=1, routed)           0.000     0.779    clk_ibuf_iso/OUT
    AV33                 IBUFCTRL (Prop_IBUFCTRL_HPIOB_M_I_O)
                                                      0.000     0.779 r  clk_ibuf_iso/IBUFCTRL_INST/O
                         net (fo=1, routed)           0.334     1.113    clk_ibuf_iso
    BUFGCE_X1Y224        BUFGCE (Prop_BUFCE_BUFGCE_I_O)
                                                      0.028     1.141 r  clk_ibuf/O
    X4Y6 (CLOCK_ROOT)    net (fo=12313, routed)       2.443     3.584    shift_reg_tap_i/clk_c
    SLICE_X122Y350       FDRE                                         r  shift_reg_tap_i/sr_p.sr_15[473]/C
                         clock pessimism             -0.474     3.110    
    SLICE_X122Y350       FDRE (Hold_HFF2_SLICEL_C_D)
                                                      0.055     3.165    shift_reg_tap_i/sr_p.sr_15[473]
  -------------------------------------------------------------------
                         required time                         -3.165    
                         arrival time                           3.166    
  -------------------------------------------------------------------
                         slack                                  0.000    

Slack (MET) :             0.000ns  (arrival time - required time)
  Source:                 shift_reg_tap_i/sr_p.sr_14[378]/C
                            (rising edge-triggered cell FDRE clocked by clk  {rise@0.000ns fall@12.500ns period=25.000ns})
  Destination:            shift_reg_tap_i/sr_p.sr_15[378]/D
                            (rising edge-triggered cell FDRE clocked by clk  {rise@0.000ns fall@12.500ns period=25.000ns})
  Path Group:             clk
  Path Type:              Hold (Min at Slow Process Corner)
  Requirement:            0.000ns  (clk rise@0.000ns - clk rise@0.000ns)
  Data Path Delay:        0.215ns  (logic 0.070ns (32.558%)  route 0.145ns (67.442%))
  Logic Levels:           0  
  Clock Path Skew:        0.162ns (DCD - SCD - CPR)
    Destination Clock Delay (DCD):    3.579ns
    Source Clock Delay      (SCD):    2.944ns
    Clock Pessimism Removal (CPR):    0.474ns
  Clock Net Delay (Source):      2.114ns (routing 1.128ns, distribution 0.986ns)
  Clock Net Delay (Destination): 2.438ns (routing 1.234ns, distribution 1.204ns)

    Location             Delay type                Incr(ns)  Path(ns)    Netlist Resource(s)
  -------------------------------------------------------------------    -------------------
                         (clock clk rise edge)        0.000     0.000 r  
    AV33                                              0.000     0.000 r  clk (IN)
                         net (fo=0)                   0.000     0.000    clk_ibuf_iso/I
    AV33                 INBUF (Prop_INBUF_HPIOB_M_PAD_O)
                                                      0.510     0.510 r  clk_ibuf_iso/INBUF_INST/O
                         net (fo=1, routed)           0.000     0.510    clk_ibuf_iso/OUT
    AV33                 IBUFCTRL (Prop_IBUFCTRL_HPIOB_M_I_O)
                                                      0.000     0.510 r  clk_ibuf_iso/IBUFCTRL_INST/O
                         net (fo=1, routed)           0.296     0.806    clk_ibuf_iso
    BUFGCE_X1Y224        BUFGCE (Prop_BUFCE_BUFGCE_I_O)
                                                      0.024     0.830 r  clk_ibuf/O
    X4Y6 (CLOCK_ROOT)    net (fo=12313, routed)       2.114     2.944    shift_reg_tap_i/clk_c
    SLICE_X128Y349       FDRE                                         r  shift_reg_tap_i/sr_p.sr_14[378]/C
  -------------------------------------------------------------------    -------------------
    SLICE_X128Y349       FDRE (Prop_HFF_SLICEL_C_Q)
                                                      0.070     3.014 r  shift_reg_tap_i/sr_p.sr_14[378]/Q
                         net (fo=1, routed)           0.145     3.159    shift_reg_tap_i/sr_14[378]
    SLICE_X122Y350       FDRE                                         r  shift_reg_tap_i/sr_p.sr_15[378]/D
  -------------------------------------------------------------------    -------------------

                         (clock clk rise edge)        0.000     0.000 r  
    AV33                                              0.000     0.000 r  clk (IN)
                         net (fo=0)                   0.000     0.000    clk_ibuf_iso/I
    AV33                 INBUF (Prop_INBUF_HPIOB_M_PAD_O)
                                                      0.779     0.779 r  clk_ibuf_iso/INBUF_INST/O
                         net (fo=1, routed)           0.000     0.779    clk_ibuf_iso/OUT
    AV33                 IBUFCTRL (Prop_IBUFCTRL_HPIOB_M_I_O)
                                                      0.000     0.779 r  clk_ibuf_iso/IBUFCTRL_INST/O
                         net (fo=1, routed)           0.334     1.113    clk_ibuf_iso
    BUFGCE_X1Y224        BUFGCE (Prop_BUFCE_BUFGCE_I_O)
                                                      0.028     1.141 r  clk_ibuf/O
    X4Y6 (CLOCK_ROOT)    net (fo=12313, routed)       2.438     3.579    shift_reg_tap_i/clk_c
    SLICE_X122Y350       FDRE                                         r  shift_reg_tap_i/sr_p.sr_15[378]/C
                         clock pessimism             -0.474     3.105    
    SLICE_X122Y350       FDRE (Hold_BFF_SLICEL_C_D)
                                                      0.053     3.158    shift_reg_tap_i/sr_p.sr_15[378]
  -------------------------------------------------------------------
                         required time                         -3.158    
                         arrival time                           3.159    
  -------------------------------------------------------------------
                         slack                                  0.000    

Slack (MET) :             0.000ns  (arrival time - required time)
  Source:                 shift_reg_tap_i/sr_p.sr_14[378]/C
                            (rising edge-triggered cell FDRE clocked by clk  {rise@0.000ns fall@12.500ns period=25.000ns})
  Destination:            shift_reg_tap_i/sr_p.sr_15[378]/D
                            (rising edge-triggered cell FDRE clocked by clk  {rise@0.000ns fall@12.500ns period=25.000ns})
  Path Group:             clk
  Path Type:              Hold (Min at Slow Process Corner)
  Requirement:            0.000ns  (clk rise@0.000ns - clk rise@0.000ns)
  Data Path Delay:        0.215ns  (logic 0.070ns (32.558%)  route 0.145ns (67.442%))
  Logic Levels:           0  
  Clock Path Skew:        0.162ns (DCD - SCD - CPR)
    Destination Clock Delay (DCD):    3.579ns
    Source Clock Delay      (SCD):    2.944ns
    Clock Pessimism Removal (CPR):    0.474ns
  Clock Net Delay (Source):      2.114ns (routing 1.128ns, distribution 0.986ns)
  Clock Net Delay (Destination): 2.438ns (routing 1.234ns, distribution 1.204ns)

    Location             Delay type                Incr(ns)  Path(ns)    Netlist Resource(s)
  -------------------------------------------------------------------    -------------------
                         (clock clk rise edge)        0.000     0.000 r  
    AV33                                              0.000     0.000 r  clk (IN)
                         net (fo=0)                   0.000     0.000    clk_ibuf_iso/I
    AV33                 INBUF (Prop_INBUF_HPIOB_M_PAD_O)
                                                      0.510     0.510 r  clk_ibuf_iso/INBUF_INST/O
                         net (fo=1, routed)           0.000     0.510    clk_ibuf_iso/OUT
    AV33                 IBUFCTRL (Prop_IBUFCTRL_HPIOB_M_I_O)
                                                      0.000     0.510 r  clk_ibuf_iso/IBUFCTRL_INST/O
                         net (fo=1, routed)           0.296     0.806    clk_ibuf_iso
    BUFGCE_X1Y224        BUFGCE (Prop_BUFCE_BUFGCE_I_O)
                                                      0.024     0.830 r  clk_ibuf/O
    X4Y6 (CLOCK_ROOT)    net (fo=12313, routed)       2.114     2.944    shift_reg_tap_i/clk_c
    SLICE_X128Y349       FDRE                                         r  shift_reg_tap_i/sr_p.sr_14[378]/C
  -------------------------------------------------------------------    -------------------
    SLICE_X128Y349       FDRE (Prop_HFF_SLICEL_C_Q)
                                                      0.070     3.014 f  shift_reg_tap_i/sr_p.sr_14[378]/Q
                         net (fo=1, routed)           0.145     3.159    shift_reg_tap_i/sr_14[378]
    SLICE_X122Y350       FDRE                                         f  shift_reg_tap_i/sr_p.sr_15[378]/D
  -------------------------------------------------------------------    -------------------

                         (clock clk rise edge)        0.000     0.000 r  
    AV33                                              0.000     0.000 r  clk (IN)
                         net (fo=0)                   0.000     0.000    clk_ibuf_iso/I
    AV33                 INBUF (Prop_INBUF_HPIOB_M_PAD_O)
                                                      0.779     0.779 r  clk_ibuf_iso/INBUF_INST/O
                         net (fo=1, routed)           0.000     0.779    clk_ibuf_iso/OUT
    AV33                 IBUFCTRL (Prop_IBUFCTRL_HPIOB_M_I_O)
                                                      0.000     0.779 r  clk_ibuf_iso/IBUFCTRL_INST/O
                         net (fo=1, routed)           0.334     1.113    clk_ibuf_iso
    BUFGCE_X1Y224        BUFGCE (Prop_BUFCE_BUFGCE_I_O)
                                                      0.028     1.141 r  clk_ibuf/O
    X4Y6 (CLOCK_ROOT)    net (fo=12313, routed)       2.438     3.579    shift_reg_tap_i/clk_c
    SLICE_X122Y350       FDRE                                         r  shift_reg_tap_i/sr_p.sr_15[378]/C
                         clock pessimism             -0.474     3.105    
    SLICE_X122Y350       FDRE (Hold_BFF_SLICEL_C_D)
                                                      0.053     3.158    shift_reg_tap_i/sr_p.sr_15[378]
  -------------------------------------------------------------------
                         required time                         -3.158    
                         arrival time                           3.159    
  -------------------------------------------------------------------
                         slack                                  0.000    

Slack (MET) :             0.001ns  (arrival time - required time)
  Source:                 shift_reg_tap_i/sr_p.sr_12[373]/C
                            (rising edge-triggered cell FDRE clocked by clk  {rise@0.000ns fall@12.500ns period=25.000ns})
  Destination:            shift_reg_tap_i/sr_p.sr_13[373]/D
                            (rising edge-triggered cell FDRE clocked by clk  {rise@0.000ns fall@12.500ns period=25.000ns})
  Path Group:             clk
  Path Type:              Hold (Min at Slow Process Corner)
  Requirement:            0.000ns  (clk rise@0.000ns - clk rise@0.000ns)
  Data Path Delay:        0.217ns  (logic 0.069ns (31.797%)  route 0.148ns (68.203%))
  Logic Levels:           0  
  Clock Path Skew:        0.161ns (DCD - SCD - CPR)
    Destination Clock Delay (DCD):    3.579ns
    Source Clock Delay      (SCD):    2.945ns
    Clock Pessimism Removal (CPR):    0.474ns
  Clock Net Delay (Source):      2.115ns (routing 1.128ns, distribution 0.987ns)
  Clock Net Delay (Destination): 2.438ns (routing 1.234ns, distribution 1.204ns)

    Location             Delay type                Incr(ns)  Path(ns)    Netlist Resource(s)
  -------------------------------------------------------------------    -------------------
                         (clock clk rise edge)        0.000     0.000 r  
    AV33                                              0.000     0.000 r  clk (IN)
                         net (fo=0)                   0.000     0.000    clk_ibuf_iso/I
    AV33                 INBUF (Prop_INBUF_HPIOB_M_PAD_O)
                                                      0.510     0.510 r  clk_ibuf_iso/INBUF_INST/O
                         net (fo=1, routed)           0.000     0.510    clk_ibuf_iso/OUT
    AV33                 IBUFCTRL (Prop_IBUFCTRL_HPIOB_M_I_O)
                                                      0.000     0.510 r  clk_ibuf_iso/IBUFCTRL_INST/O
                         net (fo=1, routed)           0.296     0.806    clk_ibuf_iso
    BUFGCE_X1Y224        BUFGCE (Prop_BUFCE_BUFGCE_I_O)
                                                      0.024     0.830 r  clk_ibuf/O
    X4Y6 (CLOCK_ROOT)    net (fo=12313, routed)       2.115     2.945    shift_reg_tap_i/clk_c
    SLICE_X125Y351       FDRE                                         r  shift_reg_tap_i/sr_p.sr_12[373]/C
  -------------------------------------------------------------------    -------------------
    SLICE_X125Y351       FDRE (Prop_AFF_SLICEM_C_Q)
                                                      0.069     3.014 r  shift_reg_tap_i/sr_p.sr_12[373]/Q
                         net (fo=1, routed)           0.148     3.162    shift_reg_tap_i/sr_12[373]
    SLICE_X122Y350       FDRE                                         r  shift_reg_tap_i/sr_p.sr_13[373]/D
  -------------------------------------------------------------------    -------------------

                         (clock clk rise edge)        0.000     0.000 r  
    AV33                                              0.000     0.000 r  clk (IN)
                         net (fo=0)                   0.000     0.000    clk_ibuf_iso/I
    AV33                 INBUF (Prop_INBUF_HPIOB_M_PAD_O)
                                                      0.779     0.779 r  clk_ibuf_iso/INBUF_INST/O
                         net (fo=1, routed)           0.000     0.779    clk_ibuf_iso/OUT
    AV33                 IBUFCTRL (Prop_IBUFCTRL_HPIOB_M_I_O)
                                                      0.000     0.779 r  clk_ibuf_iso/IBUFCTRL_INST/O
                         net (fo=1, routed)           0.334     1.113    clk_ibuf_iso
    BUFGCE_X1Y224        BUFGCE (Prop_BUFCE_BUFGCE_I_O)
                                                      0.028     1.141 r  clk_ibuf/O
    X4Y6 (CLOCK_ROOT)    net (fo=12313, routed)       2.438     3.579    shift_reg_tap_i/clk_c
    SLICE_X122Y350       FDRE                                         r  shift_reg_tap_i/sr_p.sr_13[373]/C
                         clock pessimism             -0.474     3.105    
    SLICE_X122Y350       FDRE (Hold_AFF2_SLICEL_C_D)
                                                      0.055     3.160    shift_reg_tap_i/sr_p.sr_13[373]
  -------------------------------------------------------------------
                         required time                         -3.160    
                         arrival time                           3.162    
  -------------------------------------------------------------------
                         slack                                  0.001    





Pulse Width Checks
--------------------------------------------------------------------------------------
Clock Name:         clk
Waveform(ns):       { 0.000 12.500 }
Period(ns):         25.000
Sources:            { clk }

Check Type        Corner  Lib Pin   Reference Pin  Required(ns)  Actual(ns)  Slack(ns)  Location        Pin
Min Period        n/a     BUFGCE/I  n/a            1.499         25.000      23.501     BUFGCE_X1Y224   clk_ibuf/I
Min Period        n/a     FDRE/C    n/a            0.550         25.000      24.450     SLICE_X111Y343  shift_reg_tap_i/sr_p.sr_11[30]/C
Min Period        n/a     FDRE/C    n/a            0.550         25.000      24.450     SLICE_X111Y325  shift_reg_tap_i/sr_p.sr_11[310]/C
Min Period        n/a     FDRE/C    n/a            0.550         25.000      24.450     SLICE_X131Y327  shift_reg_tap_i/sr_p.sr_11[311]/C
Min Period        n/a     FDRE/C    n/a            0.550         25.000      24.450     SLICE_X137Y338  shift_reg_tap_i/sr_p.sr_11[312]/C
Low Pulse Width   Slow    FDRE/C    n/a            0.275         12.500      12.225     SLICE_X115Y345  shift_reg_tap_i/sr_p.sr_15[119]/C
Low Pulse Width   Slow    FDRE/C    n/a            0.275         12.500      12.225     SLICE_X122Y406  shift_reg_tap_o/sr_p.sr_11[119]/C
Low Pulse Width   Slow    FDRE/C    n/a            0.275         12.500      12.225     SLICE_X108Y339  shift_reg_tap_i/sr_p.sr_11[364]/C
Low Pulse Width   Slow    FDRE/C    n/a            0.275         12.500      12.225     SLICE_X105Y338  shift_reg_tap_i/sr_p.sr_7[13]/C
Low Pulse Width   Slow    FDRE/C    n/a            0.275         12.500      12.225     SLICE_X128Y353  shift_reg_tap_i/sr_p.sr_11[372]/C
High Pulse Width  Slow    FDRE/C    n/a            0.275         12.500      12.225     SLICE_X131Y327  shift_reg_tap_i/sr_p.sr_11[311]/C
High Pulse Width  Slow    FDRE/C    n/a            0.275         12.500      12.225     SLICE_X119Y412  shift_reg_tap_i/sr_p.sr_11[320]/C
High Pulse Width  Slow    FDRE/C    n/a            0.275         12.500      12.225     SLICE_X120Y416  shift_reg_tap_i/sr_p.sr_11[323]/C
High Pulse Width  Slow    FDRE/C    n/a            0.275         12.500      12.225     SLICE_X120Y416  shift_reg_tap_i/sr_p.sr_11[328]/C
High Pulse Width  Slow    FDRE/C    n/a            0.275         12.500      12.225     SLICE_X112Y364  shift_reg_tap_i/sr_p.sr_14[84]/C



---------------------------------------------------------------------------------------------------
From Clock:  clk_wrapper
  To Clock:  clk_wrapper

Setup :           NA  Failing Endpoints,  Worst Slack           NA  ,  Total Violation           NA
Hold  :           NA  Failing Endpoints,  Worst Slack           NA  ,  Total Violation           NA
PW    :            0  Failing Endpoints,  Worst Slack      498.562ns,  Total Violation        0.000ns
---------------------------------------------------------------------------------------------------


Pulse Width Checks
--------------------------------------------------------------------------------------
Clock Name:         clk_wrapper
Waveform(ns):       { 0.000 500.000 }
Period(ns):         1000.000
Sources:            { clk_wrapper }

Check Type        Corner  Lib Pin   Reference Pin  Required(ns)  Actual(ns)  Slack(ns)  Location               Pin
Min Period        n/a     FDRE/C    n/a            3.195         1000.000    996.805    BITSLICE_RX_TX_X1Y483  reducer_1/delay_block[4][0]/C
Min Period        n/a     BUFGCE/I  n/a            1.499         1000.000    998.501    BUFGCE_X1Y230          clk_wrapper_ibuf/I
Min Period        n/a     FDRE/C    n/a            0.550         1000.000    999.450    SLICE_X122Y459         lsfr_1/output_vector_1[511]/C
Min Period        n/a     FDRE/C    n/a            0.550         1000.000    999.450    SLICE_X122Y459         lsfr_1/shiftreg_vector[0]/C
Min Period        n/a     FDRE/C    n/a            0.550         1000.000    999.450    SLICE_X107Y475         lsfr_1/shiftreg_vector[100]/C
Low Pulse Width   Slow    FDRE/C    n/a            1.438         500.000     498.562    BITSLICE_RX_TX_X1Y483  reducer_1/delay_block[4][0]/C
Low Pulse Width   Fast    FDRE/C    n/a            1.438         500.000     498.562    BITSLICE_RX_TX_X1Y483  reducer_1/delay_block[4][0]/C
Low Pulse Width   Slow    FDRE/C    n/a            0.275         500.000     499.725    SLICE_X115Y482         lsfr_1/shiftreg_vector[109]/C
Low Pulse Width   Slow    FDRE/C    n/a            0.275         500.000     499.725    SLICE_X97Y331          lsfr_1/shiftreg_vector[10]/C
Low Pulse Width   Slow    FDRE/C    n/a            0.275         500.000     499.725    SLICE_X116Y474         lsfr_1/shiftreg_vector[111]/C
High Pulse Width  Fast    FDRE/C    n/a            1.438         500.000     498.562    BITSLICE_RX_TX_X1Y483  reducer_1/delay_block[4][0]/C
High Pulse Width  Slow    FDRE/C    n/a            1.438         500.000     498.562    BITSLICE_RX_TX_X1Y483  reducer_1/delay_block[4][0]/C
High Pulse Width  Fast    FDRE/C    n/a            0.275         500.000     499.725    SLICE_X122Y459         lsfr_1/output_vector_1[511]/C
High Pulse Width  Fast    FDRE/C    n/a            0.275         500.000     499.725    SLICE_X122Y459         lsfr_1/shiftreg_vector[0]/C
High Pulse Width  Fast    FDRE/C    n/a            0.275         500.000     499.725    SLICE_X112Y485         lsfr_1/shiftreg_vector[107]/C



