Design Route Status
                                               :      # nets :
   ------------------------------------------- : ----------- :
   # of logical nets.......................... :       15717 :
       # of nets not needing routing.......... :         694 :
           # of internally routed nets........ :         694 :
       # of routable nets..................... :       15023 :
           # of fully routed nets............. :       15023 :
       # of nets with routing errors.......... :           0 :
   ------------------------------------------- : ----------- :

