Copyright 1986-2018 Xilinx, Inc. All Rights Reserved.
-------------------------------------------------------------------------------------------------
| Tool Version      : Vivado v.2018.2 (win64) Build 2258646 Thu Jun 14 20:03:12 MDT 2018
| Date              : Wed Mar  6 18:54:29 2019
| Host              : PCPHESEBE02 running 64-bit Service Pack 1  (build 7601)
| Command           : report_timing_summary -setup -nworst 5 -max_paths 5 -file timing_setup.txt
| Design            : wrapper_csn
| Device            : xcvu9p-flgc2104
| Speed File        : -1  PRODUCTION 1.20 05-21-2018
| Temperature Grade : E
-------------------------------------------------------------------------------------------------

Timing Summary Report

------------------------------------------------------------------------------------------------
| Timer Settings
| --------------
------------------------------------------------------------------------------------------------

  Enable Multi Corner Analysis               :  Yes
  Enable Pessimism Removal                   :  Yes
  Pessimism Removal Resolution               :  Nearest Common Node
  Enable Input Delay Default Clock           :  No
  Enable Preset / Clear Arcs                 :  No
  Disable Flight Delays                      :  No
  Ignore I/O Paths                           :  No
  Timing Early Launch at Borrowing Latches   :  false

  Corner  Analyze    Analyze    
  Name    Max Paths  Min Paths  
  ------  ---------  ---------  
  Slow    Yes        Yes        
  Fast    Yes        Yes        



check_timing report

Table of Contents
-----------------
1. checking no_clock
2. checking constant_clock
3. checking pulse_width_clock
4. checking unconstrained_internal_endpoints
5. checking no_input_delay
6. checking no_output_delay
7. checking multiple_clock
8. checking generated_clocks
9. checking loops
10. checking partial_input_delay
11. checking partial_output_delay
12. checking latch_loops

1. checking no_clock
--------------------
 There are 0 register/latch pins with no clock.


2. checking constant_clock
--------------------------
 There are 0 register/latch pins with constant_clock.


3. checking pulse_width_clock
-----------------------------
 There are 0 register/latch pins which need pulse_width check


4. checking unconstrained_internal_endpoints
--------------------------------------------
 There are 0 pins that are not constrained for maximum delay.

 There are 0 pins that are not constrained for maximum delay due to constant clock.


5. checking no_input_delay
--------------------------
 There is 1 input port with no input delay specified. (HIGH)

 There are 0 input ports with no input delay but user has a false path constraint.


6. checking no_output_delay
---------------------------
 There is 1 port with no output delay specified. (HIGH)

 There are 0 ports with no output delay but user has a false path constraint

 There are 0 ports with no output delay but with a timing clock defined on it or propagating through it


7. checking multiple_clock
--------------------------
 There are 0 register/latch pins with multiple clocks.


8. checking generated_clocks
----------------------------
 There are 0 generated clocks that are not connected to a clock source.


9. checking loops
-----------------
 There are 0 combinational loops in the design.


10. checking partial_input_delay
--------------------------------
 There are 0 input ports with partial input delay specified.


11. checking partial_output_delay
---------------------------------
 There are 0 ports with partial output delay specified.


12. checking latch_loops
------------------------
 There are 0 combinational latch loops in the design through latch input



------------------------------------------------------------------------------------------------
| Design Timing Summary
| ---------------------
------------------------------------------------------------------------------------------------

    WNS(ns)      TNS(ns)  TNS Failing Endpoints  TNS Total Endpoints     WPWS(ns)     TPWS(ns)  TPWS Failing Endpoints  TPWS Total Endpoints  
    -------      -------  ---------------------  -------------------     --------     --------  ----------------------  --------------------  
      1.152        0.000                      0                  683        2.850        0.000                       0                  1380  


All user specified timing constraints are met.


------------------------------------------------------------------------------------------------
| Clock Summary
| -------------
------------------------------------------------------------------------------------------------

Clock        Waveform(ns)         Period(ns)      Frequency(MHz)
-----        ------------         ----------      --------------
clk          {0.000 3.125}        6.250           160.000         
clk_wrapper  {0.000 500.000}      1000.000        1.000           


------------------------------------------------------------------------------------------------
| Intra Clock Table
| -----------------
------------------------------------------------------------------------------------------------

Clock             WNS(ns)      TNS(ns)  TNS Failing Endpoints  TNS Total Endpoints     WPWS(ns)     TPWS(ns)  TPWS Failing Endpoints  TPWS Total Endpoints  
-----             -------      -------  ---------------------  -------------------     --------     --------  ----------------------  --------------------  
clk                 1.152        0.000                      0                  683        2.850        0.000                       0                   892  
clk_wrapper                                                                             498.562        0.000                       0                   488  


------------------------------------------------------------------------------------------------
| Inter Clock Table
| -----------------
------------------------------------------------------------------------------------------------

From Clock    To Clock          WNS(ns)      TNS(ns)  TNS Failing Endpoints  TNS Total Endpoints  
----------    --------          -------      -------  ---------------------  -------------------  


------------------------------------------------------------------------------------------------
| Other Path Groups Table
| -----------------------
------------------------------------------------------------------------------------------------

Path Group    From Clock    To Clock          WNS(ns)      TNS(ns)  TNS Failing Endpoints  TNS Total Endpoints  
----------    ----------    --------          -------      -------  ---------------------  -------------------  


------------------------------------------------------------------------------------------------
| Timing Details
| --------------
------------------------------------------------------------------------------------------------


---------------------------------------------------------------------------------------------------
From Clock:  clk
  To Clock:  clk

Setup :            0  Failing Endpoints,  Worst Slack        1.152ns,  Total Violation        0.000ns
Hold  :           NA  Failing Endpoints,  Worst Slack           NA  ,  Total Violation           NA
PW    :            0  Failing Endpoints,  Worst Slack        2.850ns,  Total Violation        0.000ns
---------------------------------------------------------------------------------------------------


Max Delay Paths
--------------------------------------------------------------------------------------
Slack (MET) :             1.152ns  (required time - arrival time)
  Source:                 shift_reg_tap_i/sr_p.sr_1[65]/C
                            (rising edge-triggered cell FDRE clocked by clk  {rise@0.000ns fall@3.125ns period=6.250ns})
  Destination:            shift_reg_tap_o/sr_p.sr_1[18]/D
                            (rising edge-triggered cell FDRE clocked by clk  {rise@0.000ns fall@3.125ns period=6.250ns})
  Path Group:             clk
  Path Type:              Setup (Max at Slow Process Corner)
  Requirement:            6.250ns  (clk rise@6.250ns - clk rise@0.000ns)
  Data Path Delay:        4.955ns  (logic 1.385ns (27.952%)  route 3.570ns (72.048%))
  Logic Levels:           14  (LUT3=2 LUT4=1 LUT5=7 LUT6=4)
  Clock Path Skew:        -0.135ns (DCD - SCD + CPR)
    Destination Clock Delay (DCD):    2.145ns = ( 8.395 - 6.250 ) 
    Source Clock Delay      (SCD):    2.684ns
    Clock Pessimism Removal (CPR):    0.404ns
  Clock Uncertainty:      0.035ns  ((TSJ^2 + TIJ^2)^1/2 + DJ) / 2 + PE
    Total System Jitter     (TSJ):    0.071ns
    Total Input Jitter      (TIJ):    0.000ns
    Discrete Jitter          (DJ):    0.000ns
    Phase Error              (PE):    0.000ns
  Clock Net Delay (Source):      1.543ns (routing 0.616ns, distribution 0.927ns)
  Clock Net Delay (Destination): 1.315ns (routing 0.562ns, distribution 0.753ns)

    Location             Delay type                Incr(ns)  Path(ns)    Netlist Resource(s)
  -------------------------------------------------------------------    -------------------
                         (clock clk rise edge)        0.000     0.000 r  
    AV33                                              0.000     0.000 r  clk (IN)
                         net (fo=0)                   0.000     0.000    clk_ibuf_iso/I
    AV33                 INBUF (Prop_INBUF_HPIOB_M_PAD_O)
                                                      0.779     0.779 r  clk_ibuf_iso/INBUF_INST/O
                         net (fo=1, routed)           0.000     0.779    clk_ibuf_iso/OUT
    AV33                 IBUFCTRL (Prop_IBUFCTRL_HPIOB_M_I_O)
                                                      0.000     0.779 r  clk_ibuf_iso/IBUFCTRL_INST/O
                         net (fo=1, routed)           0.334     1.113    clk_ibuf_iso
    BUFGCE_X1Y224        BUFGCE (Prop_BUFCE_BUFGCE_I_O)
                                                      0.028     1.141 r  clk_ibuf/O
    X3Y9 (CLOCK_ROOT)    net (fo=891, routed)         1.543     2.684    shift_reg_tap_i/clk_c
    SLICE_X101Y587       FDRE                                         r  shift_reg_tap_i/sr_p.sr_1[65]/C
  -------------------------------------------------------------------    -------------------
    SLICE_X101Y587       FDRE (Prop_EFF2_SLICEL_C_Q)
                                                      0.099     2.783 f  shift_reg_tap_i/sr_p.sr_1[65]/Q
                         net (fo=3, routed)           0.198     2.981    dut_inst/stage_g.0.pair_g.2.csn_cmp_inst/input_slr_13
    SLICE_X101Y587       LUT4 (Prop_C6LUT_SLICEL_I2_O)
                                                      0.174     3.155 r  dut_inst/stage_g.0.pair_g.2.csn_cmp_inst/un1_b_i_c2_lut6_2_o5_lut6_2_o5/O
                         net (fo=1, routed)           0.119     3.274    dut_inst/stage_g.0.pair_g.2.csn_cmp_inst/un1_b_i_c2_lut6_2_o6
    SLICE_X101Y586       LUT5 (Prop_F6LUT_SLICEL_I4_O)
                                                      0.039     3.313 r  dut_inst/stage_g.0.pair_g.2.csn_cmp_inst/un1_b_i_ac0_5_0/O
                         net (fo=38, routed)          0.182     3.495    dut_inst/stage_g.0.pair_g.2.csn_cmp_inst/un1_b_i_44
    SLICE_X101Y587       LUT3 (Prop_C5LUT_SLICEL_I2_O)
                                                      0.083     3.578 r  dut_inst/stage_g.0.pair_g.2.csn_cmp_inst/un1_b_i_c2_lut6_2_o5_lut6_2_o6/O
                         net (fo=3, routed)           0.260     3.838    dut_inst/stage_g.1.pair_g.2.csn_cmp_inst/pt_84_0
    SLICE_X99Y587        LUT6 (Prop_A6LUT_SLICEM_I5_O)
                                                      0.040     3.878 r  dut_inst/stage_g.1.pair_g.2.csn_cmp_inst/un1_b_i_c2/O
                         net (fo=3, routed)           0.121     3.999    dut_inst/stage_g.1.pair_g.2.csn_cmp_inst/un1_b_i_c2_22
    SLICE_X99Y587        LUT5 (Prop_D6LUT_SLICEM_I4_O)
                                                      0.098     4.097 f  dut_inst/stage_g.1.pair_g.2.csn_cmp_inst/a_o_comb.pt_lut6_2_o5_lut6_2_o6[0]/O
                         net (fo=3, routed)           0.220     4.317    dut_inst/stage_g.2.pair_g.2.csn_cmp_inst/pt_57_0
    SLICE_X98Y584        LUT6 (Prop_G6LUT_SLICEL_I5_O)
                                                      0.114     4.431 r  dut_inst/stage_g.2.pair_g.2.csn_cmp_inst/un1_b_i_c2/O
                         net (fo=3, routed)           0.067     4.498    dut_inst/stage_g.2.pair_g.2.csn_cmp_inst/un1_b_i_c2_9
    SLICE_X98Y584        LUT5 (Prop_C5LUT_SLICEL_I4_O)
                                                      0.168     4.666 r  dut_inst/stage_g.2.pair_g.2.csn_cmp_inst/a_o_comb.pt_lut6_2_o5_lut6_2_o5[0]/O
                         net (fo=3, routed)           0.405     5.071    dut_inst/stage_g.3.pair_g.2.csn_cmp_inst/pt_24_0
    SLICE_X95Y582        LUT6 (Prop_F6LUT_SLICEM_I4_O)
                                                      0.062     5.133 r  dut_inst/stage_g.3.pair_g.2.csn_cmp_inst/un1_b_i_c2/O
                         net (fo=1, routed)           0.360     5.493    dut_inst/stage_g.3.pair_g.2.csn_cmp_inst/un1_b_i_c2_1
    SLICE_X96Y582        LUT5 (Prop_C5LUT_SLICEL_I4_O)
                                                      0.083     5.576 r  dut_inst/stage_g.3.pair_g.2.csn_cmp_inst/un1_b_i_ac0_5_0_lut6_2_o5_lut6_2_o5/O
                         net (fo=12, routed)          0.413     5.989    dut_inst/stage_g.3.pair_g.2.csn_cmp_inst/un1_b_i_4
    SLICE_X95Y579        LUT3 (Prop_E6LUT_SLICEM_I2_O)
                                                      0.101     6.090 f  dut_inst/stage_g.3.pair_g.2.csn_cmp_inst/a_o_comb.pt[0]/O
                         net (fo=3, routed)           0.291     6.381    dut_inst/stage_g.4.pair_g.0.csn_cmp_inst/pt_21[0]
    SLICE_X92Y580        LUT6 (Prop_G6LUT_SLICEM_I3_O)
                                                      0.039     6.420 r  dut_inst/stage_g.4.pair_g.0.csn_cmp_inst/un1_b_i_c2/O
                         net (fo=2, routed)           0.121     6.541    dut_inst/stage_g.4.pair_g.0.csn_cmp_inst/un1_b_i_c2_11
    SLICE_X93Y580        LUT5 (Prop_C6LUT_SLICEM_I4_O)
                                                      0.098     6.639 r  dut_inst/stage_g.4.pair_g.0.csn_cmp_inst/un1_b_i_ac0_5_0_0_lut6_2_o5_lut6_2_o6/O
                         net (fo=10, routed)          0.355     6.994    dut_inst/stage_g.4.pair_g.0.csn_cmp_inst/un1_b_i_1
    SLICE_X96Y579        LUT5 (Prop_H6LUT_SLICEL_I4_O)
                                                      0.040     7.034 r  dut_inst/stage_g.4.pair_g.0.csn_cmp_inst/a_o_comb.idx[1]/O
                         net (fo=2, routed)           0.376     7.410    dut_inst/stage_g.5.pair_g.0.csn_cmp_inst/idx_23[1]
    SLICE_X92Y579        LUT5 (Prop_D6LUT_SLICEM_I1_O)
                                                      0.147     7.557 r  dut_inst/stage_g.5.pair_g.0.csn_cmp_inst/a_o_comb.idx[1]/O
                         net (fo=1, routed)           0.082     7.639    shift_reg_tap_o/idx[1]
    SLICE_X92Y579        FDRE                                         r  shift_reg_tap_o/sr_p.sr_1[18]/D
  -------------------------------------------------------------------    -------------------

                         (clock clk rise edge)        6.250     6.250 r  
    AV33                                              0.000     6.250 r  clk (IN)
                         net (fo=0)                   0.000     6.250    clk_ibuf_iso/I
    AV33                 INBUF (Prop_INBUF_HPIOB_M_PAD_O)
                                                      0.510     6.760 r  clk_ibuf_iso/INBUF_INST/O
                         net (fo=1, routed)           0.000     6.760    clk_ibuf_iso/OUT
    AV33                 IBUFCTRL (Prop_IBUFCTRL_HPIOB_M_I_O)
                                                      0.000     6.760 r  clk_ibuf_iso/IBUFCTRL_INST/O
                         net (fo=1, routed)           0.296     7.056    clk_ibuf_iso
    BUFGCE_X1Y224        BUFGCE (Prop_BUFCE_BUFGCE_I_O)
                                                      0.024     7.080 r  clk_ibuf/O
    X3Y9 (CLOCK_ROOT)    net (fo=891, routed)         1.315     8.395    shift_reg_tap_o/clk_c
    SLICE_X92Y579        FDRE                                         r  shift_reg_tap_o/sr_p.sr_1[18]/C
                         clock pessimism              0.404     8.799    
                         clock uncertainty           -0.035     8.764    
    SLICE_X92Y579        FDRE (Setup_DFF_SLICEM_C_D)
                                                      0.027     8.791    shift_reg_tap_o/sr_p.sr_1[18]
  -------------------------------------------------------------------
                         required time                          8.791    
                         arrival time                          -7.639    
  -------------------------------------------------------------------
                         slack                                  1.152    

Slack (MET) :             1.152ns  (required time - arrival time)
  Source:                 shift_reg_tap_i/sr_p.sr_1[65]/C
                            (rising edge-triggered cell FDRE clocked by clk  {rise@0.000ns fall@3.125ns period=6.250ns})
  Destination:            shift_reg_tap_o/sr_p.sr_1[18]/D
                            (rising edge-triggered cell FDRE clocked by clk  {rise@0.000ns fall@3.125ns period=6.250ns})
  Path Group:             clk
  Path Type:              Setup (Max at Slow Process Corner)
  Requirement:            6.250ns  (clk rise@6.250ns - clk rise@0.000ns)
  Data Path Delay:        4.955ns  (logic 1.385ns (27.952%)  route 3.570ns (72.048%))
  Logic Levels:           14  (LUT3=2 LUT4=1 LUT5=7 LUT6=4)
  Clock Path Skew:        -0.135ns (DCD - SCD + CPR)
    Destination Clock Delay (DCD):    2.145ns = ( 8.395 - 6.250 ) 
    Source Clock Delay      (SCD):    2.684ns
    Clock Pessimism Removal (CPR):    0.404ns
  Clock Uncertainty:      0.035ns  ((TSJ^2 + TIJ^2)^1/2 + DJ) / 2 + PE
    Total System Jitter     (TSJ):    0.071ns
    Total Input Jitter      (TIJ):    0.000ns
    Discrete Jitter          (DJ):    0.000ns
    Phase Error              (PE):    0.000ns
  Clock Net Delay (Source):      1.543ns (routing 0.616ns, distribution 0.927ns)
  Clock Net Delay (Destination): 1.315ns (routing 0.562ns, distribution 0.753ns)

    Location             Delay type                Incr(ns)  Path(ns)    Netlist Resource(s)
  -------------------------------------------------------------------    -------------------
                         (clock clk rise edge)        0.000     0.000 r  
    AV33                                              0.000     0.000 r  clk (IN)
                         net (fo=0)                   0.000     0.000    clk_ibuf_iso/I
    AV33                 INBUF (Prop_INBUF_HPIOB_M_PAD_O)
                                                      0.779     0.779 r  clk_ibuf_iso/INBUF_INST/O
                         net (fo=1, routed)           0.000     0.779    clk_ibuf_iso/OUT
    AV33                 IBUFCTRL (Prop_IBUFCTRL_HPIOB_M_I_O)
                                                      0.000     0.779 r  clk_ibuf_iso/IBUFCTRL_INST/O
                         net (fo=1, routed)           0.334     1.113    clk_ibuf_iso
    BUFGCE_X1Y224        BUFGCE (Prop_BUFCE_BUFGCE_I_O)
                                                      0.028     1.141 r  clk_ibuf/O
    X3Y9 (CLOCK_ROOT)    net (fo=891, routed)         1.543     2.684    shift_reg_tap_i/clk_c
    SLICE_X101Y587       FDRE                                         r  shift_reg_tap_i/sr_p.sr_1[65]/C
  -------------------------------------------------------------------    -------------------
    SLICE_X101Y587       FDRE (Prop_EFF2_SLICEL_C_Q)
                                                      0.099     2.783 f  shift_reg_tap_i/sr_p.sr_1[65]/Q
                         net (fo=3, routed)           0.198     2.981    dut_inst/stage_g.0.pair_g.2.csn_cmp_inst/input_slr_13
    SLICE_X101Y587       LUT4 (Prop_C6LUT_SLICEL_I2_O)
                                                      0.174     3.155 r  dut_inst/stage_g.0.pair_g.2.csn_cmp_inst/un1_b_i_c2_lut6_2_o5_lut6_2_o5/O
                         net (fo=1, routed)           0.119     3.274    dut_inst/stage_g.0.pair_g.2.csn_cmp_inst/un1_b_i_c2_lut6_2_o6
    SLICE_X101Y586       LUT5 (Prop_F6LUT_SLICEL_I4_O)
                                                      0.039     3.313 r  dut_inst/stage_g.0.pair_g.2.csn_cmp_inst/un1_b_i_ac0_5_0/O
                         net (fo=38, routed)          0.182     3.495    dut_inst/stage_g.0.pair_g.2.csn_cmp_inst/un1_b_i_44
    SLICE_X101Y587       LUT3 (Prop_C5LUT_SLICEL_I2_O)
                                                      0.083     3.578 r  dut_inst/stage_g.0.pair_g.2.csn_cmp_inst/un1_b_i_c2_lut6_2_o5_lut6_2_o6/O
                         net (fo=3, routed)           0.260     3.838    dut_inst/stage_g.1.pair_g.2.csn_cmp_inst/pt_84_0
    SLICE_X99Y587        LUT6 (Prop_A6LUT_SLICEM_I5_O)
                                                      0.040     3.878 r  dut_inst/stage_g.1.pair_g.2.csn_cmp_inst/un1_b_i_c2/O
                         net (fo=3, routed)           0.121     3.999    dut_inst/stage_g.1.pair_g.2.csn_cmp_inst/un1_b_i_c2_22
    SLICE_X99Y587        LUT5 (Prop_D6LUT_SLICEM_I4_O)
                                                      0.098     4.097 f  dut_inst/stage_g.1.pair_g.2.csn_cmp_inst/a_o_comb.pt_lut6_2_o5_lut6_2_o6[0]/O
                         net (fo=3, routed)           0.220     4.317    dut_inst/stage_g.2.pair_g.2.csn_cmp_inst/pt_57_0
    SLICE_X98Y584        LUT6 (Prop_G6LUT_SLICEL_I5_O)
                                                      0.114     4.431 r  dut_inst/stage_g.2.pair_g.2.csn_cmp_inst/un1_b_i_c2/O
                         net (fo=3, routed)           0.067     4.498    dut_inst/stage_g.2.pair_g.2.csn_cmp_inst/un1_b_i_c2_9
    SLICE_X98Y584        LUT5 (Prop_C5LUT_SLICEL_I4_O)
                                                      0.168     4.666 f  dut_inst/stage_g.2.pair_g.2.csn_cmp_inst/a_o_comb.pt_lut6_2_o5_lut6_2_o5[0]/O
                         net (fo=3, routed)           0.405     5.071    dut_inst/stage_g.3.pair_g.2.csn_cmp_inst/pt_24_0
    SLICE_X95Y582        LUT6 (Prop_F6LUT_SLICEM_I4_O)
                                                      0.062     5.133 f  dut_inst/stage_g.3.pair_g.2.csn_cmp_inst/un1_b_i_c2/O
                         net (fo=1, routed)           0.360     5.493    dut_inst/stage_g.3.pair_g.2.csn_cmp_inst/un1_b_i_c2_1
    SLICE_X96Y582        LUT5 (Prop_C5LUT_SLICEL_I4_O)
                                                      0.083     5.576 f  dut_inst/stage_g.3.pair_g.2.csn_cmp_inst/un1_b_i_ac0_5_0_lut6_2_o5_lut6_2_o5/O
                         net (fo=12, routed)          0.413     5.989    dut_inst/stage_g.3.pair_g.2.csn_cmp_inst/un1_b_i_4
    SLICE_X95Y579        LUT3 (Prop_E6LUT_SLICEM_I2_O)
                                                      0.101     6.090 f  dut_inst/stage_g.3.pair_g.2.csn_cmp_inst/a_o_comb.pt[0]/O
                         net (fo=3, routed)           0.291     6.381    dut_inst/stage_g.4.pair_g.0.csn_cmp_inst/pt_21[0]
    SLICE_X92Y580        LUT6 (Prop_G6LUT_SLICEM_I3_O)
                                                      0.039     6.420 r  dut_inst/stage_g.4.pair_g.0.csn_cmp_inst/un1_b_i_c2/O
                         net (fo=2, routed)           0.121     6.541    dut_inst/stage_g.4.pair_g.0.csn_cmp_inst/un1_b_i_c2_11
    SLICE_X93Y580        LUT5 (Prop_C6LUT_SLICEM_I4_O)
                                                      0.098     6.639 r  dut_inst/stage_g.4.pair_g.0.csn_cmp_inst/un1_b_i_ac0_5_0_0_lut6_2_o5_lut6_2_o6/O
                         net (fo=10, routed)          0.355     6.994    dut_inst/stage_g.4.pair_g.0.csn_cmp_inst/un1_b_i_1
    SLICE_X96Y579        LUT5 (Prop_H6LUT_SLICEL_I4_O)
                                                      0.040     7.034 r  dut_inst/stage_g.4.pair_g.0.csn_cmp_inst/a_o_comb.idx[1]/O
                         net (fo=2, routed)           0.376     7.410    dut_inst/stage_g.5.pair_g.0.csn_cmp_inst/idx_23[1]
    SLICE_X92Y579        LUT5 (Prop_D6LUT_SLICEM_I1_O)
                                                      0.147     7.557 r  dut_inst/stage_g.5.pair_g.0.csn_cmp_inst/a_o_comb.idx[1]/O
                         net (fo=1, routed)           0.082     7.639    shift_reg_tap_o/idx[1]
    SLICE_X92Y579        FDRE                                         r  shift_reg_tap_o/sr_p.sr_1[18]/D
  -------------------------------------------------------------------    -------------------

                         (clock clk rise edge)        6.250     6.250 r  
    AV33                                              0.000     6.250 r  clk (IN)
                         net (fo=0)                   0.000     6.250    clk_ibuf_iso/I
    AV33                 INBUF (Prop_INBUF_HPIOB_M_PAD_O)
                                                      0.510     6.760 r  clk_ibuf_iso/INBUF_INST/O
                         net (fo=1, routed)           0.000     6.760    clk_ibuf_iso/OUT
    AV33                 IBUFCTRL (Prop_IBUFCTRL_HPIOB_M_I_O)
                                                      0.000     6.760 r  clk_ibuf_iso/IBUFCTRL_INST/O
                         net (fo=1, routed)           0.296     7.056    clk_ibuf_iso
    BUFGCE_X1Y224        BUFGCE (Prop_BUFCE_BUFGCE_I_O)
                                                      0.024     7.080 r  clk_ibuf/O
    X3Y9 (CLOCK_ROOT)    net (fo=891, routed)         1.315     8.395    shift_reg_tap_o/clk_c
    SLICE_X92Y579        FDRE                                         r  shift_reg_tap_o/sr_p.sr_1[18]/C
                         clock pessimism              0.404     8.799    
                         clock uncertainty           -0.035     8.764    
    SLICE_X92Y579        FDRE (Setup_DFF_SLICEM_C_D)
                                                      0.027     8.791    shift_reg_tap_o/sr_p.sr_1[18]
  -------------------------------------------------------------------
                         required time                          8.791    
                         arrival time                          -7.639    
  -------------------------------------------------------------------
                         slack                                  1.152    

Slack (MET) :             1.152ns  (required time - arrival time)
  Source:                 shift_reg_tap_i/sr_p.sr_1[65]/C
                            (rising edge-triggered cell FDRE clocked by clk  {rise@0.000ns fall@3.125ns period=6.250ns})
  Destination:            shift_reg_tap_o/sr_p.sr_1[18]/D
                            (rising edge-triggered cell FDRE clocked by clk  {rise@0.000ns fall@3.125ns period=6.250ns})
  Path Group:             clk
  Path Type:              Setup (Max at Slow Process Corner)
  Requirement:            6.250ns  (clk rise@6.250ns - clk rise@0.000ns)
  Data Path Delay:        4.955ns  (logic 1.349ns (27.225%)  route 3.606ns (72.775%))
  Logic Levels:           14  (LUT3=1 LUT4=1 LUT5=7 LUT6=5)
  Clock Path Skew:        -0.135ns (DCD - SCD + CPR)
    Destination Clock Delay (DCD):    2.145ns = ( 8.395 - 6.250 ) 
    Source Clock Delay      (SCD):    2.684ns
    Clock Pessimism Removal (CPR):    0.404ns
  Clock Uncertainty:      0.035ns  ((TSJ^2 + TIJ^2)^1/2 + DJ) / 2 + PE
    Total System Jitter     (TSJ):    0.071ns
    Total Input Jitter      (TIJ):    0.000ns
    Discrete Jitter          (DJ):    0.000ns
    Phase Error              (PE):    0.000ns
  Clock Net Delay (Source):      1.543ns (routing 0.616ns, distribution 0.927ns)
  Clock Net Delay (Destination): 1.315ns (routing 0.562ns, distribution 0.753ns)

    Location             Delay type                Incr(ns)  Path(ns)    Netlist Resource(s)
  -------------------------------------------------------------------    -------------------
                         (clock clk rise edge)        0.000     0.000 r  
    AV33                                              0.000     0.000 r  clk (IN)
                         net (fo=0)                   0.000     0.000    clk_ibuf_iso/I
    AV33                 INBUF (Prop_INBUF_HPIOB_M_PAD_O)
                                                      0.779     0.779 r  clk_ibuf_iso/INBUF_INST/O
                         net (fo=1, routed)           0.000     0.779    clk_ibuf_iso/OUT
    AV33                 IBUFCTRL (Prop_IBUFCTRL_HPIOB_M_I_O)
                                                      0.000     0.779 r  clk_ibuf_iso/IBUFCTRL_INST/O
                         net (fo=1, routed)           0.334     1.113    clk_ibuf_iso
    BUFGCE_X1Y224        BUFGCE (Prop_BUFCE_BUFGCE_I_O)
                                                      0.028     1.141 r  clk_ibuf/O
    X3Y9 (CLOCK_ROOT)    net (fo=891, routed)         1.543     2.684    shift_reg_tap_i/clk_c
    SLICE_X101Y587       FDRE                                         r  shift_reg_tap_i/sr_p.sr_1[65]/C
  -------------------------------------------------------------------    -------------------
    SLICE_X101Y587       FDRE (Prop_EFF2_SLICEL_C_Q)
                                                      0.099     2.783 f  shift_reg_tap_i/sr_p.sr_1[65]/Q
                         net (fo=3, routed)           0.198     2.981    dut_inst/stage_g.0.pair_g.2.csn_cmp_inst/input_slr_13
    SLICE_X101Y587       LUT4 (Prop_C6LUT_SLICEL_I2_O)
                                                      0.174     3.155 r  dut_inst/stage_g.0.pair_g.2.csn_cmp_inst/un1_b_i_c2_lut6_2_o5_lut6_2_o5/O
                         net (fo=1, routed)           0.119     3.274    dut_inst/stage_g.0.pair_g.2.csn_cmp_inst/un1_b_i_c2_lut6_2_o6
    SLICE_X101Y586       LUT5 (Prop_F6LUT_SLICEL_I4_O)
                                                      0.039     3.313 r  dut_inst/stage_g.0.pair_g.2.csn_cmp_inst/un1_b_i_ac0_5_0/O
                         net (fo=38, routed)          0.182     3.495    dut_inst/stage_g.0.pair_g.2.csn_cmp_inst/un1_b_i_44
    SLICE_X101Y587       LUT3 (Prop_C5LUT_SLICEL_I2_O)
                                                      0.083     3.578 r  dut_inst/stage_g.0.pair_g.2.csn_cmp_inst/un1_b_i_c2_lut6_2_o5_lut6_2_o6/O
                         net (fo=3, routed)           0.260     3.838    dut_inst/stage_g.1.pair_g.2.csn_cmp_inst/pt_84_0
    SLICE_X99Y587        LUT6 (Prop_A6LUT_SLICEM_I5_O)
                                                      0.040     3.878 r  dut_inst/stage_g.1.pair_g.2.csn_cmp_inst/un1_b_i_c2/O
                         net (fo=3, routed)           0.121     3.999    dut_inst/stage_g.1.pair_g.2.csn_cmp_inst/un1_b_i_c2_22
    SLICE_X99Y587        LUT5 (Prop_D6LUT_SLICEM_I4_O)
                                                      0.098     4.097 f  dut_inst/stage_g.1.pair_g.2.csn_cmp_inst/a_o_comb.pt_lut6_2_o5_lut6_2_o6[0]/O
                         net (fo=3, routed)           0.220     4.317    dut_inst/stage_g.2.pair_g.2.csn_cmp_inst/pt_57_0
    SLICE_X98Y584        LUT6 (Prop_G6LUT_SLICEL_I5_O)
                                                      0.114     4.431 r  dut_inst/stage_g.2.pair_g.2.csn_cmp_inst/un1_b_i_c2/O
                         net (fo=3, routed)           0.067     4.498    dut_inst/stage_g.2.pair_g.2.csn_cmp_inst/un1_b_i_c2_9
    SLICE_X98Y584        LUT5 (Prop_C5LUT_SLICEL_I4_O)
                                                      0.168     4.666 r  dut_inst/stage_g.2.pair_g.2.csn_cmp_inst/a_o_comb.pt_lut6_2_o5_lut6_2_o5[0]/O
                         net (fo=3, routed)           0.405     5.071    dut_inst/stage_g.3.pair_g.2.csn_cmp_inst/pt_24_0
    SLICE_X95Y582        LUT6 (Prop_F6LUT_SLICEM_I4_O)
                                                      0.062     5.133 r  dut_inst/stage_g.3.pair_g.2.csn_cmp_inst/un1_b_i_c2/O
                         net (fo=1, routed)           0.360     5.493    dut_inst/stage_g.3.pair_g.2.csn_cmp_inst/un1_b_i_c2_1
    SLICE_X96Y582        LUT5 (Prop_C5LUT_SLICEL_I4_O)
                                                      0.083     5.576 r  dut_inst/stage_g.3.pair_g.2.csn_cmp_inst/un1_b_i_ac0_5_0_lut6_2_o5_lut6_2_o5/O
                         net (fo=12, routed)          0.239     5.815    dut_inst/stage_g.3.pair_g.2.csn_cmp_inst/un1_b_i_4
    SLICE_X98Y581        LUT6 (Prop_B6LUT_SLICEL_I5_O)
                                                      0.040     5.855 f  dut_inst/stage_g.3.pair_g.2.csn_cmp_inst/a_o_comb.pt[1]/O
                         net (fo=3, routed)           0.501     6.356    dut_inst/stage_g.4.pair_g.0.csn_cmp_inst/pt_22[1]
    SLICE_X92Y580        LUT6 (Prop_G6LUT_SLICEM_I4_O)
                                                      0.064     6.420 r  dut_inst/stage_g.4.pair_g.0.csn_cmp_inst/un1_b_i_c2/O
                         net (fo=2, routed)           0.121     6.541    dut_inst/stage_g.4.pair_g.0.csn_cmp_inst/un1_b_i_c2_11
    SLICE_X93Y580        LUT5 (Prop_C6LUT_SLICEM_I4_O)
                                                      0.098     6.639 r  dut_inst/stage_g.4.pair_g.0.csn_cmp_inst/un1_b_i_ac0_5_0_0_lut6_2_o5_lut6_2_o6/O
                         net (fo=10, routed)          0.355     6.994    dut_inst/stage_g.4.pair_g.0.csn_cmp_inst/un1_b_i_1
    SLICE_X96Y579        LUT5 (Prop_H6LUT_SLICEL_I4_O)
                                                      0.040     7.034 r  dut_inst/stage_g.4.pair_g.0.csn_cmp_inst/a_o_comb.idx[1]/O
                         net (fo=2, routed)           0.376     7.410    dut_inst/stage_g.5.pair_g.0.csn_cmp_inst/idx_23[1]
    SLICE_X92Y579        LUT5 (Prop_D6LUT_SLICEM_I1_O)
                                                      0.147     7.557 r  dut_inst/stage_g.5.pair_g.0.csn_cmp_inst/a_o_comb.idx[1]/O
                         net (fo=1, routed)           0.082     7.639    shift_reg_tap_o/idx[1]
    SLICE_X92Y579        FDRE                                         r  shift_reg_tap_o/sr_p.sr_1[18]/D
  -------------------------------------------------------------------    -------------------

                         (clock clk rise edge)        6.250     6.250 r  
    AV33                                              0.000     6.250 r  clk (IN)
                         net (fo=0)                   0.000     6.250    clk_ibuf_iso/I
    AV33                 INBUF (Prop_INBUF_HPIOB_M_PAD_O)
                                                      0.510     6.760 r  clk_ibuf_iso/INBUF_INST/O
                         net (fo=1, routed)           0.000     6.760    clk_ibuf_iso/OUT
    AV33                 IBUFCTRL (Prop_IBUFCTRL_HPIOB_M_I_O)
                                                      0.000     6.760 r  clk_ibuf_iso/IBUFCTRL_INST/O
                         net (fo=1, routed)           0.296     7.056    clk_ibuf_iso
    BUFGCE_X1Y224        BUFGCE (Prop_BUFCE_BUFGCE_I_O)
                                                      0.024     7.080 r  clk_ibuf/O
    X3Y9 (CLOCK_ROOT)    net (fo=891, routed)         1.315     8.395    shift_reg_tap_o/clk_c
    SLICE_X92Y579        FDRE                                         r  shift_reg_tap_o/sr_p.sr_1[18]/C
                         clock pessimism              0.404     8.799    
                         clock uncertainty           -0.035     8.764    
    SLICE_X92Y579        FDRE (Setup_DFF_SLICEM_C_D)
                                                      0.027     8.791    shift_reg_tap_o/sr_p.sr_1[18]
  -------------------------------------------------------------------
                         required time                          8.791    
                         arrival time                          -7.639    
  -------------------------------------------------------------------
                         slack                                  1.152    

Slack (MET) :             1.152ns  (required time - arrival time)
  Source:                 shift_reg_tap_i/sr_p.sr_1[65]/C
                            (rising edge-triggered cell FDRE clocked by clk  {rise@0.000ns fall@3.125ns period=6.250ns})
  Destination:            shift_reg_tap_o/sr_p.sr_1[18]/D
                            (rising edge-triggered cell FDRE clocked by clk  {rise@0.000ns fall@3.125ns period=6.250ns})
  Path Group:             clk
  Path Type:              Setup (Max at Slow Process Corner)
  Requirement:            6.250ns  (clk rise@6.250ns - clk rise@0.000ns)
  Data Path Delay:        4.955ns  (logic 1.349ns (27.225%)  route 3.606ns (72.775%))
  Logic Levels:           14  (LUT3=1 LUT4=1 LUT5=7 LUT6=5)
  Clock Path Skew:        -0.135ns (DCD - SCD + CPR)
    Destination Clock Delay (DCD):    2.145ns = ( 8.395 - 6.250 ) 
    Source Clock Delay      (SCD):    2.684ns
    Clock Pessimism Removal (CPR):    0.404ns
  Clock Uncertainty:      0.035ns  ((TSJ^2 + TIJ^2)^1/2 + DJ) / 2 + PE
    Total System Jitter     (TSJ):    0.071ns
    Total Input Jitter      (TIJ):    0.000ns
    Discrete Jitter          (DJ):    0.000ns
    Phase Error              (PE):    0.000ns
  Clock Net Delay (Source):      1.543ns (routing 0.616ns, distribution 0.927ns)
  Clock Net Delay (Destination): 1.315ns (routing 0.562ns, distribution 0.753ns)

    Location             Delay type                Incr(ns)  Path(ns)    Netlist Resource(s)
  -------------------------------------------------------------------    -------------------
                         (clock clk rise edge)        0.000     0.000 r  
    AV33                                              0.000     0.000 r  clk (IN)
                         net (fo=0)                   0.000     0.000    clk_ibuf_iso/I
    AV33                 INBUF (Prop_INBUF_HPIOB_M_PAD_O)
                                                      0.779     0.779 r  clk_ibuf_iso/INBUF_INST/O
                         net (fo=1, routed)           0.000     0.779    clk_ibuf_iso/OUT
    AV33                 IBUFCTRL (Prop_IBUFCTRL_HPIOB_M_I_O)
                                                      0.000     0.779 r  clk_ibuf_iso/IBUFCTRL_INST/O
                         net (fo=1, routed)           0.334     1.113    clk_ibuf_iso
    BUFGCE_X1Y224        BUFGCE (Prop_BUFCE_BUFGCE_I_O)
                                                      0.028     1.141 r  clk_ibuf/O
    X3Y9 (CLOCK_ROOT)    net (fo=891, routed)         1.543     2.684    shift_reg_tap_i/clk_c
    SLICE_X101Y587       FDRE                                         r  shift_reg_tap_i/sr_p.sr_1[65]/C
  -------------------------------------------------------------------    -------------------
    SLICE_X101Y587       FDRE (Prop_EFF2_SLICEL_C_Q)
                                                      0.099     2.783 f  shift_reg_tap_i/sr_p.sr_1[65]/Q
                         net (fo=3, routed)           0.198     2.981    dut_inst/stage_g.0.pair_g.2.csn_cmp_inst/input_slr_13
    SLICE_X101Y587       LUT4 (Prop_C6LUT_SLICEL_I2_O)
                                                      0.174     3.155 r  dut_inst/stage_g.0.pair_g.2.csn_cmp_inst/un1_b_i_c2_lut6_2_o5_lut6_2_o5/O
                         net (fo=1, routed)           0.119     3.274    dut_inst/stage_g.0.pair_g.2.csn_cmp_inst/un1_b_i_c2_lut6_2_o6
    SLICE_X101Y586       LUT5 (Prop_F6LUT_SLICEL_I4_O)
                                                      0.039     3.313 r  dut_inst/stage_g.0.pair_g.2.csn_cmp_inst/un1_b_i_ac0_5_0/O
                         net (fo=38, routed)          0.182     3.495    dut_inst/stage_g.0.pair_g.2.csn_cmp_inst/un1_b_i_44
    SLICE_X101Y587       LUT3 (Prop_C5LUT_SLICEL_I2_O)
                                                      0.083     3.578 r  dut_inst/stage_g.0.pair_g.2.csn_cmp_inst/un1_b_i_c2_lut6_2_o5_lut6_2_o6/O
                         net (fo=3, routed)           0.260     3.838    dut_inst/stage_g.1.pair_g.2.csn_cmp_inst/pt_84_0
    SLICE_X99Y587        LUT6 (Prop_A6LUT_SLICEM_I5_O)
                                                      0.040     3.878 r  dut_inst/stage_g.1.pair_g.2.csn_cmp_inst/un1_b_i_c2/O
                         net (fo=3, routed)           0.121     3.999    dut_inst/stage_g.1.pair_g.2.csn_cmp_inst/un1_b_i_c2_22
    SLICE_X99Y587        LUT5 (Prop_D6LUT_SLICEM_I4_O)
                                                      0.098     4.097 r  dut_inst/stage_g.1.pair_g.2.csn_cmp_inst/a_o_comb.pt_lut6_2_o5_lut6_2_o6[0]/O
                         net (fo=3, routed)           0.220     4.317    dut_inst/stage_g.2.pair_g.2.csn_cmp_inst/pt_57_0
    SLICE_X98Y584        LUT6 (Prop_G6LUT_SLICEL_I5_O)
                                                      0.114     4.431 f  dut_inst/stage_g.2.pair_g.2.csn_cmp_inst/un1_b_i_c2/O
                         net (fo=3, routed)           0.067     4.498    dut_inst/stage_g.2.pair_g.2.csn_cmp_inst/un1_b_i_c2_9
    SLICE_X98Y584        LUT5 (Prop_C5LUT_SLICEL_I4_O)
                                                      0.168     4.666 r  dut_inst/stage_g.2.pair_g.2.csn_cmp_inst/a_o_comb.pt_lut6_2_o5_lut6_2_o5[0]/O
                         net (fo=3, routed)           0.405     5.071    dut_inst/stage_g.3.pair_g.2.csn_cmp_inst/pt_24_0
    SLICE_X95Y582        LUT6 (Prop_F6LUT_SLICEM_I4_O)
                                                      0.062     5.133 r  dut_inst/stage_g.3.pair_g.2.csn_cmp_inst/un1_b_i_c2/O
                         net (fo=1, routed)           0.360     5.493    dut_inst/stage_g.3.pair_g.2.csn_cmp_inst/un1_b_i_c2_1
    SLICE_X96Y582        LUT5 (Prop_C5LUT_SLICEL_I4_O)
                                                      0.083     5.576 r  dut_inst/stage_g.3.pair_g.2.csn_cmp_inst/un1_b_i_ac0_5_0_lut6_2_o5_lut6_2_o5/O
                         net (fo=12, routed)          0.239     5.815    dut_inst/stage_g.3.pair_g.2.csn_cmp_inst/un1_b_i_4
    SLICE_X98Y581        LUT6 (Prop_B6LUT_SLICEL_I5_O)
                                                      0.040     5.855 f  dut_inst/stage_g.3.pair_g.2.csn_cmp_inst/a_o_comb.pt[1]/O
                         net (fo=3, routed)           0.501     6.356    dut_inst/stage_g.4.pair_g.0.csn_cmp_inst/pt_22[1]
    SLICE_X92Y580        LUT6 (Prop_G6LUT_SLICEM_I4_O)
                                                      0.064     6.420 r  dut_inst/stage_g.4.pair_g.0.csn_cmp_inst/un1_b_i_c2/O
                         net (fo=2, routed)           0.121     6.541    dut_inst/stage_g.4.pair_g.0.csn_cmp_inst/un1_b_i_c2_11
    SLICE_X93Y580        LUT5 (Prop_C6LUT_SLICEM_I4_O)
                                                      0.098     6.639 r  dut_inst/stage_g.4.pair_g.0.csn_cmp_inst/un1_b_i_ac0_5_0_0_lut6_2_o5_lut6_2_o6/O
                         net (fo=10, routed)          0.355     6.994    dut_inst/stage_g.4.pair_g.0.csn_cmp_inst/un1_b_i_1
    SLICE_X96Y579        LUT5 (Prop_H6LUT_SLICEL_I4_O)
                                                      0.040     7.034 r  dut_inst/stage_g.4.pair_g.0.csn_cmp_inst/a_o_comb.idx[1]/O
                         net (fo=2, routed)           0.376     7.410    dut_inst/stage_g.5.pair_g.0.csn_cmp_inst/idx_23[1]
    SLICE_X92Y579        LUT5 (Prop_D6LUT_SLICEM_I1_O)
                                                      0.147     7.557 r  dut_inst/stage_g.5.pair_g.0.csn_cmp_inst/a_o_comb.idx[1]/O
                         net (fo=1, routed)           0.082     7.639    shift_reg_tap_o/idx[1]
    SLICE_X92Y579        FDRE                                         r  shift_reg_tap_o/sr_p.sr_1[18]/D
  -------------------------------------------------------------------    -------------------

                         (clock clk rise edge)        6.250     6.250 r  
    AV33                                              0.000     6.250 r  clk (IN)
                         net (fo=0)                   0.000     6.250    clk_ibuf_iso/I
    AV33                 INBUF (Prop_INBUF_HPIOB_M_PAD_O)
                                                      0.510     6.760 r  clk_ibuf_iso/INBUF_INST/O
                         net (fo=1, routed)           0.000     6.760    clk_ibuf_iso/OUT
    AV33                 IBUFCTRL (Prop_IBUFCTRL_HPIOB_M_I_O)
                                                      0.000     6.760 r  clk_ibuf_iso/IBUFCTRL_INST/O
                         net (fo=1, routed)           0.296     7.056    clk_ibuf_iso
    BUFGCE_X1Y224        BUFGCE (Prop_BUFCE_BUFGCE_I_O)
                                                      0.024     7.080 r  clk_ibuf/O
    X3Y9 (CLOCK_ROOT)    net (fo=891, routed)         1.315     8.395    shift_reg_tap_o/clk_c
    SLICE_X92Y579        FDRE                                         r  shift_reg_tap_o/sr_p.sr_1[18]/C
                         clock pessimism              0.404     8.799    
                         clock uncertainty           -0.035     8.764    
    SLICE_X92Y579        FDRE (Setup_DFF_SLICEM_C_D)
                                                      0.027     8.791    shift_reg_tap_o/sr_p.sr_1[18]
  -------------------------------------------------------------------
                         required time                          8.791    
                         arrival time                          -7.639    
  -------------------------------------------------------------------
                         slack                                  1.152    

Slack (MET) :             1.152ns  (required time - arrival time)
  Source:                 shift_reg_tap_i/sr_p.sr_1[65]/C
                            (rising edge-triggered cell FDRE clocked by clk  {rise@0.000ns fall@3.125ns period=6.250ns})
  Destination:            shift_reg_tap_o/sr_p.sr_1[18]/D
                            (rising edge-triggered cell FDRE clocked by clk  {rise@0.000ns fall@3.125ns period=6.250ns})
  Path Group:             clk
  Path Type:              Setup (Max at Slow Process Corner)
  Requirement:            6.250ns  (clk rise@6.250ns - clk rise@0.000ns)
  Data Path Delay:        4.955ns  (logic 1.349ns (27.225%)  route 3.606ns (72.775%))
  Logic Levels:           14  (LUT3=1 LUT4=1 LUT5=7 LUT6=5)
  Clock Path Skew:        -0.135ns (DCD - SCD + CPR)
    Destination Clock Delay (DCD):    2.145ns = ( 8.395 - 6.250 ) 
    Source Clock Delay      (SCD):    2.684ns
    Clock Pessimism Removal (CPR):    0.404ns
  Clock Uncertainty:      0.035ns  ((TSJ^2 + TIJ^2)^1/2 + DJ) / 2 + PE
    Total System Jitter     (TSJ):    0.071ns
    Total Input Jitter      (TIJ):    0.000ns
    Discrete Jitter          (DJ):    0.000ns
    Phase Error              (PE):    0.000ns
  Clock Net Delay (Source):      1.543ns (routing 0.616ns, distribution 0.927ns)
  Clock Net Delay (Destination): 1.315ns (routing 0.562ns, distribution 0.753ns)

    Location             Delay type                Incr(ns)  Path(ns)    Netlist Resource(s)
  -------------------------------------------------------------------    -------------------
                         (clock clk rise edge)        0.000     0.000 r  
    AV33                                              0.000     0.000 r  clk (IN)
                         net (fo=0)                   0.000     0.000    clk_ibuf_iso/I
    AV33                 INBUF (Prop_INBUF_HPIOB_M_PAD_O)
                                                      0.779     0.779 r  clk_ibuf_iso/INBUF_INST/O
                         net (fo=1, routed)           0.000     0.779    clk_ibuf_iso/OUT
    AV33                 IBUFCTRL (Prop_IBUFCTRL_HPIOB_M_I_O)
                                                      0.000     0.779 r  clk_ibuf_iso/IBUFCTRL_INST/O
                         net (fo=1, routed)           0.334     1.113    clk_ibuf_iso
    BUFGCE_X1Y224        BUFGCE (Prop_BUFCE_BUFGCE_I_O)
                                                      0.028     1.141 r  clk_ibuf/O
    X3Y9 (CLOCK_ROOT)    net (fo=891, routed)         1.543     2.684    shift_reg_tap_i/clk_c
    SLICE_X101Y587       FDRE                                         r  shift_reg_tap_i/sr_p.sr_1[65]/C
  -------------------------------------------------------------------    -------------------
    SLICE_X101Y587       FDRE (Prop_EFF2_SLICEL_C_Q)
                                                      0.099     2.783 f  shift_reg_tap_i/sr_p.sr_1[65]/Q
                         net (fo=3, routed)           0.198     2.981    dut_inst/stage_g.0.pair_g.2.csn_cmp_inst/input_slr_13
    SLICE_X101Y587       LUT4 (Prop_C6LUT_SLICEL_I2_O)
                                                      0.174     3.155 r  dut_inst/stage_g.0.pair_g.2.csn_cmp_inst/un1_b_i_c2_lut6_2_o5_lut6_2_o5/O
                         net (fo=1, routed)           0.119     3.274    dut_inst/stage_g.0.pair_g.2.csn_cmp_inst/un1_b_i_c2_lut6_2_o6
    SLICE_X101Y586       LUT5 (Prop_F6LUT_SLICEL_I4_O)
                                                      0.039     3.313 r  dut_inst/stage_g.0.pair_g.2.csn_cmp_inst/un1_b_i_ac0_5_0/O
                         net (fo=38, routed)          0.182     3.495    dut_inst/stage_g.0.pair_g.2.csn_cmp_inst/un1_b_i_44
    SLICE_X101Y587       LUT3 (Prop_C5LUT_SLICEL_I2_O)
                                                      0.083     3.578 r  dut_inst/stage_g.0.pair_g.2.csn_cmp_inst/un1_b_i_c2_lut6_2_o5_lut6_2_o6/O
                         net (fo=3, routed)           0.260     3.838    dut_inst/stage_g.1.pair_g.2.csn_cmp_inst/pt_84_0
    SLICE_X99Y587        LUT6 (Prop_A6LUT_SLICEM_I5_O)
                                                      0.040     3.878 r  dut_inst/stage_g.1.pair_g.2.csn_cmp_inst/un1_b_i_c2/O
                         net (fo=3, routed)           0.121     3.999    dut_inst/stage_g.1.pair_g.2.csn_cmp_inst/un1_b_i_c2_22
    SLICE_X99Y587        LUT5 (Prop_D6LUT_SLICEM_I4_O)
                                                      0.098     4.097 f  dut_inst/stage_g.1.pair_g.2.csn_cmp_inst/a_o_comb.pt_lut6_2_o5_lut6_2_o6[0]/O
                         net (fo=3, routed)           0.220     4.317    dut_inst/stage_g.2.pair_g.2.csn_cmp_inst/pt_57_0
    SLICE_X98Y584        LUT6 (Prop_G6LUT_SLICEL_I5_O)
                                                      0.114     4.431 r  dut_inst/stage_g.2.pair_g.2.csn_cmp_inst/un1_b_i_c2/O
                         net (fo=3, routed)           0.067     4.498    dut_inst/stage_g.2.pair_g.2.csn_cmp_inst/un1_b_i_c2_9
    SLICE_X98Y584        LUT5 (Prop_C5LUT_SLICEL_I4_O)
                                                      0.168     4.666 f  dut_inst/stage_g.2.pair_g.2.csn_cmp_inst/a_o_comb.pt_lut6_2_o5_lut6_2_o5[0]/O
                         net (fo=3, routed)           0.405     5.071    dut_inst/stage_g.3.pair_g.2.csn_cmp_inst/pt_24_0
    SLICE_X95Y582        LUT6 (Prop_F6LUT_SLICEM_I4_O)
                                                      0.062     5.133 f  dut_inst/stage_g.3.pair_g.2.csn_cmp_inst/un1_b_i_c2/O
                         net (fo=1, routed)           0.360     5.493    dut_inst/stage_g.3.pair_g.2.csn_cmp_inst/un1_b_i_c2_1
    SLICE_X96Y582        LUT5 (Prop_C5LUT_SLICEL_I4_O)
                                                      0.083     5.576 f  dut_inst/stage_g.3.pair_g.2.csn_cmp_inst/un1_b_i_ac0_5_0_lut6_2_o5_lut6_2_o5/O
                         net (fo=12, routed)          0.239     5.815    dut_inst/stage_g.3.pair_g.2.csn_cmp_inst/un1_b_i_4
    SLICE_X98Y581        LUT6 (Prop_B6LUT_SLICEL_I5_O)
                                                      0.040     5.855 f  dut_inst/stage_g.3.pair_g.2.csn_cmp_inst/a_o_comb.pt[1]/O
                         net (fo=3, routed)           0.501     6.356    dut_inst/stage_g.4.pair_g.0.csn_cmp_inst/pt_22[1]
    SLICE_X92Y580        LUT6 (Prop_G6LUT_SLICEM_I4_O)
                                                      0.064     6.420 r  dut_inst/stage_g.4.pair_g.0.csn_cmp_inst/un1_b_i_c2/O
                         net (fo=2, routed)           0.121     6.541    dut_inst/stage_g.4.pair_g.0.csn_cmp_inst/un1_b_i_c2_11
    SLICE_X93Y580        LUT5 (Prop_C6LUT_SLICEM_I4_O)
                                                      0.098     6.639 r  dut_inst/stage_g.4.pair_g.0.csn_cmp_inst/un1_b_i_ac0_5_0_0_lut6_2_o5_lut6_2_o6/O
                         net (fo=10, routed)          0.355     6.994    dut_inst/stage_g.4.pair_g.0.csn_cmp_inst/un1_b_i_1
    SLICE_X96Y579        LUT5 (Prop_H6LUT_SLICEL_I4_O)
                                                      0.040     7.034 r  dut_inst/stage_g.4.pair_g.0.csn_cmp_inst/a_o_comb.idx[1]/O
                         net (fo=2, routed)           0.376     7.410    dut_inst/stage_g.5.pair_g.0.csn_cmp_inst/idx_23[1]
    SLICE_X92Y579        LUT5 (Prop_D6LUT_SLICEM_I1_O)
                                                      0.147     7.557 r  dut_inst/stage_g.5.pair_g.0.csn_cmp_inst/a_o_comb.idx[1]/O
                         net (fo=1, routed)           0.082     7.639    shift_reg_tap_o/idx[1]
    SLICE_X92Y579        FDRE                                         r  shift_reg_tap_o/sr_p.sr_1[18]/D
  -------------------------------------------------------------------    -------------------

                         (clock clk rise edge)        6.250     6.250 r  
    AV33                                              0.000     6.250 r  clk (IN)
                         net (fo=0)                   0.000     6.250    clk_ibuf_iso/I
    AV33                 INBUF (Prop_INBUF_HPIOB_M_PAD_O)
                                                      0.510     6.760 r  clk_ibuf_iso/INBUF_INST/O
                         net (fo=1, routed)           0.000     6.760    clk_ibuf_iso/OUT
    AV33                 IBUFCTRL (Prop_IBUFCTRL_HPIOB_M_I_O)
                                                      0.000     6.760 r  clk_ibuf_iso/IBUFCTRL_INST/O
                         net (fo=1, routed)           0.296     7.056    clk_ibuf_iso
    BUFGCE_X1Y224        BUFGCE (Prop_BUFCE_BUFGCE_I_O)
                                                      0.024     7.080 r  clk_ibuf/O
    X3Y9 (CLOCK_ROOT)    net (fo=891, routed)         1.315     8.395    shift_reg_tap_o/clk_c
    SLICE_X92Y579        FDRE                                         r  shift_reg_tap_o/sr_p.sr_1[18]/C
                         clock pessimism              0.404     8.799    
                         clock uncertainty           -0.035     8.764    
    SLICE_X92Y579        FDRE (Setup_DFF_SLICEM_C_D)
                                                      0.027     8.791    shift_reg_tap_o/sr_p.sr_1[18]
  -------------------------------------------------------------------
                         required time                          8.791    
                         arrival time                          -7.639    
  -------------------------------------------------------------------
                         slack                                  1.152    





Pulse Width Checks
--------------------------------------------------------------------------------------
Clock Name:         clk
Waveform(ns):       { 0.000 3.125 }
Period(ns):         6.250
Sources:            { clk }

Check Type        Corner  Lib Pin   Reference Pin  Required(ns)  Actual(ns)  Slack(ns)  Location        Pin
Min Period        n/a     BUFGCE/I  n/a            1.499         6.250       4.751      BUFGCE_X1Y224   clk_ibuf/I
Min Period        n/a     FDRE/C    n/a            0.550         6.250       5.700      SLICE_X102Y578  dut_inst/ret_array_1_12.idx_ret_11[0]/C
Min Period        n/a     FDRE/C    n/a            0.550         6.250       5.700      SLICE_X101Y577  dut_inst/ret_array_1_12.idx_ret_11[1]/C
Min Period        n/a     FDRE/C    n/a            0.550         6.250       5.700      SLICE_X102Y578  dut_inst/ret_array_1_12.idx_ret_11[2]/C
Min Period        n/a     FDRE/C    n/a            0.550         6.250       5.700      SLICE_X103Y578  dut_inst/ret_array_1_12.idx_ret_11[3]/C
Low Pulse Width   Fast    FDRE/C    n/a            0.275         3.125       2.850      SLICE_X94Y584   shift_reg_tap_i/sr_p.sr_1[202]/C
Low Pulse Width   Fast    FDRE/C    n/a            0.275         3.125       2.850      SLICE_X94Y584   shift_reg_tap_i/sr_p.sr_1[203]/C
Low Pulse Width   Fast    FDRE/C    n/a            0.275         3.125       2.850      SLICE_X94Y584   shift_reg_tap_i/sr_p.sr_1[204]/C
Low Pulse Width   Fast    FDRE/C    n/a            0.275         3.125       2.850      SLICE_X92Y584   shift_reg_tap_i/sr_p.sr_1[207]/C
Low Pulse Width   Fast    FDRE/C    n/a            0.275         3.125       2.850      SLICE_X92Y579   dut_inst/ret_array_1_3.pt_ret_15[0]/C
High Pulse Width  Slow    FDRE/C    n/a            0.275         3.125       2.850      SLICE_X100Y578  dut_inst/ret_array_1_12.idx_ret_12[0]/C
High Pulse Width  Slow    FDRE/C    n/a            0.275         3.125       2.850      SLICE_X101Y579  dut_inst/ret_array_1_4.idx_ret_45[3]/C
High Pulse Width  Slow    FDRE/C    n/a            0.275         3.125       2.850      SLICE_X102Y576  dut_inst/ret_array_1_8.pt_ret_65[0]/C
High Pulse Width  Slow    FDRE/C    n/a            0.275         3.125       2.850      SLICE_X98Y576   dut_inst/stage_g.7.pair_g.2.csn_cmp_inst/ret_array_2_9.idx_ret_7/C
High Pulse Width  Slow    FDRE/C    n/a            0.275         3.125       2.850      SLICE_X102Y584  shift_reg_tap_i/sr_p.sr_1[23]/C



---------------------------------------------------------------------------------------------------
From Clock:  clk_wrapper
  To Clock:  clk_wrapper

Setup :           NA  Failing Endpoints,  Worst Slack           NA  ,  Total Violation           NA
Hold  :           NA  Failing Endpoints,  Worst Slack           NA  ,  Total Violation           NA
PW    :            0  Failing Endpoints,  Worst Slack      498.562ns,  Total Violation        0.000ns
---------------------------------------------------------------------------------------------------


Pulse Width Checks
--------------------------------------------------------------------------------------
Clock Name:         clk_wrapper
Waveform(ns):       { 0.000 500.000 }
Period(ns):         1000.000
Sources:            { clk_wrapper }

Check Type        Corner  Lib Pin   Reference Pin  Required(ns)  Actual(ns)  Slack(ns)  Location               Pin
Min Period        n/a     FDRE/C    n/a            3.195         1000.000    996.805    BITSLICE_RX_TX_X1Y483  reducer_1/delay_block[4][0]/C
Min Period        n/a     BUFGCE/I  n/a            1.499         1000.000    998.501    BUFGCE_X1Y230          clk_wrapper_ibuf/I
Min Period        n/a     FDRE/C    n/a            0.550         1000.000    999.450    SLICE_X95Y584          lsfr_1/shiftreg_vector[114]/C
Min Period        n/a     FDRE/C    n/a            0.550         1000.000    999.450    SLICE_X95Y584          lsfr_1/shiftreg_vector[115]/C
Min Period        n/a     FDRE/C    n/a            0.550         1000.000    999.450    SLICE_X95Y584          lsfr_1/shiftreg_vector[116]/C
Low Pulse Width   Slow    FDRE/C    n/a            1.438         500.000     498.562    BITSLICE_RX_TX_X1Y483  reducer_1/delay_block[4][0]/C
Low Pulse Width   Fast    FDRE/C    n/a            1.438         500.000     498.562    BITSLICE_RX_TX_X1Y483  reducer_1/delay_block[4][0]/C
Low Pulse Width   Slow    FDRE/C    n/a            0.275         500.000     499.725    SLICE_X102Y584         lsfr_1/shiftreg_vector[11]/C
Low Pulse Width   Slow    FDRE/C    n/a            0.275         500.000     499.725    SLICE_X96Y585          lsfr_1/shiftreg_vector[125]/C
Low Pulse Width   Slow    FDRE/C    n/a            0.275         500.000     499.725    SLICE_X96Y585          lsfr_1/shiftreg_vector[126]/C
High Pulse Width  Fast    FDRE/C    n/a            1.438         500.000     498.562    BITSLICE_RX_TX_X1Y483  reducer_1/delay_block[4][0]/C
High Pulse Width  Slow    FDRE/C    n/a            1.438         500.000     498.562    BITSLICE_RX_TX_X1Y483  reducer_1/delay_block[4][0]/C
High Pulse Width  Fast    FDRE/C    n/a            0.275         500.000     499.725    SLICE_X94Y588          lsfr_1/shiftreg_vector[119]/C
High Pulse Width  Fast    FDRE/C    n/a            0.275         500.000     499.725    SLICE_X102Y584         lsfr_1/shiftreg_vector[11]/C
High Pulse Width  Fast    FDRE/C    n/a            0.275         500.000     499.725    SLICE_X94Y587          lsfr_1/shiftreg_vector[120]/C



