Copyright 1986-2018 Xilinx, Inc. All Rights Reserved.
-----------------------------------------------------------------------------------------------
| Tool Version      : Vivado v.2018.2 (win64) Build 2258646 Thu Jun 14 20:03:12 MDT 2018
| Date              : Fri Feb  8 20:21:41 2019
| Host              : PCPHESEBE02 running 64-bit Service Pack 1  (build 7601)
| Command           : report_timing_summary -hold -nworst 5 -max_paths 5 -file timing_hold.txt
| Design            : wrapper
| Device            : xcvu9p-flgc2104
| Speed File        : -1  PRODUCTION 1.20 05-21-2018
| Temperature Grade : E
-----------------------------------------------------------------------------------------------

Timing Summary Report

------------------------------------------------------------------------------------------------
| Timer Settings
| --------------
------------------------------------------------------------------------------------------------

  Enable Multi Corner Analysis               :  Yes
  Enable Pessimism Removal                   :  Yes
  Pessimism Removal Resolution               :  Nearest Common Node
  Enable Input Delay Default Clock           :  No
  Enable Preset / Clear Arcs                 :  No
  Disable Flight Delays                      :  No
  Ignore I/O Paths                           :  No
  Timing Early Launch at Borrowing Latches   :  false

  Corner  Analyze    Analyze    
  Name    Max Paths  Min Paths  
  ------  ---------  ---------  
  Slow    Yes        Yes        
  Fast    Yes        Yes        



check_timing report

Table of Contents
-----------------
1. checking no_clock
2. checking constant_clock
3. checking pulse_width_clock
4. checking unconstrained_internal_endpoints
5. checking no_input_delay
6. checking no_output_delay
7. checking multiple_clock
8. checking generated_clocks
9. checking loops
10. checking partial_input_delay
11. checking partial_output_delay
12. checking latch_loops

1. checking no_clock
--------------------
 There are 0 register/latch pins with no clock.


2. checking constant_clock
--------------------------
 There are 0 register/latch pins with constant_clock.


3. checking pulse_width_clock
-----------------------------
 There are 0 register/latch pins which need pulse_width check


4. checking unconstrained_internal_endpoints
--------------------------------------------
 There are 0 pins that are not constrained for maximum delay.

 There are 0 pins that are not constrained for maximum delay due to constant clock.


5. checking no_input_delay
--------------------------
 There is 1 input port with no input delay specified. (HIGH)

 There are 0 input ports with no input delay but user has a false path constraint.


6. checking no_output_delay
---------------------------
 There is 1 port with no output delay specified. (HIGH)

 There are 0 ports with no output delay but user has a false path constraint

 There are 0 ports with no output delay but with a timing clock defined on it or propagating through it


7. checking multiple_clock
--------------------------
 There are 0 register/latch pins with multiple clocks.


8. checking generated_clocks
----------------------------
 There are 0 generated clocks that are not connected to a clock source.


9. checking loops
-----------------
 There are 0 combinational loops in the design.


10. checking partial_input_delay
--------------------------------
 There are 0 input ports with partial input delay specified.


11. checking partial_output_delay
---------------------------------
 There are 0 ports with partial output delay specified.


12. checking latch_loops
------------------------
 There are 0 combinational latch loops in the design through latch input



------------------------------------------------------------------------------------------------
| Design Timing Summary
| ---------------------
------------------------------------------------------------------------------------------------

    WHS(ns)      THS(ns)  THS Failing Endpoints  THS Total Endpoints     WPWS(ns)     TPWS(ns)  TPWS Failing Endpoints  TPWS Total Endpoints  
    -------      -------  ---------------------  -------------------     --------     --------  ----------------------  --------------------  
      0.016        0.000                      0                13989        5.975        0.000                       0                 15308  


All user specified timing constraints are met.


------------------------------------------------------------------------------------------------
| Clock Summary
| -------------
------------------------------------------------------------------------------------------------

Clock        Waveform(ns)         Period(ns)      Frequency(MHz)
-----        ------------         ----------      --------------
clk          {0.000 6.250}        12.500          80.000          
clk_wrapper  {0.000 500.000}      1000.000        1.000           


------------------------------------------------------------------------------------------------
| Intra Clock Table
| -----------------
------------------------------------------------------------------------------------------------

Clock             WHS(ns)      THS(ns)  THS Failing Endpoints  THS Total Endpoints     WPWS(ns)     TPWS(ns)  TPWS Failing Endpoints  TPWS Total Endpoints  
-----             -------      -------  ---------------------  -------------------     --------     --------  ----------------------  --------------------  
clk                 0.016        0.000                      0                13989        5.975        0.000                       0                 14453  
clk_wrapper                                                                             498.562        0.000                       0                   855  


------------------------------------------------------------------------------------------------
| Inter Clock Table
| -----------------
------------------------------------------------------------------------------------------------

From Clock    To Clock          WHS(ns)      THS(ns)  THS Failing Endpoints  THS Total Endpoints  
----------    --------          -------      -------  ---------------------  -------------------  


------------------------------------------------------------------------------------------------
| Other Path Groups Table
| -----------------------
------------------------------------------------------------------------------------------------

Path Group    From Clock    To Clock          WHS(ns)      THS(ns)  THS Failing Endpoints  THS Total Endpoints  
----------    ----------    --------          -------      -------  ---------------------  -------------------  


------------------------------------------------------------------------------------------------
| Timing Details
| --------------
------------------------------------------------------------------------------------------------


---------------------------------------------------------------------------------------------------
From Clock:  clk
  To Clock:  clk

Setup :           NA  Failing Endpoints,  Worst Slack           NA  ,  Total Violation           NA
Hold  :            0  Failing Endpoints,  Worst Slack        0.016ns,  Total Violation        0.000ns
PW    :            0  Failing Endpoints,  Worst Slack        5.975ns,  Total Violation        0.000ns
---------------------------------------------------------------------------------------------------


Min Delay Paths
--------------------------------------------------------------------------------------
Slack (MET) :             0.016ns  (arrival time - required time)
  Source:                 shift_reg_tap_i/sr_p.sr_2[55]/C
                            (rising edge-triggered cell FDRE clocked by clk  {rise@0.000ns fall@6.250ns period=12.500ns})
  Destination:            shift_reg_tap_i/sr_p.sr_3[55]/D
                            (rising edge-triggered cell FDRE clocked by clk  {rise@0.000ns fall@6.250ns period=12.500ns})
  Path Group:             clk
  Path Type:              Hold (Min at Slow Process Corner)
  Requirement:            0.000ns  (clk rise@0.000ns - clk rise@0.000ns)
  Data Path Delay:        0.189ns  (logic 0.069ns (36.508%)  route 0.120ns (63.492%))
  Logic Levels:           0  
  Clock Path Skew:        0.118ns (DCD - SCD - CPR)
    Destination Clock Delay (DCD):    3.585ns
    Source Clock Delay      (SCD):    2.989ns
    Clock Pessimism Removal (CPR):    0.478ns
  Clock Net Delay (Source):      2.159ns (routing 1.362ns, distribution 0.797ns)
  Clock Net Delay (Destination): 2.444ns (routing 1.491ns, distribution 0.953ns)

    Location             Delay type                Incr(ns)  Path(ns)    Netlist Resource(s)
  -------------------------------------------------------------------    -------------------
                         (clock clk rise edge)        0.000     0.000 r  
    AV33                                              0.000     0.000 r  clk (IN)
                         net (fo=0)                   0.000     0.000    clk_ibuf_iso/I
    AV33                 INBUF (Prop_INBUF_HPIOB_M_PAD_O)
                                                      0.510     0.510 r  clk_ibuf_iso/INBUF_INST/O
                         net (fo=1, routed)           0.000     0.510    clk_ibuf_iso/OUT
    AV33                 IBUFCTRL (Prop_IBUFCTRL_HPIOB_M_I_O)
                                                      0.000     0.510 r  clk_ibuf_iso/IBUFCTRL_INST/O
                         net (fo=1, routed)           0.296     0.806    clk_ibuf_iso
    BUFGCE_X1Y224        BUFGCE (Prop_BUFCE_BUFGCE_I_O)
                                                      0.024     0.830 r  clk_ibuf/O
    X2Y7 (CLOCK_ROOT)    net (fo=14452, routed)       2.159     2.989    shift_reg_tap_i/clk_c
    SLICE_X55Y461        FDRE                                         r  shift_reg_tap_i/sr_p.sr_2[55]/C
  -------------------------------------------------------------------    -------------------
    SLICE_X55Y461        FDRE (Prop_FFF_SLICEL_C_Q)
                                                      0.069     3.058 r  shift_reg_tap_i/sr_p.sr_2[55]/Q
                         net (fo=1, routed)           0.120     3.178    shift_reg_tap_i/sr_2[55]
    SLICE_X56Y463        FDRE                                         r  shift_reg_tap_i/sr_p.sr_3[55]/D
  -------------------------------------------------------------------    -------------------

                         (clock clk rise edge)        0.000     0.000 r  
    AV33                                              0.000     0.000 r  clk (IN)
                         net (fo=0)                   0.000     0.000    clk_ibuf_iso/I
    AV33                 INBUF (Prop_INBUF_HPIOB_M_PAD_O)
                                                      0.779     0.779 r  clk_ibuf_iso/INBUF_INST/O
                         net (fo=1, routed)           0.000     0.779    clk_ibuf_iso/OUT
    AV33                 IBUFCTRL (Prop_IBUFCTRL_HPIOB_M_I_O)
                                                      0.000     0.779 r  clk_ibuf_iso/IBUFCTRL_INST/O
                         net (fo=1, routed)           0.334     1.113    clk_ibuf_iso
    BUFGCE_X1Y224        BUFGCE (Prop_BUFCE_BUFGCE_I_O)
                                                      0.028     1.141 r  clk_ibuf/O
    X2Y7 (CLOCK_ROOT)    net (fo=14452, routed)       2.444     3.585    shift_reg_tap_i/clk_c
    SLICE_X56Y463        FDRE                                         r  shift_reg_tap_i/sr_p.sr_3[55]/C
                         clock pessimism             -0.478     3.107    
    SLICE_X56Y463        FDRE (Hold_GFF2_SLICEM_C_D)
                                                      0.055     3.162    shift_reg_tap_i/sr_p.sr_3[55]
  -------------------------------------------------------------------
                         required time                         -3.162    
                         arrival time                           3.178    
  -------------------------------------------------------------------
                         slack                                  0.016    

Slack (MET) :             0.016ns  (arrival time - required time)
  Source:                 shift_reg_tap_i/sr_p.sr_2[55]/C
                            (rising edge-triggered cell FDRE clocked by clk  {rise@0.000ns fall@6.250ns period=12.500ns})
  Destination:            shift_reg_tap_i/sr_p.sr_3[55]/D
                            (rising edge-triggered cell FDRE clocked by clk  {rise@0.000ns fall@6.250ns period=12.500ns})
  Path Group:             clk
  Path Type:              Hold (Min at Slow Process Corner)
  Requirement:            0.000ns  (clk rise@0.000ns - clk rise@0.000ns)
  Data Path Delay:        0.189ns  (logic 0.069ns (36.508%)  route 0.120ns (63.492%))
  Logic Levels:           0  
  Clock Path Skew:        0.118ns (DCD - SCD - CPR)
    Destination Clock Delay (DCD):    3.585ns
    Source Clock Delay      (SCD):    2.989ns
    Clock Pessimism Removal (CPR):    0.478ns
  Clock Net Delay (Source):      2.159ns (routing 1.362ns, distribution 0.797ns)
  Clock Net Delay (Destination): 2.444ns (routing 1.491ns, distribution 0.953ns)

    Location             Delay type                Incr(ns)  Path(ns)    Netlist Resource(s)
  -------------------------------------------------------------------    -------------------
                         (clock clk rise edge)        0.000     0.000 r  
    AV33                                              0.000     0.000 r  clk (IN)
                         net (fo=0)                   0.000     0.000    clk_ibuf_iso/I
    AV33                 INBUF (Prop_INBUF_HPIOB_M_PAD_O)
                                                      0.510     0.510 r  clk_ibuf_iso/INBUF_INST/O
                         net (fo=1, routed)           0.000     0.510    clk_ibuf_iso/OUT
    AV33                 IBUFCTRL (Prop_IBUFCTRL_HPIOB_M_I_O)
                                                      0.000     0.510 r  clk_ibuf_iso/IBUFCTRL_INST/O
                         net (fo=1, routed)           0.296     0.806    clk_ibuf_iso
    BUFGCE_X1Y224        BUFGCE (Prop_BUFCE_BUFGCE_I_O)
                                                      0.024     0.830 r  clk_ibuf/O
    X2Y7 (CLOCK_ROOT)    net (fo=14452, routed)       2.159     2.989    shift_reg_tap_i/clk_c
    SLICE_X55Y461        FDRE                                         r  shift_reg_tap_i/sr_p.sr_2[55]/C
  -------------------------------------------------------------------    -------------------
    SLICE_X55Y461        FDRE (Prop_FFF_SLICEL_C_Q)
                                                      0.069     3.058 f  shift_reg_tap_i/sr_p.sr_2[55]/Q
                         net (fo=1, routed)           0.120     3.178    shift_reg_tap_i/sr_2[55]
    SLICE_X56Y463        FDRE                                         f  shift_reg_tap_i/sr_p.sr_3[55]/D
  -------------------------------------------------------------------    -------------------

                         (clock clk rise edge)        0.000     0.000 r  
    AV33                                              0.000     0.000 r  clk (IN)
                         net (fo=0)                   0.000     0.000    clk_ibuf_iso/I
    AV33                 INBUF (Prop_INBUF_HPIOB_M_PAD_O)
                                                      0.779     0.779 r  clk_ibuf_iso/INBUF_INST/O
                         net (fo=1, routed)           0.000     0.779    clk_ibuf_iso/OUT
    AV33                 IBUFCTRL (Prop_IBUFCTRL_HPIOB_M_I_O)
                                                      0.000     0.779 r  clk_ibuf_iso/IBUFCTRL_INST/O
                         net (fo=1, routed)           0.334     1.113    clk_ibuf_iso
    BUFGCE_X1Y224        BUFGCE (Prop_BUFCE_BUFGCE_I_O)
                                                      0.028     1.141 r  clk_ibuf/O
    X2Y7 (CLOCK_ROOT)    net (fo=14452, routed)       2.444     3.585    shift_reg_tap_i/clk_c
    SLICE_X56Y463        FDRE                                         r  shift_reg_tap_i/sr_p.sr_3[55]/C
                         clock pessimism             -0.478     3.107    
    SLICE_X56Y463        FDRE (Hold_GFF2_SLICEM_C_D)
                                                      0.055     3.162    shift_reg_tap_i/sr_p.sr_3[55]
  -------------------------------------------------------------------
                         required time                         -3.162    
                         arrival time                           3.178    
  -------------------------------------------------------------------
                         slack                                  0.016    

Slack (MET) :             0.019ns  (arrival time - required time)
  Source:                 shift_reg_tap_o/sr_p.sr_1[31]/C
                            (rising edge-triggered cell FDRE clocked by clk  {rise@0.000ns fall@6.250ns period=12.500ns})
  Destination:            shift_reg_tap_o/sr_p.sr_2[31]/D
                            (rising edge-triggered cell FDRE clocked by clk  {rise@0.000ns fall@6.250ns period=12.500ns})
  Path Group:             clk
  Path Type:              Hold (Min at Slow Process Corner)
  Requirement:            0.000ns  (clk rise@0.000ns - clk rise@0.000ns)
  Data Path Delay:        0.192ns  (logic 0.072ns (37.500%)  route 0.120ns (62.500%))
  Logic Levels:           0  
  Clock Path Skew:        0.118ns (DCD - SCD - CPR)
    Destination Clock Delay (DCD):    3.636ns
    Source Clock Delay      (SCD):    3.036ns
    Clock Pessimism Removal (CPR):    0.482ns
  Clock Net Delay (Source):      2.206ns (routing 1.362ns, distribution 0.844ns)
  Clock Net Delay (Destination): 2.495ns (routing 1.491ns, distribution 1.004ns)

    Location             Delay type                Incr(ns)  Path(ns)    Netlist Resource(s)
  -------------------------------------------------------------------    -------------------
                         (clock clk rise edge)        0.000     0.000 r  
    AV33                                              0.000     0.000 r  clk (IN)
                         net (fo=0)                   0.000     0.000    clk_ibuf_iso/I
    AV33                 INBUF (Prop_INBUF_HPIOB_M_PAD_O)
                                                      0.510     0.510 r  clk_ibuf_iso/INBUF_INST/O
                         net (fo=1, routed)           0.000     0.510    clk_ibuf_iso/OUT
    AV33                 IBUFCTRL (Prop_IBUFCTRL_HPIOB_M_I_O)
                                                      0.000     0.510 r  clk_ibuf_iso/IBUFCTRL_INST/O
                         net (fo=1, routed)           0.296     0.806    clk_ibuf_iso
    BUFGCE_X1Y224        BUFGCE (Prop_BUFCE_BUFGCE_I_O)
                                                      0.024     0.830 r  clk_ibuf/O
    X2Y7 (CLOCK_ROOT)    net (fo=14452, routed)       2.206     3.036    shift_reg_tap_o/clk_c
    SLICE_X67Y495        FDRE                                         r  shift_reg_tap_o/sr_p.sr_1[31]/C
  -------------------------------------------------------------------    -------------------
    SLICE_X67Y495        FDRE (Prop_FFF2_SLICEL_C_Q)
                                                      0.072     3.108 r  shift_reg_tap_o/sr_p.sr_1[31]/Q
                         net (fo=1, routed)           0.120     3.228    shift_reg_tap_o/sr_1[31]
    SLICE_X69Y492        FDRE                                         r  shift_reg_tap_o/sr_p.sr_2[31]/D
  -------------------------------------------------------------------    -------------------

                         (clock clk rise edge)        0.000     0.000 r  
    AV33                                              0.000     0.000 r  clk (IN)
                         net (fo=0)                   0.000     0.000    clk_ibuf_iso/I
    AV33                 INBUF (Prop_INBUF_HPIOB_M_PAD_O)
                                                      0.779     0.779 r  clk_ibuf_iso/INBUF_INST/O
                         net (fo=1, routed)           0.000     0.779    clk_ibuf_iso/OUT
    AV33                 IBUFCTRL (Prop_IBUFCTRL_HPIOB_M_I_O)
                                                      0.000     0.779 r  clk_ibuf_iso/IBUFCTRL_INST/O
                         net (fo=1, routed)           0.334     1.113    clk_ibuf_iso
    BUFGCE_X1Y224        BUFGCE (Prop_BUFCE_BUFGCE_I_O)
                                                      0.028     1.141 r  clk_ibuf/O
    X2Y7 (CLOCK_ROOT)    net (fo=14452, routed)       2.495     3.636    shift_reg_tap_o/clk_c
    SLICE_X69Y492        FDRE                                         r  shift_reg_tap_o/sr_p.sr_2[31]/C
                         clock pessimism             -0.482     3.154    
    SLICE_X69Y492        FDRE (Hold_HFF2_SLICEL_C_D)
                                                      0.055     3.209    shift_reg_tap_o/sr_p.sr_2[31]
  -------------------------------------------------------------------
                         required time                         -3.209    
                         arrival time                           3.228    
  -------------------------------------------------------------------
                         slack                                  0.019    

Slack (MET) :             0.019ns  (arrival time - required time)
  Source:                 shift_reg_tap_o/sr_p.sr_1[31]/C
                            (rising edge-triggered cell FDRE clocked by clk  {rise@0.000ns fall@6.250ns period=12.500ns})
  Destination:            shift_reg_tap_o/sr_p.sr_2[31]/D
                            (rising edge-triggered cell FDRE clocked by clk  {rise@0.000ns fall@6.250ns period=12.500ns})
  Path Group:             clk
  Path Type:              Hold (Min at Slow Process Corner)
  Requirement:            0.000ns  (clk rise@0.000ns - clk rise@0.000ns)
  Data Path Delay:        0.192ns  (logic 0.072ns (37.500%)  route 0.120ns (62.500%))
  Logic Levels:           0  
  Clock Path Skew:        0.118ns (DCD - SCD - CPR)
    Destination Clock Delay (DCD):    3.636ns
    Source Clock Delay      (SCD):    3.036ns
    Clock Pessimism Removal (CPR):    0.482ns
  Clock Net Delay (Source):      2.206ns (routing 1.362ns, distribution 0.844ns)
  Clock Net Delay (Destination): 2.495ns (routing 1.491ns, distribution 1.004ns)

    Location             Delay type                Incr(ns)  Path(ns)    Netlist Resource(s)
  -------------------------------------------------------------------    -------------------
                         (clock clk rise edge)        0.000     0.000 r  
    AV33                                              0.000     0.000 r  clk (IN)
                         net (fo=0)                   0.000     0.000    clk_ibuf_iso/I
    AV33                 INBUF (Prop_INBUF_HPIOB_M_PAD_O)
                                                      0.510     0.510 r  clk_ibuf_iso/INBUF_INST/O
                         net (fo=1, routed)           0.000     0.510    clk_ibuf_iso/OUT
    AV33                 IBUFCTRL (Prop_IBUFCTRL_HPIOB_M_I_O)
                                                      0.000     0.510 r  clk_ibuf_iso/IBUFCTRL_INST/O
                         net (fo=1, routed)           0.296     0.806    clk_ibuf_iso
    BUFGCE_X1Y224        BUFGCE (Prop_BUFCE_BUFGCE_I_O)
                                                      0.024     0.830 r  clk_ibuf/O
    X2Y7 (CLOCK_ROOT)    net (fo=14452, routed)       2.206     3.036    shift_reg_tap_o/clk_c
    SLICE_X67Y495        FDRE                                         r  shift_reg_tap_o/sr_p.sr_1[31]/C
  -------------------------------------------------------------------    -------------------
    SLICE_X67Y495        FDRE (Prop_FFF2_SLICEL_C_Q)
                                                      0.072     3.108 f  shift_reg_tap_o/sr_p.sr_1[31]/Q
                         net (fo=1, routed)           0.120     3.228    shift_reg_tap_o/sr_1[31]
    SLICE_X69Y492        FDRE                                         f  shift_reg_tap_o/sr_p.sr_2[31]/D
  -------------------------------------------------------------------    -------------------

                         (clock clk rise edge)        0.000     0.000 r  
    AV33                                              0.000     0.000 r  clk (IN)
                         net (fo=0)                   0.000     0.000    clk_ibuf_iso/I
    AV33                 INBUF (Prop_INBUF_HPIOB_M_PAD_O)
                                                      0.779     0.779 r  clk_ibuf_iso/INBUF_INST/O
                         net (fo=1, routed)           0.000     0.779    clk_ibuf_iso/OUT
    AV33                 IBUFCTRL (Prop_IBUFCTRL_HPIOB_M_I_O)
                                                      0.000     0.779 r  clk_ibuf_iso/IBUFCTRL_INST/O
                         net (fo=1, routed)           0.334     1.113    clk_ibuf_iso
    BUFGCE_X1Y224        BUFGCE (Prop_BUFCE_BUFGCE_I_O)
                                                      0.028     1.141 r  clk_ibuf/O
    X2Y7 (CLOCK_ROOT)    net (fo=14452, routed)       2.495     3.636    shift_reg_tap_o/clk_c
    SLICE_X69Y492        FDRE                                         r  shift_reg_tap_o/sr_p.sr_2[31]/C
                         clock pessimism             -0.482     3.154    
    SLICE_X69Y492        FDRE (Hold_HFF2_SLICEL_C_D)
                                                      0.055     3.209    shift_reg_tap_o/sr_p.sr_2[31]
  -------------------------------------------------------------------
                         required time                         -3.209    
                         arrival time                           3.228    
  -------------------------------------------------------------------
                         slack                                  0.019    

Slack (MET) :             0.019ns  (arrival time - required time)
  Source:                 shift_reg_tap_o/sr_p.sr_6[184]/C
                            (rising edge-triggered cell FDRE clocked by clk  {rise@0.000ns fall@6.250ns period=12.500ns})
  Destination:            shift_reg_tap_o/sr_p.sr_7[184]/D
                            (rising edge-triggered cell FDRE clocked by clk  {rise@0.000ns fall@6.250ns period=12.500ns})
  Path Group:             clk
  Path Type:              Hold (Min at Fast Process Corner)
  Requirement:            0.000ns  (clk rise@0.000ns - clk rise@0.000ns)
  Data Path Delay:        0.072ns  (logic 0.039ns (54.167%)  route 0.033ns (45.833%))
  Logic Levels:           0  
  Clock Path Skew:        0.006ns (DCD - SCD - CPR)
    Destination Clock Delay (DCD):    2.201ns
    Source Clock Delay      (SCD):    1.822ns
    Clock Pessimism Removal (CPR):    0.373ns
  Clock Net Delay (Source):      1.276ns (routing 0.768ns, distribution 0.508ns)
  Clock Net Delay (Destination): 1.429ns (routing 0.847ns, distribution 0.582ns)

    Location             Delay type                Incr(ns)  Path(ns)    Netlist Resource(s)
  -------------------------------------------------------------------    -------------------
                         (clock clk rise edge)        0.000     0.000 r  
    AV33                                              0.000     0.000 r  clk (IN)
                         net (fo=0)                   0.000     0.000    clk_ibuf_iso/I
    AV33                 INBUF (Prop_INBUF_HPIOB_M_PAD_O)
                                                      0.385     0.385 r  clk_ibuf_iso/INBUF_INST/O
                         net (fo=1, routed)           0.000     0.385    clk_ibuf_iso/OUT
    AV33                 IBUFCTRL (Prop_IBUFCTRL_HPIOB_M_I_O)
                                                      0.000     0.385 r  clk_ibuf_iso/IBUFCTRL_INST/O
                         net (fo=1, routed)           0.144     0.529    clk_ibuf_iso
    BUFGCE_X1Y224        BUFGCE (Prop_BUFCE_BUFGCE_I_O)
                                                      0.017     0.546 r  clk_ibuf/O
    X2Y7 (CLOCK_ROOT)    net (fo=14452, routed)       1.276     1.822    shift_reg_tap_o/clk_c
    SLICE_X57Y494        FDRE                                         r  shift_reg_tap_o/sr_p.sr_6[184]/C
  -------------------------------------------------------------------    -------------------
    SLICE_X57Y494        FDRE (Prop_BFF_SLICEL_C_Q)
                                                      0.039     1.861 r  shift_reg_tap_o/sr_p.sr_6[184]/Q
                         net (fo=1, routed)           0.033     1.894    shift_reg_tap_o/sr_6[184]
    SLICE_X57Y494        FDRE                                         r  shift_reg_tap_o/sr_p.sr_7[184]/D
  -------------------------------------------------------------------    -------------------

                         (clock clk rise edge)        0.000     0.000 r  
    AV33                                              0.000     0.000 r  clk (IN)
                         net (fo=0)                   0.000     0.000    clk_ibuf_iso/I
    AV33                 INBUF (Prop_INBUF_HPIOB_M_PAD_O)
                                                      0.572     0.572 r  clk_ibuf_iso/INBUF_INST/O
                         net (fo=1, routed)           0.000     0.572    clk_ibuf_iso/OUT
    AV33                 IBUFCTRL (Prop_IBUFCTRL_HPIOB_M_I_O)
                                                      0.000     0.572 r  clk_ibuf_iso/IBUFCTRL_INST/O
                         net (fo=1, routed)           0.181     0.753    clk_ibuf_iso
    BUFGCE_X1Y224        BUFGCE (Prop_BUFCE_BUFGCE_I_O)
                                                      0.019     0.772 r  clk_ibuf/O
    X2Y7 (CLOCK_ROOT)    net (fo=14452, routed)       1.429     2.201    shift_reg_tap_o/clk_c
    SLICE_X57Y494        FDRE                                         r  shift_reg_tap_o/sr_p.sr_7[184]/C
                         clock pessimism             -0.373     1.828    
    SLICE_X57Y494        FDRE (Hold_CFF2_SLICEL_C_D)
                                                      0.047     1.875    shift_reg_tap_o/sr_p.sr_7[184]
  -------------------------------------------------------------------
                         required time                         -1.875    
                         arrival time                           1.894    
  -------------------------------------------------------------------
                         slack                                  0.019    





Pulse Width Checks
--------------------------------------------------------------------------------------
Clock Name:         clk
Waveform(ns):       { 0.000 6.250 }
Period(ns):         12.500
Sources:            { clk }

Check Type        Corner  Lib Pin   Reference Pin  Required(ns)  Actual(ns)  Slack(ns)  Location        Pin
Min Period        n/a     BUFGCE/I  n/a            1.499         12.500      11.001     BUFGCE_X1Y224   clk_ibuf/I
Min Period        n/a     FDRE/C    n/a            0.550         12.500      11.950     SLICE_X104Y482  muon_sorter_1/sr_p.sr_1_12.roi_ret_2909/C
Min Period        n/a     FDRE/C    n/a            0.550         12.500      11.950     SLICE_X107Y486  muon_sorter_1/sr_p.sr_1_12.roi_ret_2911/C
Min Period        n/a     FDRE/C    n/a            0.550         12.500      11.950     SLICE_X91Y480   muon_sorter_1/sr_p.sr_1_12.roi_ret_2913/C
Min Period        n/a     FDRE/C    n/a            0.550         12.500      11.950     SLICE_X98Y484   muon_sorter_1/sr_p.sr_1_12.roi_ret_2915/C
Low Pulse Width   Fast    FDRE/C    n/a            0.275         6.250       5.975      SLICE_X95Y491   muon_sorter_1/sr_p.sr_1_9.sector_ret_522/C
Low Pulse Width   Fast    FDRE/C    n/a            0.275         6.250       5.975      SLICE_X73Y499   shift_reg_tap_i/sr_p.sr_13[150]/C
Low Pulse Width   Fast    FDRE/C    n/a            0.275         6.250       5.975      SLICE_X54Y498   shift_reg_tap_i/sr_p.sr_13[154]/C
Low Pulse Width   Fast    FDRE/C    n/a            0.275         6.250       5.975      SLICE_X88Y519   shift_reg_tap_i/sr_p.sr_5[500]/C
Low Pulse Width   Fast    FDRE/C    n/a            0.275         6.250       5.975      SLICE_X88Y519   shift_reg_tap_i/sr_p.sr_5[501]/C
High Pulse Width  Slow    FDRE/C    n/a            0.275         6.250       5.975      SLICE_X96Y486   muon_sorter_1/sr_p.sr_1_12.roi_ret_2920/C
High Pulse Width  Slow    FDRE/C    n/a            0.275         6.250       5.975      SLICE_X62Y492   muon_sorter_1/sr_p.sr_1_7.roi_ret_91/C
High Pulse Width  Slow    FDRE/C    n/a            0.275         6.250       5.975      SLICE_X99Y479   muon_sorter_1/sr_p.sr_1_7.roi_ret_96_1_rep_0/C
High Pulse Width  Slow    FDRE/C    n/a            0.275         6.250       5.975      SLICE_X95Y491   muon_sorter_1/sr_p.sr_1_9.sector_ret_522/C
High Pulse Width  Slow    FDRE/C    n/a            0.275         6.250       5.975      SLICE_X52Y486   shift_reg_tap_i/sr_p.sr_13[140]/C



---------------------------------------------------------------------------------------------------
From Clock:  clk_wrapper
  To Clock:  clk_wrapper

Setup :           NA  Failing Endpoints,  Worst Slack           NA  ,  Total Violation           NA
Hold  :           NA  Failing Endpoints,  Worst Slack           NA  ,  Total Violation           NA
PW    :            0  Failing Endpoints,  Worst Slack      498.562ns,  Total Violation        0.000ns
---------------------------------------------------------------------------------------------------


Pulse Width Checks
--------------------------------------------------------------------------------------
Clock Name:         clk_wrapper
Waveform(ns):       { 0.000 500.000 }
Period(ns):         1000.000
Sources:            { clk_wrapper }

Check Type        Corner  Lib Pin   Reference Pin  Required(ns)  Actual(ns)  Slack(ns)  Location               Pin
Min Period        n/a     FDRE/C    n/a            3.195         1000.000    996.805    BITSLICE_RX_TX_X1Y483  reducer_1/delay_block[4][0]/C
Min Period        n/a     BUFGCE/I  n/a            1.499         1000.000    998.501    BUFGCE_X1Y230          clk_wrapper_ibuf/I
Min Period        n/a     FDRE/C    n/a            0.550         1000.000    999.450    SLICE_X83Y527          lsfr_1/output_vector_1[511]/C
Min Period        n/a     FDRE/C    n/a            0.550         1000.000    999.450    SLICE_X101Y527         lsfr_1/shiftreg_vector[0]/C
Min Period        n/a     FDRE/C    n/a            0.550         1000.000    999.450    SLICE_X55Y465          lsfr_1/shiftreg_vector[100]/C
Low Pulse Width   Slow    FDRE/C    n/a            1.438         500.000     498.562    BITSLICE_RX_TX_X1Y483  reducer_1/delay_block[4][0]/C
Low Pulse Width   Fast    FDRE/C    n/a            1.438         500.000     498.562    BITSLICE_RX_TX_X1Y483  reducer_1/delay_block[4][0]/C
Low Pulse Width   Slow    FDRE/C    n/a            0.275         500.000     499.725    SLICE_X101Y527         lsfr_1/shiftreg_vector[0]/C
Low Pulse Width   Slow    FDRE/C    n/a            0.275         500.000     499.725    SLICE_X47Y476          lsfr_1/shiftreg_vector[121]/C
Low Pulse Width   Slow    FDRE/C    n/a            0.275         500.000     499.725    SLICE_X47Y476          lsfr_1/shiftreg_vector[122]/C
High Pulse Width  Fast    FDRE/C    n/a            1.438         500.000     498.562    BITSLICE_RX_TX_X1Y483  reducer_1/delay_block[4][0]/C
High Pulse Width  Slow    FDRE/C    n/a            1.438         500.000     498.562    BITSLICE_RX_TX_X1Y483  reducer_1/delay_block[4][0]/C
High Pulse Width  Fast    FDRE/C    n/a            0.275         500.000     499.725    SLICE_X83Y527          lsfr_1/output_vector_1[511]/C
High Pulse Width  Fast    FDRE/C    n/a            0.275         500.000     499.725    SLICE_X101Y527         lsfr_1/shiftreg_vector[0]/C
High Pulse Width  Fast    FDRE/C    n/a            0.275         500.000     499.725    SLICE_X55Y465          lsfr_1/shiftreg_vector[100]/C



