Copyright 1986-2018 Xilinx, Inc. All Rights Reserved.
------------------------------------------------------------------------------------
| Tool Version : Vivado v.2018.2 (win64) Build 2258646 Thu Jun 14 20:03:12 MDT 2018
| Date         : Mon Mar 11 22:09:09 2019
| Host         : PCPHESEBE02 running 64-bit Service Pack 1  (build 7601)
| Command      : report_high_fanout_nets -file fanout.txt -max_nets 200
| Design       : wrapper_csn
| Device       : xcvu9p
------------------------------------------------------------------------------------

High Fan-out Nets Information

1. Summary
----------

+--------------------------------------------------------------------+--------+-------------+
| Net Name                                                           | Fanout | Driver Type |
+--------------------------------------------------------------------+--------+-------------+
| dut_inst/stage_g.8.pair_g.1.csn_cmp_inst/un1_b_i_ac0_5_0_24        |     44 | LUT6        |
| dut_inst/stage_g.10.pair_g.1.csn_cmp_inst/un1_b_i_ac0_5_0_44       |     42 | LUT5        |
| dut_inst/stage_g.8.pair_g.0.csn_cmp_inst/N_1824                    |     40 | LUT5        |
| dut_inst/stage_g.4.pair_g.0.csn_cmp_inst/un1_b_i_ac0_5_0_15        |     39 | LUT5        |
| dut_inst/stage_g.9.pair_g.0.csn_cmp_inst/un1_b_i_d0_c3_RNIBVD4D_1z |     36 | LUT5        |
| dut_inst/stage_g.5.pair_g.2.csn_cmp_inst/un1_b_i_ac0_5_0_76        |     35 | LUT5        |
| dut_inst/stage_g.6.pair_g.0.csn_cmp_inst/un1_b_i_d0_c3_RNI6B474_1z |     35 | LUT6        |
| dut_inst/stage_g.10.pair_g.6.csn_cmp_inst/un1_b_i_ac0_5_0_31       |     34 | LUT6        |
| dut_inst/stage_g.2.pair_g.3.csn_cmp_inst/un1_b_i_ac0_5_0_54        |     34 | LUT5        |
| dut_inst/stage_g.4.pair_g.8.csn_cmp_inst/un1_b_i_ac0_5_0_85        |     34 | LUT5        |
| dut_inst/stage_g.4.pair_g.9.csn_cmp_inst/N_1347                    |     33 | LUT5        |
| dut_inst/stage_g.9.pair_g.1.csn_cmp_inst/un1_b_i_ac0_5_d_4         |     33 | LUT6        |
| dut_inst/stage_g.1.pair_g.4.csn_cmp_inst/un1_b_i_ac0_5_0_78        |     32 | LUT6        |
| dut_inst/stage_g.8.pair_g.0.csn_cmp_inst/un1_b_i_c4_1              |     32 | LUT5        |
| dut_inst/stage_g.5.pair_g.5.csn_cmp_inst/un1_b_i_ac0_5_0_69        |     31 | LUT5        |
| dut_inst/stage_g.0.pair_g.0.csn_cmp_inst/un1_b_i_ac0_5_0_3         |     30 | LUT5        |
| dut_inst/stage_g.5.pair_g.3.csn_cmp_inst/un1_b_i_ac0_5_0_74        |     30 | LUT5        |
| dut_inst/stage_g.9.pair_g.1.csn_cmp_inst/un1_b_i_ac0_5_0_0_65      |     30 | LUT4        |
| dut_inst/stage_g.9.pair_g.3.csn_cmp_inst/un1_b_i_ac0_5_0_64        |     30 | LUT6        |
| dut_inst/stage_g.1.pair_g.7.csn_cmp_inst/un1_b_i_ac0_5_0_73        |     29 | LUT6        |
| dut_inst/stage_g.10.pair_g.2.csn_cmp_inst/un1_b_i_ac0_5_0_41       |     29 | LUT6        |
| dut_inst/stage_g.10.pair_g.5.csn_cmp_inst/un1_b_i_ac0_5_0_33       |     29 | LUT6        |
| dut_inst/stage_g.2.pair_g.7.csn_cmp_inst/un1_b_i_ac0_5_0_47        |     29 | LUT5        |
| dut_inst/stage_g.4.pair_g.1.csn_cmp_inst/un1_b_i_ac0_5_0_14        |     29 | LUT5        |
| shift_reg_tap_i/input_slr[16]                                      |     29 | FDRE        |
| shift_reg_tap_i/input_slr[3]                                       |     29 | FDRE        |
| dut_inst/stage_g.10.pair_g.4.csn_cmp_inst/un1_b_i_ac0_5_0_35       |     28 | LUT6        |
| dut_inst/stage_g.2.pair_g.4.csn_cmp_inst/un1_b_i_ac0_5_0_52        |     28 | LUT5        |
| dut_inst/stage_g.4.pair_g.9.csn_cmp_inst/N_1353                    |     28 | LUT6        |
| dut_inst/stage_g.6.pair_g.7.csn_cmp_inst/un1_b_i_ac0_5_0_37        |     28 | LUT5        |
| dut_inst/stage_g.10.pair_g.3.csn_cmp_inst/un1_b_i_ac0_5_0_38       |     27 | LUT6        |
| dut_inst/stage_g.2.pair_g.6.csn_cmp_inst/un1_b_i_ac0_5_0_49        |     27 | LUT5        |
| dut_inst/stage_g.8.pair_g.6.csn_cmp_inst/un1_b_i_ac0_5_d_1         |     27 | LUT6        |
| dut_inst/stage_g.9.pair_g.5.csn_cmp_inst/un1_b_i_ac0_5_0_58        |     27 | LUT6        |
| shift_reg_tap_i/input_slr[55]                                      |     27 | FDRE        |
| shift_reg_tap_i/input_slr[68]                                      |     27 | FDRE        |
| dut_inst/stage_g.4.pair_g.7.csn_cmp_inst/un1_b_i_ac0_5_0_10        |     26 | LUT5        |
| dut_inst/stage_g.7.pair_g.0.csn_cmp_inst/un1_b_i_c4_3              |     26 | LUT5        |
| dut_inst/stage_g.8.pair_g.2.csn_cmp_inst/un1_b_i_ac0_5_0_88        |     26 | LUT5        |
| dut_inst/stage_g.2.pair_g.0.csn_cmp_inst/un1_b_i_ac0_5_0_62        |     25 | LUT5        |
| dut_inst/stage_g.4.pair_g.9.csn_cmp_inst/N_927                     |     25 | LUT6        |
| dut_inst/stage_g.5.pair_g.1.csn_cmp_inst/un1_b_i_s0_1              |     25 | LUT5        |
| dut_inst/stage_g.5.pair_g.1.csn_cmp_inst/un1_b_i_s1_2              |     25 | LUT5        |
| dut_inst/stage_g.10.pair_g.0.csn_cmp_inst/N_199                    |     24 | LUT6        |
| dut_inst/stage_g.11.pair_g.0.csn_cmp_inst/N_208                    |     24 | LUT6        |
| dut_inst/stage_g.4.pair_g.9.csn_cmp_inst/N_1350                    |     24 | LUT5        |
| dut_inst/stage_g.4.pair_g.9.csn_cmp_inst/N_1363                    |     24 | LUT6        |
| dut_inst/stage_g.4.pair_g.9.csn_cmp_inst/N_1435                    |     24 | LUT5        |
| dut_inst/stage_g.5.pair_g.9.csn_cmp_inst/un1_b_i_ac0_5_0_57        |     24 | LUT5        |
| dut_inst/stage_g.6.pair_g.6.csn_cmp_inst/un1_b_i_ac0_5_0_40        |     24 | LUT5        |
| dut_inst/stage_g.8.pair_g.6.csn_cmp_inst/un1_b_i_ac0_5_0_0_16      |     24 | LUT6        |
| dut_inst/stage_g.1.pair_g.2.csn_cmp_inst/un1_b_i_ac0_5_0_81        |     23 | LUT6        |
| dut_inst/stage_g.4.pair_g.9.csn_cmp_inst/N_421_0                   |     23 | LUT4        |
| dut_inst/stage_g.6.pair_g.3.csn_cmp_inst/un1_b_i_ac0_5_0_48        |     23 | LUT5        |
| dut_inst/stage_g.8.pair_g.7.csn_cmp_inst/un1_b_i_c4_4              |     23 | LUT3        |
| dut_inst/stage_g.9.pair_g.6.csn_cmp_inst/un1_b_i_ac0_5_0_55        |     23 | LUT6        |
| dut_inst/stage_g.0.pair_g.3.csn_cmp_inst/un1_b_i_ac0_5_0_7         |     22 | LUT5        |
| dut_inst/stage_g.1.pair_g.10.csn_cmp_inst/un1_b_i_ac0_5_0_65       |     22 | LUT6        |
| dut_inst/stage_g.1.pair_g.8.csn_cmp_inst/un1_b_i_ac0_5_0_71        |     22 | LUT6        |
| dut_inst/stage_g.1.pair_g.9.csn_cmp_inst/un1_b_i_ac0_5_0_68        |     22 | LUT6        |
| dut_inst/stage_g.11.pair_g.1.csn_cmp_inst/un1_b_i_ac0_5_0_0_1      |     22 | LUT6        |
| dut_inst/stage_g.11.pair_g.1.csn_cmp_inst/un1_b_i_ac0_5_d_0_1      |     22 | LUT6        |
| dut_inst/stage_g.11.pair_g.5.csn_cmp_inst/un1_b_i_ac0_5_0_0_0      |     22 | LUT6        |
| dut_inst/stage_g.11.pair_g.5.csn_cmp_inst/un1_b_i_ac0_5_d_0_0      |     22 | LUT6        |
| dut_inst/stage_g.2.pair_g.2.csn_cmp_inst/un1_b_i_ac0_5_0_56        |     22 | LUT5        |
| dut_inst/stage_g.2.pair_g.5.csn_cmp_inst/un1_b_i_ac0_5_0_51        |     22 | LUT5        |
| dut_inst/stage_g.4.pair_g.9.csn_cmp_inst/N_924                     |     22 | LUT6        |
| dut_inst/stage_g.5.pair_g.7.csn_cmp_inst/pt_34_0                   |     22 | LUT4        |
| dut_inst/stage_g.5.pair_g.9.csn_cmp_inst/pt_33_0                   |     22 | LUT4        |
| dut_inst/stage_g.8.pair_g.4.csn_cmp_inst/un1_b_i_ac0_5_0_86        |     22 | LUT5        |
| dut_inst/stage_g.3.pair_g.9.csn_cmp_inst/un1_b_i_ac0_5_0_20        |     21 | LUT5        |
| dut_inst/stage_g.4.pair_g.9.csn_cmp_inst/N_922                     |     21 | LUT5        |
| dut_inst/stage_g.5.pair_g.0.csn_cmp_inst/un1_b_i_s1_3              |     21 | LUT5        |
| dut_inst/stage_g.5.pair_g.8.csn_cmp_inst/un1_b_i_ac0_5_0_60        |     21 | LUT5        |
| dut_inst/stage_g.7.pair_g.5.csn_cmp_inst/un1_b_i_ac0_5_0_5         |     21 | LUT6        |
| dut_inst/stage_g.7.pair_g.8.csn_cmp_inst/un1_b_i_c4_0              |     21 | LUT6        |
| dut_inst/stage_g.8.pair_g.5.csn_cmp_inst/un1_b_i_ac0_5_0_83        |     21 | LUT6        |
| dut_inst/stage_g.0.pair_g.2.csn_cmp_inst/un1_b_i_ac0_5_0_0_52      |     20 | LUT4        |
| dut_inst/stage_g.0.pair_g.2.csn_cmp_inst/un1_b_i_ac0_5_d_0_50      |     20 | LUT4        |
| dut_inst/stage_g.1.pair_g.5.csn_cmp_inst/un1_b_i_ac0_5_0_77        |     20 | LUT6        |
| dut_inst/stage_g.1.pair_g.6.csn_cmp_inst/un1_b_i_ac0_5_0_75        |     20 | LUT6        |
| dut_inst/stage_g.11.pair_g.3.csn_cmp_inst/un1_b_i_ac0_5_0_0_15     |     20 | LUT6        |
| dut_inst/stage_g.11.pair_g.3.csn_cmp_inst/un1_b_i_ac0_5_d_0_15     |     20 | LUT6        |
| dut_inst/stage_g.3.pair_g.4.csn_cmp_inst/un1_b_i_ac0_5_0_29        |     20 | LUT5        |
| dut_inst/stage_g.3.pair_g.7.csn_cmp_inst/un1_b_i_ac0_5_0_4         |     20 | LUT5        |
| dut_inst/stage_g.4.pair_g.9.csn_cmp_inst/N_765_0                   |     20 | LUT4        |
| dut_inst/stage_g.5.pair_g.0.csn_cmp_inst/un1_b_i_s0_2              |     20 | LUT5        |
| dut_inst/stage_g.5.pair_g.4.csn_cmp_inst/un1_b_i_ac0_5_0_72        |     20 | LUT5        |
| dut_inst/stage_g.5.pair_g.7.csn_cmp_inst/un1_b_i_ac0_5_0_63        |     20 | LUT5        |
| dut_inst/stage_g.7.pair_g.6.csn_cmp_inst/un1_b_i_ac0_5_0_9         |     20 | LUT5        |
| dut_inst/stage_g.9.pair_g.4.csn_cmp_inst/un1_b_i_ac0_5_0_61        |     20 | LUT6        |
| dut_inst/stage_g.9.pair_g.7.csn_cmp_inst/un1_b_i_ac0_5_0_0_67      |     20 | LUT5        |
| dut_inst/stage_g.9.pair_g.7.csn_cmp_inst/un1_b_i_ac0_5_d_5         |     20 | LUT6        |
| shift_reg_tap_i/input_slr[120]                                     |     20 | FDRE        |
| dut_inst/stage_g.0.pair_g.2.csn_cmp_inst/un1_b_i_c2_56             |     19 | LUT4        |
| dut_inst/stage_g.11.pair_g.3.csn_cmp_inst/un1_b_i_c2_15            |     19 | LUT6        |
| dut_inst/stage_g.3.pair_g.1.csn_cmp_inst/un1_b_i_ac0_5_0_34        |     19 | LUT5        |
| dut_inst/stage_g.3.pair_g.2.csn_cmp_inst/un1_b_i_ac0_5_0_32        |     19 | LUT5        |
| dut_inst/stage_g.3.pair_g.6.csn_cmp_inst/un1_b_i_ac0_5_0_27        |     19 | LUT5        |
| dut_inst/stage_g.5.pair_g.6.csn_cmp_inst/un1_b_i_ac0_5_0_66        |     19 | LUT5        |
| dut_inst/stage_g.6.pair_g.4.csn_cmp_inst/un1_b_i_ac0_5_0_46        |     19 | LUT5        |
| dut_inst/stage_g.7.pair_g.7.csn_cmp_inst/un1_b_i_s0                |     19 | LUT2        |
| dut_inst/stage_g.0.pair_g.10.csn_cmp_inst/un1_b_i_ac0_5_0_0_53     |     18 | LUT4        |
| dut_inst/stage_g.0.pair_g.10.csn_cmp_inst/un1_b_i_ac0_5_d_0_51     |     18 | LUT4        |
| dut_inst/stage_g.0.pair_g.5.csn_cmp_inst/un1_b_i_ac0_5_0_13        |     18 | LUT5        |
| dut_inst/stage_g.1.pair_g.0.csn_cmp_inst/un1_b_i_ac0_5_0_87        |     18 | LUT6        |
| dut_inst/stage_g.1.pair_g.3.csn_cmp_inst/un1_b_i_ac0_5_0_79        |     18 | LUT6        |
| dut_inst/stage_g.11.pair_g.1.csn_cmp_inst/un1_b_i_c2_0             |     18 | LUT6        |
| dut_inst/stage_g.11.pair_g.5.csn_cmp_inst/un1_b_i_c2_0             |     18 | LUT4        |
| dut_inst/stage_g.2.pair_g.1.csn_cmp_inst/un1_b_i_ac0_5_0_59        |     18 | LUT5        |
| dut_inst/stage_g.3.pair_g.0.csn_cmp_inst/un1_b_i_ac0_5_0_36        |     18 | LUT5        |
| dut_inst/stage_g.3.pair_g.10.csn_cmp_inst/un1_b_i_ac0_5_0_8        |     18 | LUT5        |
| dut_inst/stage_g.3.pair_g.3.csn_cmp_inst/un1_b_i_ac0_5_0_30        |     18 | LUT5        |
| dut_inst/stage_g.3.pair_g.8.csn_cmp_inst/un1_b_i_ac0_5_0_26        |     18 | LUT5        |
| dut_inst/stage_g.4.pair_g.9.csn_cmp_inst/N_422_0                   |     18 | LUT4        |
| dut_inst/stage_g.6.pair_g.2.csn_cmp_inst/un1_b_i_ac0_5_0_50        |     18 | LUT5        |
| dut_inst/stage_g.6.pair_g.5.csn_cmp_inst/un1_b_i_ac0_5_0_43        |     18 | LUT5        |
| dut_inst/stage_g.7.pair_g.1.csn_cmp_inst/un1_b_i_c4_2              |     18 | LUT6        |
| dut_inst/stage_g.7.pair_g.3.csn_cmp_inst/un1_b_i_ac0_5_0_6         |     18 | LUT5        |
| dut_inst/stage_g.7.pair_g.5.csn_cmp_inst/un1_b_i_ac0_5_0_0_3       |     18 | LUT4        |
| dut_inst/stage_g.7.pair_g.9.csn_cmp_inst/un1_b_i_c4_1z             |     18 | LUT5        |
| dut_inst/stage_g.9.pair_g.2.csn_cmp_inst/un1_b_i_ac0_5_0_67        |     18 | LUT5        |
| shift_reg_tap_i/input_slr[42]                                      |     18 | FDRE        |
| dut_inst/stage_g.0.pair_g.10.csn_cmp_inst/un1_b_i_c2_57            |     17 | LUT4        |
| dut_inst/stage_g.0.pair_g.8.csn_cmp_inst/un1_b_i_ac0_5_0_92        |     17 | LUT5        |
| dut_inst/stage_g.1.pair_g.1.csn_cmp_inst/un1_b_i_ac0_5_0_84        |     17 | LUT6        |
| dut_inst/stage_g.9.pair_g.7.csn_cmp_inst/un1_b_i_ac0_5_0_53        |     17 | LUT6        |
| shift_reg_tap_i/input_slr[94]                                      |     17 | FDRE        |
| dut_inst/stage_g.0.pair_g.1.csn_cmp_inst/un1_b_i_ac0_5_0_0_51      |     16 | LUT4        |
| dut_inst/stage_g.0.pair_g.1.csn_cmp_inst/un1_b_i_ac0_5_d_0_49      |     16 | LUT4        |
| dut_inst/stage_g.0.pair_g.4.csn_cmp_inst/un1_b_i_ac0_5_0_0_49      |     16 | LUT4        |
| dut_inst/stage_g.0.pair_g.4.csn_cmp_inst/un1_b_i_ac0_5_d_0_47      |     16 | LUT4        |
| dut_inst/stage_g.0.pair_g.9.csn_cmp_inst/un1_b_i_ac0_5_0_11        |     16 | LUT5        |
| dut_inst/stage_g.11.pair_g.2.csn_cmp_inst/un1_b_i_ac0_5_0          |     16 | LUT5        |
| dut_inst/stage_g.11.pair_g.4.csn_cmp_inst/un1_b_i_ac0_5_0_93       |     16 | LUT3        |
| dut_inst/stage_g.3.pair_g.5.csn_cmp_inst/un1_b_i_ac0_5_0_28        |     16 | LUT5        |
| dut_inst/stage_g.4.pair_g.3.csn_cmp_inst/un1_b_i_ac0_5_0_0_24      |     16 | LUT4        |
| dut_inst/stage_g.4.pair_g.3.csn_cmp_inst/un1_b_i_ac0_5_d_0_22      |     16 | LUT4        |
| dut_inst/stage_g.4.pair_g.4.csn_cmp_inst/un1_b_i_ac0_5_0_16        |     16 | LUT5        |
| dut_inst/stage_g.4.pair_g.6.csn_cmp_inst/un1_b_i_ac0_5_0_90        |     16 | LUT5        |
| dut_inst/stage_g.4.pair_g.9.csn_cmp_inst/N_1180                    |     16 | LUT4        |
| dut_inst/stage_g.4.pair_g.9.csn_cmp_inst/N_404_0                   |     16 | LUT4        |
| dut_inst/stage_g.4.pair_g.9.csn_cmp_inst/i437_mux                  |     16 | LUT4        |
| dut_inst/stage_g.5.pair_g.4.csn_cmp_inst/un1_b_i_ac0_5_0_0_21      |     16 | LUT4        |
| dut_inst/stage_g.6.pair_g.5.csn_cmp_inst/pt_17_0                   |     16 | LUT4        |
| dut_inst/stage_g.6.pair_g.7.csn_cmp_inst/un1_b_i_ac0_5_0_0_11      |     16 | LUT4        |
| dut_inst/stage_g.7.pair_g.7.csn_cmp_inst/un1_b_i_s1                |     16 | LUT2        |
| dut_inst/stage_g.8.pair_g.3.csn_cmp_inst/un1_b_i_ac0_5_0_21        |     16 | LUT5        |
| shift_reg_tap_i/input_slr[159]                                     |     16 | FDRE        |
| shift_reg_tap_i/input_slr[81]                                      |     16 | FDRE        |
| dut_inst/stage_g.0.pair_g.1.csn_cmp_inst/un1_b_i_c2_55             |     15 | LUT4        |
| dut_inst/stage_g.0.pair_g.4.csn_cmp_inst/un1_b_i_c2_53             |     15 | LUT4        |
| dut_inst/stage_g.2.pair_g.10.csn_cmp_inst/un1_b_i_ac0_5_0_39       |     15 | LUT5        |
| dut_inst/stage_g.2.pair_g.9.csn_cmp_inst/un1_b_i_ac0_5_0_0_38      |     15 | LUT4        |
| dut_inst/stage_g.2.pair_g.9.csn_cmp_inst/un1_b_i_ac0_5_d_0_36      |     15 | LUT4        |
| dut_inst/stage_g.4.pair_g.3.csn_cmp_inst/un1_b_i_c2_27             |     15 | LUT6        |
| dut_inst/stage_g.4.pair_g.5.csn_cmp_inst/un1_b_i_ac0_5_0_23        |     15 | LUT5        |
| dut_inst/stage_g.4.pair_g.9.csn_cmp_inst/un1_b_i_ac0_5_0_0_23      |     15 | LUT4        |
| dut_inst/stage_g.4.pair_g.9.csn_cmp_inst/un1_b_i_ac0_5_d_0_21      |     15 | LUT4        |
| dut_inst/stage_g.6.pair_g.2.csn_cmp_inst/un1_b_i_ac0_5_0_0_56      |     15 | LUT4        |
| dut_inst/stage_g.6.pair_g.7.csn_cmp_inst/un1_b_i_ac0_5_d_1z        |     15 | LUT5        |
| dut_inst/stage_g.7.pair_g.4.csn_cmp_inst/un1_b_i_ac0_5_0_19        |     15 | LUT5        |
| shift_reg_tap_i/input_slr[276]                                     |     15 | FDRE        |
| shift_reg_tap_i/input_slr[29]                                      |     15 | FDRE        |
| shift_reg_tap_i/sr_1_fast_183                                      |     15 | FDRE        |
| dut_inst/stage_g.0.pair_g.6.csn_cmp_inst/un1_b_i_ac0_5_0_0_1z      |     14 | LUT4        |
| dut_inst/stage_g.0.pair_g.6.csn_cmp_inst/un1_b_i_ac0_5_0_2         |     14 | LUT5        |
| dut_inst/stage_g.0.pair_g.6.csn_cmp_inst/un1_b_i_ac0_5_d_0_1z      |     14 | LUT4        |
| dut_inst/stage_g.0.pair_g.7.csn_cmp_inst/un1_b_i_ac0_5_0_0_54      |     14 | LUT4        |
| dut_inst/stage_g.0.pair_g.7.csn_cmp_inst/un1_b_i_ac0_5_d_0_52      |     14 | LUT4        |
| dut_inst/stage_g.2.pair_g.8.csn_cmp_inst/un1_b_i_ac0_5_0_45        |     14 | LUT5        |
| dut_inst/stage_g.3.pair_g.4.csn_cmp_inst/pt_13[3]                  |     14 | LUT4        |
| dut_inst/stage_g.4.pair_g.9.csn_cmp_inst/N_102_0                   |     14 | LUT4        |
| dut_inst/stage_g.4.pair_g.9.csn_cmp_inst/N_707_0                   |     14 | LUT4        |
| dut_inst/stage_g.4.pair_g.9.csn_cmp_inst/un1_b_i_c2_26             |     14 | LUT6        |
| shift_reg_tap_i/input_slr[263]                                     |     14 | FDRE        |
| shift_reg_tap_i/input_slr_fast_0                                   |     14 | FDRE        |
| shift_reg_tap_i/sr_1_fast_196                                      |     14 | FDRE        |
| dut_inst/stage_g.0.pair_g.6.csn_cmp_inst/un1_b_i_c2_1z             |     13 | LUT4        |
| dut_inst/stage_g.0.pair_g.7.csn_cmp_inst/un1_b_i_c2_58             |     13 | LUT4        |
| dut_inst/stage_g.2.pair_g.8.csn_cmp_inst/un1_b_i_ac0_5_0_0_41      |     13 | LUT4        |
| dut_inst/stage_g.2.pair_g.8.csn_cmp_inst/un1_b_i_ac0_5_d_0_39      |     13 | LUT4        |
| dut_inst/stage_g.3.pair_g.5.csn_cmp_inst/pt_28_3                   |     13 | LUT4        |
| dut_inst/stage_g.4.pair_g.2.csn_cmp_inst/un1_b_i_ac0_5_0_12        |     13 | LUT5        |
| dut_inst/stage_g.4.pair_g.9.csn_cmp_inst/N_100_0                   |     13 | LUT6        |
| dut_inst/stage_g.4.pair_g.9.csn_cmp_inst/N_74_0                    |     13 | LUT6        |
| dut_inst/stage_g.4.pair_g.9.csn_cmp_inst/N_789_0                   |     13 | LUT4        |
| dut_inst/stage_g.4.pair_g.9.csn_cmp_inst/N_89_0                    |     13 | LUT6        |
| dut_inst/stage_g.4.pair_g.9.csn_cmp_inst/N_97_0                    |     13 | LUT6        |
| dut_inst/stage_g.4.pair_g.9.csn_cmp_inst/un1_b_i_ac0_5_0_82        |     13 | LUT5        |
| dut_inst/stage_g.7.pair_g.3.csn_cmp_inst/pt_6[2]                   |     13 | LUT4        |
| dut_inst/stage_g.8.pair_g.7.csn_cmp_inst/un1_b_i_c3_2              |     13 | LUT6        |
| shift_reg_tap_i/input_slr[237]                                     |     13 | FDRE        |
| shift_reg_tap_i/sr_1_fast_27                                       |     13 | FDRE        |
| shift_reg_tap_i/sr_1_fast_92                                       |     13 | FDRE        |
| dut_inst/stage_g.0.pair_g.7.csn_cmp_inst/un1_b_i_ac0_5_0_17        |     12 | LUT5        |
| dut_inst/stage_g.0.pair_g.8.csn_cmp_inst/un1_b_i_ac0_5_0_0_50      |     12 | LUT4        |
| dut_inst/stage_g.0.pair_g.8.csn_cmp_inst/un1_b_i_ac0_5_d_0_48      |     12 | LUT4        |
| dut_inst/stage_g.0.pair_g.9.csn_cmp_inst/un1_b_i_ac0_5_0_0_7       |     12 | LUT4        |
| dut_inst/stage_g.0.pair_g.9.csn_cmp_inst/un1_b_i_ac0_5_d_0_7       |     12 | LUT4        |
+--------------------------------------------------------------------+--------+-------------+


