Copyright 1986-2018 Xilinx, Inc. All Rights Reserved.
-------------------------------------------------------------------------------------------------
| Tool Version      : Vivado v.2018.2 (win64) Build 2258646 Thu Jun 14 20:03:12 MDT 2018
| Date              : Mon Mar 11 18:20:34 2019
| Host              : PCPHESEBE02 running 64-bit Service Pack 1  (build 7601)
| Command           : report_timing_summary -setup -nworst 5 -max_paths 5 -file timing_setup.txt
| Design            : wrapper_csn
| Device            : xcvu9p-flgc2104
| Speed File        : -1  PRODUCTION 1.20 05-21-2018
| Temperature Grade : E
-------------------------------------------------------------------------------------------------

Timing Summary Report

------------------------------------------------------------------------------------------------
| Timer Settings
| --------------
------------------------------------------------------------------------------------------------

  Enable Multi Corner Analysis               :  Yes
  Enable Pessimism Removal                   :  Yes
  Pessimism Removal Resolution               :  Nearest Common Node
  Enable Input Delay Default Clock           :  No
  Enable Preset / Clear Arcs                 :  No
  Disable Flight Delays                      :  No
  Ignore I/O Paths                           :  No
  Timing Early Launch at Borrowing Latches   :  false

  Corner  Analyze    Analyze    
  Name    Max Paths  Min Paths  
  ------  ---------  ---------  
  Slow    Yes        Yes        
  Fast    Yes        Yes        



check_timing report

Table of Contents
-----------------
1. checking no_clock
2. checking constant_clock
3. checking pulse_width_clock
4. checking unconstrained_internal_endpoints
5. checking no_input_delay
6. checking no_output_delay
7. checking multiple_clock
8. checking generated_clocks
9. checking loops
10. checking partial_input_delay
11. checking partial_output_delay
12. checking latch_loops

1. checking no_clock
--------------------
 There are 0 register/latch pins with no clock.


2. checking constant_clock
--------------------------
 There are 0 register/latch pins with constant_clock.


3. checking pulse_width_clock
-----------------------------
 There are 0 register/latch pins which need pulse_width check


4. checking unconstrained_internal_endpoints
--------------------------------------------
 There are 0 pins that are not constrained for maximum delay.

 There are 0 pins that are not constrained for maximum delay due to constant clock.


5. checking no_input_delay
--------------------------
 There is 1 input port with no input delay specified. (HIGH)

 There are 0 input ports with no input delay but user has a false path constraint.


6. checking no_output_delay
---------------------------
 There is 1 port with no output delay specified. (HIGH)

 There are 0 ports with no output delay but user has a false path constraint

 There are 0 ports with no output delay but with a timing clock defined on it or propagating through it


7. checking multiple_clock
--------------------------
 There are 0 register/latch pins with multiple clocks.


8. checking generated_clocks
----------------------------
 There are 0 generated clocks that are not connected to a clock source.


9. checking loops
-----------------
 There are 0 combinational loops in the design.


10. checking partial_input_delay
--------------------------------
 There are 0 input ports with partial input delay specified.


11. checking partial_output_delay
---------------------------------
 There are 0 ports with partial output delay specified.


12. checking latch_loops
------------------------
 There are 0 combinational latch loops in the design through latch input



------------------------------------------------------------------------------------------------
| Design Timing Summary
| ---------------------
------------------------------------------------------------------------------------------------

    WNS(ns)      TNS(ns)  TNS Failing Endpoints  TNS Total Endpoints     WPWS(ns)     TPWS(ns)  TPWS Failing Endpoints  TPWS Total Endpoints  
    -------      -------  ---------------------  -------------------     --------     --------  ----------------------  --------------------  
      1.315        0.000                      0                  511        2.850        0.000                       0                  1243  


All user specified timing constraints are met.


------------------------------------------------------------------------------------------------
| Clock Summary
| -------------
------------------------------------------------------------------------------------------------

Clock        Waveform(ns)         Period(ns)      Frequency(MHz)
-----        ------------         ----------      --------------
clk          {0.000 3.125}        6.250           160.000         
clk_wrapper  {0.000 500.000}      1000.000        1.000           


------------------------------------------------------------------------------------------------
| Intra Clock Table
| -----------------
------------------------------------------------------------------------------------------------

Clock             WNS(ns)      TNS(ns)  TNS Failing Endpoints  TNS Total Endpoints     WPWS(ns)     TPWS(ns)  TPWS Failing Endpoints  TPWS Total Endpoints  
-----             -------      -------  ---------------------  -------------------     --------     --------  ----------------------  --------------------  
clk                 1.315        0.000                      0                  511        2.850        0.000                       0                   727  
clk_wrapper                                                                             498.562        0.000                       0                   516  


------------------------------------------------------------------------------------------------
| Inter Clock Table
| -----------------
------------------------------------------------------------------------------------------------

From Clock    To Clock          WNS(ns)      TNS(ns)  TNS Failing Endpoints  TNS Total Endpoints  
----------    --------          -------      -------  ---------------------  -------------------  


------------------------------------------------------------------------------------------------
| Other Path Groups Table
| -----------------------
------------------------------------------------------------------------------------------------

Path Group    From Clock    To Clock          WNS(ns)      TNS(ns)  TNS Failing Endpoints  TNS Total Endpoints  
----------    ----------    --------          -------      -------  ---------------------  -------------------  


------------------------------------------------------------------------------------------------
| Timing Details
| --------------
------------------------------------------------------------------------------------------------


---------------------------------------------------------------------------------------------------
From Clock:  clk
  To Clock:  clk

Setup :            0  Failing Endpoints,  Worst Slack        1.315ns,  Total Violation        0.000ns
Hold  :           NA  Failing Endpoints,  Worst Slack           NA  ,  Total Violation           NA
PW    :            0  Failing Endpoints,  Worst Slack        2.850ns,  Total Violation        0.000ns
---------------------------------------------------------------------------------------------------


Max Delay Paths
--------------------------------------------------------------------------------------
Slack (MET) :             1.315ns  (required time - arrival time)
  Source:                 dut_inst/ret_array_1_17.idx_ret_2212/C
                            (rising edge-triggered cell FDRE clocked by clk  {rise@0.000ns fall@3.125ns period=6.250ns})
  Destination:            shift_reg_tap_o/sr_p.sr_1[44]/D
                            (rising edge-triggered cell FDRE clocked by clk  {rise@0.000ns fall@3.125ns period=6.250ns})
  Path Group:             clk
  Path Type:              Setup (Max at Slow Process Corner)
  Requirement:            6.250ns  (clk rise@6.250ns - clk rise@0.000ns)
  Data Path Delay:        4.790ns  (logic 1.200ns (25.052%)  route 3.590ns (74.948%))
  Logic Levels:           12  (LUT3=1 LUT4=1 LUT5=8 LUT6=2)
  Clock Path Skew:        -0.137ns (DCD - SCD + CPR)
    Destination Clock Delay (DCD):    2.503ns = ( 8.753 - 6.250 ) 
    Source Clock Delay      (SCD):    3.078ns
    Clock Pessimism Removal (CPR):    0.438ns
  Clock Uncertainty:      0.035ns  ((TSJ^2 + TIJ^2)^1/2 + DJ) / 2 + PE
    Total System Jitter     (TSJ):    0.071ns
    Total Input Jitter      (TIJ):    0.000ns
    Discrete Jitter          (DJ):    0.000ns
    Phase Error              (PE):    0.000ns
  Clock Net Delay (Source):      1.937ns (routing 1.014ns, distribution 0.923ns)
  Clock Net Delay (Destination): 1.673ns (routing 0.926ns, distribution 0.747ns)

    Location             Delay type                Incr(ns)  Path(ns)    Netlist Resource(s)
  -------------------------------------------------------------------    -------------------
                         (clock clk rise edge)        0.000     0.000 r  
    AV33                                              0.000     0.000 r  clk (IN)
                         net (fo=0)                   0.000     0.000    clk_ibuf_iso/I
    AV33                 INBUF (Prop_INBUF_HPIOB_M_PAD_O)
                                                      0.779     0.779 r  clk_ibuf_iso/INBUF_INST/O
                         net (fo=1, routed)           0.000     0.779    clk_ibuf_iso/OUT
    AV33                 IBUFCTRL (Prop_IBUFCTRL_HPIOB_M_I_O)
                                                      0.000     0.779 r  clk_ibuf_iso/IBUFCTRL_INST/O
                         net (fo=1, routed)           0.334     1.113    clk_ibuf_iso
    BUFGCE_X1Y224        BUFGCE (Prop_BUFCE_BUFGCE_I_O)
                                                      0.028     1.141 r  clk_ibuf/O
    X3Y8 (CLOCK_ROOT)    net (fo=726, routed)         1.937     3.078    dut_inst/clk_c
    SLICE_X101Y530       FDRE                                         r  dut_inst/ret_array_1_17.idx_ret_2212/C
  -------------------------------------------------------------------    -------------------
    SLICE_X101Y530       FDRE (Prop_AFF_SLICEL_C_Q)
                                                      0.096     3.174 r  dut_inst/ret_array_1_17.idx_ret_2212/Q
                         net (fo=23, routed)          0.254     3.428    dut_inst/stage_g.0.pair_g.4.csn_cmp_inst/un1_b_i_o_18
    SLICE_X102Y533       LUT3 (Prop_D6LUT_SLICEM_I2_O)
                                                      0.174     3.602 r  dut_inst/stage_g.0.pair_g.4.csn_cmp_inst/a_o_comb.idx_lut6_2_o5_lut6_2_o6[8]/O
                         net (fo=2, routed)           0.105     3.707    dut_inst/stage_g.1.pair_g.4.csn_cmp_inst/idx_1_2
    SLICE_X101Y533       LUT5 (Prop_H6LUT_SLICEL_I4_O)
                                                      0.100     3.807 r  dut_inst/stage_g.1.pair_g.4.csn_cmp_inst/b_o_comb.idx_lut6_2_o5_lut6_2_o6[3]/O
                         net (fo=2, routed)           0.306     4.113    dut_inst/stage_g.2.pair_g.1.csn_cmp_inst/idx_0_2
    SLICE_X99Y531        LUT5 (Prop_H6LUT_SLICEM_I4_O)
                                                      0.100     4.213 r  dut_inst/stage_g.2.pair_g.1.csn_cmp_inst/a_o_comb.idx_lut6_2_o5_lut6_2_o6[3]/O
                         net (fo=2, routed)           0.266     4.479    dut_inst/stage_g.3.pair_g.2.csn_cmp_inst/idx_129_0
    SLICE_X98Y528        LUT5 (Prop_C5LUT_SLICEL_I4_O)
                                                      0.083     4.562 r  dut_inst/stage_g.3.pair_g.2.csn_cmp_inst/a_o_comb.idx_lut6_2_o5_lut6_2_o5[3]/O
                         net (fo=3, routed)           0.325     4.887    dut_inst/stage_g.4.pair_g.4.csn_cmp_inst/idx_130_0
    SLICE_X101Y526       LUT5 (Prop_B5LUT_SLICEL_I4_O)
                                                      0.089     4.976 r  dut_inst/stage_g.4.pair_g.4.csn_cmp_inst/a_o_comb.idx_lut6_2_o5_lut6_2_o5[3]/O
                         net (fo=2, routed)           0.140     5.116    dut_inst/stage_g.5.pair_g.4.csn_cmp_inst/idx_78_2
    SLICE_X100Y526       LUT5 (Prop_G6LUT_SLICEM_I4_O)
                                                      0.100     5.216 r  dut_inst/stage_g.5.pair_g.4.csn_cmp_inst/a_o_comb.idx[3]/O
                         net (fo=3, routed)           0.501     5.717    dut_inst/stage_g.6.pair_g.9.csn_cmp_inst/idx_77_0
    SLICE_X95Y524        LUT4 (Prop_A6LUT_SLICEM_I3_O)
                                                      0.100     5.817 r  dut_inst/stage_g.6.pair_g.9.csn_cmp_inst/b_o_comb.idx[3]/O
                         net (fo=2, routed)           0.107     5.924    dut_inst/stage_g.7.pair_g.8.csn_cmp_inst/idx_128_0
    SLICE_X95Y523        LUT6 (Prop_B6LUT_SLICEM_I5_O)
                                                      0.039     5.963 r  dut_inst/stage_g.7.pair_g.8.csn_cmp_inst/b_o_comb.idx[3]/O
                         net (fo=2, routed)           0.324     6.287    dut_inst/stage_g.8.pair_g.6.csn_cmp_inst/idx_139_0
    SLICE_X96Y521        LUT5 (Prop_B6LUT_SLICEL_I4_O)
                                                      0.115     6.402 r  dut_inst/stage_g.8.pair_g.6.csn_cmp_inst/a_o_comb.idx[3]/O
                         net (fo=4, routed)           0.393     6.795    dut_inst/stage_g.9.pair_g.7.csn_cmp_inst/idx_135_0
    SLICE_X95Y518        LUT5 (Prop_A6LUT_SLICEM_I4_O)
                                                      0.040     6.835 r  dut_inst/stage_g.9.pair_g.7.csn_cmp_inst/b_o_comb.idx[3]/O
                         net (fo=2, routed)           0.260     7.095    dut_inst/stage_g.10.pair_g.6.csn_cmp_inst/idx_133_0
    SLICE_X96Y517        LUT6 (Prop_G6LUT_SLICEL_I5_O)
                                                      0.038     7.133 r  dut_inst/stage_g.10.pair_g.6.csn_cmp_inst/a_o_comb.idx[3]/O
                         net (fo=2, routed)           0.322     7.455    dut_inst/stage_g.9.pair_g.7.csn_cmp_inst/idx_132_0
    SLICE_X95Y517        LUT5 (Prop_B5LUT_SLICEM_I4_O)
                                                      0.126     7.581 r  dut_inst/stage_g.9.pair_g.7.csn_cmp_inst/a_o_comb.idx_lut6_2_o6_lut6_2_o5[3]/O
                         net (fo=1, routed)           0.287     7.868    shift_reg_tap_o/idx_lut6_2_o5_4_3
    SLICE_X94Y516        FDRE                                         r  shift_reg_tap_o/sr_p.sr_1[44]/D
  -------------------------------------------------------------------    -------------------

                         (clock clk rise edge)        6.250     6.250 r  
    AV33                                              0.000     6.250 r  clk (IN)
                         net (fo=0)                   0.000     6.250    clk_ibuf_iso/I
    AV33                 INBUF (Prop_INBUF_HPIOB_M_PAD_O)
                                                      0.510     6.760 r  clk_ibuf_iso/INBUF_INST/O
                         net (fo=1, routed)           0.000     6.760    clk_ibuf_iso/OUT
    AV33                 IBUFCTRL (Prop_IBUFCTRL_HPIOB_M_I_O)
                                                      0.000     6.760 r  clk_ibuf_iso/IBUFCTRL_INST/O
                         net (fo=1, routed)           0.296     7.056    clk_ibuf_iso
    BUFGCE_X1Y224        BUFGCE (Prop_BUFCE_BUFGCE_I_O)
                                                      0.024     7.080 r  clk_ibuf/O
    X3Y8 (CLOCK_ROOT)    net (fo=726, routed)         1.673     8.753    shift_reg_tap_o/clk_c
    SLICE_X94Y516        FDRE                                         r  shift_reg_tap_o/sr_p.sr_1[44]/C
                         clock pessimism              0.438     9.191    
                         clock uncertainty           -0.035     9.156    
    SLICE_X94Y516        FDRE (Setup_HFF_SLICEL_C_D)
                                                      0.027     9.183    shift_reg_tap_o/sr_p.sr_1[44]
  -------------------------------------------------------------------
                         required time                          9.183    
                         arrival time                          -7.868    
  -------------------------------------------------------------------
                         slack                                  1.315    

Slack (MET) :             1.315ns  (required time - arrival time)
  Source:                 dut_inst/ret_array_1_17.idx_ret_2212/C
                            (rising edge-triggered cell FDRE clocked by clk  {rise@0.000ns fall@3.125ns period=6.250ns})
  Destination:            shift_reg_tap_o/sr_p.sr_1[44]/D
                            (rising edge-triggered cell FDRE clocked by clk  {rise@0.000ns fall@3.125ns period=6.250ns})
  Path Group:             clk
  Path Type:              Setup (Max at Slow Process Corner)
  Requirement:            6.250ns  (clk rise@6.250ns - clk rise@0.000ns)
  Data Path Delay:        4.790ns  (logic 1.200ns (25.052%)  route 3.590ns (74.948%))
  Logic Levels:           12  (LUT3=1 LUT4=1 LUT5=8 LUT6=2)
  Clock Path Skew:        -0.137ns (DCD - SCD + CPR)
    Destination Clock Delay (DCD):    2.503ns = ( 8.753 - 6.250 ) 
    Source Clock Delay      (SCD):    3.078ns
    Clock Pessimism Removal (CPR):    0.438ns
  Clock Uncertainty:      0.035ns  ((TSJ^2 + TIJ^2)^1/2 + DJ) / 2 + PE
    Total System Jitter     (TSJ):    0.071ns
    Total Input Jitter      (TIJ):    0.000ns
    Discrete Jitter          (DJ):    0.000ns
    Phase Error              (PE):    0.000ns
  Clock Net Delay (Source):      1.937ns (routing 1.014ns, distribution 0.923ns)
  Clock Net Delay (Destination): 1.673ns (routing 0.926ns, distribution 0.747ns)

    Location             Delay type                Incr(ns)  Path(ns)    Netlist Resource(s)
  -------------------------------------------------------------------    -------------------
                         (clock clk rise edge)        0.000     0.000 r  
    AV33                                              0.000     0.000 r  clk (IN)
                         net (fo=0)                   0.000     0.000    clk_ibuf_iso/I
    AV33                 INBUF (Prop_INBUF_HPIOB_M_PAD_O)
                                                      0.779     0.779 r  clk_ibuf_iso/INBUF_INST/O
                         net (fo=1, routed)           0.000     0.779    clk_ibuf_iso/OUT
    AV33                 IBUFCTRL (Prop_IBUFCTRL_HPIOB_M_I_O)
                                                      0.000     0.779 r  clk_ibuf_iso/IBUFCTRL_INST/O
                         net (fo=1, routed)           0.334     1.113    clk_ibuf_iso
    BUFGCE_X1Y224        BUFGCE (Prop_BUFCE_BUFGCE_I_O)
                                                      0.028     1.141 r  clk_ibuf/O
    X3Y8 (CLOCK_ROOT)    net (fo=726, routed)         1.937     3.078    dut_inst/clk_c
    SLICE_X101Y530       FDRE                                         r  dut_inst/ret_array_1_17.idx_ret_2212/C
  -------------------------------------------------------------------    -------------------
    SLICE_X101Y530       FDRE (Prop_AFF_SLICEL_C_Q)
                                                      0.096     3.174 f  dut_inst/ret_array_1_17.idx_ret_2212/Q
                         net (fo=23, routed)          0.254     3.428    dut_inst/stage_g.0.pair_g.4.csn_cmp_inst/un1_b_i_o_18
    SLICE_X102Y533       LUT3 (Prop_D6LUT_SLICEM_I2_O)
                                                      0.174     3.602 r  dut_inst/stage_g.0.pair_g.4.csn_cmp_inst/a_o_comb.idx_lut6_2_o5_lut6_2_o6[8]/O
                         net (fo=2, routed)           0.105     3.707    dut_inst/stage_g.1.pair_g.4.csn_cmp_inst/idx_1_2
    SLICE_X101Y533       LUT5 (Prop_H6LUT_SLICEL_I4_O)
                                                      0.100     3.807 r  dut_inst/stage_g.1.pair_g.4.csn_cmp_inst/b_o_comb.idx_lut6_2_o5_lut6_2_o6[3]/O
                         net (fo=2, routed)           0.306     4.113    dut_inst/stage_g.2.pair_g.1.csn_cmp_inst/idx_0_2
    SLICE_X99Y531        LUT5 (Prop_H6LUT_SLICEM_I4_O)
                                                      0.100     4.213 r  dut_inst/stage_g.2.pair_g.1.csn_cmp_inst/a_o_comb.idx_lut6_2_o5_lut6_2_o6[3]/O
                         net (fo=2, routed)           0.266     4.479    dut_inst/stage_g.3.pair_g.2.csn_cmp_inst/idx_129_0
    SLICE_X98Y528        LUT5 (Prop_C5LUT_SLICEL_I4_O)
                                                      0.083     4.562 r  dut_inst/stage_g.3.pair_g.2.csn_cmp_inst/a_o_comb.idx_lut6_2_o5_lut6_2_o5[3]/O
                         net (fo=3, routed)           0.325     4.887    dut_inst/stage_g.4.pair_g.4.csn_cmp_inst/idx_130_0
    SLICE_X101Y526       LUT5 (Prop_B5LUT_SLICEL_I4_O)
                                                      0.089     4.976 r  dut_inst/stage_g.4.pair_g.4.csn_cmp_inst/a_o_comb.idx_lut6_2_o5_lut6_2_o5[3]/O
                         net (fo=2, routed)           0.140     5.116    dut_inst/stage_g.5.pair_g.4.csn_cmp_inst/idx_78_2
    SLICE_X100Y526       LUT5 (Prop_G6LUT_SLICEM_I4_O)
                                                      0.100     5.216 r  dut_inst/stage_g.5.pair_g.4.csn_cmp_inst/a_o_comb.idx[3]/O
                         net (fo=3, routed)           0.501     5.717    dut_inst/stage_g.6.pair_g.9.csn_cmp_inst/idx_77_0
    SLICE_X95Y524        LUT4 (Prop_A6LUT_SLICEM_I3_O)
                                                      0.100     5.817 r  dut_inst/stage_g.6.pair_g.9.csn_cmp_inst/b_o_comb.idx[3]/O
                         net (fo=2, routed)           0.107     5.924    dut_inst/stage_g.7.pair_g.8.csn_cmp_inst/idx_128_0
    SLICE_X95Y523        LUT6 (Prop_B6LUT_SLICEM_I5_O)
                                                      0.039     5.963 r  dut_inst/stage_g.7.pair_g.8.csn_cmp_inst/b_o_comb.idx[3]/O
                         net (fo=2, routed)           0.324     6.287    dut_inst/stage_g.8.pair_g.6.csn_cmp_inst/idx_139_0
    SLICE_X96Y521        LUT5 (Prop_B6LUT_SLICEL_I4_O)
                                                      0.115     6.402 r  dut_inst/stage_g.8.pair_g.6.csn_cmp_inst/a_o_comb.idx[3]/O
                         net (fo=4, routed)           0.393     6.795    dut_inst/stage_g.9.pair_g.7.csn_cmp_inst/idx_135_0
    SLICE_X95Y518        LUT5 (Prop_A6LUT_SLICEM_I4_O)
                                                      0.040     6.835 r  dut_inst/stage_g.9.pair_g.7.csn_cmp_inst/b_o_comb.idx[3]/O
                         net (fo=2, routed)           0.260     7.095    dut_inst/stage_g.10.pair_g.6.csn_cmp_inst/idx_133_0
    SLICE_X96Y517        LUT6 (Prop_G6LUT_SLICEL_I5_O)
                                                      0.038     7.133 r  dut_inst/stage_g.10.pair_g.6.csn_cmp_inst/a_o_comb.idx[3]/O
                         net (fo=2, routed)           0.322     7.455    dut_inst/stage_g.9.pair_g.7.csn_cmp_inst/idx_132_0
    SLICE_X95Y517        LUT5 (Prop_B5LUT_SLICEM_I4_O)
                                                      0.126     7.581 r  dut_inst/stage_g.9.pair_g.7.csn_cmp_inst/a_o_comb.idx_lut6_2_o6_lut6_2_o5[3]/O
                         net (fo=1, routed)           0.287     7.868    shift_reg_tap_o/idx_lut6_2_o5_4_3
    SLICE_X94Y516        FDRE                                         r  shift_reg_tap_o/sr_p.sr_1[44]/D
  -------------------------------------------------------------------    -------------------

                         (clock clk rise edge)        6.250     6.250 r  
    AV33                                              0.000     6.250 r  clk (IN)
                         net (fo=0)                   0.000     6.250    clk_ibuf_iso/I
    AV33                 INBUF (Prop_INBUF_HPIOB_M_PAD_O)
                                                      0.510     6.760 r  clk_ibuf_iso/INBUF_INST/O
                         net (fo=1, routed)           0.000     6.760    clk_ibuf_iso/OUT
    AV33                 IBUFCTRL (Prop_IBUFCTRL_HPIOB_M_I_O)
                                                      0.000     6.760 r  clk_ibuf_iso/IBUFCTRL_INST/O
                         net (fo=1, routed)           0.296     7.056    clk_ibuf_iso
    BUFGCE_X1Y224        BUFGCE (Prop_BUFCE_BUFGCE_I_O)
                                                      0.024     7.080 r  clk_ibuf/O
    X3Y8 (CLOCK_ROOT)    net (fo=726, routed)         1.673     8.753    shift_reg_tap_o/clk_c
    SLICE_X94Y516        FDRE                                         r  shift_reg_tap_o/sr_p.sr_1[44]/C
                         clock pessimism              0.438     9.191    
                         clock uncertainty           -0.035     9.156    
    SLICE_X94Y516        FDRE (Setup_HFF_SLICEL_C_D)
                                                      0.027     9.183    shift_reg_tap_o/sr_p.sr_1[44]
  -------------------------------------------------------------------
                         required time                          9.183    
                         arrival time                          -7.868    
  -------------------------------------------------------------------
                         slack                                  1.315    

Slack (MET) :             1.315ns  (required time - arrival time)
  Source:                 dut_inst/ret_array_1_17.idx_ret_2212/C
                            (rising edge-triggered cell FDRE clocked by clk  {rise@0.000ns fall@3.125ns period=6.250ns})
  Destination:            shift_reg_tap_o/sr_p.sr_1[44]/D
                            (rising edge-triggered cell FDRE clocked by clk  {rise@0.000ns fall@3.125ns period=6.250ns})
  Path Group:             clk
  Path Type:              Setup (Max at Slow Process Corner)
  Requirement:            6.250ns  (clk rise@6.250ns - clk rise@0.000ns)
  Data Path Delay:        4.790ns  (logic 1.200ns (25.052%)  route 3.590ns (74.948%))
  Logic Levels:           12  (LUT3=1 LUT4=1 LUT5=8 LUT6=2)
  Clock Path Skew:        -0.137ns (DCD - SCD + CPR)
    Destination Clock Delay (DCD):    2.503ns = ( 8.753 - 6.250 ) 
    Source Clock Delay      (SCD):    3.078ns
    Clock Pessimism Removal (CPR):    0.438ns
  Clock Uncertainty:      0.035ns  ((TSJ^2 + TIJ^2)^1/2 + DJ) / 2 + PE
    Total System Jitter     (TSJ):    0.071ns
    Total Input Jitter      (TIJ):    0.000ns
    Discrete Jitter          (DJ):    0.000ns
    Phase Error              (PE):    0.000ns
  Clock Net Delay (Source):      1.937ns (routing 1.014ns, distribution 0.923ns)
  Clock Net Delay (Destination): 1.673ns (routing 0.926ns, distribution 0.747ns)

    Location             Delay type                Incr(ns)  Path(ns)    Netlist Resource(s)
  -------------------------------------------------------------------    -------------------
                         (clock clk rise edge)        0.000     0.000 r  
    AV33                                              0.000     0.000 r  clk (IN)
                         net (fo=0)                   0.000     0.000    clk_ibuf_iso/I
    AV33                 INBUF (Prop_INBUF_HPIOB_M_PAD_O)
                                                      0.779     0.779 r  clk_ibuf_iso/INBUF_INST/O
                         net (fo=1, routed)           0.000     0.779    clk_ibuf_iso/OUT
    AV33                 IBUFCTRL (Prop_IBUFCTRL_HPIOB_M_I_O)
                                                      0.000     0.779 r  clk_ibuf_iso/IBUFCTRL_INST/O
                         net (fo=1, routed)           0.334     1.113    clk_ibuf_iso
    BUFGCE_X1Y224        BUFGCE (Prop_BUFCE_BUFGCE_I_O)
                                                      0.028     1.141 r  clk_ibuf/O
    X3Y8 (CLOCK_ROOT)    net (fo=726, routed)         1.937     3.078    dut_inst/clk_c
    SLICE_X101Y530       FDRE                                         r  dut_inst/ret_array_1_17.idx_ret_2212/C
  -------------------------------------------------------------------    -------------------
    SLICE_X101Y530       FDRE (Prop_AFF_SLICEL_C_Q)
                                                      0.096     3.174 r  dut_inst/ret_array_1_17.idx_ret_2212/Q
                         net (fo=23, routed)          0.254     3.428    dut_inst/stage_g.0.pair_g.4.csn_cmp_inst/un1_b_i_o_18
    SLICE_X102Y533       LUT3 (Prop_D6LUT_SLICEM_I2_O)
                                                      0.174     3.602 f  dut_inst/stage_g.0.pair_g.4.csn_cmp_inst/a_o_comb.idx_lut6_2_o5_lut6_2_o6[8]/O
                         net (fo=2, routed)           0.105     3.707    dut_inst/stage_g.1.pair_g.4.csn_cmp_inst/idx_1_2
    SLICE_X101Y533       LUT5 (Prop_H6LUT_SLICEL_I4_O)
                                                      0.100     3.807 f  dut_inst/stage_g.1.pair_g.4.csn_cmp_inst/b_o_comb.idx_lut6_2_o5_lut6_2_o6[3]/O
                         net (fo=2, routed)           0.306     4.113    dut_inst/stage_g.2.pair_g.1.csn_cmp_inst/idx_0_2
    SLICE_X99Y531        LUT5 (Prop_H6LUT_SLICEM_I4_O)
                                                      0.100     4.213 f  dut_inst/stage_g.2.pair_g.1.csn_cmp_inst/a_o_comb.idx_lut6_2_o5_lut6_2_o6[3]/O
                         net (fo=2, routed)           0.266     4.479    dut_inst/stage_g.3.pair_g.2.csn_cmp_inst/idx_129_0
    SLICE_X98Y528        LUT5 (Prop_C5LUT_SLICEL_I4_O)
                                                      0.083     4.562 f  dut_inst/stage_g.3.pair_g.2.csn_cmp_inst/a_o_comb.idx_lut6_2_o5_lut6_2_o5[3]/O
                         net (fo=3, routed)           0.325     4.887    dut_inst/stage_g.4.pair_g.4.csn_cmp_inst/idx_130_0
    SLICE_X101Y526       LUT5 (Prop_B5LUT_SLICEL_I4_O)
                                                      0.089     4.976 f  dut_inst/stage_g.4.pair_g.4.csn_cmp_inst/a_o_comb.idx_lut6_2_o5_lut6_2_o5[3]/O
                         net (fo=2, routed)           0.140     5.116    dut_inst/stage_g.5.pair_g.4.csn_cmp_inst/idx_78_2
    SLICE_X100Y526       LUT5 (Prop_G6LUT_SLICEM_I4_O)
                                                      0.100     5.216 f  dut_inst/stage_g.5.pair_g.4.csn_cmp_inst/a_o_comb.idx[3]/O
                         net (fo=3, routed)           0.501     5.717    dut_inst/stage_g.6.pair_g.9.csn_cmp_inst/idx_77_0
    SLICE_X95Y524        LUT4 (Prop_A6LUT_SLICEM_I3_O)
                                                      0.100     5.817 f  dut_inst/stage_g.6.pair_g.9.csn_cmp_inst/b_o_comb.idx[3]/O
                         net (fo=2, routed)           0.107     5.924    dut_inst/stage_g.7.pair_g.8.csn_cmp_inst/idx_128_0
    SLICE_X95Y523        LUT6 (Prop_B6LUT_SLICEM_I5_O)
                                                      0.039     5.963 f  dut_inst/stage_g.7.pair_g.8.csn_cmp_inst/b_o_comb.idx[3]/O
                         net (fo=2, routed)           0.324     6.287    dut_inst/stage_g.8.pair_g.6.csn_cmp_inst/idx_139_0
    SLICE_X96Y521        LUT5 (Prop_B6LUT_SLICEL_I4_O)
                                                      0.115     6.402 f  dut_inst/stage_g.8.pair_g.6.csn_cmp_inst/a_o_comb.idx[3]/O
                         net (fo=4, routed)           0.393     6.795    dut_inst/stage_g.9.pair_g.7.csn_cmp_inst/idx_135_0
    SLICE_X95Y518        LUT5 (Prop_A6LUT_SLICEM_I4_O)
                                                      0.040     6.835 f  dut_inst/stage_g.9.pair_g.7.csn_cmp_inst/b_o_comb.idx[3]/O
                         net (fo=2, routed)           0.260     7.095    dut_inst/stage_g.10.pair_g.6.csn_cmp_inst/idx_133_0
    SLICE_X96Y517        LUT6 (Prop_G6LUT_SLICEL_I5_O)
                                                      0.038     7.133 f  dut_inst/stage_g.10.pair_g.6.csn_cmp_inst/a_o_comb.idx[3]/O
                         net (fo=2, routed)           0.322     7.455    dut_inst/stage_g.9.pair_g.7.csn_cmp_inst/idx_132_0
    SLICE_X95Y517        LUT5 (Prop_B5LUT_SLICEM_I4_O)
                                                      0.126     7.581 f  dut_inst/stage_g.9.pair_g.7.csn_cmp_inst/a_o_comb.idx_lut6_2_o6_lut6_2_o5[3]/O
                         net (fo=1, routed)           0.287     7.868    shift_reg_tap_o/idx_lut6_2_o5_4_3
    SLICE_X94Y516        FDRE                                         f  shift_reg_tap_o/sr_p.sr_1[44]/D
  -------------------------------------------------------------------    -------------------

                         (clock clk rise edge)        6.250     6.250 r  
    AV33                                              0.000     6.250 r  clk (IN)
                         net (fo=0)                   0.000     6.250    clk_ibuf_iso/I
    AV33                 INBUF (Prop_INBUF_HPIOB_M_PAD_O)
                                                      0.510     6.760 r  clk_ibuf_iso/INBUF_INST/O
                         net (fo=1, routed)           0.000     6.760    clk_ibuf_iso/OUT
    AV33                 IBUFCTRL (Prop_IBUFCTRL_HPIOB_M_I_O)
                                                      0.000     6.760 r  clk_ibuf_iso/IBUFCTRL_INST/O
                         net (fo=1, routed)           0.296     7.056    clk_ibuf_iso
    BUFGCE_X1Y224        BUFGCE (Prop_BUFCE_BUFGCE_I_O)
                                                      0.024     7.080 r  clk_ibuf/O
    X3Y8 (CLOCK_ROOT)    net (fo=726, routed)         1.673     8.753    shift_reg_tap_o/clk_c
    SLICE_X94Y516        FDRE                                         r  shift_reg_tap_o/sr_p.sr_1[44]/C
                         clock pessimism              0.438     9.191    
                         clock uncertainty           -0.035     9.156    
    SLICE_X94Y516        FDRE (Setup_HFF_SLICEL_C_D)
                                                      0.027     9.183    shift_reg_tap_o/sr_p.sr_1[44]
  -------------------------------------------------------------------
                         required time                          9.183    
                         arrival time                          -7.868    
  -------------------------------------------------------------------
                         slack                                  1.315    

Slack (MET) :             1.315ns  (required time - arrival time)
  Source:                 dut_inst/ret_array_1_17.idx_ret_2212/C
                            (rising edge-triggered cell FDRE clocked by clk  {rise@0.000ns fall@3.125ns period=6.250ns})
  Destination:            shift_reg_tap_o/sr_p.sr_1[44]/D
                            (rising edge-triggered cell FDRE clocked by clk  {rise@0.000ns fall@3.125ns period=6.250ns})
  Path Group:             clk
  Path Type:              Setup (Max at Slow Process Corner)
  Requirement:            6.250ns  (clk rise@6.250ns - clk rise@0.000ns)
  Data Path Delay:        4.790ns  (logic 1.200ns (25.052%)  route 3.590ns (74.948%))
  Logic Levels:           12  (LUT3=1 LUT4=1 LUT5=8 LUT6=2)
  Clock Path Skew:        -0.137ns (DCD - SCD + CPR)
    Destination Clock Delay (DCD):    2.503ns = ( 8.753 - 6.250 ) 
    Source Clock Delay      (SCD):    3.078ns
    Clock Pessimism Removal (CPR):    0.438ns
  Clock Uncertainty:      0.035ns  ((TSJ^2 + TIJ^2)^1/2 + DJ) / 2 + PE
    Total System Jitter     (TSJ):    0.071ns
    Total Input Jitter      (TIJ):    0.000ns
    Discrete Jitter          (DJ):    0.000ns
    Phase Error              (PE):    0.000ns
  Clock Net Delay (Source):      1.937ns (routing 1.014ns, distribution 0.923ns)
  Clock Net Delay (Destination): 1.673ns (routing 0.926ns, distribution 0.747ns)

    Location             Delay type                Incr(ns)  Path(ns)    Netlist Resource(s)
  -------------------------------------------------------------------    -------------------
                         (clock clk rise edge)        0.000     0.000 r  
    AV33                                              0.000     0.000 r  clk (IN)
                         net (fo=0)                   0.000     0.000    clk_ibuf_iso/I
    AV33                 INBUF (Prop_INBUF_HPIOB_M_PAD_O)
                                                      0.779     0.779 r  clk_ibuf_iso/INBUF_INST/O
                         net (fo=1, routed)           0.000     0.779    clk_ibuf_iso/OUT
    AV33                 IBUFCTRL (Prop_IBUFCTRL_HPIOB_M_I_O)
                                                      0.000     0.779 r  clk_ibuf_iso/IBUFCTRL_INST/O
                         net (fo=1, routed)           0.334     1.113    clk_ibuf_iso
    BUFGCE_X1Y224        BUFGCE (Prop_BUFCE_BUFGCE_I_O)
                                                      0.028     1.141 r  clk_ibuf/O
    X3Y8 (CLOCK_ROOT)    net (fo=726, routed)         1.937     3.078    dut_inst/clk_c
    SLICE_X101Y530       FDRE                                         r  dut_inst/ret_array_1_17.idx_ret_2212/C
  -------------------------------------------------------------------    -------------------
    SLICE_X101Y530       FDRE (Prop_AFF_SLICEL_C_Q)
                                                      0.096     3.174 f  dut_inst/ret_array_1_17.idx_ret_2212/Q
                         net (fo=23, routed)          0.254     3.428    dut_inst/stage_g.0.pair_g.4.csn_cmp_inst/un1_b_i_o_18
    SLICE_X102Y533       LUT3 (Prop_D6LUT_SLICEM_I2_O)
                                                      0.174     3.602 f  dut_inst/stage_g.0.pair_g.4.csn_cmp_inst/a_o_comb.idx_lut6_2_o5_lut6_2_o6[8]/O
                         net (fo=2, routed)           0.105     3.707    dut_inst/stage_g.1.pair_g.4.csn_cmp_inst/idx_1_2
    SLICE_X101Y533       LUT5 (Prop_H6LUT_SLICEL_I4_O)
                                                      0.100     3.807 f  dut_inst/stage_g.1.pair_g.4.csn_cmp_inst/b_o_comb.idx_lut6_2_o5_lut6_2_o6[3]/O
                         net (fo=2, routed)           0.306     4.113    dut_inst/stage_g.2.pair_g.1.csn_cmp_inst/idx_0_2
    SLICE_X99Y531        LUT5 (Prop_H6LUT_SLICEM_I4_O)
                                                      0.100     4.213 f  dut_inst/stage_g.2.pair_g.1.csn_cmp_inst/a_o_comb.idx_lut6_2_o5_lut6_2_o6[3]/O
                         net (fo=2, routed)           0.266     4.479    dut_inst/stage_g.3.pair_g.2.csn_cmp_inst/idx_129_0
    SLICE_X98Y528        LUT5 (Prop_C5LUT_SLICEL_I4_O)
                                                      0.083     4.562 f  dut_inst/stage_g.3.pair_g.2.csn_cmp_inst/a_o_comb.idx_lut6_2_o5_lut6_2_o5[3]/O
                         net (fo=3, routed)           0.325     4.887    dut_inst/stage_g.4.pair_g.4.csn_cmp_inst/idx_130_0
    SLICE_X101Y526       LUT5 (Prop_B5LUT_SLICEL_I4_O)
                                                      0.089     4.976 f  dut_inst/stage_g.4.pair_g.4.csn_cmp_inst/a_o_comb.idx_lut6_2_o5_lut6_2_o5[3]/O
                         net (fo=2, routed)           0.140     5.116    dut_inst/stage_g.5.pair_g.4.csn_cmp_inst/idx_78_2
    SLICE_X100Y526       LUT5 (Prop_G6LUT_SLICEM_I4_O)
                                                      0.100     5.216 f  dut_inst/stage_g.5.pair_g.4.csn_cmp_inst/a_o_comb.idx[3]/O
                         net (fo=3, routed)           0.501     5.717    dut_inst/stage_g.6.pair_g.9.csn_cmp_inst/idx_77_0
    SLICE_X95Y524        LUT4 (Prop_A6LUT_SLICEM_I3_O)
                                                      0.100     5.817 f  dut_inst/stage_g.6.pair_g.9.csn_cmp_inst/b_o_comb.idx[3]/O
                         net (fo=2, routed)           0.107     5.924    dut_inst/stage_g.7.pair_g.8.csn_cmp_inst/idx_128_0
    SLICE_X95Y523        LUT6 (Prop_B6LUT_SLICEM_I5_O)
                                                      0.039     5.963 f  dut_inst/stage_g.7.pair_g.8.csn_cmp_inst/b_o_comb.idx[3]/O
                         net (fo=2, routed)           0.324     6.287    dut_inst/stage_g.8.pair_g.6.csn_cmp_inst/idx_139_0
    SLICE_X96Y521        LUT5 (Prop_B6LUT_SLICEL_I4_O)
                                                      0.115     6.402 f  dut_inst/stage_g.8.pair_g.6.csn_cmp_inst/a_o_comb.idx[3]/O
                         net (fo=4, routed)           0.393     6.795    dut_inst/stage_g.9.pair_g.7.csn_cmp_inst/idx_135_0
    SLICE_X95Y518        LUT5 (Prop_A6LUT_SLICEM_I4_O)
                                                      0.040     6.835 f  dut_inst/stage_g.9.pair_g.7.csn_cmp_inst/b_o_comb.idx[3]/O
                         net (fo=2, routed)           0.260     7.095    dut_inst/stage_g.10.pair_g.6.csn_cmp_inst/idx_133_0
    SLICE_X96Y517        LUT6 (Prop_G6LUT_SLICEL_I5_O)
                                                      0.038     7.133 f  dut_inst/stage_g.10.pair_g.6.csn_cmp_inst/a_o_comb.idx[3]/O
                         net (fo=2, routed)           0.322     7.455    dut_inst/stage_g.9.pair_g.7.csn_cmp_inst/idx_132_0
    SLICE_X95Y517        LUT5 (Prop_B5LUT_SLICEM_I4_O)
                                                      0.126     7.581 f  dut_inst/stage_g.9.pair_g.7.csn_cmp_inst/a_o_comb.idx_lut6_2_o6_lut6_2_o5[3]/O
                         net (fo=1, routed)           0.287     7.868    shift_reg_tap_o/idx_lut6_2_o5_4_3
    SLICE_X94Y516        FDRE                                         f  shift_reg_tap_o/sr_p.sr_1[44]/D
  -------------------------------------------------------------------    -------------------

                         (clock clk rise edge)        6.250     6.250 r  
    AV33                                              0.000     6.250 r  clk (IN)
                         net (fo=0)                   0.000     6.250    clk_ibuf_iso/I
    AV33                 INBUF (Prop_INBUF_HPIOB_M_PAD_O)
                                                      0.510     6.760 r  clk_ibuf_iso/INBUF_INST/O
                         net (fo=1, routed)           0.000     6.760    clk_ibuf_iso/OUT
    AV33                 IBUFCTRL (Prop_IBUFCTRL_HPIOB_M_I_O)
                                                      0.000     6.760 r  clk_ibuf_iso/IBUFCTRL_INST/O
                         net (fo=1, routed)           0.296     7.056    clk_ibuf_iso
    BUFGCE_X1Y224        BUFGCE (Prop_BUFCE_BUFGCE_I_O)
                                                      0.024     7.080 r  clk_ibuf/O
    X3Y8 (CLOCK_ROOT)    net (fo=726, routed)         1.673     8.753    shift_reg_tap_o/clk_c
    SLICE_X94Y516        FDRE                                         r  shift_reg_tap_o/sr_p.sr_1[44]/C
                         clock pessimism              0.438     9.191    
                         clock uncertainty           -0.035     9.156    
    SLICE_X94Y516        FDRE (Setup_HFF_SLICEL_C_D)
                                                      0.027     9.183    shift_reg_tap_o/sr_p.sr_1[44]
  -------------------------------------------------------------------
                         required time                          9.183    
                         arrival time                          -7.868    
  -------------------------------------------------------------------
                         slack                                  1.315    

Slack (MET) :             1.418ns  (required time - arrival time)
  Source:                 dut_inst/ret_array_1_17.idx_ret_1566/C
                            (rising edge-triggered cell FDRE clocked by clk  {rise@0.000ns fall@3.125ns period=6.250ns})
  Destination:            shift_reg_tap_o/sr_p.sr_1[44]/D
                            (rising edge-triggered cell FDRE clocked by clk  {rise@0.000ns fall@3.125ns period=6.250ns})
  Path Group:             clk
  Path Type:              Setup (Max at Slow Process Corner)
  Requirement:            6.250ns  (clk rise@6.250ns - clk rise@0.000ns)
  Data Path Delay:        4.695ns  (logic 1.038ns (22.109%)  route 3.657ns (77.891%))
  Logic Levels:           10  (LUT4=1 LUT5=7 LUT6=2)
  Clock Path Skew:        -0.129ns (DCD - SCD + CPR)
    Destination Clock Delay (DCD):    2.503ns = ( 8.753 - 6.250 ) 
    Source Clock Delay      (SCD):    3.070ns
    Clock Pessimism Removal (CPR):    0.438ns
  Clock Uncertainty:      0.035ns  ((TSJ^2 + TIJ^2)^1/2 + DJ) / 2 + PE
    Total System Jitter     (TSJ):    0.071ns
    Total Input Jitter      (TIJ):    0.000ns
    Discrete Jitter          (DJ):    0.000ns
    Phase Error              (PE):    0.000ns
  Clock Net Delay (Source):      1.929ns (routing 1.014ns, distribution 0.915ns)
  Clock Net Delay (Destination): 1.673ns (routing 0.926ns, distribution 0.747ns)

    Location             Delay type                Incr(ns)  Path(ns)    Netlist Resource(s)
  -------------------------------------------------------------------    -------------------
                         (clock clk rise edge)        0.000     0.000 r  
    AV33                                              0.000     0.000 r  clk (IN)
                         net (fo=0)                   0.000     0.000    clk_ibuf_iso/I
    AV33                 INBUF (Prop_INBUF_HPIOB_M_PAD_O)
                                                      0.779     0.779 r  clk_ibuf_iso/INBUF_INST/O
                         net (fo=1, routed)           0.000     0.779    clk_ibuf_iso/OUT
    AV33                 IBUFCTRL (Prop_IBUFCTRL_HPIOB_M_I_O)
                                                      0.000     0.779 r  clk_ibuf_iso/IBUFCTRL_INST/O
                         net (fo=1, routed)           0.334     1.113    clk_ibuf_iso
    BUFGCE_X1Y224        BUFGCE (Prop_BUFCE_BUFGCE_I_O)
                                                      0.028     1.141 r  clk_ibuf/O
    X3Y8 (CLOCK_ROOT)    net (fo=726, routed)         1.929     3.070    dut_inst/clk_c
    SLICE_X96Y534        FDRE                                         r  dut_inst/ret_array_1_17.idx_ret_1566/C
  -------------------------------------------------------------------    -------------------
    SLICE_X96Y534        FDRE (Prop_EFF_SLICEL_C_Q)
                                                      0.096     3.166 r  dut_inst/ret_array_1_17.idx_ret_1566/Q
                         net (fo=21, routed)          0.555     3.721    dut_inst/stage_g.0.pair_g.9.csn_cmp_inst/un1_b_i_o_26
    SLICE_X94Y531        LUT5 (Prop_D6LUT_SLICEL_I3_O)
                                                      0.174     3.895 r  dut_inst/stage_g.0.pair_g.9.csn_cmp_inst/a_o_comb.idx_lut6_2_o5_lut6_2_o6[3]/O
                         net (fo=4, routed)           0.443     4.338    dut_inst/stage_g.3.pair_g.2.csn_cmp_inst/idx_124_0
    SLICE_X98Y528        LUT5 (Prop_C5LUT_SLICEL_I3_O)
                                                      0.121     4.459 r  dut_inst/stage_g.3.pair_g.2.csn_cmp_inst/a_o_comb.idx_lut6_2_o5_lut6_2_o5[3]/O
                         net (fo=3, routed)           0.325     4.784    dut_inst/stage_g.4.pair_g.4.csn_cmp_inst/idx_130_0
    SLICE_X101Y526       LUT5 (Prop_B5LUT_SLICEL_I4_O)
                                                      0.089     4.873 r  dut_inst/stage_g.4.pair_g.4.csn_cmp_inst/a_o_comb.idx_lut6_2_o5_lut6_2_o5[3]/O
                         net (fo=2, routed)           0.140     5.013    dut_inst/stage_g.5.pair_g.4.csn_cmp_inst/idx_78_2
    SLICE_X100Y526       LUT5 (Prop_G6LUT_SLICEM_I4_O)
                                                      0.100     5.113 r  dut_inst/stage_g.5.pair_g.4.csn_cmp_inst/a_o_comb.idx[3]/O
                         net (fo=3, routed)           0.501     5.614    dut_inst/stage_g.6.pair_g.9.csn_cmp_inst/idx_77_0
    SLICE_X95Y524        LUT4 (Prop_A6LUT_SLICEM_I3_O)
                                                      0.100     5.714 r  dut_inst/stage_g.6.pair_g.9.csn_cmp_inst/b_o_comb.idx[3]/O
                         net (fo=2, routed)           0.107     5.821    dut_inst/stage_g.7.pair_g.8.csn_cmp_inst/idx_128_0
    SLICE_X95Y523        LUT6 (Prop_B6LUT_SLICEM_I5_O)
                                                      0.039     5.860 r  dut_inst/stage_g.7.pair_g.8.csn_cmp_inst/b_o_comb.idx[3]/O
                         net (fo=2, routed)           0.324     6.184    dut_inst/stage_g.8.pair_g.6.csn_cmp_inst/idx_139_0
    SLICE_X96Y521        LUT5 (Prop_B6LUT_SLICEL_I4_O)
                                                      0.115     6.299 r  dut_inst/stage_g.8.pair_g.6.csn_cmp_inst/a_o_comb.idx[3]/O
                         net (fo=4, routed)           0.393     6.692    dut_inst/stage_g.9.pair_g.7.csn_cmp_inst/idx_135_0
    SLICE_X95Y518        LUT5 (Prop_A6LUT_SLICEM_I4_O)
                                                      0.040     6.732 r  dut_inst/stage_g.9.pair_g.7.csn_cmp_inst/b_o_comb.idx[3]/O
                         net (fo=2, routed)           0.260     6.992    dut_inst/stage_g.10.pair_g.6.csn_cmp_inst/idx_133_0
    SLICE_X96Y517        LUT6 (Prop_G6LUT_SLICEL_I5_O)
                                                      0.038     7.030 r  dut_inst/stage_g.10.pair_g.6.csn_cmp_inst/a_o_comb.idx[3]/O
                         net (fo=2, routed)           0.322     7.352    dut_inst/stage_g.9.pair_g.7.csn_cmp_inst/idx_132_0
    SLICE_X95Y517        LUT5 (Prop_B5LUT_SLICEM_I4_O)
                                                      0.126     7.478 r  dut_inst/stage_g.9.pair_g.7.csn_cmp_inst/a_o_comb.idx_lut6_2_o6_lut6_2_o5[3]/O
                         net (fo=1, routed)           0.287     7.765    shift_reg_tap_o/idx_lut6_2_o5_4_3
    SLICE_X94Y516        FDRE                                         r  shift_reg_tap_o/sr_p.sr_1[44]/D
  -------------------------------------------------------------------    -------------------

                         (clock clk rise edge)        6.250     6.250 r  
    AV33                                              0.000     6.250 r  clk (IN)
                         net (fo=0)                   0.000     6.250    clk_ibuf_iso/I
    AV33                 INBUF (Prop_INBUF_HPIOB_M_PAD_O)
                                                      0.510     6.760 r  clk_ibuf_iso/INBUF_INST/O
                         net (fo=1, routed)           0.000     6.760    clk_ibuf_iso/OUT
    AV33                 IBUFCTRL (Prop_IBUFCTRL_HPIOB_M_I_O)
                                                      0.000     6.760 r  clk_ibuf_iso/IBUFCTRL_INST/O
                         net (fo=1, routed)           0.296     7.056    clk_ibuf_iso
    BUFGCE_X1Y224        BUFGCE (Prop_BUFCE_BUFGCE_I_O)
                                                      0.024     7.080 r  clk_ibuf/O
    X3Y8 (CLOCK_ROOT)    net (fo=726, routed)         1.673     8.753    shift_reg_tap_o/clk_c
    SLICE_X94Y516        FDRE                                         r  shift_reg_tap_o/sr_p.sr_1[44]/C
                         clock pessimism              0.438     9.191    
                         clock uncertainty           -0.035     9.156    
    SLICE_X94Y516        FDRE (Setup_HFF_SLICEL_C_D)
                                                      0.027     9.183    shift_reg_tap_o/sr_p.sr_1[44]
  -------------------------------------------------------------------
                         required time                          9.183    
                         arrival time                          -7.765    
  -------------------------------------------------------------------
                         slack                                  1.418    





Pulse Width Checks
--------------------------------------------------------------------------------------
Clock Name:         clk
Waveform(ns):       { 0.000 3.125 }
Period(ns):         6.250
Sources:            { clk }

Check Type        Corner  Lib Pin   Reference Pin  Required(ns)  Actual(ns)  Slack(ns)  Location        Pin
Min Period        n/a     BUFGCE/I  n/a            1.499         6.250       4.751      BUFGCE_X1Y224   clk_ibuf/I
Min Period        n/a     FDRE/C    n/a            0.550         6.250       5.700      SLICE_X103Y527  dut_inst/ret_array_1_17.idx_ret_2061[9]/C
Min Period        n/a     FDRE/C    n/a            0.550         6.250       5.700      SLICE_X94Y527   dut_inst/ret_array_1_17.idx_ret_207/C
Min Period        n/a     FDRE/C    n/a            0.550         6.250       5.700      SLICE_X104Y526  dut_inst/ret_array_1_17.idx_ret_2079/C
Min Period        n/a     FDRE/C    n/a            0.550         6.250       5.700      SLICE_X94Y528   dut_inst/ret_array_1_17.idx_ret_208/C
Low Pulse Width   Fast    FDRE/C    n/a            0.275         3.125       2.850      SLICE_X100Y522  shift_reg_tap_o/sr_p.sr_1[201]/C
Low Pulse Width   Fast    FDRE/C    n/a            0.275         3.125       2.850      SLICE_X98Y529   shift_reg_tap_i/sr_p.sr_1[163]/C
Low Pulse Width   Fast    FDRE/C    n/a            0.275         3.125       2.850      SLICE_X98Y529   shift_reg_tap_i/sr_p.sr_1[165]/C
Low Pulse Width   Fast    FDRE/C    n/a            0.275         3.125       2.850      SLICE_X98Y529   shift_reg_tap_i/sr_p.sr_1[166]/C
Low Pulse Width   Fast    FDRE/C    n/a            0.275         3.125       2.850      SLICE_X101Y524  shift_reg_tap_i/sr_p.sr_1[9]/C
High Pulse Width  Slow    FDRE/C    n/a            0.275         3.125       2.850      SLICE_X94Y527   dut_inst/ret_array_1_17.idx_ret_207/C
High Pulse Width  Slow    FDRE/C    n/a            0.275         3.125       2.850      SLICE_X94Y528   dut_inst/ret_array_1_17.idx_ret_208/C
High Pulse Width  Slow    FDRE/C    n/a            0.275         3.125       2.850      SLICE_X97Y533   dut_inst/ret_array_1_17.idx_ret_2080[8]/C
High Pulse Width  Slow    FDRE/C    n/a            0.275         3.125       2.850      SLICE_X97Y530   dut_inst/ret_array_1_17.idx_ret_2365[1]/C
High Pulse Width  Slow    FDRE/C    n/a            0.275         3.125       2.850      SLICE_X97Y534   dut_inst/ret_array_1_17.idx_ret_2365[2]/C



---------------------------------------------------------------------------------------------------
From Clock:  clk_wrapper
  To Clock:  clk_wrapper

Setup :           NA  Failing Endpoints,  Worst Slack           NA  ,  Total Violation           NA
Hold  :           NA  Failing Endpoints,  Worst Slack           NA  ,  Total Violation           NA
PW    :            0  Failing Endpoints,  Worst Slack      498.562ns,  Total Violation        0.000ns
---------------------------------------------------------------------------------------------------


Pulse Width Checks
--------------------------------------------------------------------------------------
Clock Name:         clk_wrapper
Waveform(ns):       { 0.000 500.000 }
Period(ns):         1000.000
Sources:            { clk_wrapper }

Check Type        Corner  Lib Pin   Reference Pin  Required(ns)  Actual(ns)  Slack(ns)  Location               Pin
Min Period        n/a     FDRE/C    n/a            3.195         1000.000    996.805    BITSLICE_RX_TX_X1Y483  reducer_1/delay_block[4][0]/C
Min Period        n/a     BUFGCE/I  n/a            1.499         1000.000    998.501    BUFGCE_X1Y230          clk_wrapper_ibuf/I
Min Period        n/a     FDRE/C    n/a            0.550         1000.000    999.450    SLICE_X96Y531          lsfr_1/shiftreg_vector[159]/C
Min Period        n/a     FDRE/C    n/a            0.550         1000.000    999.450    SLICE_X103Y525         lsfr_1/shiftreg_vector[15]/C
Min Period        n/a     FDRE/C    n/a            0.550         1000.000    999.450    SLICE_X96Y531          lsfr_1/shiftreg_vector[160]/C
Low Pulse Width   Slow    FDRE/C    n/a            1.438         500.000     498.562    BITSLICE_RX_TX_X1Y483  reducer_1/delay_block[4][0]/C
Low Pulse Width   Fast    FDRE/C    n/a            1.438         500.000     498.562    BITSLICE_RX_TX_X1Y483  reducer_1/delay_block[4][0]/C
Low Pulse Width   Slow    FDRE/C    n/a            0.275         500.000     499.725    SLICE_X97Y531          lsfr_1/shiftreg_vector[162]/C
Low Pulse Width   Slow    FDRE/C    n/a            0.275         500.000     499.725    SLICE_X97Y531          lsfr_1/shiftreg_vector[163]/C
Low Pulse Width   Slow    FDRE/C    n/a            0.275         500.000     499.725    SLICE_X93Y533          lsfr_1/shiftreg_vector[184]/C
High Pulse Width  Fast    FDRE/C    n/a            1.438         500.000     498.562    BITSLICE_RX_TX_X1Y483  reducer_1/delay_block[4][0]/C
High Pulse Width  Slow    FDRE/C    n/a            1.438         500.000     498.562    BITSLICE_RX_TX_X1Y483  reducer_1/delay_block[4][0]/C
High Pulse Width  Fast    FDRE/C    n/a            0.275         500.000     499.725    SLICE_X103Y525         lsfr_1/shiftreg_vector[15]/C
High Pulse Width  Fast    FDRE/C    n/a            0.275         500.000     499.725    SLICE_X97Y531          lsfr_1/shiftreg_vector[162]/C
High Pulse Width  Fast    FDRE/C    n/a            0.275         500.000     499.725    SLICE_X97Y531          lsfr_1/shiftreg_vector[163]/C



