Copyright 1986-2018 Xilinx, Inc. All Rights Reserved.
------------------------------------------------------------------------------------
| Tool Version : Vivado v.2018.2 (win64) Build 2258646 Thu Jun 14 20:03:12 MDT 2018
| Date         : Sat Mar  2 22:03:37 2019
| Host         : PCPHESEBE02 running 64-bit Service Pack 1  (build 7601)
| Command      : report_high_fanout_nets -file fanout.txt -max_nets 200
| Design       : bitonic_sorter_16_top
| Device       : xcvu9p
------------------------------------------------------------------------------------

High Fan-out Nets Information

1. Summary
----------

+-------------------------------------------------------------------------------------------------------------------------------------------------------------------------------------+--------+-------------+
| Net Name                                                                                                                                                                            | Fanout | Driver Type |
+-------------------------------------------------------------------------------------------------------------------------------------------------------------------------------------+--------+-------------+
| dut_inst/sorter_inst/genblk1.bitonic_merge_i/genblk1.bitonic_merge_high/genblk1.cmp_g[3].compare_i/idx2_2                                                                           |     33 | LUT6        |
| dut_inst/sorter_inst/genblk1.bitonic_sort_low/genblk1.bitonic_merge_i/genblk1.bitonic_merge_high/genblk1.cmp_g[1].compare_i/idx2_5                                                  |     33 | LUT5        |
| dut_inst/sorter_inst/genblk1.bitonic_sort_high/genblk1.bitonic_merge_i/genblk1.bitonic_merge_low/genblk1.cmp_g[1].compare_i/un1_b_ac0_5_0_11                                        |     32 | LUT5        |
| dut_inst/sorter_inst/genblk1.bitonic_sort_low/genblk1.bitonic_sort_high/genblk1.bitonic_sort_low/genblk1.bitonic_merge_i/genblk1.cmp_g[0].compare_i/idx2_4_0                        |     32 | LUT5        |
| dut_inst/sorter_inst/genblk1.bitonic_sort_low/genblk1.bitonic_sort_low/genblk1.bitonic_merge_i/genblk1.bitonic_merge_low/genblk1.cmp_g[0].compare_i/idx2_1                          |     32 | LUT5        |
| dut_inst/sorter_inst/genblk1.bitonic_sort_low/genblk1.bitonic_merge_i/genblk1.bitonic_merge_low/genblk1.cmp_g[1].compare_i/idx2_5                                                   |     31 | LUT5        |
| dut_inst/sorter_inst/genblk1.bitonic_merge_i/genblk1.bitonic_merge_high/genblk1.cmp_g[2].compare_i/idx2_7                                                                           |     30 | LUT5        |
| dut_inst/sorter_inst/genblk1.bitonic_merge_i/genblk1.bitonic_merge_low/genblk1.bitonic_merge_high/genblk1.cmp_g[0].compare_i/idx2_4_0                                               |     30 | LUT5        |
| dut_inst/sorter_inst/genblk1.bitonic_sort_high/genblk1.bitonic_merge_i/genblk1.bitonic_merge_high/genblk1.cmp_g[1].compare_i/un1_b_ac0_5_0_13                                       |     30 | LUT5        |
| dut_inst/sorter_inst/genblk1.bitonic_sort_low/genblk1.bitonic_merge_i/genblk1.cmp_g[0].compare_i/idx2_2                                                                             |     30 | LUT5        |
| dut_inst/sorter_inst/genblk1.bitonic_sort_low/genblk1.bitonic_sort_high/genblk1.bitonic_merge_i/genblk1.cmp_g[1].compare_i/un1_b_ac0_5_0_1z                                         |     30 | LUT6        |
| dut_inst/sorter_inst/genblk1.bitonic_sort_low/genblk1.bitonic_sort_high/genblk1.bitonic_sort_high/genblk1.bitonic_merge_i/genblk1.cmp_g[0].compare_i/un1_b_ac0_5_0_1                |     30 | LUT5        |
| dut_inst/sorter_inst/genblk1.bitonic_merge_i/genblk1.bitonic_merge_high/genblk1.cmp_g[1].compare_i/idx2_8_0                                                                         |     29 | LUT6        |
| dut_inst/sorter_inst/genblk1.bitonic_merge_i/genblk1.bitonic_merge_low/genblk1.cmp_g[1].compare_i/idx2_10                                                                           |     29 | LUT6        |
| dut_inst/sorter_inst/genblk1.bitonic_sort_low/genblk1.bitonic_sort_low/genblk1.bitonic_merge_i/genblk1.bitonic_merge_high/genblk1.cmp_g[0].compare_i/idx2_2_0                       |     29 | LUT5        |
| dut_inst/sorter_inst/genblk1.bitonic_sort_low/genblk1.bitonic_sort_low/genblk1.bitonic_sort_low/genblk1.bitonic_merge_i/genblk1.cmp_g[0].compare_i/idx2_3                           |     29 | LUT5        |
| dut_inst/sorter_inst/genblk1.bitonic_merge_i/genblk1.bitonic_merge_low/genblk1.bitonic_merge_low/genblk1.cmp_g[0].compare_i/idx2_3                                                  |     28 | LUT5        |
| dut_inst/sorter_inst/genblk1.bitonic_merge_i/genblk1.bitonic_merge_low/genblk1.cmp_g[3].compare_i/idx2_4                                                                            |     28 | LUT6        |
| dut_inst/sorter_inst/genblk1.bitonic_merge_i/genblk1.cmp_g[0].compare_i/idx2_9                                                                                                      |     28 | LUT5        |
| dut_inst/sorter_inst/genblk1.bitonic_sort_high/genblk1.bitonic_sort_high/genblk1.bitonic_merge_i/genblk1.bitonic_merge_high/genblk1.cmp_g[0].compare_i/un1_b_ac0_5_0_16             |     28 | LUT5        |
| dut_inst/sorter_inst/genblk1.bitonic_merge_i/genblk1.bitonic_merge_high/genblk1.bitonic_merge_high/genblk1.cmp_g[0].compare_i/idx2_3_0                                              |     27 | LUT5        |
| dut_inst/sorter_inst/genblk1.bitonic_sort_high/genblk1.bitonic_merge_i/genblk1.cmp_g[0].compare_i/un1_b_ac0_5_0_14                                                                  |     27 | LUT5        |
| dut_inst/sorter_inst/genblk1.bitonic_sort_high/genblk1.bitonic_sort_low/genblk1.bitonic_merge_i/genblk1.bitonic_merge_low/genblk1.cmp_g[0].compare_i/idx2_1                         |     27 | LUT5        |
| dut_inst/sorter_inst/genblk1.bitonic_sort_high/genblk1.bitonic_sort_low/genblk1.bitonic_sort_low/genblk1.bitonic_merge_i/genblk1.cmp_g[0].compare_i/idx2_3                          |     27 | LUT5        |
| dut_inst/sorter_inst/genblk1.bitonic_merge_i/genblk1.bitonic_merge_high/genblk1.bitonic_merge_low/genblk1.cmp_g[0].compare_i/idx2_2_0                                               |     26 | LUT5        |
| dut_inst/sorter_inst/genblk1.bitonic_merge_i/genblk1.bitonic_merge_high/genblk1.cmp_g[0].compare_i/idx2_3                                                                           |     26 | LUT5        |
| dut_inst/sorter_inst/genblk1.bitonic_merge_i/genblk1.bitonic_merge_low/genblk1.bitonic_merge_low/genblk1.cmp_g[1].compare_i/idx2_0                                                  |     26 | LUT5        |
| dut_inst/sorter_inst/genblk1.bitonic_merge_i/genblk1.bitonic_merge_low/genblk1.cmp_g[0].compare_i/idx2_6_1                                                                          |     26 | LUT5        |
| dut_inst/sorter_inst/genblk1.bitonic_merge_i/genblk1.cmp_g[1].compare_i/idx2_12                                                                                                     |     26 | LUT5        |
| dut_inst/sorter_inst/genblk1.bitonic_sort_high/genblk1.bitonic_merge_i/genblk1.bitonic_merge_high/genblk1.cmp_g[0].compare_i/un1_b_ac0_5_0_12                                       |     26 | LUT5        |
| dut_inst/sorter_inst/genblk1.bitonic_sort_high/genblk1.bitonic_sort_high/genblk1.bitonic_sort_high/genblk1.bitonic_merge_i/genblk1.cmp_g[0].compare_i/un1_b_ac0_5_0_7               |     26 | LUT5        |
| dut_inst/sorter_inst/genblk1.bitonic_sort_high/genblk1.bitonic_sort_high/genblk1.bitonic_sort_low/genblk1.bitonic_merge_i/genblk1.cmp_g[0].compare_i/idx2                           |     26 | LUT5        |
| dut_inst/sorter_inst/genblk1.bitonic_sort_high/genblk1.bitonic_sort_low/genblk1.bitonic_merge_i/genblk1.bitonic_merge_high/genblk1.cmp_g[0].compare_i/idx2_2                        |     26 | LUT5        |
| dut_inst/sorter_inst/genblk1.bitonic_sort_high/genblk1.bitonic_sort_low/genblk1.bitonic_merge_i/genblk1.cmp_g[0].compare_i/idx2_0                                                   |     26 | LUT6        |
| dut_inst/sorter_inst/genblk1.bitonic_sort_low/genblk1.bitonic_merge_i/genblk1.bitonic_merge_low/genblk1.cmp_g[0].compare_i/idx2_1_1                                                 |     26 | LUT5        |
| dut_inst/sorter_inst/genblk1.bitonic_sort_low/genblk1.bitonic_sort_low/genblk1.bitonic_sort_high/genblk1.bitonic_merge_i/genblk1.cmp_g[0].compare_i/un1_b_ac0_5_0_5                 |     26 | LUT5        |
| dut_inst/sorter_inst/genblk1.bitonic_merge_i/genblk1.cmp_g[2].compare_i/idx2_6_0                                                                                                    |     25 | LUT5        |
| dut_inst/sorter_inst/genblk1.bitonic_merge_i/genblk1.cmp_g[3].compare_i/idx2_8                                                                                                      |     25 | LUT5        |
| dut_inst/sorter_inst/genblk1.bitonic_sort_high/genblk1.bitonic_sort_high/genblk1.bitonic_merge_i/genblk1.bitonic_merge_low/genblk1.cmp_g[0].compare_i/un1_b_ac0_5_0_18              |     25 | LUT5        |
| dut_inst/sorter_inst/genblk1.bitonic_sort_low/genblk1.bitonic_sort_low/genblk1.bitonic_merge_i/genblk1.cmp_g[0].compare_i/idx2_0                                                    |     25 | LUT6        |
| unsorted_muons[0].pt[3]                                                                                                                                                             |     25 | FDRE        |
| unsorted_muons[10].pt[3]                                                                                                                                                            |     25 | FDRE        |
| unsorted_muons[11].pt[3]                                                                                                                                                            |     25 | FDRE        |
| unsorted_muons[12].pt[3]                                                                                                                                                            |     25 | FDRE        |
| unsorted_muons[13].pt[3]                                                                                                                                                            |     25 | FDRE        |
| unsorted_muons[1].pt[3]                                                                                                                                                             |     25 | FDRE        |
| unsorted_muons[8].pt[3]                                                                                                                                                             |     25 | FDRE        |
| unsorted_muons[9].pt[3]                                                                                                                                                             |     25 | FDRE        |
| dut_inst/sorter_inst/genblk1.bitonic_merge_i/genblk1.bitonic_merge_low/genblk1.bitonic_merge_high/genblk1.cmp_g[1].compare_i/idx2                                                   |     24 | LUT5        |
| dut_inst/sorter_inst/genblk1.bitonic_merge_i/genblk1.cmp_g[6].compare_i/idx2                                                                                                        |     24 | LUT5        |
| dut_inst/sorter_inst/genblk1.bitonic_sort_high/genblk1.bitonic_merge_i/genblk1.bitonic_merge_low/genblk1.cmp_g[0].compare_i/un1_b_ac0_5_0_10                                        |     24 | LUT5        |
| dut_inst/sorter_inst/genblk1.bitonic_sort_high/genblk1.bitonic_merge_i/genblk1.cmp_g[1].compare_i/un1_b_ac0_5_0_17                                                                  |     24 | LUT5        |
| dut_inst/sorter_inst/genblk1.bitonic_sort_high/genblk1.bitonic_sort_high/genblk1.bitonic_merge_i/genblk1.cmp_g[1].compare_i/un1_b_ac0_5_0_19                                        |     24 | LUT6        |
| dut_inst/sorter_inst/genblk1.bitonic_sort_high/genblk1.bitonic_sort_low/genblk1.bitonic_sort_high/genblk1.bitonic_merge_i/genblk1.cmp_g[0].compare_i/un1_b_ac0_5_0_20               |     24 | LUT5        |
| dut_inst/sorter_inst/genblk1.bitonic_sort_low/genblk1.bitonic_merge_i/genblk1.bitonic_merge_high/genblk1.bitonic_merge_high/genblk1.cmp_g[0].compare_i/idx2_2                       |     24 | LUT5        |
| dut_inst/sorter_inst/genblk1.bitonic_sort_low/genblk1.bitonic_merge_i/genblk1.bitonic_merge_high/genblk1.bitonic_merge_low/genblk1.cmp_g[0].compare_i/idx2_3                        |     24 | LUT5        |
| dut_inst/sorter_inst/genblk1.bitonic_merge_i/genblk1.bitonic_merge_high/genblk1.bitonic_merge_high/genblk1.cmp_g[1].compare_i/idx2_1                                                |     23 | LUT5        |
| dut_inst/sorter_inst/genblk1.bitonic_merge_i/genblk1.cmp_g[5].compare_i/idx2_5                                                                                                      |     23 | LUT5        |
| dut_inst/sorter_inst/genblk1.bitonic_sort_high/genblk1.bitonic_merge_i/genblk1.cmp_g[2].compare_i/un1_b_ac0_5_0_15                                                                  |     23 | LUT5        |
| dut_inst/sorter_inst/genblk1.bitonic_sort_low/genblk1.bitonic_merge_i/genblk1.cmp_g[1].compare_i/idx2_4                                                                             |     23 | LUT5        |
| dut_inst/sorter_inst/genblk1.bitonic_sort_low/genblk1.bitonic_merge_i/genblk1.cmp_g[2].compare_i/idx2                                                                               |     23 | LUT5        |
| dut_inst/sorter_inst/genblk1.bitonic_merge_i/genblk1.bitonic_merge_high/genblk1.bitonic_merge_high/genblk1.bitonic_merge_high/genblk1.cmp_g[0].compare_i/idx2_ac0_5_0_0             |     22 | LUT4        |
| dut_inst/sorter_inst/genblk1.bitonic_merge_i/genblk1.bitonic_merge_high/genblk1.bitonic_merge_high/genblk1.bitonic_merge_high/genblk1.cmp_g[0].compare_i/idx2_ac0_5_d_0             |     22 | LUT4        |
| dut_inst/sorter_inst/genblk1.bitonic_merge_i/genblk1.bitonic_merge_high/genblk1.bitonic_merge_high/genblk1.bitonic_merge_low/genblk1.cmp_g[0].compare_i/idx2_ac0_5_0_0              |     22 | LUT4        |
| dut_inst/sorter_inst/genblk1.bitonic_merge_i/genblk1.bitonic_merge_high/genblk1.bitonic_merge_high/genblk1.bitonic_merge_low/genblk1.cmp_g[0].compare_i/idx2_ac0_5_d_0              |     22 | LUT4        |
| dut_inst/sorter_inst/genblk1.bitonic_merge_i/genblk1.bitonic_merge_high/genblk1.bitonic_merge_low/genblk1.bitonic_merge_high/genblk1.cmp_g[0].compare_i/idx2_ac0_5_0_0              |     22 | LUT4        |
| dut_inst/sorter_inst/genblk1.bitonic_merge_i/genblk1.bitonic_merge_high/genblk1.bitonic_merge_low/genblk1.bitonic_merge_high/genblk1.cmp_g[0].compare_i/idx2_ac0_5_d_0              |     22 | LUT4        |
| dut_inst/sorter_inst/genblk1.bitonic_merge_i/genblk1.bitonic_merge_high/genblk1.bitonic_merge_low/genblk1.bitonic_merge_low/genblk1.cmp_g[0].compare_i/idx2_ac0_5_0_0               |     22 | LUT4        |
| dut_inst/sorter_inst/genblk1.bitonic_merge_i/genblk1.bitonic_merge_high/genblk1.bitonic_merge_low/genblk1.bitonic_merge_low/genblk1.cmp_g[0].compare_i/idx2_ac0_5_d_0               |     22 | LUT4        |
| dut_inst/sorter_inst/genblk1.bitonic_merge_i/genblk1.bitonic_merge_high/genblk1.bitonic_merge_low/genblk1.cmp_g[1].compare_i/idx2                                                   |     22 | LUT5        |
| dut_inst/sorter_inst/genblk1.bitonic_merge_i/genblk1.bitonic_merge_low/genblk1.bitonic_merge_high/genblk1.bitonic_merge_high/genblk1.cmp_g[0].compare_i/idx2                        |     22 | LUT5        |
| dut_inst/sorter_inst/genblk1.bitonic_merge_i/genblk1.bitonic_merge_low/genblk1.bitonic_merge_high/genblk1.bitonic_merge_low/genblk1.cmp_g[0].compare_i/idx2_0                       |     22 | LUT5        |
| dut_inst/sorter_inst/genblk1.bitonic_merge_i/genblk1.bitonic_merge_low/genblk1.bitonic_merge_low/genblk1.bitonic_merge_low/genblk1.cmp_g[0].compare_i/idx2                          |     22 | LUT5        |
| dut_inst/sorter_inst/genblk1.bitonic_merge_i/genblk1.cmp_g[4].compare_i/idx2_2_0                                                                                                    |     22 | LUT5        |
| dut_inst/sorter_inst/genblk1.bitonic_sort_high/genblk1.bitonic_sort_high/genblk1.bitonic_merge_i/genblk1.cmp_g[0].compare_i/un1_b_ac0_5_0_6                                         |     22 | LUT6        |
| dut_inst/sorter_inst/genblk1.bitonic_sort_high/genblk1.bitonic_sort_low/genblk1.bitonic_merge_i/genblk1.cmp_g[1].compare_i/idx2                                                     |     22 | LUT6        |
| dut_inst/sorter_inst/genblk1.bitonic_sort_low/genblk1.bitonic_merge_i/genblk1.bitonic_merge_high/genblk1.cmp_g[0].compare_i/idx2_4_0                                                |     22 | LUT5        |
| dut_inst/sorter_inst/genblk1.bitonic_sort_low/genblk1.bitonic_merge_i/genblk1.bitonic_merge_low/genblk1.bitonic_merge_low/genblk1.cmp_g[0].compare_i/idx2_0                         |     22 | LUT5        |
| dut_inst/sorter_inst/genblk1.bitonic_sort_low/genblk1.bitonic_merge_i/genblk1.cmp_g[3].compare_i/idx2_1_0                                                                           |     22 | LUT5        |
| dut_inst/sorter_inst/genblk1.bitonic_sort_low/genblk1.bitonic_sort_high/genblk1.bitonic_merge_i/genblk1.bitonic_merge_high/genblk1.cmp_g[0].compare_i/un1_b_ac0_5_0_2               |     22 | LUT5        |
| dut_inst/sorter_inst/genblk1.bitonic_sort_low/genblk1.bitonic_sort_high/genblk1.bitonic_merge_i/genblk1.bitonic_merge_low/genblk1.cmp_g[0].compare_i/un1_b_ac0_5_0_3                |     22 | LUT5        |
| dut_inst/sorter_inst/genblk1.bitonic_sort_low/genblk1.bitonic_sort_high/genblk1.bitonic_merge_i/genblk1.cmp_g[0].compare_i/un1_b_ac0_5_0_4                                          |     22 | LUT6        |
| unsorted_muons[4].pt[3]                                                                                                                                                             |     22 | FDRE        |
| unsorted_muons[5].pt[3]                                                                                                                                                             |     22 | FDRE        |
| unsorted_muons[6].pt[3]                                                                                                                                                             |     22 | FDRE        |
| unsorted_muons[7].pt[3]                                                                                                                                                             |     22 | FDRE        |
| dut_inst/sorter_inst/genblk1.bitonic_merge_i/genblk1.bitonic_merge_low/genblk1.bitonic_merge_low/genblk1.bitonic_merge_high/genblk1.cmp_g[0].compare_i/idx2                         |     21 | LUT5        |
| dut_inst/sorter_inst/genblk1.bitonic_merge_i/genblk1.cmp_g[7].compare_i/idx2_1                                                                                                      |     21 | LUT5        |
| dut_inst/sorter_inst/genblk1.bitonic_sort_high/genblk1.bitonic_merge_i/genblk1.cmp_g[3].compare_i/un1_b_ac0_5_0_21                                                                  |     21 | LUT5        |
| unsorted_muons[14].pt[3]                                                                                                                                                            |     21 | FDRE        |
| unsorted_muons[15].pt[3]                                                                                                                                                            |     21 | FDRE        |
| unsorted_muons[2].pt[3]                                                                                                                                                             |     21 | FDRE        |
| unsorted_muons[3].pt[3]                                                                                                                                                             |     21 | FDRE        |
| dut_inst/sorter_inst/genblk1.bitonic_merge_i/genblk1.bitonic_merge_high/genblk1.bitonic_merge_high/genblk1.bitonic_merge_high/genblk1.cmp_g[0].compare_i/idx2_c2                    |     20 | LUT6        |
| dut_inst/sorter_inst/genblk1.bitonic_merge_i/genblk1.bitonic_merge_high/genblk1.bitonic_merge_high/genblk1.bitonic_merge_low/genblk1.cmp_g[0].compare_i/idx2_ac0_1                  |     20 | LUT6        |
| dut_inst/sorter_inst/genblk1.bitonic_merge_i/genblk1.bitonic_merge_high/genblk1.bitonic_merge_high/genblk1.bitonic_merge_low/genblk1.cmp_g[0].compare_i/idx2_ac0_2                  |     20 | LUT6        |
| dut_inst/sorter_inst/genblk1.bitonic_merge_i/genblk1.bitonic_merge_high/genblk1.bitonic_merge_low/genblk1.bitonic_merge_high/genblk1.cmp_g[0].compare_i/idx2_c2                     |     20 | LUT6        |
| dut_inst/sorter_inst/genblk1.bitonic_merge_i/genblk1.bitonic_merge_high/genblk1.bitonic_merge_low/genblk1.bitonic_merge_low/genblk1.cmp_g[0].compare_i/idx2_c2                      |     20 | LUT6        |
| dut_inst/sorter_inst/genblk1.bitonic_merge_i/genblk1.bitonic_merge_low/genblk1.cmp_g[2].compare_i/idx2_0                                                                            |     20 | LUT5        |
| dut_inst/sorter_inst/genblk1.bitonic_sort_low/genblk1.bitonic_merge_i/genblk1.bitonic_merge_low/genblk1.bitonic_merge_high/genblk1.cmp_g[0].compare_i/idx2                          |     20 | LUT5        |
| dut_inst/sorter_inst/genblk1.bitonic_sort_low/genblk1.bitonic_sort_low/genblk1.bitonic_merge_i/genblk1.cmp_g[1].compare_i/idx2                                                      |     20 | LUT6        |
| dut_inst/sorter_inst/genblk1.bitonic_sort_high/genblk1.bitonic_merge_i/genblk1.bitonic_merge_high/genblk1.bitonic_merge_high/genblk1.cmp_g[0].compare_i/un1_b_ac0_5_0_lut6_2_o6_0   |     18 | LUT5        |
| dut_inst/sorter_inst/genblk1.bitonic_sort_high/genblk1.bitonic_merge_i/genblk1.bitonic_merge_high/genblk1.bitonic_merge_low/genblk1.cmp_g[0].compare_i/un1_b_ac0_5_0_lut6_2_o6      |     18 | LUT5        |
| dut_inst/sorter_inst/genblk1.bitonic_sort_high/genblk1.bitonic_merge_i/genblk1.bitonic_merge_low/genblk1.bitonic_merge_high/genblk1.cmp_g[0].compare_i/un1_b_ac0_5_0_9              |     18 | LUT5        |
| dut_inst/sorter_inst/genblk1.bitonic_sort_high/genblk1.bitonic_merge_i/genblk1.bitonic_merge_low/genblk1.bitonic_merge_low/genblk1.cmp_g[0].compare_i/un1_b_ac0_5_0_8               |     18 | LUT5        |
| dut_inst/sorter_inst/genblk1.bitonic_sort_high/genblk1.bitonic_merge_i/genblk1.bitonic_merge_low/genblk1.bitonic_merge_high/genblk1.cmp_g[0].compare_i/pt_lut6_2_o6_19_0            |     13 | LUT4        |
| dut_inst/sorter_inst/genblk1.bitonic_sort_high/genblk1.bitonic_merge_i/genblk1.bitonic_merge_low/genblk1.bitonic_merge_low/genblk1.cmp_g[0].compare_i/pt_lut6_2_o5_17_0_0           |     13 | LUT4        |
| dut_inst/sorter_inst/genblk1.bitonic_sort_low/genblk1.bitonic_merge_i/genblk1.bitonic_merge_low/genblk1.bitonic_merge_high/genblk1.cmp_g[0].compare_i/pt_lut6_2_o5_23_0             |     13 | LUT4        |
| dut_inst/sorter_inst/genblk1.bitonic_sort_low/genblk1.bitonic_merge_i/genblk1.bitonic_merge_low/genblk1.bitonic_merge_low/genblk1.cmp_g[0].compare_i/pt_lut6_2_o5_24_0              |     13 | LUT4        |
| dut_inst/sorter_inst/genblk1.bitonic_merge_i/genblk1.cmp_g[1].compare_i/pt_lut6_2_o6_0                                                                                              |     11 | LUT4        |
| dut_inst/sorter_inst/genblk1.bitonic_merge_i/genblk1.cmp_g[5].compare_i/pt_lut6_2_o5_32_0                                                                                           |     11 | LUT4        |
| unsorted_muons[0].pt[2]                                                                                                                                                             |     11 | FDRE        |
| unsorted_muons[12].pt[2]                                                                                                                                                            |     11 | FDRE        |
| unsorted_muons[13].pt[2]                                                                                                                                                            |     11 | FDRE        |
| unsorted_muons[1].pt[2]                                                                                                                                                             |     11 | FDRE        |
| dut_inst/sorter_inst/genblk1.bitonic_merge_i/genblk1.bitonic_merge_low/genblk1.bitonic_merge_high/genblk1.cmp_g[1].compare_i/idx2_ac0_5_0_0                                         |     10 | LUT6        |
| dut_inst/sorter_inst/genblk1.bitonic_merge_i/genblk1.bitonic_merge_low/genblk1.bitonic_merge_high/genblk1.cmp_g[1].compare_i/idx2_ac0_5_d_0                                         |     10 | LUT6        |
| dut_inst/sorter_inst/genblk1.bitonic_sort_high/genblk1.bitonic_sort_high/genblk1.bitonic_merge_i/genblk1.bitonic_merge_low/genblk1.cmp_g[0].compare_i/pt_i_m2_i_m4_0[3]             |     10 | LUT4        |
| dut_inst/sorter_inst/genblk1.bitonic_sort_high/genblk1.bitonic_sort_high/genblk1.bitonic_merge_i/genblk1.bitonic_merge_low/genblk1.cmp_g[0].compare_i/pt_i_m2_i_m4_0_0_0            |     10 | LUT4        |
| dut_inst/sorter_inst/genblk1.bitonic_sort_high/genblk1.bitonic_sort_high/genblk1.bitonic_merge_i/genblk1.bitonic_merge_low/genblk1.cmp_g[0].compare_i/pt_i_m2_i_m4_2_0              |     10 | LUT4        |
| dut_inst/sorter_inst/genblk1.bitonic_sort_high/genblk1.bitonic_sort_high/genblk1.bitonic_merge_i/genblk1.bitonic_merge_low/genblk1.cmp_g[0].compare_i/pt_i_m2_i_m4_lut6_2_o5_0      |     10 | LUT4        |
| dut_inst/sorter_inst/genblk1.bitonic_sort_high/genblk1.bitonic_sort_low/genblk1.bitonic_merge_i/genblk1.bitonic_merge_low/genblk1.cmp_g[0].compare_i/pt_i_m4_0                      |     10 | LUT4        |
| dut_inst/sorter_inst/genblk1.bitonic_sort_high/genblk1.bitonic_sort_low/genblk1.bitonic_merge_i/genblk1.bitonic_merge_low/genblk1.cmp_g[0].compare_i/pt_lut6_2_o6_7_0               |     10 | LUT4        |
| dut_inst/sorter_inst/genblk1.bitonic_sort_high/genblk1.bitonic_sort_low/genblk1.bitonic_merge_i/genblk1.cmp_g[0].compare_i/pt_lut6_2_o5_7_0                                         |     10 | LUT4        |
| dut_inst/sorter_inst/genblk1.bitonic_sort_high/genblk1.bitonic_sort_low/genblk1.bitonic_merge_i/genblk1.cmp_g[1].compare_i/pt_lut6_2_o5_8_0                                         |     10 | LUT4        |
| dut_inst/sorter_inst/genblk1.bitonic_sort_low/genblk1.bitonic_sort_high/genblk1.bitonic_merge_i/genblk1.bitonic_merge_low/genblk1.cmp_g[0].compare_i/pt_lut6_2_o5_1_0_0             |     10 | LUT4        |
| dut_inst/sorter_inst/genblk1.bitonic_sort_low/genblk1.bitonic_sort_high/genblk1.bitonic_merge_i/genblk1.bitonic_merge_low/genblk1.cmp_g[0].compare_i/pt_lut6_2_o6_1_0_0             |     10 | LUT4        |
| dut_inst/sorter_inst/genblk1.bitonic_sort_low/genblk1.bitonic_sort_low/genblk1.bitonic_merge_i/genblk1.cmp_g[0].compare_i/pt_lut6_2_o5_4_0                                          |     10 | LUT4        |
| dut_inst/sorter_inst/genblk1.bitonic_sort_low/genblk1.bitonic_sort_low/genblk1.bitonic_merge_i/genblk1.cmp_g[1].compare_i/pt_lut6_2_o5_3_0                                          |     10 | LUT4        |
| dut_inst/sorter_inst/genblk1.bitonic_merge_i/genblk1.bitonic_merge_high/genblk1.cmp_g[1].compare_i/idx2_ac0_5_0_0                                                                   |      9 | LUT4        |
| dut_inst/sorter_inst/genblk1.bitonic_merge_i/genblk1.bitonic_merge_high/genblk1.cmp_g[1].compare_i/idx2_ac0_5_d_0                                                                   |      9 | LUT4        |
| dut_inst/sorter_inst/genblk1.bitonic_merge_i/genblk1.bitonic_merge_low/genblk1.bitonic_merge_low/genblk1.cmp_g[1].compare_i/idx2_ac0_5_0_0                                          |      9 | LUT6        |
| dut_inst/sorter_inst/genblk1.bitonic_merge_i/genblk1.bitonic_merge_low/genblk1.bitonic_merge_low/genblk1.cmp_g[1].compare_i/idx2_ac0_5_d_0                                          |      9 | LUT6        |
| dut_inst/sorter_inst/genblk1.bitonic_merge_i/genblk1.bitonic_merge_low/genblk1.cmp_g[0].compare_i/un1_compare_i_1_2_0                                                               |      9 | LUT4        |
| dut_inst/sorter_inst/genblk1.bitonic_merge_i/genblk1.bitonic_merge_low/genblk1.cmp_g[0].compare_i/un1_compare_i_5_0                                                                 |      9 | LUT4        |
| dut_inst/sorter_inst/genblk1.bitonic_merge_i/genblk1.bitonic_merge_low/genblk1.cmp_g[1].compare_i/un1_compare_i_1_0_0                                                               |      9 | LUT4        |
| dut_inst/sorter_inst/genblk1.bitonic_merge_i/genblk1.bitonic_merge_low/genblk1.cmp_g[1].compare_i/un1_compare_i_3_0                                                                 |      9 | LUT4        |
| dut_inst/sorter_inst/genblk1.bitonic_merge_i/genblk1.bitonic_merge_low/genblk1.cmp_g[2].compare_i/un1_compare_i_1_3_0                                                               |      9 | LUT4        |
| dut_inst/sorter_inst/genblk1.bitonic_merge_i/genblk1.bitonic_merge_low/genblk1.cmp_g[2].compare_i/un1_compare_i_6_0                                                                 |      9 | LUT4        |
| dut_inst/sorter_inst/genblk1.bitonic_merge_i/genblk1.bitonic_merge_low/genblk1.cmp_g[3].compare_i/un1_compare_i_1_1_0                                                               |      9 | LUT4        |
| dut_inst/sorter_inst/genblk1.bitonic_merge_i/genblk1.bitonic_merge_low/genblk1.cmp_g[3].compare_i/un1_compare_i_4_0                                                                 |      9 | LUT4        |
| dut_inst/sorter_inst/genblk1.bitonic_merge_i/genblk1.cmp_g[0].compare_i/pt_lut6_2_o6_13_0                                                                                           |      9 | LUT4        |
| dut_inst/sorter_inst/genblk1.bitonic_merge_i/genblk1.cmp_g[0].compare_i/pt_lut6_2_o6_14_0_0                                                                                         |      9 | LUT4        |
| dut_inst/sorter_inst/genblk1.bitonic_merge_i/genblk1.cmp_g[2].compare_i/pt_lut6_2_o6_14_0                                                                                           |      9 | LUT4        |
| dut_inst/sorter_inst/genblk1.bitonic_merge_i/genblk1.cmp_g[2].compare_i/pt_lut6_2_o6_15_0_0                                                                                         |      9 | LUT4        |
| dut_inst/sorter_inst/genblk1.bitonic_merge_i/genblk1.cmp_g[4].compare_i/pt_lut6_2_o6_15_0                                                                                           |      9 | LUT4        |
| dut_inst/sorter_inst/genblk1.bitonic_merge_i/genblk1.cmp_g[4].compare_i/pt_lut6_2_o6_16_0_0                                                                                         |      9 | LUT4        |
| dut_inst/sorter_inst/genblk1.bitonic_merge_i/genblk1.cmp_g[5].compare_i/idx2_ac0_5_d_0_lut6_2_o5_18                                                                                 |      9 | LUT4        |
| dut_inst/sorter_inst/genblk1.bitonic_merge_i/genblk1.cmp_g[6].compare_i/pt_lut6_2_o6_16_0                                                                                           |      9 | LUT4        |
| dut_inst/sorter_inst/genblk1.bitonic_merge_i/genblk1.cmp_g[6].compare_i/pt_lut6_2_o6_17_0                                                                                           |      9 | LUT4        |
| dut_inst/sorter_inst/genblk1.bitonic_merge_i/genblk1.cmp_g[7].compare_i/idx2_ac0_5_0_0_lut6_2_o5_22                                                                                 |      9 | LUT4        |
| dut_inst/sorter_inst/genblk1.bitonic_sort_high/genblk1.bitonic_merge_i/genblk1.bitonic_merge_high/genblk1.bitonic_merge_low/genblk1.cmp_g[0].compare_i/pt_lut6_2_o5_16_0_0          |      9 | LUT4        |
| dut_inst/sorter_inst/genblk1.bitonic_sort_high/genblk1.bitonic_merge_i/genblk1.bitonic_merge_high/genblk1.bitonic_merge_low/genblk1.cmp_g[0].compare_i/pt_lut6_2_o5_16_0_d0         |      9 | LUT4        |
| dut_inst/sorter_inst/genblk1.bitonic_sort_high/genblk1.bitonic_merge_i/genblk1.bitonic_merge_high/genblk1.bitonic_merge_low/genblk1.cmp_g[0].compare_i/pt_lut6_2_o6_17_0            |      9 | LUT4        |
| dut_inst/sorter_inst/genblk1.bitonic_sort_high/genblk1.bitonic_merge_i/genblk1.bitonic_merge_high/genblk1.bitonic_merge_low/genblk1.cmp_g[0].compare_i/pt_lut6_2_o6_18_0_0          |      9 | LUT4        |
| dut_inst/sorter_inst/genblk1.bitonic_sort_high/genblk1.bitonic_merge_i/genblk1.bitonic_merge_low/genblk1.bitonic_merge_high/genblk1.cmp_g[0].compare_i/pt_lut6_2_o5_17_0            |      9 | LUT4        |
| dut_inst/sorter_inst/genblk1.bitonic_sort_high/genblk1.bitonic_merge_i/genblk1.bitonic_merge_low/genblk1.bitonic_merge_high/genblk1.cmp_g[0].compare_i/un1_b_ac0_5_0_0_lut6_2_o5_11 |      9 | LUT4        |
| dut_inst/sorter_inst/genblk1.bitonic_sort_high/genblk1.bitonic_merge_i/genblk1.bitonic_merge_low/genblk1.bitonic_merge_low/genblk1.cmp_g[0].compare_i/pt_lut6_2_o6_18_3             |      9 | LUT4        |
| dut_inst/sorter_inst/genblk1.bitonic_sort_high/genblk1.bitonic_merge_i/genblk1.bitonic_merge_low/genblk1.bitonic_merge_low/genblk1.cmp_g[0].compare_i/un1_b_ac0_5_0_0_lut6_2_o5_12  |      9 | LUT4        |
| dut_inst/sorter_inst/genblk1.bitonic_sort_high/genblk1.bitonic_merge_i/genblk1.bitonic_merge_low/genblk1.cmp_g[0].compare_i/pt_lut6_2_o5_18_0                                       |      9 | LUT4        |
| dut_inst/sorter_inst/genblk1.bitonic_sort_high/genblk1.bitonic_merge_i/genblk1.bitonic_merge_low/genblk1.cmp_g[0].compare_i/pt_lut6_2_o5_19_0                                       |      9 | LUT4        |
| dut_inst/sorter_inst/genblk1.bitonic_sort_high/genblk1.bitonic_merge_i/genblk1.bitonic_merge_low/genblk1.cmp_g[0].compare_i/pt_lut6_2_o6_20_0                                       |      9 | LUT4        |
| dut_inst/sorter_inst/genblk1.bitonic_sort_high/genblk1.bitonic_merge_i/genblk1.bitonic_merge_low/genblk1.cmp_g[0].compare_i/pt_lut6_2_o6_21_0_0                                     |      9 | LUT4        |
| dut_inst/sorter_inst/genblk1.bitonic_sort_high/genblk1.bitonic_merge_i/genblk1.bitonic_merge_low/genblk1.cmp_g[1].compare_i/pt_lut6_2_o5_18_0_0                                     |      9 | LUT4        |
| dut_inst/sorter_inst/genblk1.bitonic_sort_high/genblk1.bitonic_merge_i/genblk1.bitonic_merge_low/genblk1.cmp_g[1].compare_i/pt_lut6_2_o5_19_0_0                                     |      9 | LUT4        |
| dut_inst/sorter_inst/genblk1.bitonic_sort_high/genblk1.bitonic_merge_i/genblk1.bitonic_merge_low/genblk1.cmp_g[1].compare_i/pt_lut6_2_o6_19_0_0                                     |      9 | LUT4        |
| dut_inst/sorter_inst/genblk1.bitonic_sort_high/genblk1.bitonic_merge_i/genblk1.bitonic_merge_low/genblk1.cmp_g[1].compare_i/pt_lut6_2_o6_20_0_0                                     |      9 | LUT4        |
| dut_inst/sorter_inst/genblk1.bitonic_sort_high/genblk1.bitonic_merge_i/genblk1.cmp_g[0].compare_i/pt_lut6_2_o5_5_0                                                                  |      9 | LUT4        |
| dut_inst/sorter_inst/genblk1.bitonic_sort_high/genblk1.bitonic_merge_i/genblk1.cmp_g[0].compare_i/pt_lut6_2_o6_6_0_0                                                                |      9 | LUT4        |
| dut_inst/sorter_inst/genblk1.bitonic_sort_high/genblk1.bitonic_merge_i/genblk1.cmp_g[2].compare_i/pt_i_m2_i_m4[3]                                                                   |      9 | LUT4        |
| dut_inst/sorter_inst/genblk1.bitonic_sort_high/genblk1.bitonic_merge_i/genblk1.cmp_g[2].compare_i/pt_lut6_2_o6_7_0                                                                  |      9 | LUT4        |
| dut_inst/sorter_inst/genblk1.bitonic_sort_high/genblk1.bitonic_sort_high/genblk1.bitonic_merge_i/genblk1.cmp_g[1].compare_i/pt_i_m2_i_m4_1_0_d0                                     |      9 | LUT4        |
| dut_inst/sorter_inst/genblk1.bitonic_sort_high/genblk1.bitonic_sort_high/genblk1.bitonic_merge_i/genblk1.cmp_g[1].compare_i/pt_i_m2_i_m4_3_0                                        |      9 | LUT4        |
| dut_inst/sorter_inst/genblk1.bitonic_sort_high/genblk1.bitonic_sort_high/genblk1.bitonic_merge_i/genblk1.cmp_g[1].compare_i/pt_i_m2_i_m4_lut6_2_o5_0_0_0                            |      9 | LUT4        |
| dut_inst/sorter_inst/genblk1.bitonic_sort_high/genblk1.bitonic_sort_high/genblk1.bitonic_merge_i/genblk1.cmp_g[1].compare_i/pt_i_m2_i_m4_lut6_2_o5_0_0_d0                           |      9 | LUT4        |
| dut_inst/sorter_inst/genblk1.bitonic_sort_high/genblk1.bitonic_sort_low/genblk1.bitonic_merge_i/genblk1.cmp_g[0].compare_i/pt_lut6_2_o6_8_0_0                                       |      9 | LUT4        |
| dut_inst/sorter_inst/genblk1.bitonic_sort_high/genblk1.bitonic_sort_low/genblk1.bitonic_merge_i/genblk1.cmp_g[1].compare_i/pt_lut6_2_o5_6_0                                         |      9 | LUT4        |
| dut_inst/sorter_inst/genblk1.bitonic_sort_high/genblk1.bitonic_sort_low/genblk1.bitonic_merge_i/genblk1.cmp_g[1].compare_i/pt_lut6_2_o6_8_0                                         |      9 | LUT4        |
| dut_inst/sorter_inst/genblk1.bitonic_sort_high/genblk1.bitonic_sort_low/genblk1.bitonic_merge_i/genblk1.cmp_g[1].compare_i/pt_lut6_2_o6_9_0                                         |      9 | LUT4        |
| dut_inst/sorter_inst/genblk1.bitonic_sort_low/genblk1.bitonic_merge_i/genblk1.bitonic_merge_high/genblk1.bitonic_merge_low/genblk1.cmp_g[0].compare_i/pt_lut6_2_o5_20_0_0           |      9 | LUT4        |
| dut_inst/sorter_inst/genblk1.bitonic_sort_low/genblk1.bitonic_merge_i/genblk1.bitonic_merge_high/genblk1.bitonic_merge_low/genblk1.cmp_g[0].compare_i/pt_lut6_2_o5_20_0_d0          |      9 | LUT4        |
| dut_inst/sorter_inst/genblk1.bitonic_sort_low/genblk1.bitonic_merge_i/genblk1.bitonic_merge_high/genblk1.bitonic_merge_low/genblk1.cmp_g[0].compare_i/pt_lut6_2_o6_23_0_0           |      9 | LUT4        |
| dut_inst/sorter_inst/genblk1.bitonic_sort_low/genblk1.bitonic_merge_i/genblk1.bitonic_merge_high/genblk1.bitonic_merge_low/genblk1.cmp_g[0].compare_i/pt_lut6_2_o6_24_0_0           |      9 | LUT4        |
| dut_inst/sorter_inst/genblk1.bitonic_sort_low/genblk1.bitonic_merge_i/genblk1.bitonic_merge_low/genblk1.bitonic_merge_high/genblk1.cmp_g[0].compare_i/idx2_ac0_5_d_0_lut6_2_o5_23   |      9 | LUT4        |
| dut_inst/sorter_inst/genblk1.bitonic_sort_low/genblk1.bitonic_merge_i/genblk1.bitonic_merge_low/genblk1.bitonic_merge_high/genblk1.cmp_g[0].compare_i/pt_lut6_2_o6_24_0             |      9 | LUT4        |
| dut_inst/sorter_inst/genblk1.bitonic_sort_low/genblk1.bitonic_merge_i/genblk1.bitonic_merge_low/genblk1.bitonic_merge_low/genblk1.cmp_g[0].compare_i/pt_lut6_2_o5_6_0               |      9 | LUT4        |
| dut_inst/sorter_inst/genblk1.bitonic_sort_low/genblk1.bitonic_merge_i/genblk1.bitonic_merge_low/genblk1.bitonic_merge_low/genblk1.cmp_g[0].compare_i/pt_lut6_2_o6_25_0              |      9 | LUT4        |
| dut_inst/sorter_inst/genblk1.bitonic_sort_low/genblk1.bitonic_merge_i/genblk1.bitonic_merge_low/genblk1.cmp_g[0].compare_i/pt_lut6_2_o5_22_0_0                                      |      9 | LUT4        |
| dut_inst/sorter_inst/genblk1.bitonic_sort_low/genblk1.bitonic_merge_i/genblk1.bitonic_merge_low/genblk1.cmp_g[0].compare_i/pt_lut6_2_o5_22_0_d0                                     |      9 | LUT4        |
| dut_inst/sorter_inst/genblk1.bitonic_sort_low/genblk1.bitonic_merge_i/genblk1.bitonic_merge_low/genblk1.cmp_g[0].compare_i/pt_lut6_2_o6_22_0                                        |      9 | LUT4        |
| dut_inst/sorter_inst/genblk1.bitonic_sort_low/genblk1.bitonic_merge_i/genblk1.bitonic_merge_low/genblk1.cmp_g[0].compare_i/pt_lut6_2_o6_23_0                                        |      9 | LUT4        |
| dut_inst/sorter_inst/genblk1.bitonic_sort_low/genblk1.bitonic_merge_i/genblk1.bitonic_merge_low/genblk1.cmp_g[1].compare_i/pt_lut6_2_o5_21_0_0                                      |      9 | LUT4        |
| dut_inst/sorter_inst/genblk1.bitonic_sort_low/genblk1.bitonic_merge_i/genblk1.bitonic_merge_low/genblk1.cmp_g[1].compare_i/pt_lut6_2_o5_21_0_d0                                     |      9 | LUT4        |
| dut_inst/sorter_inst/genblk1.bitonic_sort_low/genblk1.bitonic_merge_i/genblk1.bitonic_merge_low/genblk1.cmp_g[1].compare_i/pt_lut6_2_o6_21_0                                        |      9 | LUT4        |
| dut_inst/sorter_inst/genblk1.bitonic_sort_low/genblk1.bitonic_merge_i/genblk1.bitonic_merge_low/genblk1.cmp_g[1].compare_i/pt_lut6_2_o6_22_0_0                                      |      9 | LUT4        |
| dut_inst/sorter_inst/genblk1.bitonic_sort_low/genblk1.bitonic_merge_i/genblk1.cmp_g[0].compare_i/pt_lut6_2_o5_4_0                                                                   |      9 | LUT4        |
| dut_inst/sorter_inst/genblk1.bitonic_sort_low/genblk1.bitonic_merge_i/genblk1.cmp_g[0].compare_i/pt_lut6_2_o6_0                                                                     |      9 | LUT4        |
| dut_inst/sorter_inst/genblk1.bitonic_sort_low/genblk1.bitonic_merge_i/genblk1.cmp_g[0].compare_i/pt_lut6_2_o6_1_0_0                                                                 |      9 | LUT4        |
| dut_inst/sorter_inst/genblk1.bitonic_sort_low/genblk1.bitonic_merge_i/genblk1.cmp_g[2].compare_i/pt_lut6_2_o5_0_0_d0                                                                |      9 | LUT4        |
| dut_inst/sorter_inst/genblk1.bitonic_sort_low/genblk1.bitonic_merge_i/genblk1.cmp_g[2].compare_i/pt_lut6_2_o6_0_0_0                                                                 |      9 | LUT4        |
+-------------------------------------------------------------------------------------------------------------------------------------------------------------------------------------+--------+-------------+


