Copyright 1986-2018 Xilinx, Inc. All Rights Reserved.
-------------------------------------------------------------------------------------------------
| Tool Version      : Vivado v.2018.2 (win64) Build 2258646 Thu Jun 14 20:03:12 MDT 2018
| Date              : Sat Mar  2 21:59:31 2019
| Host              : PCPHESEBE02 running 64-bit Service Pack 1  (build 7601)
| Command           : report_timing_summary -setup -nworst 5 -max_paths 5 -file timing_setup.txt
| Design            : bitonic_sorter_16_top
| Device            : xcvu9p-flgc2104
| Speed File        : -1  PRODUCTION 1.20 05-21-2018
| Temperature Grade : E
-------------------------------------------------------------------------------------------------

Timing Summary Report

------------------------------------------------------------------------------------------------
| Timer Settings
| --------------
------------------------------------------------------------------------------------------------

  Enable Multi Corner Analysis               :  Yes
  Enable Pessimism Removal                   :  Yes
  Pessimism Removal Resolution               :  Nearest Common Node
  Enable Input Delay Default Clock           :  No
  Enable Preset / Clear Arcs                 :  No
  Disable Flight Delays                      :  No
  Ignore I/O Paths                           :  No
  Timing Early Launch at Borrowing Latches   :  false

  Corner  Analyze    Analyze    
  Name    Max Paths  Min Paths  
  ------  ---------  ---------  
  Slow    Yes        Yes        
  Fast    Yes        Yes        



check_timing report

Table of Contents
-----------------
1. checking no_clock
2. checking constant_clock
3. checking pulse_width_clock
4. checking unconstrained_internal_endpoints
5. checking no_input_delay
6. checking no_output_delay
7. checking multiple_clock
8. checking generated_clocks
9. checking loops
10. checking partial_input_delay
11. checking partial_output_delay
12. checking latch_loops

1. checking no_clock
--------------------
 There are 0 register/latch pins with no clock.


2. checking constant_clock
--------------------------
 There are 0 register/latch pins with constant_clock.


3. checking pulse_width_clock
-----------------------------
 There are 0 register/latch pins which need pulse_width check


4. checking unconstrained_internal_endpoints
--------------------------------------------
 There are 0 pins that are not constrained for maximum delay.

 There are 0 pins that are not constrained for maximum delay due to constant clock.


5. checking no_input_delay
--------------------------
 There is 1 input port with no input delay specified. (HIGH)

 There are 0 input ports with no input delay but user has a false path constraint.


6. checking no_output_delay
---------------------------
 There is 1 port with no output delay specified. (HIGH)

 There are 0 ports with no output delay but user has a false path constraint

 There are 0 ports with no output delay but with a timing clock defined on it or propagating through it


7. checking multiple_clock
--------------------------
 There are 0 register/latch pins with multiple clocks.


8. checking generated_clocks
----------------------------
 There are 0 generated clocks that are not connected to a clock source.


9. checking loops
-----------------
 There are 0 combinational loops in the design.


10. checking partial_input_delay
--------------------------------
 There are 0 input ports with partial input delay specified.


11. checking partial_output_delay
---------------------------------
 There are 0 ports with partial output delay specified.


12. checking latch_loops
------------------------
 There are 0 combinational latch loops in the design through latch input



------------------------------------------------------------------------------------------------
| Design Timing Summary
| ---------------------
------------------------------------------------------------------------------------------------

    WNS(ns)      TNS(ns)  TNS Failing Endpoints  TNS Total Endpoints     WPWS(ns)     TPWS(ns)  TPWS Failing Endpoints  TPWS Total Endpoints  
    -------      -------  ---------------------  -------------------     --------     --------  ----------------------  --------------------  
      1.975        0.000                      0                  624        4.427        0.000                       0                  1323  


All user specified timing constraints are met.


------------------------------------------------------------------------------------------------
| Clock Summary
| -------------
------------------------------------------------------------------------------------------------

Clock        Waveform(ns)         Period(ns)      Frequency(MHz)
-----        ------------         ----------      --------------
clk          {0.000 5.000}        10.000          100.000         
clk_wrapper  {0.000 500.000}      1000.000        1.000           


------------------------------------------------------------------------------------------------
| Intra Clock Table
| -----------------
------------------------------------------------------------------------------------------------

Clock             WNS(ns)      TNS(ns)  TNS Failing Endpoints  TNS Total Endpoints     WPWS(ns)     TPWS(ns)  TPWS Failing Endpoints  TPWS Total Endpoints  
-----             -------      -------  ---------------------  -------------------     --------     --------  ----------------------  --------------------  
clk                 1.975        0.000                      0                  624        4.427        0.000                       0                   833  
clk_wrapper                                                                             498.562        0.000                       0                   490  


------------------------------------------------------------------------------------------------
| Inter Clock Table
| -----------------
------------------------------------------------------------------------------------------------

From Clock    To Clock          WNS(ns)      TNS(ns)  TNS Failing Endpoints  TNS Total Endpoints  
----------    --------          -------      -------  ---------------------  -------------------  


------------------------------------------------------------------------------------------------
| Other Path Groups Table
| -----------------------
------------------------------------------------------------------------------------------------

Path Group    From Clock    To Clock          WNS(ns)      TNS(ns)  TNS Failing Endpoints  TNS Total Endpoints  
----------    ----------    --------          -------      -------  ---------------------  -------------------  


------------------------------------------------------------------------------------------------
| Timing Details
| --------------
------------------------------------------------------------------------------------------------


---------------------------------------------------------------------------------------------------
From Clock:  clk
  To Clock:  clk

Setup :            0  Failing Endpoints,  Worst Slack        1.975ns,  Total Violation        0.000ns
Hold  :           NA  Failing Endpoints,  Worst Slack           NA  ,  Total Violation           NA
PW    :            0  Failing Endpoints,  Worst Slack        4.427ns,  Total Violation        0.000ns
---------------------------------------------------------------------------------------------------


Max Delay Paths
--------------------------------------------------------------------------------------
Slack (MET) :             1.975ns  (required time - arrival time)
  Source:                 unsorted_muons[7].pt[0]/C
                            (rising edge-triggered cell FDRE clocked by clk  {rise@0.000ns fall@5.000ns period=10.000ns})
  Destination:            dut_inst/qdelay_3__0_.idx_7__0_pt_3__1/D
                            (rising edge-triggered cell SRL16E clocked by clk  {rise@0.000ns fall@5.000ns period=10.000ns})
  Path Group:             clk
  Path Type:              Setup (Max at Slow Process Corner)
  Requirement:            10.000ns  (clk rise@10.000ns - clk rise@0.000ns)
  Data Path Delay:        7.832ns  (logic 2.194ns (28.013%)  route 5.638ns (71.987%))
  Logic Levels:           22  (LUT4=1 LUT5=10 LUT6=11)
  Clock Path Skew:        -0.109ns (DCD - SCD + CPR)
    Destination Clock Delay (DCD):    2.206ns = ( 12.206 - 10.000 ) 
    Source Clock Delay      (SCD):    2.717ns
    Clock Pessimism Removal (CPR):    0.402ns
  Clock Uncertainty:      0.035ns  ((TSJ^2 + TIJ^2)^1/2 + DJ) / 2 + PE
    Total System Jitter     (TSJ):    0.071ns
    Total Input Jitter      (TIJ):    0.000ns
    Discrete Jitter          (DJ):    0.000ns
    Phase Error              (PE):    0.000ns
  Clock Net Delay (Source):      1.557ns (routing 0.621ns, distribution 0.936ns)
  Clock Net Delay (Destination): 1.357ns (routing 0.568ns, distribution 0.789ns)

    Location             Delay type                Incr(ns)  Path(ns)    Netlist Resource(s)
  -------------------------------------------------------------------    -------------------
                         (clock clk rise edge)        0.000     0.000 r  
    AW33                                              0.000     0.000 r  clk (IN)
                         net (fo=0)                   0.000     0.000    clk_ibuf_iso/I
    AW33                 INBUF (Prop_INBUF_HPIOB_M_PAD_O)
                                                      0.798     0.798 r  clk_ibuf_iso/INBUF_INST/O
                         net (fo=1, routed)           0.000     0.798    clk_ibuf_iso/OUT
    AW33                 IBUFCTRL (Prop_IBUFCTRL_HPIOB_M_I_O)
                                                      0.000     0.798 r  clk_ibuf_iso/IBUFCTRL_INST/O
                         net (fo=1, routed)           0.334     1.132    clk_ibuf_iso
    BUFGCE_X1Y218        BUFGCE (Prop_BUFCE_BUFGCE_I_O)
                                                      0.028     1.160 r  clk_ibuf/O
    X3Y9 (CLOCK_ROOT)    net (fo=832, routed)         1.557     2.717    clk_c
    SLICE_X100Y582       FDRE                                         r  unsorted_muons[7].pt[0]/C
  -------------------------------------------------------------------    -------------------
    SLICE_X100Y582       FDRE (Prop_GFF2_SLICEM_C_Q)
                                                      0.098     2.815 f  unsorted_muons[7].pt[0]/Q
                         net (fo=3, routed)           0.253     3.068    dut_inst/sorter_inst/genblk1.bitonic_sort_low/genblk1.bitonic_sort_high/genblk1.bitonic_sort_high/genblk1.bitonic_merge_i/genblk1.cmp_g[0].compare_i/pt_0[0]
    SLICE_X101Y586       LUT4 (Prop_C6LUT_SLICEL_I3_O)
                                                      0.098     3.166 r  dut_inst/sorter_inst/genblk1.bitonic_sort_low/genblk1.bitonic_sort_high/genblk1.bitonic_sort_high/genblk1.bitonic_merge_i/genblk1.cmp_g[0].compare_i/un1_b_c2_lut6_2_o5_lut6_2_o5/O
                         net (fo=1, routed)           0.099     3.265    dut_inst/sorter_inst/genblk1.bitonic_sort_low/genblk1.bitonic_sort_high/genblk1.bitonic_sort_high/genblk1.bitonic_merge_i/genblk1.cmp_g[0].compare_i/un1_b_c2_lut6_2_o6
    SLICE_X101Y584       LUT5 (Prop_G6LUT_SLICEL_I4_O)
                                                      0.038     3.303 r  dut_inst/sorter_inst/genblk1.bitonic_sort_low/genblk1.bitonic_sort_high/genblk1.bitonic_sort_high/genblk1.bitonic_merge_i/genblk1.cmp_g[0].compare_i/un1_b_ac0_5_0/O
                         net (fo=30, routed)          0.270     3.573    dut_inst/sorter_inst/genblk1.bitonic_sort_low/genblk1.bitonic_sort_high/genblk1.bitonic_merge_i/genblk1.cmp_g[0].compare_i/s0.pt_lut6_2[1]/I3
    SLICE_X100Y586       LUT5 (Prop_D5LUT_SLICEM_I3_O)
                                                      0.120     3.693 f  dut_inst/sorter_inst/genblk1.bitonic_sort_low/genblk1.bitonic_sort_high/genblk1.bitonic_merge_i/genblk1.cmp_g[0].compare_i/s0.pt_lut6_2[1]/LUT5/O
                         net (fo=3, routed)           0.216     3.909    dut_inst/sorter_inst/genblk1.bitonic_sort_low/genblk1.bitonic_sort_high/genblk1.bitonic_merge_i/genblk1.cmp_g[0].compare_i/pt_lut6_2_O5_0
    SLICE_X100Y586       LUT6 (Prop_G6LUT_SLICEM_I4_O)
                                                      0.064     3.973 r  dut_inst/sorter_inst/genblk1.bitonic_sort_low/genblk1.bitonic_sort_high/genblk1.bitonic_merge_i/genblk1.cmp_g[0].compare_i/un1_b_c2/O
                         net (fo=3, routed)           0.107     4.080    dut_inst/sorter_inst/genblk1.bitonic_sort_low/genblk1.bitonic_sort_high/genblk1.bitonic_merge_i/genblk1.cmp_g[0].compare_i/un1_b_c2_1
    SLICE_X100Y585       LUT5 (Prop_D5LUT_SLICEM_I4_O)
                                                      0.120     4.200 r  dut_inst/sorter_inst/genblk1.bitonic_sort_low/genblk1.bitonic_sort_high/genblk1.bitonic_merge_i/genblk1.cmp_g[0].compare_i/s0.pt_lut6_2_o5_lut6_2_o5[0]/O
                         net (fo=3, routed)           0.254     4.454    dut_inst/sorter_inst/genblk1.bitonic_sort_low/genblk1.bitonic_sort_high/genblk1.bitonic_merge_i/genblk1.bitonic_merge_low/genblk1.cmp_g[0].compare_i/pt_lut6_2_o6_1_0_d0
    SLICE_X100Y585       LUT6 (Prop_G6LUT_SLICEM_I3_O)
                                                      0.100     4.554 r  dut_inst/sorter_inst/genblk1.bitonic_sort_low/genblk1.bitonic_sort_high/genblk1.bitonic_merge_i/genblk1.bitonic_merge_low/genblk1.cmp_g[0].compare_i/un1_b_c2/O
                         net (fo=3, routed)           0.302     4.856    dut_inst/sorter_inst/genblk1.bitonic_sort_low/genblk1.bitonic_sort_high/genblk1.bitonic_merge_i/genblk1.bitonic_merge_low/genblk1.cmp_g[0].compare_i/un1_b_c2_2
    SLICE_X96Y585        LUT5 (Prop_C6LUT_SLICEL_I4_O)
                                                      0.063     4.919 f  dut_inst/sorter_inst/genblk1.bitonic_sort_low/genblk1.bitonic_sort_high/genblk1.bitonic_merge_i/genblk1.bitonic_merge_low/genblk1.cmp_g[0].compare_i/s0.pt_lut6_2_o5_lut6_2_o6[0]/O
                         net (fo=3, routed)           0.122     5.041    dut_inst/sorter_inst/genblk1.bitonic_sort_low/genblk1.bitonic_merge_i/genblk1.cmp_g[1].compare_i/pt_lut6_2_o5_12_0
    SLICE_X96Y583        LUT6 (Prop_F6LUT_SLICEL_I5_O)
                                                      0.148     5.189 r  dut_inst/sorter_inst/genblk1.bitonic_sort_low/genblk1.bitonic_merge_i/genblk1.cmp_g[1].compare_i/s0.idx2_c2/O
                         net (fo=3, routed)           0.049     5.238    dut_inst/sorter_inst/genblk1.bitonic_sort_low/genblk1.bitonic_merge_i/genblk1.cmp_g[1].compare_i/idx2_c2
    SLICE_X96Y583        LUT5 (Prop_E6LUT_SLICEL_I4_O)
                                                      0.100     5.338 r  dut_inst/sorter_inst/genblk1.bitonic_sort_low/genblk1.bitonic_merge_i/genblk1.cmp_g[1].compare_i/s0.idx2_ac0_5_0/O
                         net (fo=23, routed)          0.187     5.525    dut_inst/sorter_inst/genblk1.bitonic_sort_low/genblk1.bitonic_merge_i/genblk1.bitonic_merge_high/genblk1.cmp_g[1].compare_i/idx2_4
    SLICE_X98Y582        LUT6 (Prop_A6LUT_SLICEL_I4_O)
                                                      0.064     5.589 r  dut_inst/sorter_inst/genblk1.bitonic_sort_low/genblk1.bitonic_merge_i/genblk1.bitonic_merge_high/genblk1.cmp_g[1].compare_i/s0.idx2_axb2/O
                         net (fo=4, routed)           0.132     5.721    dut_inst/sorter_inst/genblk1.bitonic_sort_low/genblk1.bitonic_merge_i/genblk1.bitonic_merge_high/genblk1.cmp_g[1].compare_i/idx2_axb2
    SLICE_X97Y582        LUT6 (Prop_E6LUT_SLICEM_I4_O)
                                                      0.177     5.898 f  dut_inst/sorter_inst/genblk1.bitonic_sort_low/genblk1.bitonic_merge_i/genblk1.bitonic_merge_high/genblk1.cmp_g[1].compare_i/s1.pt[0]/O
                         net (fo=3, routed)           0.328     6.226    dut_inst/sorter_inst/genblk1.bitonic_sort_low/genblk1.bitonic_merge_i/genblk1.bitonic_merge_high/genblk1.bitonic_merge_high/genblk1.cmp_g[0].compare_i/pt_1_0
    SLICE_X95Y582        LUT6 (Prop_G6LUT_SLICEM_I3_O)
                                                      0.064     6.290 r  dut_inst/sorter_inst/genblk1.bitonic_sort_low/genblk1.bitonic_merge_i/genblk1.bitonic_merge_high/genblk1.bitonic_merge_high/genblk1.cmp_g[0].compare_i/s0.idx2_c2/O
                         net (fo=3, routed)           0.119     6.409    dut_inst/sorter_inst/genblk1.bitonic_sort_low/genblk1.bitonic_merge_i/genblk1.bitonic_merge_high/genblk1.bitonic_merge_high/genblk1.cmp_g[0].compare_i/idx2_c2
    SLICE_X93Y582        LUT5 (Prop_G6LUT_SLICEM_I4_O)
                                                      0.064     6.473 r  dut_inst/sorter_inst/genblk1.bitonic_sort_low/genblk1.bitonic_merge_i/genblk1.bitonic_merge_high/genblk1.bitonic_merge_high/genblk1.cmp_g[0].compare_i/s0.idx2_ac0_5_0/O
                         net (fo=24, routed)          0.536     7.009    dut_inst/sorter_inst/genblk1.bitonic_merge_i/genblk1.cmp_g[7].compare_i/idx2_2
    SLICE_X97Y578        LUT6 (Prop_H6LUT_SLICEM_I5_O)
                                                      0.100     7.109 r  dut_inst/sorter_inst/genblk1.bitonic_merge_i/genblk1.cmp_g[7].compare_i/s0.idx2_c2/O
                         net (fo=3, routed)           0.104     7.213    dut_inst/sorter_inst/genblk1.bitonic_merge_i/genblk1.cmp_g[7].compare_i/idx2_c2
    SLICE_X97Y578        LUT5 (Prop_B5LUT_SLICEM_I4_O)
                                                      0.089     7.302 f  dut_inst/sorter_inst/genblk1.bitonic_merge_i/genblk1.cmp_g[7].compare_i/s0.pt_lut6_2_o5_lut6_2_o5[0]/O
                         net (fo=3, routed)           0.212     7.514    dut_inst/sorter_inst/genblk1.bitonic_merge_i/genblk1.bitonic_merge_low/genblk1.cmp_g[3].compare_i/pt_lut6_2_o6_41_0
    SLICE_X96Y579        LUT6 (Prop_G6LUT_SLICEL_I4_O)
                                                      0.114     7.628 r  dut_inst/sorter_inst/genblk1.bitonic_merge_i/genblk1.bitonic_merge_low/genblk1.cmp_g[3].compare_i/s0.idx2_ac0_5_0/O
                         net (fo=28, routed)          0.065     7.693    dut_inst/sorter_inst/genblk1.bitonic_merge_i/genblk1.bitonic_merge_low/genblk1.cmp_g[3].compare_i/idx2_4
    SLICE_X96Y579        LUT6 (Prop_F6LUT_SLICEL_I5_O)
                                                      0.114     7.807 f  dut_inst/sorter_inst/genblk1.bitonic_merge_i/genblk1.bitonic_merge_low/genblk1.cmp_g[3].compare_i/s0.pt[2]/O
                         net (fo=5, routed)           0.363     8.170    dut_inst/sorter_inst/genblk1.bitonic_merge_i/genblk1.bitonic_merge_low/genblk1.bitonic_merge_low/genblk1.cmp_g[1].compare_i/pt_10_0
    SLICE_X93Y580        LUT6 (Prop_H6LUT_SLICEM_I5_O)
                                                      0.100     8.270 r  dut_inst/sorter_inst/genblk1.bitonic_merge_i/genblk1.bitonic_merge_low/genblk1.bitonic_merge_low/genblk1.cmp_g[1].compare_i/s0.idx2_ac0_5_0_0/O
                         net (fo=9, routed)           0.413     8.683    dut_inst/sorter_inst/genblk1.bitonic_merge_i/genblk1.bitonic_merge_low/genblk1.bitonic_merge_low/genblk1.bitonic_merge_low/genblk1.cmp_g[0].compare_i/s0.pt_lut6_2[1]/I3
    SLICE_X94Y581        LUT5 (Prop_D5LUT_SLICEL_I3_O)
                                                      0.118     8.801 f  dut_inst/sorter_inst/genblk1.bitonic_merge_i/genblk1.bitonic_merge_low/genblk1.bitonic_merge_low/genblk1.bitonic_merge_low/genblk1.cmp_g[0].compare_i/s0.pt_lut6_2[1]/LUT5/O
                         net (fo=1, routed)           0.193     8.994    dut_inst/sorter_inst/genblk1.bitonic_merge_i/genblk1.bitonic_merge_low/genblk1.bitonic_merge_low/genblk1.bitonic_merge_low/genblk1.cmp_g[0].compare_i/pt_lut6_2_O5_0[1]
    SLICE_X94Y581        LUT6 (Prop_G6LUT_SLICEL_I3_O)
                                                      0.063     9.057 r  dut_inst/sorter_inst/genblk1.bitonic_merge_i/genblk1.bitonic_merge_low/genblk1.bitonic_merge_low/genblk1.bitonic_merge_low/genblk1.cmp_g[0].compare_i/s0.idx2_c2/O
                         net (fo=1, routed)           0.166     9.223    dut_inst/sorter_inst/genblk1.bitonic_merge_i/genblk1.bitonic_merge_low/genblk1.bitonic_merge_low/genblk1.bitonic_merge_low/genblk1.cmp_g[0].compare_i/idx2_c2
    SLICE_X93Y581        LUT5 (Prop_B5LUT_SLICEM_I4_O)
                                                      0.089     9.312 r  dut_inst/sorter_inst/genblk1.bitonic_merge_i/genblk1.bitonic_merge_low/genblk1.bitonic_merge_low/genblk1.bitonic_merge_low/genblk1.cmp_g[0].compare_i/s0.idx2_ac0_5_0_lut6_2_o5_lut6_2_o5/O
                         net (fo=22, routed)          0.625     9.937    dut_inst/sorter_inst/genblk1.bitonic_merge_i/genblk1.bitonic_merge_low/genblk1.bitonic_merge_low/genblk1.bitonic_merge_low/genblk1.cmp_g[0].compare_i/idx2
    SLICE_X99Y579        LUT5 (Prop_B5LUT_SLICEM_I4_O)
                                                      0.089    10.026 r  dut_inst/sorter_inst/genblk1.bitonic_merge_i/genblk1.bitonic_merge_low/genblk1.bitonic_merge_low/genblk1.bitonic_merge_low/genblk1.cmp_g[0].compare_i/s0.idx_lut6_2_o5_lut6_2_o5[7]/O
                         net (fo=1, routed)           0.523    10.549    dut_inst/idx_7[7]
    SLICE_X95Y581        SRL16E                                       r  dut_inst/qdelay_3__0_.idx_7__0_pt_3__1/D
  -------------------------------------------------------------------    -------------------

                         (clock clk rise edge)       10.000    10.000 r  
    AW33                                              0.000    10.000 r  clk (IN)
                         net (fo=0)                   0.000    10.000    clk_ibuf_iso/I
    AW33                 INBUF (Prop_INBUF_HPIOB_M_PAD_O)
                                                      0.529    10.529 r  clk_ibuf_iso/INBUF_INST/O
                         net (fo=1, routed)           0.000    10.529    clk_ibuf_iso/OUT
    AW33                 IBUFCTRL (Prop_IBUFCTRL_HPIOB_M_I_O)
                                                      0.000    10.529 r  clk_ibuf_iso/IBUFCTRL_INST/O
                         net (fo=1, routed)           0.296    10.825    clk_ibuf_iso
    BUFGCE_X1Y218        BUFGCE (Prop_BUFCE_BUFGCE_I_O)
                                                      0.024    10.849 r  clk_ibuf/O
    X3Y9 (CLOCK_ROOT)    net (fo=832, routed)         1.357    12.206    dut_inst/clk_c
    SLICE_X95Y581        SRL16E                                       r  dut_inst/qdelay_3__0_.idx_7__0_pt_3__1/CLK
                         clock pessimism              0.402    12.608    
                         clock uncertainty           -0.035    12.573    
    SLICE_X95Y581        SRL16E (Setup_C6LUT_SLICEM_CLK_D)
                                                     -0.048    12.525    dut_inst/qdelay_3__0_.idx_7__0_pt_3__1
  -------------------------------------------------------------------
                         required time                         12.525    
                         arrival time                         -10.549    
  -------------------------------------------------------------------
                         slack                                  1.975    

Slack (MET) :             1.975ns  (required time - arrival time)
  Source:                 unsorted_muons[7].pt[0]/C
                            (rising edge-triggered cell FDRE clocked by clk  {rise@0.000ns fall@5.000ns period=10.000ns})
  Destination:            dut_inst/qdelay_3__0_.idx_7__0_pt_3__1/D
                            (rising edge-triggered cell SRL16E clocked by clk  {rise@0.000ns fall@5.000ns period=10.000ns})
  Path Group:             clk
  Path Type:              Setup (Max at Slow Process Corner)
  Requirement:            10.000ns  (clk rise@10.000ns - clk rise@0.000ns)
  Data Path Delay:        7.832ns  (logic 2.194ns (28.013%)  route 5.638ns (71.987%))
  Logic Levels:           22  (LUT4=1 LUT5=10 LUT6=11)
  Clock Path Skew:        -0.109ns (DCD - SCD + CPR)
    Destination Clock Delay (DCD):    2.206ns = ( 12.206 - 10.000 ) 
    Source Clock Delay      (SCD):    2.717ns
    Clock Pessimism Removal (CPR):    0.402ns
  Clock Uncertainty:      0.035ns  ((TSJ^2 + TIJ^2)^1/2 + DJ) / 2 + PE
    Total System Jitter     (TSJ):    0.071ns
    Total Input Jitter      (TIJ):    0.000ns
    Discrete Jitter          (DJ):    0.000ns
    Phase Error              (PE):    0.000ns
  Clock Net Delay (Source):      1.557ns (routing 0.621ns, distribution 0.936ns)
  Clock Net Delay (Destination): 1.357ns (routing 0.568ns, distribution 0.789ns)

    Location             Delay type                Incr(ns)  Path(ns)    Netlist Resource(s)
  -------------------------------------------------------------------    -------------------
                         (clock clk rise edge)        0.000     0.000 r  
    AW33                                              0.000     0.000 r  clk (IN)
                         net (fo=0)                   0.000     0.000    clk_ibuf_iso/I
    AW33                 INBUF (Prop_INBUF_HPIOB_M_PAD_O)
                                                      0.798     0.798 r  clk_ibuf_iso/INBUF_INST/O
                         net (fo=1, routed)           0.000     0.798    clk_ibuf_iso/OUT
    AW33                 IBUFCTRL (Prop_IBUFCTRL_HPIOB_M_I_O)
                                                      0.000     0.798 r  clk_ibuf_iso/IBUFCTRL_INST/O
                         net (fo=1, routed)           0.334     1.132    clk_ibuf_iso
    BUFGCE_X1Y218        BUFGCE (Prop_BUFCE_BUFGCE_I_O)
                                                      0.028     1.160 r  clk_ibuf/O
    X3Y9 (CLOCK_ROOT)    net (fo=832, routed)         1.557     2.717    clk_c
    SLICE_X100Y582       FDRE                                         r  unsorted_muons[7].pt[0]/C
  -------------------------------------------------------------------    -------------------
    SLICE_X100Y582       FDRE (Prop_GFF2_SLICEM_C_Q)
                                                      0.098     2.815 f  unsorted_muons[7].pt[0]/Q
                         net (fo=3, routed)           0.253     3.068    dut_inst/sorter_inst/genblk1.bitonic_sort_low/genblk1.bitonic_sort_high/genblk1.bitonic_sort_high/genblk1.bitonic_merge_i/genblk1.cmp_g[0].compare_i/pt_0[0]
    SLICE_X101Y586       LUT4 (Prop_C6LUT_SLICEL_I3_O)
                                                      0.098     3.166 r  dut_inst/sorter_inst/genblk1.bitonic_sort_low/genblk1.bitonic_sort_high/genblk1.bitonic_sort_high/genblk1.bitonic_merge_i/genblk1.cmp_g[0].compare_i/un1_b_c2_lut6_2_o5_lut6_2_o5/O
                         net (fo=1, routed)           0.099     3.265    dut_inst/sorter_inst/genblk1.bitonic_sort_low/genblk1.bitonic_sort_high/genblk1.bitonic_sort_high/genblk1.bitonic_merge_i/genblk1.cmp_g[0].compare_i/un1_b_c2_lut6_2_o6
    SLICE_X101Y584       LUT5 (Prop_G6LUT_SLICEL_I4_O)
                                                      0.038     3.303 r  dut_inst/sorter_inst/genblk1.bitonic_sort_low/genblk1.bitonic_sort_high/genblk1.bitonic_sort_high/genblk1.bitonic_merge_i/genblk1.cmp_g[0].compare_i/un1_b_ac0_5_0/O
                         net (fo=30, routed)          0.270     3.573    dut_inst/sorter_inst/genblk1.bitonic_sort_low/genblk1.bitonic_sort_high/genblk1.bitonic_merge_i/genblk1.cmp_g[0].compare_i/s0.pt_lut6_2[1]/I3
    SLICE_X100Y586       LUT5 (Prop_D5LUT_SLICEM_I3_O)
                                                      0.120     3.693 f  dut_inst/sorter_inst/genblk1.bitonic_sort_low/genblk1.bitonic_sort_high/genblk1.bitonic_merge_i/genblk1.cmp_g[0].compare_i/s0.pt_lut6_2[1]/LUT5/O
                         net (fo=3, routed)           0.216     3.909    dut_inst/sorter_inst/genblk1.bitonic_sort_low/genblk1.bitonic_sort_high/genblk1.bitonic_merge_i/genblk1.cmp_g[0].compare_i/pt_lut6_2_O5_0
    SLICE_X100Y586       LUT6 (Prop_G6LUT_SLICEM_I4_O)
                                                      0.064     3.973 r  dut_inst/sorter_inst/genblk1.bitonic_sort_low/genblk1.bitonic_sort_high/genblk1.bitonic_merge_i/genblk1.cmp_g[0].compare_i/un1_b_c2/O
                         net (fo=3, routed)           0.107     4.080    dut_inst/sorter_inst/genblk1.bitonic_sort_low/genblk1.bitonic_sort_high/genblk1.bitonic_merge_i/genblk1.cmp_g[0].compare_i/un1_b_c2_1
    SLICE_X100Y585       LUT5 (Prop_D5LUT_SLICEM_I4_O)
                                                      0.120     4.200 f  dut_inst/sorter_inst/genblk1.bitonic_sort_low/genblk1.bitonic_sort_high/genblk1.bitonic_merge_i/genblk1.cmp_g[0].compare_i/s0.pt_lut6_2_o5_lut6_2_o5[0]/O
                         net (fo=3, routed)           0.254     4.454    dut_inst/sorter_inst/genblk1.bitonic_sort_low/genblk1.bitonic_sort_high/genblk1.bitonic_merge_i/genblk1.bitonic_merge_low/genblk1.cmp_g[0].compare_i/pt_lut6_2_o6_1_0_d0
    SLICE_X100Y585       LUT6 (Prop_G6LUT_SLICEM_I3_O)
                                                      0.100     4.554 f  dut_inst/sorter_inst/genblk1.bitonic_sort_low/genblk1.bitonic_sort_high/genblk1.bitonic_merge_i/genblk1.bitonic_merge_low/genblk1.cmp_g[0].compare_i/un1_b_c2/O
                         net (fo=3, routed)           0.302     4.856    dut_inst/sorter_inst/genblk1.bitonic_sort_low/genblk1.bitonic_sort_high/genblk1.bitonic_merge_i/genblk1.bitonic_merge_low/genblk1.cmp_g[0].compare_i/un1_b_c2_2
    SLICE_X96Y585        LUT5 (Prop_C6LUT_SLICEL_I4_O)
                                                      0.063     4.919 f  dut_inst/sorter_inst/genblk1.bitonic_sort_low/genblk1.bitonic_sort_high/genblk1.bitonic_merge_i/genblk1.bitonic_merge_low/genblk1.cmp_g[0].compare_i/s0.pt_lut6_2_o5_lut6_2_o6[0]/O
                         net (fo=3, routed)           0.122     5.041    dut_inst/sorter_inst/genblk1.bitonic_sort_low/genblk1.bitonic_merge_i/genblk1.cmp_g[1].compare_i/pt_lut6_2_o5_12_0
    SLICE_X96Y583        LUT6 (Prop_F6LUT_SLICEL_I5_O)
                                                      0.148     5.189 r  dut_inst/sorter_inst/genblk1.bitonic_sort_low/genblk1.bitonic_merge_i/genblk1.cmp_g[1].compare_i/s0.idx2_c2/O
                         net (fo=3, routed)           0.049     5.238    dut_inst/sorter_inst/genblk1.bitonic_sort_low/genblk1.bitonic_merge_i/genblk1.cmp_g[1].compare_i/idx2_c2
    SLICE_X96Y583        LUT5 (Prop_E6LUT_SLICEL_I4_O)
                                                      0.100     5.338 r  dut_inst/sorter_inst/genblk1.bitonic_sort_low/genblk1.bitonic_merge_i/genblk1.cmp_g[1].compare_i/s0.idx2_ac0_5_0/O
                         net (fo=23, routed)          0.187     5.525    dut_inst/sorter_inst/genblk1.bitonic_sort_low/genblk1.bitonic_merge_i/genblk1.bitonic_merge_high/genblk1.cmp_g[1].compare_i/idx2_4
    SLICE_X98Y582        LUT6 (Prop_A6LUT_SLICEL_I4_O)
                                                      0.064     5.589 r  dut_inst/sorter_inst/genblk1.bitonic_sort_low/genblk1.bitonic_merge_i/genblk1.bitonic_merge_high/genblk1.cmp_g[1].compare_i/s0.idx2_axb2/O
                         net (fo=4, routed)           0.132     5.721    dut_inst/sorter_inst/genblk1.bitonic_sort_low/genblk1.bitonic_merge_i/genblk1.bitonic_merge_high/genblk1.cmp_g[1].compare_i/idx2_axb2
    SLICE_X97Y582        LUT6 (Prop_E6LUT_SLICEM_I4_O)
                                                      0.177     5.898 f  dut_inst/sorter_inst/genblk1.bitonic_sort_low/genblk1.bitonic_merge_i/genblk1.bitonic_merge_high/genblk1.cmp_g[1].compare_i/s1.pt[0]/O
                         net (fo=3, routed)           0.328     6.226    dut_inst/sorter_inst/genblk1.bitonic_sort_low/genblk1.bitonic_merge_i/genblk1.bitonic_merge_high/genblk1.bitonic_merge_high/genblk1.cmp_g[0].compare_i/pt_1_0
    SLICE_X95Y582        LUT6 (Prop_G6LUT_SLICEM_I3_O)
                                                      0.064     6.290 r  dut_inst/sorter_inst/genblk1.bitonic_sort_low/genblk1.bitonic_merge_i/genblk1.bitonic_merge_high/genblk1.bitonic_merge_high/genblk1.cmp_g[0].compare_i/s0.idx2_c2/O
                         net (fo=3, routed)           0.119     6.409    dut_inst/sorter_inst/genblk1.bitonic_sort_low/genblk1.bitonic_merge_i/genblk1.bitonic_merge_high/genblk1.bitonic_merge_high/genblk1.cmp_g[0].compare_i/idx2_c2
    SLICE_X93Y582        LUT5 (Prop_G6LUT_SLICEM_I4_O)
                                                      0.064     6.473 r  dut_inst/sorter_inst/genblk1.bitonic_sort_low/genblk1.bitonic_merge_i/genblk1.bitonic_merge_high/genblk1.bitonic_merge_high/genblk1.cmp_g[0].compare_i/s0.idx2_ac0_5_0/O
                         net (fo=24, routed)          0.536     7.009    dut_inst/sorter_inst/genblk1.bitonic_merge_i/genblk1.cmp_g[7].compare_i/idx2_2
    SLICE_X97Y578        LUT6 (Prop_H6LUT_SLICEM_I5_O)
                                                      0.100     7.109 r  dut_inst/sorter_inst/genblk1.bitonic_merge_i/genblk1.cmp_g[7].compare_i/s0.idx2_c2/O
                         net (fo=3, routed)           0.104     7.213    dut_inst/sorter_inst/genblk1.bitonic_merge_i/genblk1.cmp_g[7].compare_i/idx2_c2
    SLICE_X97Y578        LUT5 (Prop_B5LUT_SLICEM_I4_O)
                                                      0.089     7.302 f  dut_inst/sorter_inst/genblk1.bitonic_merge_i/genblk1.cmp_g[7].compare_i/s0.pt_lut6_2_o5_lut6_2_o5[0]/O
                         net (fo=3, routed)           0.212     7.514    dut_inst/sorter_inst/genblk1.bitonic_merge_i/genblk1.bitonic_merge_low/genblk1.cmp_g[3].compare_i/pt_lut6_2_o6_41_0
    SLICE_X96Y579        LUT6 (Prop_G6LUT_SLICEL_I4_O)
                                                      0.114     7.628 r  dut_inst/sorter_inst/genblk1.bitonic_merge_i/genblk1.bitonic_merge_low/genblk1.cmp_g[3].compare_i/s0.idx2_ac0_5_0/O
                         net (fo=28, routed)          0.065     7.693    dut_inst/sorter_inst/genblk1.bitonic_merge_i/genblk1.bitonic_merge_low/genblk1.cmp_g[3].compare_i/idx2_4
    SLICE_X96Y579        LUT6 (Prop_F6LUT_SLICEL_I5_O)
                                                      0.114     7.807 f  dut_inst/sorter_inst/genblk1.bitonic_merge_i/genblk1.bitonic_merge_low/genblk1.cmp_g[3].compare_i/s0.pt[2]/O
                         net (fo=5, routed)           0.363     8.170    dut_inst/sorter_inst/genblk1.bitonic_merge_i/genblk1.bitonic_merge_low/genblk1.bitonic_merge_low/genblk1.cmp_g[1].compare_i/pt_10_0
    SLICE_X93Y580        LUT6 (Prop_H6LUT_SLICEM_I5_O)
                                                      0.100     8.270 r  dut_inst/sorter_inst/genblk1.bitonic_merge_i/genblk1.bitonic_merge_low/genblk1.bitonic_merge_low/genblk1.cmp_g[1].compare_i/s0.idx2_ac0_5_0_0/O
                         net (fo=9, routed)           0.413     8.683    dut_inst/sorter_inst/genblk1.bitonic_merge_i/genblk1.bitonic_merge_low/genblk1.bitonic_merge_low/genblk1.bitonic_merge_low/genblk1.cmp_g[0].compare_i/s0.pt_lut6_2[1]/I3
    SLICE_X94Y581        LUT5 (Prop_D5LUT_SLICEL_I3_O)
                                                      0.118     8.801 f  dut_inst/sorter_inst/genblk1.bitonic_merge_i/genblk1.bitonic_merge_low/genblk1.bitonic_merge_low/genblk1.bitonic_merge_low/genblk1.cmp_g[0].compare_i/s0.pt_lut6_2[1]/LUT5/O
                         net (fo=1, routed)           0.193     8.994    dut_inst/sorter_inst/genblk1.bitonic_merge_i/genblk1.bitonic_merge_low/genblk1.bitonic_merge_low/genblk1.bitonic_merge_low/genblk1.cmp_g[0].compare_i/pt_lut6_2_O5_0[1]
    SLICE_X94Y581        LUT6 (Prop_G6LUT_SLICEL_I3_O)
                                                      0.063     9.057 r  dut_inst/sorter_inst/genblk1.bitonic_merge_i/genblk1.bitonic_merge_low/genblk1.bitonic_merge_low/genblk1.bitonic_merge_low/genblk1.cmp_g[0].compare_i/s0.idx2_c2/O
                         net (fo=1, routed)           0.166     9.223    dut_inst/sorter_inst/genblk1.bitonic_merge_i/genblk1.bitonic_merge_low/genblk1.bitonic_merge_low/genblk1.bitonic_merge_low/genblk1.cmp_g[0].compare_i/idx2_c2
    SLICE_X93Y581        LUT5 (Prop_B5LUT_SLICEM_I4_O)
                                                      0.089     9.312 r  dut_inst/sorter_inst/genblk1.bitonic_merge_i/genblk1.bitonic_merge_low/genblk1.bitonic_merge_low/genblk1.bitonic_merge_low/genblk1.cmp_g[0].compare_i/s0.idx2_ac0_5_0_lut6_2_o5_lut6_2_o5/O
                         net (fo=22, routed)          0.625     9.937    dut_inst/sorter_inst/genblk1.bitonic_merge_i/genblk1.bitonic_merge_low/genblk1.bitonic_merge_low/genblk1.bitonic_merge_low/genblk1.cmp_g[0].compare_i/idx2
    SLICE_X99Y579        LUT5 (Prop_B5LUT_SLICEM_I4_O)
                                                      0.089    10.026 r  dut_inst/sorter_inst/genblk1.bitonic_merge_i/genblk1.bitonic_merge_low/genblk1.bitonic_merge_low/genblk1.bitonic_merge_low/genblk1.cmp_g[0].compare_i/s0.idx_lut6_2_o5_lut6_2_o5[7]/O
                         net (fo=1, routed)           0.523    10.549    dut_inst/idx_7[7]
    SLICE_X95Y581        SRL16E                                       r  dut_inst/qdelay_3__0_.idx_7__0_pt_3__1/D
  -------------------------------------------------------------------    -------------------

                         (clock clk rise edge)       10.000    10.000 r  
    AW33                                              0.000    10.000 r  clk (IN)
                         net (fo=0)                   0.000    10.000    clk_ibuf_iso/I
    AW33                 INBUF (Prop_INBUF_HPIOB_M_PAD_O)
                                                      0.529    10.529 r  clk_ibuf_iso/INBUF_INST/O
                         net (fo=1, routed)           0.000    10.529    clk_ibuf_iso/OUT
    AW33                 IBUFCTRL (Prop_IBUFCTRL_HPIOB_M_I_O)
                                                      0.000    10.529 r  clk_ibuf_iso/IBUFCTRL_INST/O
                         net (fo=1, routed)           0.296    10.825    clk_ibuf_iso
    BUFGCE_X1Y218        BUFGCE (Prop_BUFCE_BUFGCE_I_O)
                                                      0.024    10.849 r  clk_ibuf/O
    X3Y9 (CLOCK_ROOT)    net (fo=832, routed)         1.357    12.206    dut_inst/clk_c
    SLICE_X95Y581        SRL16E                                       r  dut_inst/qdelay_3__0_.idx_7__0_pt_3__1/CLK
                         clock pessimism              0.402    12.608    
                         clock uncertainty           -0.035    12.573    
    SLICE_X95Y581        SRL16E (Setup_C6LUT_SLICEM_CLK_D)
                                                     -0.048    12.525    dut_inst/qdelay_3__0_.idx_7__0_pt_3__1
  -------------------------------------------------------------------
                         required time                         12.525    
                         arrival time                         -10.549    
  -------------------------------------------------------------------
                         slack                                  1.975    

Slack (MET) :             1.975ns  (required time - arrival time)
  Source:                 unsorted_muons[7].pt[0]/C
                            (rising edge-triggered cell FDRE clocked by clk  {rise@0.000ns fall@5.000ns period=10.000ns})
  Destination:            dut_inst/qdelay_3__0_.idx_7__0_pt_3__1/D
                            (rising edge-triggered cell SRL16E clocked by clk  {rise@0.000ns fall@5.000ns period=10.000ns})
  Path Group:             clk
  Path Type:              Setup (Max at Slow Process Corner)
  Requirement:            10.000ns  (clk rise@10.000ns - clk rise@0.000ns)
  Data Path Delay:        7.832ns  (logic 2.194ns (28.013%)  route 5.638ns (71.987%))
  Logic Levels:           22  (LUT4=1 LUT5=10 LUT6=11)
  Clock Path Skew:        -0.109ns (DCD - SCD + CPR)
    Destination Clock Delay (DCD):    2.206ns = ( 12.206 - 10.000 ) 
    Source Clock Delay      (SCD):    2.717ns
    Clock Pessimism Removal (CPR):    0.402ns
  Clock Uncertainty:      0.035ns  ((TSJ^2 + TIJ^2)^1/2 + DJ) / 2 + PE
    Total System Jitter     (TSJ):    0.071ns
    Total Input Jitter      (TIJ):    0.000ns
    Discrete Jitter          (DJ):    0.000ns
    Phase Error              (PE):    0.000ns
  Clock Net Delay (Source):      1.557ns (routing 0.621ns, distribution 0.936ns)
  Clock Net Delay (Destination): 1.357ns (routing 0.568ns, distribution 0.789ns)

    Location             Delay type                Incr(ns)  Path(ns)    Netlist Resource(s)
  -------------------------------------------------------------------    -------------------
                         (clock clk rise edge)        0.000     0.000 r  
    AW33                                              0.000     0.000 r  clk (IN)
                         net (fo=0)                   0.000     0.000    clk_ibuf_iso/I
    AW33                 INBUF (Prop_INBUF_HPIOB_M_PAD_O)
                                                      0.798     0.798 r  clk_ibuf_iso/INBUF_INST/O
                         net (fo=1, routed)           0.000     0.798    clk_ibuf_iso/OUT
    AW33                 IBUFCTRL (Prop_IBUFCTRL_HPIOB_M_I_O)
                                                      0.000     0.798 r  clk_ibuf_iso/IBUFCTRL_INST/O
                         net (fo=1, routed)           0.334     1.132    clk_ibuf_iso
    BUFGCE_X1Y218        BUFGCE (Prop_BUFCE_BUFGCE_I_O)
                                                      0.028     1.160 r  clk_ibuf/O
    X3Y9 (CLOCK_ROOT)    net (fo=832, routed)         1.557     2.717    clk_c
    SLICE_X100Y582       FDRE                                         r  unsorted_muons[7].pt[0]/C
  -------------------------------------------------------------------    -------------------
    SLICE_X100Y582       FDRE (Prop_GFF2_SLICEM_C_Q)
                                                      0.098     2.815 f  unsorted_muons[7].pt[0]/Q
                         net (fo=3, routed)           0.253     3.068    dut_inst/sorter_inst/genblk1.bitonic_sort_low/genblk1.bitonic_sort_high/genblk1.bitonic_sort_high/genblk1.bitonic_merge_i/genblk1.cmp_g[0].compare_i/pt_0[0]
    SLICE_X101Y586       LUT4 (Prop_C6LUT_SLICEL_I3_O)
                                                      0.098     3.166 r  dut_inst/sorter_inst/genblk1.bitonic_sort_low/genblk1.bitonic_sort_high/genblk1.bitonic_sort_high/genblk1.bitonic_merge_i/genblk1.cmp_g[0].compare_i/un1_b_c2_lut6_2_o5_lut6_2_o5/O
                         net (fo=1, routed)           0.099     3.265    dut_inst/sorter_inst/genblk1.bitonic_sort_low/genblk1.bitonic_sort_high/genblk1.bitonic_sort_high/genblk1.bitonic_merge_i/genblk1.cmp_g[0].compare_i/un1_b_c2_lut6_2_o6
    SLICE_X101Y584       LUT5 (Prop_G6LUT_SLICEL_I4_O)
                                                      0.038     3.303 r  dut_inst/sorter_inst/genblk1.bitonic_sort_low/genblk1.bitonic_sort_high/genblk1.bitonic_sort_high/genblk1.bitonic_merge_i/genblk1.cmp_g[0].compare_i/un1_b_ac0_5_0/O
                         net (fo=30, routed)          0.270     3.573    dut_inst/sorter_inst/genblk1.bitonic_sort_low/genblk1.bitonic_sort_high/genblk1.bitonic_merge_i/genblk1.cmp_g[0].compare_i/s0.pt_lut6_2[1]/I3
    SLICE_X100Y586       LUT5 (Prop_D5LUT_SLICEM_I3_O)
                                                      0.120     3.693 f  dut_inst/sorter_inst/genblk1.bitonic_sort_low/genblk1.bitonic_sort_high/genblk1.bitonic_merge_i/genblk1.cmp_g[0].compare_i/s0.pt_lut6_2[1]/LUT5/O
                         net (fo=3, routed)           0.216     3.909    dut_inst/sorter_inst/genblk1.bitonic_sort_low/genblk1.bitonic_sort_high/genblk1.bitonic_merge_i/genblk1.cmp_g[0].compare_i/pt_lut6_2_O5_0
    SLICE_X100Y586       LUT6 (Prop_G6LUT_SLICEM_I4_O)
                                                      0.064     3.973 r  dut_inst/sorter_inst/genblk1.bitonic_sort_low/genblk1.bitonic_sort_high/genblk1.bitonic_merge_i/genblk1.cmp_g[0].compare_i/un1_b_c2/O
                         net (fo=3, routed)           0.107     4.080    dut_inst/sorter_inst/genblk1.bitonic_sort_low/genblk1.bitonic_sort_high/genblk1.bitonic_merge_i/genblk1.cmp_g[0].compare_i/un1_b_c2_1
    SLICE_X100Y585       LUT5 (Prop_D5LUT_SLICEM_I4_O)
                                                      0.120     4.200 r  dut_inst/sorter_inst/genblk1.bitonic_sort_low/genblk1.bitonic_sort_high/genblk1.bitonic_merge_i/genblk1.cmp_g[0].compare_i/s0.pt_lut6_2_o5_lut6_2_o5[0]/O
                         net (fo=3, routed)           0.254     4.454    dut_inst/sorter_inst/genblk1.bitonic_sort_low/genblk1.bitonic_sort_high/genblk1.bitonic_merge_i/genblk1.bitonic_merge_low/genblk1.cmp_g[0].compare_i/pt_lut6_2_o6_1_0_d0
    SLICE_X100Y585       LUT6 (Prop_G6LUT_SLICEM_I3_O)
                                                      0.100     4.554 r  dut_inst/sorter_inst/genblk1.bitonic_sort_low/genblk1.bitonic_sort_high/genblk1.bitonic_merge_i/genblk1.bitonic_merge_low/genblk1.cmp_g[0].compare_i/un1_b_c2/O
                         net (fo=3, routed)           0.302     4.856    dut_inst/sorter_inst/genblk1.bitonic_sort_low/genblk1.bitonic_sort_high/genblk1.bitonic_merge_i/genblk1.bitonic_merge_low/genblk1.cmp_g[0].compare_i/un1_b_c2_2
    SLICE_X96Y585        LUT5 (Prop_C6LUT_SLICEL_I4_O)
                                                      0.063     4.919 r  dut_inst/sorter_inst/genblk1.bitonic_sort_low/genblk1.bitonic_sort_high/genblk1.bitonic_merge_i/genblk1.bitonic_merge_low/genblk1.cmp_g[0].compare_i/s0.pt_lut6_2_o5_lut6_2_o6[0]/O
                         net (fo=3, routed)           0.122     5.041    dut_inst/sorter_inst/genblk1.bitonic_sort_low/genblk1.bitonic_merge_i/genblk1.cmp_g[1].compare_i/pt_lut6_2_o5_12_0
    SLICE_X96Y583        LUT6 (Prop_F6LUT_SLICEL_I5_O)
                                                      0.148     5.189 f  dut_inst/sorter_inst/genblk1.bitonic_sort_low/genblk1.bitonic_merge_i/genblk1.cmp_g[1].compare_i/s0.idx2_c2/O
                         net (fo=3, routed)           0.049     5.238    dut_inst/sorter_inst/genblk1.bitonic_sort_low/genblk1.bitonic_merge_i/genblk1.cmp_g[1].compare_i/idx2_c2
    SLICE_X96Y583        LUT5 (Prop_E6LUT_SLICEL_I4_O)
                                                      0.100     5.338 f  dut_inst/sorter_inst/genblk1.bitonic_sort_low/genblk1.bitonic_merge_i/genblk1.cmp_g[1].compare_i/s0.idx2_ac0_5_0/O
                         net (fo=23, routed)          0.187     5.525    dut_inst/sorter_inst/genblk1.bitonic_sort_low/genblk1.bitonic_merge_i/genblk1.bitonic_merge_high/genblk1.cmp_g[1].compare_i/idx2_4
    SLICE_X98Y582        LUT6 (Prop_A6LUT_SLICEL_I4_O)
                                                      0.064     5.589 r  dut_inst/sorter_inst/genblk1.bitonic_sort_low/genblk1.bitonic_merge_i/genblk1.bitonic_merge_high/genblk1.cmp_g[1].compare_i/s0.idx2_axb2/O
                         net (fo=4, routed)           0.132     5.721    dut_inst/sorter_inst/genblk1.bitonic_sort_low/genblk1.bitonic_merge_i/genblk1.bitonic_merge_high/genblk1.cmp_g[1].compare_i/idx2_axb2
    SLICE_X97Y582        LUT6 (Prop_E6LUT_SLICEM_I4_O)
                                                      0.177     5.898 f  dut_inst/sorter_inst/genblk1.bitonic_sort_low/genblk1.bitonic_merge_i/genblk1.bitonic_merge_high/genblk1.cmp_g[1].compare_i/s1.pt[0]/O
                         net (fo=3, routed)           0.328     6.226    dut_inst/sorter_inst/genblk1.bitonic_sort_low/genblk1.bitonic_merge_i/genblk1.bitonic_merge_high/genblk1.bitonic_merge_high/genblk1.cmp_g[0].compare_i/pt_1_0
    SLICE_X95Y582        LUT6 (Prop_G6LUT_SLICEM_I3_O)
                                                      0.064     6.290 r  dut_inst/sorter_inst/genblk1.bitonic_sort_low/genblk1.bitonic_merge_i/genblk1.bitonic_merge_high/genblk1.bitonic_merge_high/genblk1.cmp_g[0].compare_i/s0.idx2_c2/O
                         net (fo=3, routed)           0.119     6.409    dut_inst/sorter_inst/genblk1.bitonic_sort_low/genblk1.bitonic_merge_i/genblk1.bitonic_merge_high/genblk1.bitonic_merge_high/genblk1.cmp_g[0].compare_i/idx2_c2
    SLICE_X93Y582        LUT5 (Prop_G6LUT_SLICEM_I4_O)
                                                      0.064     6.473 r  dut_inst/sorter_inst/genblk1.bitonic_sort_low/genblk1.bitonic_merge_i/genblk1.bitonic_merge_high/genblk1.bitonic_merge_high/genblk1.cmp_g[0].compare_i/s0.idx2_ac0_5_0/O
                         net (fo=24, routed)          0.536     7.009    dut_inst/sorter_inst/genblk1.bitonic_merge_i/genblk1.cmp_g[7].compare_i/idx2_2
    SLICE_X97Y578        LUT6 (Prop_H6LUT_SLICEM_I5_O)
                                                      0.100     7.109 r  dut_inst/sorter_inst/genblk1.bitonic_merge_i/genblk1.cmp_g[7].compare_i/s0.idx2_c2/O
                         net (fo=3, routed)           0.104     7.213    dut_inst/sorter_inst/genblk1.bitonic_merge_i/genblk1.cmp_g[7].compare_i/idx2_c2
    SLICE_X97Y578        LUT5 (Prop_B5LUT_SLICEM_I4_O)
                                                      0.089     7.302 f  dut_inst/sorter_inst/genblk1.bitonic_merge_i/genblk1.cmp_g[7].compare_i/s0.pt_lut6_2_o5_lut6_2_o5[0]/O
                         net (fo=3, routed)           0.212     7.514    dut_inst/sorter_inst/genblk1.bitonic_merge_i/genblk1.bitonic_merge_low/genblk1.cmp_g[3].compare_i/pt_lut6_2_o6_41_0
    SLICE_X96Y579        LUT6 (Prop_G6LUT_SLICEL_I4_O)
                                                      0.114     7.628 r  dut_inst/sorter_inst/genblk1.bitonic_merge_i/genblk1.bitonic_merge_low/genblk1.cmp_g[3].compare_i/s0.idx2_ac0_5_0/O
                         net (fo=28, routed)          0.065     7.693    dut_inst/sorter_inst/genblk1.bitonic_merge_i/genblk1.bitonic_merge_low/genblk1.cmp_g[3].compare_i/idx2_4
    SLICE_X96Y579        LUT6 (Prop_F6LUT_SLICEL_I5_O)
                                                      0.114     7.807 f  dut_inst/sorter_inst/genblk1.bitonic_merge_i/genblk1.bitonic_merge_low/genblk1.cmp_g[3].compare_i/s0.pt[2]/O
                         net (fo=5, routed)           0.363     8.170    dut_inst/sorter_inst/genblk1.bitonic_merge_i/genblk1.bitonic_merge_low/genblk1.bitonic_merge_low/genblk1.cmp_g[1].compare_i/pt_10_0
    SLICE_X93Y580        LUT6 (Prop_H6LUT_SLICEM_I5_O)
                                                      0.100     8.270 r  dut_inst/sorter_inst/genblk1.bitonic_merge_i/genblk1.bitonic_merge_low/genblk1.bitonic_merge_low/genblk1.cmp_g[1].compare_i/s0.idx2_ac0_5_0_0/O
                         net (fo=9, routed)           0.413     8.683    dut_inst/sorter_inst/genblk1.bitonic_merge_i/genblk1.bitonic_merge_low/genblk1.bitonic_merge_low/genblk1.bitonic_merge_low/genblk1.cmp_g[0].compare_i/s0.pt_lut6_2[1]/I3
    SLICE_X94Y581        LUT5 (Prop_D5LUT_SLICEL_I3_O)
                                                      0.118     8.801 f  dut_inst/sorter_inst/genblk1.bitonic_merge_i/genblk1.bitonic_merge_low/genblk1.bitonic_merge_low/genblk1.bitonic_merge_low/genblk1.cmp_g[0].compare_i/s0.pt_lut6_2[1]/LUT5/O
                         net (fo=1, routed)           0.193     8.994    dut_inst/sorter_inst/genblk1.bitonic_merge_i/genblk1.bitonic_merge_low/genblk1.bitonic_merge_low/genblk1.bitonic_merge_low/genblk1.cmp_g[0].compare_i/pt_lut6_2_O5_0[1]
    SLICE_X94Y581        LUT6 (Prop_G6LUT_SLICEL_I3_O)
                                                      0.063     9.057 r  dut_inst/sorter_inst/genblk1.bitonic_merge_i/genblk1.bitonic_merge_low/genblk1.bitonic_merge_low/genblk1.bitonic_merge_low/genblk1.cmp_g[0].compare_i/s0.idx2_c2/O
                         net (fo=1, routed)           0.166     9.223    dut_inst/sorter_inst/genblk1.bitonic_merge_i/genblk1.bitonic_merge_low/genblk1.bitonic_merge_low/genblk1.bitonic_merge_low/genblk1.cmp_g[0].compare_i/idx2_c2
    SLICE_X93Y581        LUT5 (Prop_B5LUT_SLICEM_I4_O)
                                                      0.089     9.312 r  dut_inst/sorter_inst/genblk1.bitonic_merge_i/genblk1.bitonic_merge_low/genblk1.bitonic_merge_low/genblk1.bitonic_merge_low/genblk1.cmp_g[0].compare_i/s0.idx2_ac0_5_0_lut6_2_o5_lut6_2_o5/O
                         net (fo=22, routed)          0.625     9.937    dut_inst/sorter_inst/genblk1.bitonic_merge_i/genblk1.bitonic_merge_low/genblk1.bitonic_merge_low/genblk1.bitonic_merge_low/genblk1.cmp_g[0].compare_i/idx2
    SLICE_X99Y579        LUT5 (Prop_B5LUT_SLICEM_I4_O)
                                                      0.089    10.026 r  dut_inst/sorter_inst/genblk1.bitonic_merge_i/genblk1.bitonic_merge_low/genblk1.bitonic_merge_low/genblk1.bitonic_merge_low/genblk1.cmp_g[0].compare_i/s0.idx_lut6_2_o5_lut6_2_o5[7]/O
                         net (fo=1, routed)           0.523    10.549    dut_inst/idx_7[7]
    SLICE_X95Y581        SRL16E                                       r  dut_inst/qdelay_3__0_.idx_7__0_pt_3__1/D
  -------------------------------------------------------------------    -------------------

                         (clock clk rise edge)       10.000    10.000 r  
    AW33                                              0.000    10.000 r  clk (IN)
                         net (fo=0)                   0.000    10.000    clk_ibuf_iso/I
    AW33                 INBUF (Prop_INBUF_HPIOB_M_PAD_O)
                                                      0.529    10.529 r  clk_ibuf_iso/INBUF_INST/O
                         net (fo=1, routed)           0.000    10.529    clk_ibuf_iso/OUT
    AW33                 IBUFCTRL (Prop_IBUFCTRL_HPIOB_M_I_O)
                                                      0.000    10.529 r  clk_ibuf_iso/IBUFCTRL_INST/O
                         net (fo=1, routed)           0.296    10.825    clk_ibuf_iso
    BUFGCE_X1Y218        BUFGCE (Prop_BUFCE_BUFGCE_I_O)
                                                      0.024    10.849 r  clk_ibuf/O
    X3Y9 (CLOCK_ROOT)    net (fo=832, routed)         1.357    12.206    dut_inst/clk_c
    SLICE_X95Y581        SRL16E                                       r  dut_inst/qdelay_3__0_.idx_7__0_pt_3__1/CLK
                         clock pessimism              0.402    12.608    
                         clock uncertainty           -0.035    12.573    
    SLICE_X95Y581        SRL16E (Setup_C6LUT_SLICEM_CLK_D)
                                                     -0.048    12.525    dut_inst/qdelay_3__0_.idx_7__0_pt_3__1
  -------------------------------------------------------------------
                         required time                         12.525    
                         arrival time                         -10.549    
  -------------------------------------------------------------------
                         slack                                  1.975    

Slack (MET) :             1.975ns  (required time - arrival time)
  Source:                 unsorted_muons[7].pt[0]/C
                            (rising edge-triggered cell FDRE clocked by clk  {rise@0.000ns fall@5.000ns period=10.000ns})
  Destination:            dut_inst/qdelay_3__0_.idx_7__0_pt_3__1/D
                            (rising edge-triggered cell SRL16E clocked by clk  {rise@0.000ns fall@5.000ns period=10.000ns})
  Path Group:             clk
  Path Type:              Setup (Max at Slow Process Corner)
  Requirement:            10.000ns  (clk rise@10.000ns - clk rise@0.000ns)
  Data Path Delay:        7.832ns  (logic 2.194ns (28.013%)  route 5.638ns (71.987%))
  Logic Levels:           22  (LUT4=1 LUT5=10 LUT6=11)
  Clock Path Skew:        -0.109ns (DCD - SCD + CPR)
    Destination Clock Delay (DCD):    2.206ns = ( 12.206 - 10.000 ) 
    Source Clock Delay      (SCD):    2.717ns
    Clock Pessimism Removal (CPR):    0.402ns
  Clock Uncertainty:      0.035ns  ((TSJ^2 + TIJ^2)^1/2 + DJ) / 2 + PE
    Total System Jitter     (TSJ):    0.071ns
    Total Input Jitter      (TIJ):    0.000ns
    Discrete Jitter          (DJ):    0.000ns
    Phase Error              (PE):    0.000ns
  Clock Net Delay (Source):      1.557ns (routing 0.621ns, distribution 0.936ns)
  Clock Net Delay (Destination): 1.357ns (routing 0.568ns, distribution 0.789ns)

    Location             Delay type                Incr(ns)  Path(ns)    Netlist Resource(s)
  -------------------------------------------------------------------    -------------------
                         (clock clk rise edge)        0.000     0.000 r  
    AW33                                              0.000     0.000 r  clk (IN)
                         net (fo=0)                   0.000     0.000    clk_ibuf_iso/I
    AW33                 INBUF (Prop_INBUF_HPIOB_M_PAD_O)
                                                      0.798     0.798 r  clk_ibuf_iso/INBUF_INST/O
                         net (fo=1, routed)           0.000     0.798    clk_ibuf_iso/OUT
    AW33                 IBUFCTRL (Prop_IBUFCTRL_HPIOB_M_I_O)
                                                      0.000     0.798 r  clk_ibuf_iso/IBUFCTRL_INST/O
                         net (fo=1, routed)           0.334     1.132    clk_ibuf_iso
    BUFGCE_X1Y218        BUFGCE (Prop_BUFCE_BUFGCE_I_O)
                                                      0.028     1.160 r  clk_ibuf/O
    X3Y9 (CLOCK_ROOT)    net (fo=832, routed)         1.557     2.717    clk_c
    SLICE_X100Y582       FDRE                                         r  unsorted_muons[7].pt[0]/C
  -------------------------------------------------------------------    -------------------
    SLICE_X100Y582       FDRE (Prop_GFF2_SLICEM_C_Q)
                                                      0.098     2.815 f  unsorted_muons[7].pt[0]/Q
                         net (fo=3, routed)           0.253     3.068    dut_inst/sorter_inst/genblk1.bitonic_sort_low/genblk1.bitonic_sort_high/genblk1.bitonic_sort_high/genblk1.bitonic_merge_i/genblk1.cmp_g[0].compare_i/pt_0[0]
    SLICE_X101Y586       LUT4 (Prop_C6LUT_SLICEL_I3_O)
                                                      0.098     3.166 r  dut_inst/sorter_inst/genblk1.bitonic_sort_low/genblk1.bitonic_sort_high/genblk1.bitonic_sort_high/genblk1.bitonic_merge_i/genblk1.cmp_g[0].compare_i/un1_b_c2_lut6_2_o5_lut6_2_o5/O
                         net (fo=1, routed)           0.099     3.265    dut_inst/sorter_inst/genblk1.bitonic_sort_low/genblk1.bitonic_sort_high/genblk1.bitonic_sort_high/genblk1.bitonic_merge_i/genblk1.cmp_g[0].compare_i/un1_b_c2_lut6_2_o6
    SLICE_X101Y584       LUT5 (Prop_G6LUT_SLICEL_I4_O)
                                                      0.038     3.303 r  dut_inst/sorter_inst/genblk1.bitonic_sort_low/genblk1.bitonic_sort_high/genblk1.bitonic_sort_high/genblk1.bitonic_merge_i/genblk1.cmp_g[0].compare_i/un1_b_ac0_5_0/O
                         net (fo=30, routed)          0.270     3.573    dut_inst/sorter_inst/genblk1.bitonic_sort_low/genblk1.bitonic_sort_high/genblk1.bitonic_merge_i/genblk1.cmp_g[0].compare_i/s0.pt_lut6_2[1]/I3
    SLICE_X100Y586       LUT5 (Prop_D5LUT_SLICEM_I3_O)
                                                      0.120     3.693 f  dut_inst/sorter_inst/genblk1.bitonic_sort_low/genblk1.bitonic_sort_high/genblk1.bitonic_merge_i/genblk1.cmp_g[0].compare_i/s0.pt_lut6_2[1]/LUT5/O
                         net (fo=3, routed)           0.216     3.909    dut_inst/sorter_inst/genblk1.bitonic_sort_low/genblk1.bitonic_sort_high/genblk1.bitonic_merge_i/genblk1.cmp_g[0].compare_i/pt_lut6_2_O5_0
    SLICE_X100Y586       LUT6 (Prop_G6LUT_SLICEM_I4_O)
                                                      0.064     3.973 r  dut_inst/sorter_inst/genblk1.bitonic_sort_low/genblk1.bitonic_sort_high/genblk1.bitonic_merge_i/genblk1.cmp_g[0].compare_i/un1_b_c2/O
                         net (fo=3, routed)           0.107     4.080    dut_inst/sorter_inst/genblk1.bitonic_sort_low/genblk1.bitonic_sort_high/genblk1.bitonic_merge_i/genblk1.cmp_g[0].compare_i/un1_b_c2_1
    SLICE_X100Y585       LUT5 (Prop_D5LUT_SLICEM_I4_O)
                                                      0.120     4.200 r  dut_inst/sorter_inst/genblk1.bitonic_sort_low/genblk1.bitonic_sort_high/genblk1.bitonic_merge_i/genblk1.cmp_g[0].compare_i/s0.pt_lut6_2_o5_lut6_2_o5[0]/O
                         net (fo=3, routed)           0.254     4.454    dut_inst/sorter_inst/genblk1.bitonic_sort_low/genblk1.bitonic_sort_high/genblk1.bitonic_merge_i/genblk1.bitonic_merge_low/genblk1.cmp_g[0].compare_i/pt_lut6_2_o6_1_0_d0
    SLICE_X100Y585       LUT6 (Prop_G6LUT_SLICEM_I3_O)
                                                      0.100     4.554 r  dut_inst/sorter_inst/genblk1.bitonic_sort_low/genblk1.bitonic_sort_high/genblk1.bitonic_merge_i/genblk1.bitonic_merge_low/genblk1.cmp_g[0].compare_i/un1_b_c2/O
                         net (fo=3, routed)           0.302     4.856    dut_inst/sorter_inst/genblk1.bitonic_sort_low/genblk1.bitonic_sort_high/genblk1.bitonic_merge_i/genblk1.bitonic_merge_low/genblk1.cmp_g[0].compare_i/un1_b_c2_2
    SLICE_X96Y585        LUT5 (Prop_C6LUT_SLICEL_I4_O)
                                                      0.063     4.919 f  dut_inst/sorter_inst/genblk1.bitonic_sort_low/genblk1.bitonic_sort_high/genblk1.bitonic_merge_i/genblk1.bitonic_merge_low/genblk1.cmp_g[0].compare_i/s0.pt_lut6_2_o5_lut6_2_o6[0]/O
                         net (fo=3, routed)           0.122     5.041    dut_inst/sorter_inst/genblk1.bitonic_sort_low/genblk1.bitonic_merge_i/genblk1.cmp_g[1].compare_i/pt_lut6_2_o5_12_0
    SLICE_X96Y583        LUT6 (Prop_F6LUT_SLICEL_I5_O)
                                                      0.148     5.189 r  dut_inst/sorter_inst/genblk1.bitonic_sort_low/genblk1.bitonic_merge_i/genblk1.cmp_g[1].compare_i/s0.idx2_c2/O
                         net (fo=3, routed)           0.049     5.238    dut_inst/sorter_inst/genblk1.bitonic_sort_low/genblk1.bitonic_merge_i/genblk1.cmp_g[1].compare_i/idx2_c2
    SLICE_X96Y583        LUT5 (Prop_E6LUT_SLICEL_I4_O)
                                                      0.100     5.338 r  dut_inst/sorter_inst/genblk1.bitonic_sort_low/genblk1.bitonic_merge_i/genblk1.cmp_g[1].compare_i/s0.idx2_ac0_5_0/O
                         net (fo=23, routed)          0.187     5.525    dut_inst/sorter_inst/genblk1.bitonic_sort_low/genblk1.bitonic_merge_i/genblk1.bitonic_merge_high/genblk1.cmp_g[1].compare_i/idx2_4
    SLICE_X98Y582        LUT6 (Prop_A6LUT_SLICEL_I4_O)
                                                      0.064     5.589 r  dut_inst/sorter_inst/genblk1.bitonic_sort_low/genblk1.bitonic_merge_i/genblk1.bitonic_merge_high/genblk1.cmp_g[1].compare_i/s0.idx2_axb2/O
                         net (fo=4, routed)           0.132     5.721    dut_inst/sorter_inst/genblk1.bitonic_sort_low/genblk1.bitonic_merge_i/genblk1.bitonic_merge_high/genblk1.cmp_g[1].compare_i/idx2_axb2
    SLICE_X97Y582        LUT6 (Prop_E6LUT_SLICEM_I4_O)
                                                      0.177     5.898 f  dut_inst/sorter_inst/genblk1.bitonic_sort_low/genblk1.bitonic_merge_i/genblk1.bitonic_merge_high/genblk1.cmp_g[1].compare_i/s1.pt[0]/O
                         net (fo=3, routed)           0.328     6.226    dut_inst/sorter_inst/genblk1.bitonic_sort_low/genblk1.bitonic_merge_i/genblk1.bitonic_merge_high/genblk1.bitonic_merge_high/genblk1.cmp_g[0].compare_i/pt_1_0
    SLICE_X95Y582        LUT6 (Prop_G6LUT_SLICEM_I3_O)
                                                      0.064     6.290 r  dut_inst/sorter_inst/genblk1.bitonic_sort_low/genblk1.bitonic_merge_i/genblk1.bitonic_merge_high/genblk1.bitonic_merge_high/genblk1.cmp_g[0].compare_i/s0.idx2_c2/O
                         net (fo=3, routed)           0.119     6.409    dut_inst/sorter_inst/genblk1.bitonic_sort_low/genblk1.bitonic_merge_i/genblk1.bitonic_merge_high/genblk1.bitonic_merge_high/genblk1.cmp_g[0].compare_i/idx2_c2
    SLICE_X93Y582        LUT5 (Prop_G6LUT_SLICEM_I4_O)
                                                      0.064     6.473 r  dut_inst/sorter_inst/genblk1.bitonic_sort_low/genblk1.bitonic_merge_i/genblk1.bitonic_merge_high/genblk1.bitonic_merge_high/genblk1.cmp_g[0].compare_i/s0.idx2_ac0_5_0/O
                         net (fo=24, routed)          0.536     7.009    dut_inst/sorter_inst/genblk1.bitonic_merge_i/genblk1.cmp_g[7].compare_i/idx2_2
    SLICE_X97Y578        LUT6 (Prop_H6LUT_SLICEM_I5_O)
                                                      0.100     7.109 r  dut_inst/sorter_inst/genblk1.bitonic_merge_i/genblk1.cmp_g[7].compare_i/s0.idx2_c2/O
                         net (fo=3, routed)           0.104     7.213    dut_inst/sorter_inst/genblk1.bitonic_merge_i/genblk1.cmp_g[7].compare_i/idx2_c2
    SLICE_X97Y578        LUT5 (Prop_B5LUT_SLICEM_I4_O)
                                                      0.089     7.302 r  dut_inst/sorter_inst/genblk1.bitonic_merge_i/genblk1.cmp_g[7].compare_i/s0.pt_lut6_2_o5_lut6_2_o5[0]/O
                         net (fo=3, routed)           0.212     7.514    dut_inst/sorter_inst/genblk1.bitonic_merge_i/genblk1.bitonic_merge_low/genblk1.cmp_g[3].compare_i/pt_lut6_2_o6_41_0
    SLICE_X96Y579        LUT6 (Prop_G6LUT_SLICEL_I4_O)
                                                      0.114     7.628 f  dut_inst/sorter_inst/genblk1.bitonic_merge_i/genblk1.bitonic_merge_low/genblk1.cmp_g[3].compare_i/s0.idx2_ac0_5_0/O
                         net (fo=28, routed)          0.065     7.693    dut_inst/sorter_inst/genblk1.bitonic_merge_i/genblk1.bitonic_merge_low/genblk1.cmp_g[3].compare_i/idx2_4
    SLICE_X96Y579        LUT6 (Prop_F6LUT_SLICEL_I5_O)
                                                      0.114     7.807 f  dut_inst/sorter_inst/genblk1.bitonic_merge_i/genblk1.bitonic_merge_low/genblk1.cmp_g[3].compare_i/s0.pt[2]/O
                         net (fo=5, routed)           0.363     8.170    dut_inst/sorter_inst/genblk1.bitonic_merge_i/genblk1.bitonic_merge_low/genblk1.bitonic_merge_low/genblk1.cmp_g[1].compare_i/pt_10_0
    SLICE_X93Y580        LUT6 (Prop_H6LUT_SLICEM_I5_O)
                                                      0.100     8.270 r  dut_inst/sorter_inst/genblk1.bitonic_merge_i/genblk1.bitonic_merge_low/genblk1.bitonic_merge_low/genblk1.cmp_g[1].compare_i/s0.idx2_ac0_5_0_0/O
                         net (fo=9, routed)           0.413     8.683    dut_inst/sorter_inst/genblk1.bitonic_merge_i/genblk1.bitonic_merge_low/genblk1.bitonic_merge_low/genblk1.bitonic_merge_low/genblk1.cmp_g[0].compare_i/s0.pt_lut6_2[1]/I3
    SLICE_X94Y581        LUT5 (Prop_D5LUT_SLICEL_I3_O)
                                                      0.118     8.801 f  dut_inst/sorter_inst/genblk1.bitonic_merge_i/genblk1.bitonic_merge_low/genblk1.bitonic_merge_low/genblk1.bitonic_merge_low/genblk1.cmp_g[0].compare_i/s0.pt_lut6_2[1]/LUT5/O
                         net (fo=1, routed)           0.193     8.994    dut_inst/sorter_inst/genblk1.bitonic_merge_i/genblk1.bitonic_merge_low/genblk1.bitonic_merge_low/genblk1.bitonic_merge_low/genblk1.cmp_g[0].compare_i/pt_lut6_2_O5_0[1]
    SLICE_X94Y581        LUT6 (Prop_G6LUT_SLICEL_I3_O)
                                                      0.063     9.057 r  dut_inst/sorter_inst/genblk1.bitonic_merge_i/genblk1.bitonic_merge_low/genblk1.bitonic_merge_low/genblk1.bitonic_merge_low/genblk1.cmp_g[0].compare_i/s0.idx2_c2/O
                         net (fo=1, routed)           0.166     9.223    dut_inst/sorter_inst/genblk1.bitonic_merge_i/genblk1.bitonic_merge_low/genblk1.bitonic_merge_low/genblk1.bitonic_merge_low/genblk1.cmp_g[0].compare_i/idx2_c2
    SLICE_X93Y581        LUT5 (Prop_B5LUT_SLICEM_I4_O)
                                                      0.089     9.312 r  dut_inst/sorter_inst/genblk1.bitonic_merge_i/genblk1.bitonic_merge_low/genblk1.bitonic_merge_low/genblk1.bitonic_merge_low/genblk1.cmp_g[0].compare_i/s0.idx2_ac0_5_0_lut6_2_o5_lut6_2_o5/O
                         net (fo=22, routed)          0.625     9.937    dut_inst/sorter_inst/genblk1.bitonic_merge_i/genblk1.bitonic_merge_low/genblk1.bitonic_merge_low/genblk1.bitonic_merge_low/genblk1.cmp_g[0].compare_i/idx2
    SLICE_X99Y579        LUT5 (Prop_B5LUT_SLICEM_I4_O)
                                                      0.089    10.026 r  dut_inst/sorter_inst/genblk1.bitonic_merge_i/genblk1.bitonic_merge_low/genblk1.bitonic_merge_low/genblk1.bitonic_merge_low/genblk1.cmp_g[0].compare_i/s0.idx_lut6_2_o5_lut6_2_o5[7]/O
                         net (fo=1, routed)           0.523    10.549    dut_inst/idx_7[7]
    SLICE_X95Y581        SRL16E                                       r  dut_inst/qdelay_3__0_.idx_7__0_pt_3__1/D
  -------------------------------------------------------------------    -------------------

                         (clock clk rise edge)       10.000    10.000 r  
    AW33                                              0.000    10.000 r  clk (IN)
                         net (fo=0)                   0.000    10.000    clk_ibuf_iso/I
    AW33                 INBUF (Prop_INBUF_HPIOB_M_PAD_O)
                                                      0.529    10.529 r  clk_ibuf_iso/INBUF_INST/O
                         net (fo=1, routed)           0.000    10.529    clk_ibuf_iso/OUT
    AW33                 IBUFCTRL (Prop_IBUFCTRL_HPIOB_M_I_O)
                                                      0.000    10.529 r  clk_ibuf_iso/IBUFCTRL_INST/O
                         net (fo=1, routed)           0.296    10.825    clk_ibuf_iso
    BUFGCE_X1Y218        BUFGCE (Prop_BUFCE_BUFGCE_I_O)
                                                      0.024    10.849 r  clk_ibuf/O
    X3Y9 (CLOCK_ROOT)    net (fo=832, routed)         1.357    12.206    dut_inst/clk_c
    SLICE_X95Y581        SRL16E                                       r  dut_inst/qdelay_3__0_.idx_7__0_pt_3__1/CLK
                         clock pessimism              0.402    12.608    
                         clock uncertainty           -0.035    12.573    
    SLICE_X95Y581        SRL16E (Setup_C6LUT_SLICEM_CLK_D)
                                                     -0.048    12.525    dut_inst/qdelay_3__0_.idx_7__0_pt_3__1
  -------------------------------------------------------------------
                         required time                         12.525    
                         arrival time                         -10.549    
  -------------------------------------------------------------------
                         slack                                  1.975    

Slack (MET) :             1.975ns  (required time - arrival time)
  Source:                 unsorted_muons[7].pt[0]/C
                            (rising edge-triggered cell FDRE clocked by clk  {rise@0.000ns fall@5.000ns period=10.000ns})
  Destination:            dut_inst/qdelay_3__0_.idx_7__0_pt_3__1/D
                            (rising edge-triggered cell SRL16E clocked by clk  {rise@0.000ns fall@5.000ns period=10.000ns})
  Path Group:             clk
  Path Type:              Setup (Max at Slow Process Corner)
  Requirement:            10.000ns  (clk rise@10.000ns - clk rise@0.000ns)
  Data Path Delay:        7.832ns  (logic 2.194ns (28.013%)  route 5.638ns (71.987%))
  Logic Levels:           22  (LUT4=1 LUT5=10 LUT6=11)
  Clock Path Skew:        -0.109ns (DCD - SCD + CPR)
    Destination Clock Delay (DCD):    2.206ns = ( 12.206 - 10.000 ) 
    Source Clock Delay      (SCD):    2.717ns
    Clock Pessimism Removal (CPR):    0.402ns
  Clock Uncertainty:      0.035ns  ((TSJ^2 + TIJ^2)^1/2 + DJ) / 2 + PE
    Total System Jitter     (TSJ):    0.071ns
    Total Input Jitter      (TIJ):    0.000ns
    Discrete Jitter          (DJ):    0.000ns
    Phase Error              (PE):    0.000ns
  Clock Net Delay (Source):      1.557ns (routing 0.621ns, distribution 0.936ns)
  Clock Net Delay (Destination): 1.357ns (routing 0.568ns, distribution 0.789ns)

    Location             Delay type                Incr(ns)  Path(ns)    Netlist Resource(s)
  -------------------------------------------------------------------    -------------------
                         (clock clk rise edge)        0.000     0.000 r  
    AW33                                              0.000     0.000 r  clk (IN)
                         net (fo=0)                   0.000     0.000    clk_ibuf_iso/I
    AW33                 INBUF (Prop_INBUF_HPIOB_M_PAD_O)
                                                      0.798     0.798 r  clk_ibuf_iso/INBUF_INST/O
                         net (fo=1, routed)           0.000     0.798    clk_ibuf_iso/OUT
    AW33                 IBUFCTRL (Prop_IBUFCTRL_HPIOB_M_I_O)
                                                      0.000     0.798 r  clk_ibuf_iso/IBUFCTRL_INST/O
                         net (fo=1, routed)           0.334     1.132    clk_ibuf_iso
    BUFGCE_X1Y218        BUFGCE (Prop_BUFCE_BUFGCE_I_O)
                                                      0.028     1.160 r  clk_ibuf/O
    X3Y9 (CLOCK_ROOT)    net (fo=832, routed)         1.557     2.717    clk_c
    SLICE_X100Y582       FDRE                                         r  unsorted_muons[7].pt[0]/C
  -------------------------------------------------------------------    -------------------
    SLICE_X100Y582       FDRE (Prop_GFF2_SLICEM_C_Q)
                                                      0.098     2.815 f  unsorted_muons[7].pt[0]/Q
                         net (fo=3, routed)           0.253     3.068    dut_inst/sorter_inst/genblk1.bitonic_sort_low/genblk1.bitonic_sort_high/genblk1.bitonic_sort_high/genblk1.bitonic_merge_i/genblk1.cmp_g[0].compare_i/pt_0[0]
    SLICE_X101Y586       LUT4 (Prop_C6LUT_SLICEL_I3_O)
                                                      0.098     3.166 r  dut_inst/sorter_inst/genblk1.bitonic_sort_low/genblk1.bitonic_sort_high/genblk1.bitonic_sort_high/genblk1.bitonic_merge_i/genblk1.cmp_g[0].compare_i/un1_b_c2_lut6_2_o5_lut6_2_o5/O
                         net (fo=1, routed)           0.099     3.265    dut_inst/sorter_inst/genblk1.bitonic_sort_low/genblk1.bitonic_sort_high/genblk1.bitonic_sort_high/genblk1.bitonic_merge_i/genblk1.cmp_g[0].compare_i/un1_b_c2_lut6_2_o6
    SLICE_X101Y584       LUT5 (Prop_G6LUT_SLICEL_I4_O)
                                                      0.038     3.303 r  dut_inst/sorter_inst/genblk1.bitonic_sort_low/genblk1.bitonic_sort_high/genblk1.bitonic_sort_high/genblk1.bitonic_merge_i/genblk1.cmp_g[0].compare_i/un1_b_ac0_5_0/O
                         net (fo=30, routed)          0.270     3.573    dut_inst/sorter_inst/genblk1.bitonic_sort_low/genblk1.bitonic_sort_high/genblk1.bitonic_merge_i/genblk1.cmp_g[0].compare_i/s0.pt_lut6_2[1]/I3
    SLICE_X100Y586       LUT5 (Prop_D5LUT_SLICEM_I3_O)
                                                      0.120     3.693 f  dut_inst/sorter_inst/genblk1.bitonic_sort_low/genblk1.bitonic_sort_high/genblk1.bitonic_merge_i/genblk1.cmp_g[0].compare_i/s0.pt_lut6_2[1]/LUT5/O
                         net (fo=3, routed)           0.216     3.909    dut_inst/sorter_inst/genblk1.bitonic_sort_low/genblk1.bitonic_sort_high/genblk1.bitonic_merge_i/genblk1.cmp_g[0].compare_i/pt_lut6_2_O5_0
    SLICE_X100Y586       LUT6 (Prop_G6LUT_SLICEM_I4_O)
                                                      0.064     3.973 r  dut_inst/sorter_inst/genblk1.bitonic_sort_low/genblk1.bitonic_sort_high/genblk1.bitonic_merge_i/genblk1.cmp_g[0].compare_i/un1_b_c2/O
                         net (fo=3, routed)           0.107     4.080    dut_inst/sorter_inst/genblk1.bitonic_sort_low/genblk1.bitonic_sort_high/genblk1.bitonic_merge_i/genblk1.cmp_g[0].compare_i/un1_b_c2_1
    SLICE_X100Y585       LUT5 (Prop_D5LUT_SLICEM_I4_O)
                                                      0.120     4.200 r  dut_inst/sorter_inst/genblk1.bitonic_sort_low/genblk1.bitonic_sort_high/genblk1.bitonic_merge_i/genblk1.cmp_g[0].compare_i/s0.pt_lut6_2_o5_lut6_2_o5[0]/O
                         net (fo=3, routed)           0.254     4.454    dut_inst/sorter_inst/genblk1.bitonic_sort_low/genblk1.bitonic_sort_high/genblk1.bitonic_merge_i/genblk1.bitonic_merge_low/genblk1.cmp_g[0].compare_i/pt_lut6_2_o6_1_0_d0
    SLICE_X100Y585       LUT6 (Prop_G6LUT_SLICEM_I3_O)
                                                      0.100     4.554 r  dut_inst/sorter_inst/genblk1.bitonic_sort_low/genblk1.bitonic_sort_high/genblk1.bitonic_merge_i/genblk1.bitonic_merge_low/genblk1.cmp_g[0].compare_i/un1_b_c2/O
                         net (fo=3, routed)           0.302     4.856    dut_inst/sorter_inst/genblk1.bitonic_sort_low/genblk1.bitonic_sort_high/genblk1.bitonic_merge_i/genblk1.bitonic_merge_low/genblk1.cmp_g[0].compare_i/un1_b_c2_2
    SLICE_X96Y585        LUT5 (Prop_C6LUT_SLICEL_I4_O)
                                                      0.063     4.919 r  dut_inst/sorter_inst/genblk1.bitonic_sort_low/genblk1.bitonic_sort_high/genblk1.bitonic_merge_i/genblk1.bitonic_merge_low/genblk1.cmp_g[0].compare_i/s0.pt_lut6_2_o5_lut6_2_o6[0]/O
                         net (fo=3, routed)           0.122     5.041    dut_inst/sorter_inst/genblk1.bitonic_sort_low/genblk1.bitonic_merge_i/genblk1.cmp_g[1].compare_i/pt_lut6_2_o5_12_0
    SLICE_X96Y583        LUT6 (Prop_F6LUT_SLICEL_I5_O)
                                                      0.148     5.189 f  dut_inst/sorter_inst/genblk1.bitonic_sort_low/genblk1.bitonic_merge_i/genblk1.cmp_g[1].compare_i/s0.idx2_c2/O
                         net (fo=3, routed)           0.049     5.238    dut_inst/sorter_inst/genblk1.bitonic_sort_low/genblk1.bitonic_merge_i/genblk1.cmp_g[1].compare_i/idx2_c2
    SLICE_X96Y583        LUT5 (Prop_E6LUT_SLICEL_I4_O)
                                                      0.100     5.338 f  dut_inst/sorter_inst/genblk1.bitonic_sort_low/genblk1.bitonic_merge_i/genblk1.cmp_g[1].compare_i/s0.idx2_ac0_5_0/O
                         net (fo=23, routed)          0.187     5.525    dut_inst/sorter_inst/genblk1.bitonic_sort_low/genblk1.bitonic_merge_i/genblk1.bitonic_merge_high/genblk1.cmp_g[1].compare_i/idx2_4
    SLICE_X98Y582        LUT6 (Prop_A6LUT_SLICEL_I4_O)
                                                      0.064     5.589 r  dut_inst/sorter_inst/genblk1.bitonic_sort_low/genblk1.bitonic_merge_i/genblk1.bitonic_merge_high/genblk1.cmp_g[1].compare_i/s0.idx2_axb2/O
                         net (fo=4, routed)           0.132     5.721    dut_inst/sorter_inst/genblk1.bitonic_sort_low/genblk1.bitonic_merge_i/genblk1.bitonic_merge_high/genblk1.cmp_g[1].compare_i/idx2_axb2
    SLICE_X97Y582        LUT6 (Prop_E6LUT_SLICEM_I4_O)
                                                      0.177     5.898 f  dut_inst/sorter_inst/genblk1.bitonic_sort_low/genblk1.bitonic_merge_i/genblk1.bitonic_merge_high/genblk1.cmp_g[1].compare_i/s1.pt[0]/O
                         net (fo=3, routed)           0.328     6.226    dut_inst/sorter_inst/genblk1.bitonic_sort_low/genblk1.bitonic_merge_i/genblk1.bitonic_merge_high/genblk1.bitonic_merge_high/genblk1.cmp_g[0].compare_i/pt_1_0
    SLICE_X95Y582        LUT6 (Prop_G6LUT_SLICEM_I3_O)
                                                      0.064     6.290 r  dut_inst/sorter_inst/genblk1.bitonic_sort_low/genblk1.bitonic_merge_i/genblk1.bitonic_merge_high/genblk1.bitonic_merge_high/genblk1.cmp_g[0].compare_i/s0.idx2_c2/O
                         net (fo=3, routed)           0.119     6.409    dut_inst/sorter_inst/genblk1.bitonic_sort_low/genblk1.bitonic_merge_i/genblk1.bitonic_merge_high/genblk1.bitonic_merge_high/genblk1.cmp_g[0].compare_i/idx2_c2
    SLICE_X93Y582        LUT5 (Prop_G6LUT_SLICEM_I4_O)
                                                      0.064     6.473 r  dut_inst/sorter_inst/genblk1.bitonic_sort_low/genblk1.bitonic_merge_i/genblk1.bitonic_merge_high/genblk1.bitonic_merge_high/genblk1.cmp_g[0].compare_i/s0.idx2_ac0_5_0/O
                         net (fo=24, routed)          0.536     7.009    dut_inst/sorter_inst/genblk1.bitonic_merge_i/genblk1.cmp_g[7].compare_i/idx2_2
    SLICE_X97Y578        LUT6 (Prop_H6LUT_SLICEM_I5_O)
                                                      0.100     7.109 r  dut_inst/sorter_inst/genblk1.bitonic_merge_i/genblk1.cmp_g[7].compare_i/s0.idx2_c2/O
                         net (fo=3, routed)           0.104     7.213    dut_inst/sorter_inst/genblk1.bitonic_merge_i/genblk1.cmp_g[7].compare_i/idx2_c2
    SLICE_X97Y578        LUT5 (Prop_B5LUT_SLICEM_I4_O)
                                                      0.089     7.302 r  dut_inst/sorter_inst/genblk1.bitonic_merge_i/genblk1.cmp_g[7].compare_i/s0.pt_lut6_2_o5_lut6_2_o5[0]/O
                         net (fo=3, routed)           0.212     7.514    dut_inst/sorter_inst/genblk1.bitonic_merge_i/genblk1.bitonic_merge_low/genblk1.cmp_g[3].compare_i/pt_lut6_2_o6_41_0
    SLICE_X96Y579        LUT6 (Prop_G6LUT_SLICEL_I4_O)
                                                      0.114     7.628 f  dut_inst/sorter_inst/genblk1.bitonic_merge_i/genblk1.bitonic_merge_low/genblk1.cmp_g[3].compare_i/s0.idx2_ac0_5_0/O
                         net (fo=28, routed)          0.065     7.693    dut_inst/sorter_inst/genblk1.bitonic_merge_i/genblk1.bitonic_merge_low/genblk1.cmp_g[3].compare_i/idx2_4
    SLICE_X96Y579        LUT6 (Prop_F6LUT_SLICEL_I5_O)
                                                      0.114     7.807 f  dut_inst/sorter_inst/genblk1.bitonic_merge_i/genblk1.bitonic_merge_low/genblk1.cmp_g[3].compare_i/s0.pt[2]/O
                         net (fo=5, routed)           0.363     8.170    dut_inst/sorter_inst/genblk1.bitonic_merge_i/genblk1.bitonic_merge_low/genblk1.bitonic_merge_low/genblk1.cmp_g[1].compare_i/pt_10_0
    SLICE_X93Y580        LUT6 (Prop_H6LUT_SLICEM_I5_O)
                                                      0.100     8.270 r  dut_inst/sorter_inst/genblk1.bitonic_merge_i/genblk1.bitonic_merge_low/genblk1.bitonic_merge_low/genblk1.cmp_g[1].compare_i/s0.idx2_ac0_5_0_0/O
                         net (fo=9, routed)           0.413     8.683    dut_inst/sorter_inst/genblk1.bitonic_merge_i/genblk1.bitonic_merge_low/genblk1.bitonic_merge_low/genblk1.bitonic_merge_low/genblk1.cmp_g[0].compare_i/s0.pt_lut6_2[1]/I3
    SLICE_X94Y581        LUT5 (Prop_D5LUT_SLICEL_I3_O)
                                                      0.118     8.801 f  dut_inst/sorter_inst/genblk1.bitonic_merge_i/genblk1.bitonic_merge_low/genblk1.bitonic_merge_low/genblk1.bitonic_merge_low/genblk1.cmp_g[0].compare_i/s0.pt_lut6_2[1]/LUT5/O
                         net (fo=1, routed)           0.193     8.994    dut_inst/sorter_inst/genblk1.bitonic_merge_i/genblk1.bitonic_merge_low/genblk1.bitonic_merge_low/genblk1.bitonic_merge_low/genblk1.cmp_g[0].compare_i/pt_lut6_2_O5_0[1]
    SLICE_X94Y581        LUT6 (Prop_G6LUT_SLICEL_I3_O)
                                                      0.063     9.057 r  dut_inst/sorter_inst/genblk1.bitonic_merge_i/genblk1.bitonic_merge_low/genblk1.bitonic_merge_low/genblk1.bitonic_merge_low/genblk1.cmp_g[0].compare_i/s0.idx2_c2/O
                         net (fo=1, routed)           0.166     9.223    dut_inst/sorter_inst/genblk1.bitonic_merge_i/genblk1.bitonic_merge_low/genblk1.bitonic_merge_low/genblk1.bitonic_merge_low/genblk1.cmp_g[0].compare_i/idx2_c2
    SLICE_X93Y581        LUT5 (Prop_B5LUT_SLICEM_I4_O)
                                                      0.089     9.312 r  dut_inst/sorter_inst/genblk1.bitonic_merge_i/genblk1.bitonic_merge_low/genblk1.bitonic_merge_low/genblk1.bitonic_merge_low/genblk1.cmp_g[0].compare_i/s0.idx2_ac0_5_0_lut6_2_o5_lut6_2_o5/O
                         net (fo=22, routed)          0.625     9.937    dut_inst/sorter_inst/genblk1.bitonic_merge_i/genblk1.bitonic_merge_low/genblk1.bitonic_merge_low/genblk1.bitonic_merge_low/genblk1.cmp_g[0].compare_i/idx2
    SLICE_X99Y579        LUT5 (Prop_B5LUT_SLICEM_I4_O)
                                                      0.089    10.026 r  dut_inst/sorter_inst/genblk1.bitonic_merge_i/genblk1.bitonic_merge_low/genblk1.bitonic_merge_low/genblk1.bitonic_merge_low/genblk1.cmp_g[0].compare_i/s0.idx_lut6_2_o5_lut6_2_o5[7]/O
                         net (fo=1, routed)           0.523    10.549    dut_inst/idx_7[7]
    SLICE_X95Y581        SRL16E                                       r  dut_inst/qdelay_3__0_.idx_7__0_pt_3__1/D
  -------------------------------------------------------------------    -------------------

                         (clock clk rise edge)       10.000    10.000 r  
    AW33                                              0.000    10.000 r  clk (IN)
                         net (fo=0)                   0.000    10.000    clk_ibuf_iso/I
    AW33                 INBUF (Prop_INBUF_HPIOB_M_PAD_O)
                                                      0.529    10.529 r  clk_ibuf_iso/INBUF_INST/O
                         net (fo=1, routed)           0.000    10.529    clk_ibuf_iso/OUT
    AW33                 IBUFCTRL (Prop_IBUFCTRL_HPIOB_M_I_O)
                                                      0.000    10.529 r  clk_ibuf_iso/IBUFCTRL_INST/O
                         net (fo=1, routed)           0.296    10.825    clk_ibuf_iso
    BUFGCE_X1Y218        BUFGCE (Prop_BUFCE_BUFGCE_I_O)
                                                      0.024    10.849 r  clk_ibuf/O
    X3Y9 (CLOCK_ROOT)    net (fo=832, routed)         1.357    12.206    dut_inst/clk_c
    SLICE_X95Y581        SRL16E                                       r  dut_inst/qdelay_3__0_.idx_7__0_pt_3__1/CLK
                         clock pessimism              0.402    12.608    
                         clock uncertainty           -0.035    12.573    
    SLICE_X95Y581        SRL16E (Setup_C6LUT_SLICEM_CLK_D)
                                                     -0.048    12.525    dut_inst/qdelay_3__0_.idx_7__0_pt_3__1
  -------------------------------------------------------------------
                         required time                         12.525    
                         arrival time                         -10.549    
  -------------------------------------------------------------------
                         slack                                  1.975    





Pulse Width Checks
--------------------------------------------------------------------------------------
Clock Name:         clk
Waveform(ns):       { 0.000 5.000 }
Period(ns):         10.000
Sources:            { clk }

Check Type        Corner  Lib Pin     Reference Pin  Required(ns)  Actual(ns)  Slack(ns)  Location       Pin
Min Period        n/a     BUFGCE/I    n/a            1.499         10.000      8.501      BUFGCE_X1Y218  clk_ibuf/I
Min Period        n/a     SRL16E/CLK  n/a            1.146         10.000      8.854      SLICE_X95Y588  dut_inst/qdelay_3__0_.idx_0__0_pt_3__1/CLK
Min Period        n/a     SRL16E/CLK  n/a            1.146         10.000      8.854      SLICE_X95Y585  dut_inst/qdelay_3__0_.idx_1__0_pt_3__1/CLK
Min Period        n/a     SRL16E/CLK  n/a            1.146         10.000      8.854      SLICE_X99Y588  dut_inst/qdelay_3__0_.idx_2__0_pt_3__1/CLK
Min Period        n/a     SRL16E/CLK  n/a            1.146         10.000      8.854      SLICE_X99Y572  dut_inst/qdelay_3__14_.idx_5__0_pt_3__1/CLK
Low Pulse Width   Fast    SRL16E/CLK  n/a            0.573         5.000       4.427      SLICE_X99Y593  dut_inst/qdelay_3__5_.idx_8__0_pt_3__1/CLK
Low Pulse Width   Fast    SRL16E/CLK  n/a            0.573         5.000       4.427      SLICE_X99Y568  dut_inst/qdelay_3__10_.pt_2__0_pt_3__1/CLK
Low Pulse Width   Fast    SRL16E/CLK  n/a            0.573         5.000       4.427      SLICE_X99Y568  dut_inst/qdelay_3__11_.idx_1__0_pt_3__1/CLK
Low Pulse Width   Fast    SRL16E/CLK  n/a            0.573         5.000       4.427      SLICE_X99Y568  dut_inst/qdelay_3__8_.idx_0__0_pt_3__1/CLK
Low Pulse Width   Fast    SRL16E/CLK  n/a            0.573         5.000       4.427      SLICE_X99Y568  dut_inst/qdelay_3__11_.pt_1__0_pt_3__1/CLK
High Pulse Width  Slow    SRL16E/CLK  n/a            0.573         5.000       4.427      SLICE_X95Y585  dut_inst/qdelay_3__0_.idx_1__0_pt_3__1/CLK
High Pulse Width  Slow    SRL16E/CLK  n/a            0.573         5.000       4.427      SLICE_X99Y583  dut_inst/qdelay_3__5_.idx_2__0_pt_3__1/CLK
High Pulse Width  Slow    SRL16E/CLK  n/a            0.573         5.000       4.427      SLICE_X95Y585  dut_inst/qdelay_3__0_.idx_4__0_pt_3__1/CLK
High Pulse Width  Slow    SRL16E/CLK  n/a            0.573         5.000       4.427      SLICE_X95Y585  dut_inst/qdelay_3__6_.idx_1__0_pt_3__1/CLK
High Pulse Width  Slow    SRL16E/CLK  n/a            0.573         5.000       4.427      SLICE_X99Y583  dut_inst/qdelay_3__6_.idx_2__0_pt_3__1/CLK



---------------------------------------------------------------------------------------------------
From Clock:  clk_wrapper
  To Clock:  clk_wrapper

Setup :           NA  Failing Endpoints,  Worst Slack           NA  ,  Total Violation           NA
Hold  :           NA  Failing Endpoints,  Worst Slack           NA  ,  Total Violation           NA
PW    :            0  Failing Endpoints,  Worst Slack      498.562ns,  Total Violation        0.000ns
---------------------------------------------------------------------------------------------------


Pulse Width Checks
--------------------------------------------------------------------------------------
Clock Name:         clk_wrapper
Waveform(ns):       { 0.000 500.000 }
Period(ns):         1000.000
Sources:            { clk_wrapper }

Check Type        Corner  Lib Pin   Reference Pin  Required(ns)  Actual(ns)  Slack(ns)  Location               Pin
Min Period        n/a     FDRE/C    n/a            3.195         1000.000    996.805    BITSLICE_RX_TX_X1Y518  dout/C
Min Period        n/a     FDRE/C    n/a            3.195         1000.000    996.805    BITSLICE_RX_TX_X1Y517  lfsr_din/C
Min Period        n/a     BUFGCE/I  n/a            1.499         1000.000    998.501    BUFGCE_X1Y224          clk_wrapper_ibuf/I
Min Period        n/a     FDRE/C    n/a            0.550         1000.000    999.450    SLICE_X97Y568          input_lfsr/shiftreg_vector[181]/C
Min Period        n/a     FDRE/C    n/a            0.550         1000.000    999.450    SLICE_X93Y570          input_lfsr/shiftreg_vector[182]/C
Low Pulse Width   Fast    FDRE/C    n/a            1.438         500.000     498.562    BITSLICE_RX_TX_X1Y518  dout/C
Low Pulse Width   Slow    FDRE/C    n/a            1.438         500.000     498.562    BITSLICE_RX_TX_X1Y518  dout/C
Low Pulse Width   Slow    FDRE/C    n/a            1.438         500.000     498.562    BITSLICE_RX_TX_X1Y517  lfsr_din/C
Low Pulse Width   Fast    FDRE/C    n/a            1.438         500.000     498.562    BITSLICE_RX_TX_X1Y517  lfsr_din/C
Low Pulse Width   Slow    FDRE/C    n/a            0.275         500.000     499.725    SLICE_X95Y570          input_lfsr/shiftreg_vector[188]/C
High Pulse Width  Slow    FDRE/C    n/a            1.438         500.000     498.562    BITSLICE_RX_TX_X1Y518  dout/C
High Pulse Width  Fast    FDRE/C    n/a            1.438         500.000     498.562    BITSLICE_RX_TX_X1Y518  dout/C
High Pulse Width  Slow    FDRE/C    n/a            1.438         500.000     498.562    BITSLICE_RX_TX_X1Y517  lfsr_din/C
High Pulse Width  Fast    FDRE/C    n/a            1.438         500.000     498.562    BITSLICE_RX_TX_X1Y517  lfsr_din/C
High Pulse Width  Fast    FDRE/C    n/a            0.275         500.000     499.725    SLICE_X97Y568          input_lfsr/shiftreg_vector[181]/C



