Copyright 1986-2018 Xilinx, Inc. All Rights Reserved.
------------------------------------------------------------------------------------
| Tool Version : Vivado v.2018.2 (win64) Build 2258646 Thu Jun 14 20:03:12 MDT 2018
| Date         : Thu Feb 14 17:54:57 2019
| Host         : PCPHESEBE02 running 64-bit Service Pack 1  (build 7601)
| Command      : report_high_fanout_nets -histogram -file fanout_hist.txt
| Design       : wrapper
| Device       : xcvu9p
------------------------------------------------------------------------------------

High Fan-out Nets Information

1. Histogram
------------

+---------+------+--------+
|  Fanout | Nets |      % |
+---------+------+--------+
|       1 | 5268 |  54.55 |
|       2 | 1183 |  12.25 |
|       3 |  659 |   6.82 |
|       4 |  456 |   4.72 |
|    5-10 | 1328 |  13.75 |
|   11-50 |  759 |   7.86 |
|  51-100 |    3 |   0.03 |
| 101-500 |    0 |   0.00 |
|    >500 |    0 |   0.00 |
+---------+------+--------+
|     ALL | 9656 | 100.00 |
+---------+------+--------+


