Copyright 1986-2018 Xilinx, Inc. All Rights Reserved.
------------------------------------------------------------------------------------
| Tool Version : Vivado v.2018.2 (win64) Build 2258646 Thu Jun 14 20:03:12 MDT 2018
| Date         : Thu Feb 14 02:30:53 2019
| Host         : PCPHESEBE02 running 64-bit Service Pack 1  (build 7601)
| Command      : report_high_fanout_nets -file fanout.txt -max_nets 200
| Design       : wrapper
| Device       : xcvu9p
------------------------------------------------------------------------------------

High Fan-out Nets Information

1. Summary
----------

+-----------------------------------------+--------+-------------+
| Net Name                                | Fanout | Driver Type |
+-----------------------------------------+--------+-------------+
| muon_sorter_1/max_pt_7[1]               |     49 | LUT6        |
| muon_sorter_1/max_pt_2[2]               |     47 | LUT6        |
| muon_sorter_1/max_pt_14[11]             |     40 | LUT6        |
| muon_sorter_1/max_pt_14[15]             |     40 | LUT6        |
| muon_sorter_1/max_pt_8[14]              |     40 | LUT6        |
| muon_sorter_1/max_pt_14[0]              |     39 | LUT6        |
| muon_sorter_1/max_pt_14[4]              |     38 | LUT5        |
| muon_sorter_1/max_pt_2[5]               |     38 | LUT6        |
| muon_sorter_1/max_pt_10_1[4]            |     37 | LUT6        |
| muon_sorter_1/max_pt_12_0[4]            |     37 | LUT6        |
| muon_sorter_1/max_pt_12_1[4]            |     37 | LUT5        |
| muon_sorter_1/max_pt_14[10]             |     37 | LUT6        |
| muon_sorter_1/max_pt_14[13]             |     37 | LUT6        |
| muon_sorter_1/max_pt_3[7]               |     37 | LUT6        |
| muon_sorter_1/max_pt_9[1]               |     37 | LUT6        |
| muon_sorter_1/max_pt_10_3[4]            |     36 | LUT6        |
| muon_sorter_1/max_pt_12_2[4]            |     36 | LUT4        |
| muon_sorter_1/max_pt_14[6]              |     36 | LUT6        |
| muon_sorter_1/max_pt_8[0]               |     36 | LUT6        |
| muon_sorter_1/max_pt_2_0[4]             |     35 | LUT5        |
| muon_sorter_1/max_pt_5[11]              |     35 | LUT6        |
| muon_sorter_1/max_pt_8[6]               |     35 | LUT6        |
| muon_sorter_1/max_pt_2_1[4]             |     34 | LUT5        |
| muon_sorter_1/max_pt_4_0[4]             |     34 | LUT6        |
| muon_sorter_1/max_pt_4_1[4]             |     34 | LUT5        |
| muon_sorter_1/max_pt_5[10]              |     34 | LUT6        |
| muon_sorter_1/max_pt_4_2[4]             |     33 | LUT4        |
| muon_sorter_1/max_pt_5[8]               |     33 | LUT6        |
| muon_sorter_1/max_pt_8_1[4]             |     33 | LUT6        |
| muon_sorter_1/max_pt_11_1[4]            |     32 | LUT5        |
| muon_sorter_1/max_pt_12[13]             |     32 | LUT5        |
| muon_sorter_1/max_pt_14[14]             |     32 | LUT6        |
| muon_sorter_1/max_pt_14_1[2]            |     32 | LUT5        |
| muon_sorter_1/max_pt_5_0[4]             |     32 | LUT6        |
| muon_sorter_1/max_pt_9_1[4]             |     32 | LUT6        |
| muon_sorter_1/max_pt_12[1]              |     31 | LUT6        |
| muon_sorter_1/max_pt_12[8]              |     31 | LUT6        |
| muon_sorter_1/max_pt_2_2[4]             |     31 | LUT4        |
| muon_sorter_1/max_pt_5[13]              |     31 | LUT6        |
| muon_sorter_1/max_pt_5[6]               |     31 | LUT6        |
| muon_sorter_1/max_pt_6_1[4]             |     31 | LUT6        |
| muon_sorter_1/max_pt_8[15]              |     31 | LUT6        |
| muon_sorter_1/max_pt_13[8]              |     30 | LUT6        |
| muon_sorter_1/max_pt_5[3]               |     30 | LUT6        |
| muon_sorter_1/max_pt_10[7]              |     29 | LUT6        |
| muon_sorter_1/max_pt_5[9]               |     29 | LUT6        |
| muon_sorter_1/max_pt_5_1[4]             |     29 | LUT6        |
| muon_sorter_1/top_candoi[232]           |     29 | FDRE        |
| muon_sorter_1/max_pt_10[11]             |     28 | LUT6        |
| muon_sorter_1/max_pt_10[13]             |     28 | LUT6        |
| muon_sorter_1/max_pt_11[3]              |     28 | LUT6        |
| muon_sorter_1/max_pt_3[10]              |     28 | LUT6        |
| muon_sorter_1/max_pt_5[0]               |     28 | LUT6        |
| muon_sorter_1/top_candoi[136]           |     28 | FDRE        |
| muon_sorter_1/max_pt_10[8]              |     27 | LUT6        |
| muon_sorter_1/max_pt_11_3[4]            |     27 | LUT5        |
| muon_sorter_1/max_pt_12[9]              |     27 | LUT5        |
| muon_sorter_1/max_pt_14[8]              |     27 | LUT4        |
| muon_sorter_1/max_pt_14[9]              |     27 | LUT4        |
| muon_sorter_1/max_pt_14_0[2]            |     27 | LUT6        |
| muon_sorter_1/max_pt_14_0_4[2]          |     27 | LUT5        |
| muon_sorter_1/max_pt_14_1_3[2]          |     27 | LUT5        |
| muon_sorter_1/max_pt_2[12]              |     27 | LUT6        |
| muon_sorter_1/max_pt_2[7]               |     27 | LUT6        |
| muon_sorter_1/max_pt_5[14]              |     27 | LUT6        |
| muon_sorter_1/max_pt_5[15]              |     27 | LUT6        |
| muon_sorter_1/max_pt_5[7]               |     27 | LUT6        |
| muon_sorter_1/max_pt_8_0[4]             |     27 | LUT6        |
| muon_sorter_1/top_candoi[120]           |     27 | FDRE        |
| muon_sorter_1/max_pt_0oi[5]             |     26 | LUT6        |
| muon_sorter_1/max_pt_12[12]             |     26 | LUT6        |
| muon_sorter_1/max_pt_2[11]              |     26 | LUT5        |
| muon_sorter_1/max_pt_2[14]              |     26 | LUT6        |
| muon_sorter_1/max_pt_3[5]               |     26 | LUT6        |
| muon_sorter_1/max_pt_5[1]               |     26 | LUT6        |
| muon_sorter_1/max_pt_5_2[4]             |     26 | LUT4        |
| muon_sorter_1/max_pt_8[1]               |     26 | LUT6        |
| muon_sorter_1/top_candoi[8]             |     26 | FDRE        |
| muon_sorter_1/max_pt_11[5]              |     25 | LUT6        |
| muon_sorter_1/max_pt_12[10]             |     25 | LUT5        |
| muon_sorter_1/max_pt_13[9]              |     25 | LUT6        |
| muon_sorter_1/max_pt_14[5]              |     25 | LUT4        |
| muon_sorter_1/max_pt_8_2[4]             |     25 | LUT4        |
| muon_sorter_1/pt_ret_1861_RNI3SLE5P1/O6 |     25 | LUT6        |
| muon_sorter_1/top_candoi[248]           |     25 | FDRE        |
| muon_sorter_1/top_candoi[40]            |     25 | FDRE        |
| muon_sorter_1/N_1014                    |     24 | LUT6        |
| muon_sorter_1/N_1042                    |     24 | LUT6        |
| muon_sorter_1/max_pt_13_reto[5]         |     24 | FDRE        |
| muon_sorter_1/max_pt_14[7]              |     24 | LUT6        |
| muon_sorter_1/max_pt_2[13]              |     24 | LUT6        |
| muon_sorter_1/top_candoi[104]           |     24 | FDRE        |
| muon_sorter_1/top_candoi[184]           |     24 | FDRE        |
| muon_sorter_1/top_candoi[233]           |     24 | FDRE        |
| muon_sorter_1/top_candoi[41]            |     24 | FDRE        |
| muon_sorter_1/top_candoi[56]            |     24 | FDRE        |
| muon_sorter_1/top_candoi[9]             |     24 | FDRE        |
| muon_sorter_1/max_pt_11[0]              |     23 | LUT5        |
| muon_sorter_1/max_pt_12[7]              |     23 | LUT5        |
| muon_sorter_1/max_pt_14[12]             |     23 | LUT4        |
| muon_sorter_1/max_pt_14[3]              |     23 | LUT4        |
| muon_sorter_1/max_pt_2[8]               |     23 | LUT6        |
| muon_sorter_1/max_pt_3[1]               |     23 | LUT6        |
| muon_sorter_1/max_pt_8[11]              |     23 | LUT6        |
| muon_sorter_1/max_pt_8[3]               |     23 | LUT6        |
| muon_sorter_1/max_pt_8[8]               |     23 | LUT6        |
| muon_sorter_1/pt_ret_1399_RNIU65SQP2/O6 |     23 | LUT6        |
| muon_sorter_1/top_candoi[121]           |     23 | FDRE        |
| muon_sorter_1/top_candoi[152]           |     23 | FDRE        |
| muon_sorter_1/top_candoi[168]           |     23 | FDRE        |
| muon_sorter_1/top_candoi[185]           |     23 | FDRE        |
| muon_sorter_1/top_candoi[24]            |     23 | FDRE        |
| muon_sorter_1/max_pt_13[2]              |     22 | LUT4        |
| muon_sorter_1/max_pt_2[0]               |     22 | LUT6        |
| muon_sorter_1/max_pt_2[6]               |     22 | LUT6        |
| muon_sorter_1/max_pt_2[9]               |     22 | LUT6        |
| muon_sorter_1/max_pt_3[14]              |     22 | LUT6        |
| muon_sorter_1/max_pt_6_0_0[4]           |     22 | LUT6        |
| muon_sorter_1/max_pt_7[13]              |     22 | LUT5        |
| muon_sorter_1/max_pt_7[7]               |     22 | LUT6        |
| muon_sorter_1/max_pt_8[13]              |     22 | LUT6        |
| muon_sorter_1/max_pt_9[6]               |     22 | LUT6        |
| muon_sorter_1/pt_ret_1399_RNI8FMO4Q1/O5 |     22 | LUT5        |
| muon_sorter_1/top_candoi[137]           |     22 | FDRE        |
| muon_sorter_1/top_candoi[200]           |     22 | FDRE        |
| muon_sorter_1/top_candoi[249]           |     22 | FDRE        |
| muon_sorter_1/max_pt_0_1i[10]           |     21 | LUT5        |
| muon_sorter_1/max_pt_0_3oi[10]          |     21 | LUT6        |
| muon_sorter_1/max_pt_10[12]             |     21 | LUT6        |
| muon_sorter_1/max_pt_10[5]              |     21 | LUT6        |
| muon_sorter_1/max_pt_10_1[15]           |     21 | LUT5        |
| muon_sorter_1/max_pt_11[7]              |     21 | LUT6        |
| muon_sorter_1/max_pt_11_1[15]           |     21 | LUT5        |
| muon_sorter_1/max_pt_14[1]              |     21 | LUT4        |
| muon_sorter_1/max_pt_1[10]              |     21 | FDRE        |
| muon_sorter_1/max_pt_1[3]               |     21 | FDRE        |
| muon_sorter_1/max_pt_3[9]               |     21 | LUT5        |
| muon_sorter_1/max_pt_5[12]              |     21 | LUT6        |
| muon_sorter_1/max_pt_5[2]               |     21 | LUT6        |
| muon_sorter_1/max_pt_6[3]               |     21 | LUT6        |
| muon_sorter_1/max_pt_7[5]               |     21 | LUT6        |
| muon_sorter_1/max_pt_7[8]               |     21 | LUT6        |
| muon_sorter_1/max_pt_8_0[10]            |     21 | LUT6        |
| muon_sorter_1/max_pt_8_1[10]            |     21 | LUT4        |
| muon_sorter_1/max_pt_8_1[8]             |     21 | LUT6        |
| muon_sorter_1/pt_ret_1861_RNIV1RS562/O6 |     21 | LUT6        |
| muon_sorter_1/top_candoi[105]           |     21 | FDRE        |
| muon_sorter_1/top_candoi[153]           |     21 | FDRE        |
| muon_sorter_1/top_candoi[169]           |     21 | FDRE        |
| muon_sorter_1/top_candoi[216]           |     21 | FDRE        |
| muon_sorter_1/top_candoi[25]            |     21 | FDRE        |
| muon_sorter_1/max_pt_10[0]              |     20 | LUT6        |
| muon_sorter_1/max_pt_10_0[15]           |     20 | LUT6        |
| muon_sorter_1/max_pt_12[14]             |     20 | LUT6        |
| muon_sorter_1/max_pt_12[15]             |     20 | LUT6        |
| muon_sorter_1/max_pt_12[3]              |     20 | LUT6        |
| muon_sorter_1/max_pt_12_0[14]           |     20 | LUT6        |
| muon_sorter_1/max_pt_12_1[14]           |     20 | LUT5        |
| muon_sorter_1/max_pt_13[7]              |     20 | LUT6        |
| muon_sorter_1/max_pt_2[15]              |     20 | LUT6        |
| muon_sorter_1/max_pt_2[1]               |     20 | LUT6        |
| muon_sorter_1/max_pt_2[3]               |     20 | LUT5        |
| muon_sorter_1/max_pt_2_0[8]             |     20 | LUT6        |
| muon_sorter_1/max_pt_2_1[14]            |     20 | LUT5        |
| muon_sorter_1/max_pt_2_1[8]             |     20 | LUT5        |
| muon_sorter_1/max_pt_3[12]              |     20 | LUT6        |
| muon_sorter_1/max_pt_4[2]               |     20 | LUT6        |
| muon_sorter_1/max_pt_5[5]               |     20 | LUT6        |
| muon_sorter_1/max_pt_7[11]              |     20 | LUT6        |
| muon_sorter_1/max_pt_7[14]              |     20 | LUT6        |
| muon_sorter_1/max_pt_8_0[3]             |     20 | LUT6        |
| muon_sorter_1/max_pt_8_0[5]             |     20 | LUT6        |
| muon_sorter_1/max_pt_8_1[5]             |     20 | LUT6        |
| muon_sorter_1/top_candoi[201]           |     20 | FDRE        |
| muon_sorter_1/top_candoi[88]            |     20 | FDRE        |
| muon_sorter_1/top_candoi[89]            |     20 | FDRE        |
| muon_sorter_1/max_pt_10[15]             |     19 | LUT6        |
| muon_sorter_1/max_pt_10[3]              |     19 | LUT6        |
| muon_sorter_1/max_pt_10[6]              |     19 | LUT5        |
| muon_sorter_1/max_pt_10_1[10]           |     19 | LUT6        |
| muon_sorter_1/max_pt_10_1[12]           |     19 | LUT6        |
| muon_sorter_1/max_pt_10_1[7]            |     19 | LUT6        |
| muon_sorter_1/max_pt_11[11]             |     19 | LUT5        |
| muon_sorter_1/max_pt_11[13]             |     19 | LUT6        |
| muon_sorter_1/max_pt_11_1[10]           |     19 | LUT5        |
| muon_sorter_1/max_pt_11_1[9]            |     19 | LUT5        |
| muon_sorter_1/max_pt_12[5]              |     19 | LUT5        |
| muon_sorter_1/max_pt_12[6]              |     19 | LUT6        |
| muon_sorter_1/max_pt_13[12]             |     19 | LUT6        |
| muon_sorter_1/max_pt_2_0[14]            |     19 | LUT4        |
| muon_sorter_1/max_pt_3[4]               |     19 | LUT6        |
| muon_sorter_1/max_pt_3_3[4]             |     19 | LUT6        |
| muon_sorter_1/max_pt_4_1[7]             |     19 | LUT5        |
| muon_sorter_1/max_pt_4_1[9]             |     19 | LUT6        |
| muon_sorter_1/max_pt_4_3[13]            |     19 | LUT6        |
| muon_sorter_1/max_pt_5_0[1]             |     19 | LUT6        |
| muon_sorter_1/max_pt_5_0[7]             |     19 | LUT6        |
| muon_sorter_1/max_pt_5_1[1]             |     19 | LUT5        |
| muon_sorter_1/max_pt_6[5]               |     19 | LUT6        |
| muon_sorter_1/max_pt_6_1[12]            |     19 | LUT6        |
+-----------------------------------------+--------+-------------+


