Copyright 1986-2018 Xilinx, Inc. All Rights Reserved.
-------------------------------------------------------------------------------------------------
| Tool Version      : Vivado v.2018.2 (win64) Build 2258646 Thu Jun 14 20:03:12 MDT 2018
| Date              : Thu Feb 14 02:28:30 2019
| Host              : PCPHESEBE02 running 64-bit Service Pack 1  (build 7601)
| Command           : report_timing_summary -setup -nworst 5 -max_paths 5 -file timing_setup.txt
| Design            : wrapper
| Device            : xcvu9p-flgc2104
| Speed File        : -1  PRODUCTION 1.20 05-21-2018
| Temperature Grade : E
-------------------------------------------------------------------------------------------------

Timing Summary Report

------------------------------------------------------------------------------------------------
| Timer Settings
| --------------
------------------------------------------------------------------------------------------------

  Enable Multi Corner Analysis               :  Yes
  Enable Pessimism Removal                   :  Yes
  Pessimism Removal Resolution               :  Nearest Common Node
  Enable Input Delay Default Clock           :  No
  Enable Preset / Clear Arcs                 :  No
  Disable Flight Delays                      :  No
  Ignore I/O Paths                           :  No
  Timing Early Launch at Borrowing Latches   :  false

  Corner  Analyze    Analyze    
  Name    Max Paths  Min Paths  
  ------  ---------  ---------  
  Slow    Yes        Yes        
  Fast    Yes        Yes        



check_timing report

Table of Contents
-----------------
1. checking no_clock
2. checking constant_clock
3. checking pulse_width_clock
4. checking unconstrained_internal_endpoints
5. checking no_input_delay
6. checking no_output_delay
7. checking multiple_clock
8. checking generated_clocks
9. checking loops
10. checking partial_input_delay
11. checking partial_output_delay
12. checking latch_loops

1. checking no_clock
--------------------
 There are 0 register/latch pins with no clock.


2. checking constant_clock
--------------------------
 There are 0 register/latch pins with constant_clock.


3. checking pulse_width_clock
-----------------------------
 There are 0 register/latch pins which need pulse_width check


4. checking unconstrained_internal_endpoints
--------------------------------------------
 There are 0 pins that are not constrained for maximum delay.

 There are 0 pins that are not constrained for maximum delay due to constant clock.


5. checking no_input_delay
--------------------------
 There are 0 input ports with no input delay specified.

 There are 0 input ports with no input delay but user has a false path constraint.


6. checking no_output_delay
---------------------------
 There is 1 port with no output delay specified. (HIGH)

 There are 0 ports with no output delay but user has a false path constraint

 There are 0 ports with no output delay but with a timing clock defined on it or propagating through it


7. checking multiple_clock
--------------------------
 There are 0 register/latch pins with multiple clocks.


8. checking generated_clocks
----------------------------
 There are 0 generated clocks that are not connected to a clock source.


9. checking loops
-----------------
 There are 0 combinational loops in the design.


10. checking partial_input_delay
--------------------------------
 There are 0 input ports with partial input delay specified.


11. checking partial_output_delay
---------------------------------
 There are 0 ports with partial output delay specified.


12. checking latch_loops
------------------------
 There are 0 combinational latch loops in the design through latch input



------------------------------------------------------------------------------------------------
| Design Timing Summary
| ---------------------
------------------------------------------------------------------------------------------------

    WNS(ns)      TNS(ns)  TNS Failing Endpoints  TNS Total Endpoints     WPWS(ns)     TPWS(ns)  TPWS Failing Endpoints  TPWS Total Endpoints  
    -------      -------  ---------------------  -------------------     --------     --------  ----------------------  --------------------  
     -1.958     -342.103                    276                 4890        5.677        0.000                       0                  5222  


Timing constraints are not met.


------------------------------------------------------------------------------------------------
| Clock Summary
| -------------
------------------------------------------------------------------------------------------------

Clock        Waveform(ns)         Period(ns)      Frequency(MHz)
-----        ------------         ----------      --------------
clk          {0.000 6.250}        12.500          80.000          
clk_wrapper  {0.000 500.000}      1000.000        1.000           


------------------------------------------------------------------------------------------------
| Intra Clock Table
| -----------------
------------------------------------------------------------------------------------------------

Clock             WNS(ns)      TNS(ns)  TNS Failing Endpoints  TNS Total Endpoints     WPWS(ns)     TPWS(ns)  TPWS Failing Endpoints  TPWS Total Endpoints  
-----             -------      -------  ---------------------  -------------------     --------     --------  ----------------------  --------------------  
clk                -1.958     -342.103                    276                 4890        5.677        0.000                       0                  4880  
clk_wrapper                                                                             498.562        0.000                       0                   342  


------------------------------------------------------------------------------------------------
| Inter Clock Table
| -----------------
------------------------------------------------------------------------------------------------

From Clock    To Clock          WNS(ns)      TNS(ns)  TNS Failing Endpoints  TNS Total Endpoints  
----------    --------          -------      -------  ---------------------  -------------------  


------------------------------------------------------------------------------------------------
| Other Path Groups Table
| -----------------------
------------------------------------------------------------------------------------------------

Path Group    From Clock    To Clock          WNS(ns)      TNS(ns)  TNS Failing Endpoints  TNS Total Endpoints  
----------    ----------    --------          -------      -------  ---------------------  -------------------  


------------------------------------------------------------------------------------------------
| Timing Details
| --------------
------------------------------------------------------------------------------------------------


---------------------------------------------------------------------------------------------------
From Clock:  clk
  To Clock:  clk

Setup :          276  Failing Endpoints,  Worst Slack       -1.958ns,  Total Violation     -342.103ns
Hold  :           NA  Failing Endpoints,  Worst Slack           NA  ,  Total Violation           NA
PW    :            0  Failing Endpoints,  Worst Slack        5.677ns,  Total Violation        0.000ns
---------------------------------------------------------------------------------------------------


Max Delay Paths
--------------------------------------------------------------------------------------
Slack (VIOLATED) :        -1.958ns  (required time - arrival time)
  Source:                 muon_sorter_1/pt_ret_1861/C
                            (rising edge-triggered cell FDRE clocked by clk  {rise@0.000ns fall@6.250ns period=12.500ns})
  Destination:            muon_sorter_1/sector_ret_400/D
                            (rising edge-triggered cell FDRE clocked by clk  {rise@0.000ns fall@6.250ns period=12.500ns})
  Path Group:             clk
  Path Type:              Setup (Max at Slow Process Corner)
  Requirement:            12.500ns  (clk rise@12.500ns - clk rise@0.000ns)
  Data Path Delay:        14.423ns  (logic 3.537ns (24.523%)  route 10.886ns (75.477%))
  Logic Levels:           33  (LUT3=4 LUT4=3 LUT5=9 LUT6=17)
  Clock Path Skew:        -0.027ns (DCD - SCD + CPR)
    Destination Clock Delay (DCD):    2.114ns = ( 14.614 - 12.500 ) 
    Source Clock Delay      (SCD):    2.467ns
    Clock Pessimism Removal (CPR):    0.326ns
  Clock Uncertainty:      0.035ns  ((TSJ^2 + TIJ^2)^1/2 + DJ) / 2 + PE
    Total System Jitter     (TSJ):    0.071ns
    Total Input Jitter      (TIJ):    0.000ns
    Discrete Jitter          (DJ):    0.000ns
    Phase Error              (PE):    0.000ns
  Clock Net Delay (Source):      1.326ns (routing 0.185ns, distribution 1.141ns)
  Clock Net Delay (Destination): 1.284ns (routing 0.170ns, distribution 1.114ns)

    Location             Delay type                Incr(ns)  Path(ns)    Netlist Resource(s)
  -------------------------------------------------------------------    -------------------
                         (clock clk rise edge)        0.000     0.000 r  
    AV33                                              0.000     0.000 r  clk (IN)
                         net (fo=0)                   0.000     0.000    clk_ibuf_iso/I
    AV33                 INBUF (Prop_INBUF_HPIOB_M_PAD_O)
                                                      0.779     0.779 r  clk_ibuf_iso/INBUF_INST/O
                         net (fo=1, routed)           0.000     0.779    clk_ibuf_iso/OUT
    AV33                 IBUFCTRL (Prop_IBUFCTRL_HPIOB_M_I_O)
                                                      0.000     0.779 r  clk_ibuf_iso/IBUFCTRL_INST/O
                         net (fo=1, routed)           0.334     1.113    clk_ibuf_iso
    BUFGCE_X1Y224        BUFGCE (Prop_BUFCE_BUFGCE_I_O)
                                                      0.028     1.141 r  clk_ibuf/O
    X4Y9 (CLOCK_ROOT)    net (fo=4879, routed)        1.326     2.467    muon_sorter_1/clk_c
    SLICE_X131Y570       FDRE                                         r  muon_sorter_1/pt_ret_1861/C
  -------------------------------------------------------------------    -------------------
    SLICE_X131Y570       FDRE (Prop_GFF_SLICEM_C_Q)
                                                      0.095     2.562 r  muon_sorter_1/pt_ret_1861/Q
                         net (fo=10, routed)          0.655     3.217    muon_sorter_1/pt_ret_1826_RNICC2D5/I0
    SLICE_X128Y569       LUT6 (Prop_G6LUT_SLICEL_I0_O)
                                                      0.178     3.395 r  muon_sorter_1/pt_ret_1826_RNICC2D5/LUT6/O
                         net (fo=15, routed)          0.542     3.937    muon_sorter_1/max_pt_2_3[7]
    SLICE_X130Y566       LUT3 (Prop_B5LUT_SLICEL_I2_O)
                                                      0.173     4.110 r  muon_sorter_1/pt_ret_1392_RNIF2R77_lut6_2_o5/O
                         net (fo=2, routed)           0.145     4.255    muon_sorter_1/pt_compare_3_7_0_a2_0[2]
    SLICE_X131Y566       LUT6 (Prop_G6LUT_SLICEM_I2_O)
                                                      0.116     4.371 r  muon_sorter_1/pt_ret_1657_RNI2J7841/O
                         net (fo=2, routed)           0.175     4.546    muon_sorter_1/max_pt_3_2[2]
    SLICE_X128Y566       LUT4 (Prop_E6LUT_SLICEL_I3_O)
                                                      0.064     4.610 r  muon_sorter_1/pt_ret_1228_RNIA07P03/O
                         net (fo=15, routed)          0.401     5.011    muon_sorter_1/max_pt_3_3[2]
    SLICE_X125Y567       LUT5 (Prop_F6LUT_SLICEM_I4_O)
                                                      0.038     5.049 f  muon_sorter_1/pt_ret_1227_RNISK6A2F/O
                         net (fo=4, routed)           0.561     5.610    muon_sorter_1/pt_ret_1227_RNITPH5K33/I3
    SLICE_X124Y563       LUT5 (Prop_D5LUT_SLICEL_I3_O)
                                                      0.118     5.728 r  muon_sorter_1/pt_ret_1227_RNITPH5K33/LUT5/O
                         net (fo=1, routed)           0.191     5.919    muon_sorter_1/max_pt_4_0_x[11]
    SLICE_X124Y563       LUT6 (Prop_H6LUT_SLICEL_I5_O)
                                                      0.040     5.959 r  muon_sorter_1/pt_ret_1495_RNICB4O8P1/O
                         net (fo=14, routed)          0.310     6.269    muon_sorter_1/max_pt_4_3[11]
    SLICE_X125Y561       LUT6 (Prop_G6LUT_SLICEM_I5_O)
                                                      0.064     6.333 f  muon_sorter_1/pt_ret_1345_RNI8610TD/O
                         net (fo=3, routed)           0.486     6.819    muon_sorter_1/N_2116
    SLICE_X128Y561       LUT6 (Prop_C6LUT_SLICEL_I3_O)
                                                      0.063     6.882 r  muon_sorter_1/pt_ret_1347_RNIG1BNUC1/O
                         net (fo=11, routed)          0.209     7.091    muon_sorter_1/max_pt_5_0[15]
    SLICE_X130Y560       LUT5 (Prop_F6LUT_SLICEL_I4_O)
                                                      0.148     7.239 r  muon_sorter_1/pt_ret_1412_RNID6EIH81/O
                         net (fo=3, routed)           0.179     7.418    muon_sorter_1/max_pt_5_x_0[15]
    SLICE_X131Y559       LUT6 (Prop_H6LUT_SLICEM_I5_O)
                                                      0.151     7.569 f  muon_sorter_1/pt_ret_1412_RNINK29GF/O
                         net (fo=5, routed)           0.315     7.884    muon_sorter_1/pt_compare_14_15_27_0_a2[10]
    SLICE_X130Y558       LUT5 (Prop_B6LUT_SLICEL_I4_O)
                                                      0.040     7.924 r  muon_sorter_1/pt_ret_1412_RNIPVT51N1/O
                         net (fo=13, routed)          0.240     8.164    muon_sorter_1/max_pt_6_2[15]
    SLICE_X131Y558       LUT6 (Prop_G6LUT_SLICEM_I1_O)
                                                      0.148     8.312 f  muon_sorter_1/pt_ret_1412_RNIHGKLCF2/O
                         net (fo=4, routed)           0.556     8.868    muon_sorter_1/N_1888
    SLICE_X132Y553       LUT3 (Prop_A6LUT_SLICEL_I1_O)
                                                      0.064     8.932 r  muon_sorter_1/pt_ret_1412_RNIRNRE3E1/O
                         net (fo=1, routed)           0.187     9.119    muon_sorter_1/max_pt_7_3_N_2L1
    SLICE_X130Y553       LUT6 (Prop_H6LUT_SLICEL_I4_O)
                                                      0.064     9.183 r  muon_sorter_1/pt_ret_1276_RNIEQR0A81/O
                         net (fo=13, routed)          0.200     9.383    muon_sorter_1/max_pt_7_3[15]
    SLICE_X130Y552       LUT6 (Prop_D6LUT_SLICEL_I5_O)
                                                      0.039     9.422 f  muon_sorter_1/pt_ret_1493_RNIK1VNVG3/O
                         net (fo=4, routed)           0.750    10.172    muon_sorter_1/pt_compare_8_15_0_a2[3]
    SLICE_X129Y549       LUT5 (Prop_F6LUT_SLICEM_I3_O)
                                                      0.113    10.285 r  muon_sorter_1/pt_ret_1394_RNIABE7N02/O
                         net (fo=6, routed)           0.158    10.443    muon_sorter_1/max_pt_8_1[15]
    SLICE_X130Y548       LUT6 (Prop_G6LUT_SLICEL_I4_O)
                                                      0.114    10.557 r  muon_sorter_1/pt_ret_1412_RNIO6E8HO3/O
                         net (fo=31, routed)          0.258    10.815    muon_sorter_1/max_pt_8[15]
    SLICE_X132Y547       LUT5 (Prop_F6LUT_SLICEL_I4_O)
                                                      0.148    10.963 f  muon_sorter_1/pt_ret_1412_RNICVTEV92/O
                         net (fo=6, routed)           0.373    11.336    muon_sorter_1/pt_compare_9_15_0_a2[10]
    SLICE_X128Y544       LUT4 (Prop_A6LUT_SLICEL_I1_O)
                                                      0.100    11.436 r  muon_sorter_1/pt_ret_1861_RNIBECF4A/O
                         net (fo=17, routed)          0.339    11.775    muon_sorter_1/max_pt_9_2[15]
    SLICE_X129Y542       LUT6 (Prop_G6LUT_SLICEM_I1_O)
                                                      0.179    11.954 r  muon_sorter_1/pt_ret_1861_RNI3DC6LJ3/O
                         net (fo=8, routed)           0.281    12.235    muon_sorter_1/pt_ret_1861_RNIAEAISS/I1
    SLICE_X131Y541       LUT5 (Prop_H5LUT_SLICEM_I1_O)
                                                      0.167    12.402 r  muon_sorter_1/pt_ret_1861_RNIAEAISS/LUT5/O
                         net (fo=1, routed)           0.353    12.755    muon_sorter_1/max_pt_10_0_x[7]
    SLICE_X130Y541       LUT6 (Prop_F6LUT_SLICEL_I5_O)
                                                      0.039    12.794 r  muon_sorter_1/pt_ret_1861_RNIQU1A8K1/O
                         net (fo=14, routed)          0.316    13.110    muon_sorter_1/max_pt_10_3[7]
    SLICE_X127Y541       LUT6 (Prop_G6LUT_SLICEM_I3_O)
                                                      0.100    13.210 r  muon_sorter_1/pt_ret_1861_RNI99KT5N/O
                         net (fo=6, routed)           0.392    13.602    muon_sorter_1/N_1282
    SLICE_X130Y538       LUT3 (Prop_D5LUT_SLICEL_I0_O)
                                                      0.136    13.738 r  muon_sorter_1/pt_ret_1861_RNIOJLPRP2_lut6_2_o5/O
                         net (fo=1, routed)           0.201    13.939    muon_sorter_1/max_pt_11_2_x[7]
    SLICE_X130Y538       LUT6 (Prop_H6LUT_SLICEL_I4_O)
                                                      0.179    14.118 r  muon_sorter_1/pt_ret_1861_RNIKVGH3I3/O
                         net (fo=17, routed)          0.434    14.552    muon_sorter_1/max_pt_11_3[7]
    SLICE_X133Y536       LUT6 (Prop_B6LUT_SLICEM_I3_O)
                                                      0.039    14.591 f  muon_sorter_1/pt_ret_1399_RNIUKPNM91/O
                         net (fo=6, routed)           0.382    14.973    muon_sorter_1/pt_compare_12_11_0_a2[7]
    SLICE_X131Y534       LUT4 (Prop_D6LUT_SLICEM_I3_O)
                                                      0.174    15.147 r  muon_sorter_1/pt_ret_1399_RNI2N6K5I2_lut6_2_o6/O
                         net (fo=6, routed)           0.171    15.318    muon_sorter_1/pt_ret_1399_RNI8FMO4Q1/I3
    SLICE_X131Y534       LUT5 (Prop_C5LUT_SLICEM_I3_O)
                                                      0.121    15.439 r  muon_sorter_1/pt_ret_1399_RNI8FMO4Q1/LUT5/O
                         net (fo=22, routed)          0.339    15.778    muon_sorter_1/max_pt_12[11]
    SLICE_X126Y534       LUT5 (Prop_B6LUT_SLICEL_I4_O)
                                                      0.040    15.818 r  muon_sorter_1/pt_ret_1861_RNI900LI43/O
                         net (fo=2, routed)           0.158    15.976    muon_sorter_1/max_pt_13_0_2[4]
    SLICE_X126Y534       LUT6 (Prop_G6LUT_SLICEL_I4_O)
                                                      0.038    16.014 r  muon_sorter_1/pt_ret_1331_RNIAL8NME/O
                         net (fo=16, routed)          0.241    16.255    muon_sorter_1/max_pt_13_3[4]
    SLICE_X124Y535       LUT3 (Prop_D6LUT_SLICEL_I2_O)
                                                      0.147    16.402 r  muon_sorter_1/sector_ret_400_RNO_0_lut6_2_o6/O
                         net (fo=1, routed)           0.330    16.732    muon_sorter_1/result_1_9[4]
    SLICE_X124Y532       LUT6 (Prop_B6LUT_SLICEL_I2_O)
                                                      0.100    16.832 r  muon_sorter_1/sector_ret_400_RNO_2/O
                         net (fo=1, routed)           0.058    16.890    muon_sorter_1/sector_2_1_0_1[0]
    SLICE_X124Y532       FDRE                                         r  muon_sorter_1/sector_ret_400/D
  -------------------------------------------------------------------    -------------------

                         (clock clk rise edge)       12.500    12.500 r  
    AV33                                              0.000    12.500 r  clk (IN)
                         net (fo=0)                   0.000    12.500    clk_ibuf_iso/I
    AV33                 INBUF (Prop_INBUF_HPIOB_M_PAD_O)
                                                      0.510    13.010 r  clk_ibuf_iso/INBUF_INST/O
                         net (fo=1, routed)           0.000    13.010    clk_ibuf_iso/OUT
    AV33                 IBUFCTRL (Prop_IBUFCTRL_HPIOB_M_I_O)
                                                      0.000    13.010 r  clk_ibuf_iso/IBUFCTRL_INST/O
                         net (fo=1, routed)           0.296    13.306    clk_ibuf_iso
    BUFGCE_X1Y224        BUFGCE (Prop_BUFCE_BUFGCE_I_O)
                                                      0.024    13.330 r  clk_ibuf/O
    X4Y9 (CLOCK_ROOT)    net (fo=4879, routed)        1.284    14.614    muon_sorter_1/clk_c
    SLICE_X124Y532       FDRE                                         r  muon_sorter_1/sector_ret_400/C
                         clock pessimism              0.326    14.940    
                         clock uncertainty           -0.035    14.905    
    SLICE_X124Y532       FDRE (Setup_BFF_SLICEL_C_D)
                                                      0.027    14.932    muon_sorter_1/sector_ret_400
  -------------------------------------------------------------------
                         required time                         14.932    
                         arrival time                         -16.890    
  -------------------------------------------------------------------
                         slack                                 -1.958    

Slack (VIOLATED) :        -1.958ns  (required time - arrival time)
  Source:                 muon_sorter_1/pt_ret_1861/C
                            (rising edge-triggered cell FDRE clocked by clk  {rise@0.000ns fall@6.250ns period=12.500ns})
  Destination:            muon_sorter_1/sector_ret_400/D
                            (rising edge-triggered cell FDRE clocked by clk  {rise@0.000ns fall@6.250ns period=12.500ns})
  Path Group:             clk
  Path Type:              Setup (Max at Slow Process Corner)
  Requirement:            12.500ns  (clk rise@12.500ns - clk rise@0.000ns)
  Data Path Delay:        14.423ns  (logic 3.537ns (24.523%)  route 10.886ns (75.477%))
  Logic Levels:           33  (LUT3=4 LUT4=3 LUT5=9 LUT6=17)
  Clock Path Skew:        -0.027ns (DCD - SCD + CPR)
    Destination Clock Delay (DCD):    2.114ns = ( 14.614 - 12.500 ) 
    Source Clock Delay      (SCD):    2.467ns
    Clock Pessimism Removal (CPR):    0.326ns
  Clock Uncertainty:      0.035ns  ((TSJ^2 + TIJ^2)^1/2 + DJ) / 2 + PE
    Total System Jitter     (TSJ):    0.071ns
    Total Input Jitter      (TIJ):    0.000ns
    Discrete Jitter          (DJ):    0.000ns
    Phase Error              (PE):    0.000ns
  Clock Net Delay (Source):      1.326ns (routing 0.185ns, distribution 1.141ns)
  Clock Net Delay (Destination): 1.284ns (routing 0.170ns, distribution 1.114ns)

    Location             Delay type                Incr(ns)  Path(ns)    Netlist Resource(s)
  -------------------------------------------------------------------    -------------------
                         (clock clk rise edge)        0.000     0.000 r  
    AV33                                              0.000     0.000 r  clk (IN)
                         net (fo=0)                   0.000     0.000    clk_ibuf_iso/I
    AV33                 INBUF (Prop_INBUF_HPIOB_M_PAD_O)
                                                      0.779     0.779 r  clk_ibuf_iso/INBUF_INST/O
                         net (fo=1, routed)           0.000     0.779    clk_ibuf_iso/OUT
    AV33                 IBUFCTRL (Prop_IBUFCTRL_HPIOB_M_I_O)
                                                      0.000     0.779 r  clk_ibuf_iso/IBUFCTRL_INST/O
                         net (fo=1, routed)           0.334     1.113    clk_ibuf_iso
    BUFGCE_X1Y224        BUFGCE (Prop_BUFCE_BUFGCE_I_O)
                                                      0.028     1.141 r  clk_ibuf/O
    X4Y9 (CLOCK_ROOT)    net (fo=4879, routed)        1.326     2.467    muon_sorter_1/clk_c
    SLICE_X131Y570       FDRE                                         r  muon_sorter_1/pt_ret_1861/C
  -------------------------------------------------------------------    -------------------
    SLICE_X131Y570       FDRE (Prop_GFF_SLICEM_C_Q)
                                                      0.095     2.562 r  muon_sorter_1/pt_ret_1861/Q
                         net (fo=10, routed)          0.655     3.217    muon_sorter_1/pt_ret_1826_RNICC2D5/I0
    SLICE_X128Y569       LUT6 (Prop_G6LUT_SLICEL_I0_O)
                                                      0.178     3.395 r  muon_sorter_1/pt_ret_1826_RNICC2D5/LUT6/O
                         net (fo=15, routed)          0.542     3.937    muon_sorter_1/max_pt_2_3[7]
    SLICE_X130Y566       LUT3 (Prop_B5LUT_SLICEL_I2_O)
                                                      0.173     4.110 r  muon_sorter_1/pt_ret_1392_RNIF2R77_lut6_2_o5/O
                         net (fo=2, routed)           0.145     4.255    muon_sorter_1/pt_compare_3_7_0_a2_0[2]
    SLICE_X131Y566       LUT6 (Prop_G6LUT_SLICEM_I2_O)
                                                      0.116     4.371 r  muon_sorter_1/pt_ret_1657_RNI2J7841/O
                         net (fo=2, routed)           0.175     4.546    muon_sorter_1/max_pt_3_2[2]
    SLICE_X128Y566       LUT4 (Prop_E6LUT_SLICEL_I3_O)
                                                      0.064     4.610 r  muon_sorter_1/pt_ret_1228_RNIA07P03/O
                         net (fo=15, routed)          0.401     5.011    muon_sorter_1/max_pt_3_3[2]
    SLICE_X125Y567       LUT5 (Prop_F6LUT_SLICEM_I4_O)
                                                      0.038     5.049 r  muon_sorter_1/pt_ret_1227_RNISK6A2F/O
                         net (fo=4, routed)           0.561     5.610    muon_sorter_1/pt_ret_1227_RNITPH5K33/I3
    SLICE_X124Y563       LUT5 (Prop_D5LUT_SLICEL_I3_O)
                                                      0.118     5.728 f  muon_sorter_1/pt_ret_1227_RNITPH5K33/LUT5/O
                         net (fo=1, routed)           0.191     5.919    muon_sorter_1/max_pt_4_0_x[11]
    SLICE_X124Y563       LUT6 (Prop_H6LUT_SLICEL_I5_O)
                                                      0.040     5.959 f  muon_sorter_1/pt_ret_1495_RNICB4O8P1/O
                         net (fo=14, routed)          0.310     6.269    muon_sorter_1/max_pt_4_3[11]
    SLICE_X125Y561       LUT6 (Prop_G6LUT_SLICEM_I5_O)
                                                      0.064     6.333 f  muon_sorter_1/pt_ret_1345_RNI8610TD/O
                         net (fo=3, routed)           0.486     6.819    muon_sorter_1/N_2116
    SLICE_X128Y561       LUT6 (Prop_C6LUT_SLICEL_I3_O)
                                                      0.063     6.882 r  muon_sorter_1/pt_ret_1347_RNIG1BNUC1/O
                         net (fo=11, routed)          0.209     7.091    muon_sorter_1/max_pt_5_0[15]
    SLICE_X130Y560       LUT5 (Prop_F6LUT_SLICEL_I4_O)
                                                      0.148     7.239 r  muon_sorter_1/pt_ret_1412_RNID6EIH81/O
                         net (fo=3, routed)           0.179     7.418    muon_sorter_1/max_pt_5_x_0[15]
    SLICE_X131Y559       LUT6 (Prop_H6LUT_SLICEM_I5_O)
                                                      0.151     7.569 f  muon_sorter_1/pt_ret_1412_RNINK29GF/O
                         net (fo=5, routed)           0.315     7.884    muon_sorter_1/pt_compare_14_15_27_0_a2[10]
    SLICE_X130Y558       LUT5 (Prop_B6LUT_SLICEL_I4_O)
                                                      0.040     7.924 r  muon_sorter_1/pt_ret_1412_RNIPVT51N1/O
                         net (fo=13, routed)          0.240     8.164    muon_sorter_1/max_pt_6_2[15]
    SLICE_X131Y558       LUT6 (Prop_G6LUT_SLICEM_I1_O)
                                                      0.148     8.312 f  muon_sorter_1/pt_ret_1412_RNIHGKLCF2/O
                         net (fo=4, routed)           0.556     8.868    muon_sorter_1/N_1888
    SLICE_X132Y553       LUT3 (Prop_A6LUT_SLICEL_I1_O)
                                                      0.064     8.932 r  muon_sorter_1/pt_ret_1412_RNIRNRE3E1/O
                         net (fo=1, routed)           0.187     9.119    muon_sorter_1/max_pt_7_3_N_2L1
    SLICE_X130Y553       LUT6 (Prop_H6LUT_SLICEL_I4_O)
                                                      0.064     9.183 r  muon_sorter_1/pt_ret_1276_RNIEQR0A81/O
                         net (fo=13, routed)          0.200     9.383    muon_sorter_1/max_pt_7_3[15]
    SLICE_X130Y552       LUT6 (Prop_D6LUT_SLICEL_I5_O)
                                                      0.039     9.422 f  muon_sorter_1/pt_ret_1493_RNIK1VNVG3/O
                         net (fo=4, routed)           0.750    10.172    muon_sorter_1/pt_compare_8_15_0_a2[3]
    SLICE_X129Y549       LUT5 (Prop_F6LUT_SLICEM_I3_O)
                                                      0.113    10.285 r  muon_sorter_1/pt_ret_1394_RNIABE7N02/O
                         net (fo=6, routed)           0.158    10.443    muon_sorter_1/max_pt_8_1[15]
    SLICE_X130Y548       LUT6 (Prop_G6LUT_SLICEL_I4_O)
                                                      0.114    10.557 r  muon_sorter_1/pt_ret_1412_RNIO6E8HO3/O
                         net (fo=31, routed)          0.258    10.815    muon_sorter_1/max_pt_8[15]
    SLICE_X132Y547       LUT5 (Prop_F6LUT_SLICEL_I4_O)
                                                      0.148    10.963 f  muon_sorter_1/pt_ret_1412_RNICVTEV92/O
                         net (fo=6, routed)           0.373    11.336    muon_sorter_1/pt_compare_9_15_0_a2[10]
    SLICE_X128Y544       LUT4 (Prop_A6LUT_SLICEL_I1_O)
                                                      0.100    11.436 r  muon_sorter_1/pt_ret_1861_RNIBECF4A/O
                         net (fo=17, routed)          0.339    11.775    muon_sorter_1/max_pt_9_2[15]
    SLICE_X129Y542       LUT6 (Prop_G6LUT_SLICEM_I1_O)
                                                      0.179    11.954 r  muon_sorter_1/pt_ret_1861_RNI3DC6LJ3/O
                         net (fo=8, routed)           0.281    12.235    muon_sorter_1/pt_ret_1861_RNIAEAISS/I1
    SLICE_X131Y541       LUT5 (Prop_H5LUT_SLICEM_I1_O)
                                                      0.167    12.402 r  muon_sorter_1/pt_ret_1861_RNIAEAISS/LUT5/O
                         net (fo=1, routed)           0.353    12.755    muon_sorter_1/max_pt_10_0_x[7]
    SLICE_X130Y541       LUT6 (Prop_F6LUT_SLICEL_I5_O)
                                                      0.039    12.794 r  muon_sorter_1/pt_ret_1861_RNIQU1A8K1/O
                         net (fo=14, routed)          0.316    13.110    muon_sorter_1/max_pt_10_3[7]
    SLICE_X127Y541       LUT6 (Prop_G6LUT_SLICEM_I3_O)
                                                      0.100    13.210 r  muon_sorter_1/pt_ret_1861_RNI99KT5N/O
                         net (fo=6, routed)           0.392    13.602    muon_sorter_1/N_1282
    SLICE_X130Y538       LUT3 (Prop_D5LUT_SLICEL_I0_O)
                                                      0.136    13.738 r  muon_sorter_1/pt_ret_1861_RNIOJLPRP2_lut6_2_o5/O
                         net (fo=1, routed)           0.201    13.939    muon_sorter_1/max_pt_11_2_x[7]
    SLICE_X130Y538       LUT6 (Prop_H6LUT_SLICEL_I4_O)
                                                      0.179    14.118 r  muon_sorter_1/pt_ret_1861_RNIKVGH3I3/O
                         net (fo=17, routed)          0.434    14.552    muon_sorter_1/max_pt_11_3[7]
    SLICE_X133Y536       LUT6 (Prop_B6LUT_SLICEM_I3_O)
                                                      0.039    14.591 f  muon_sorter_1/pt_ret_1399_RNIUKPNM91/O
                         net (fo=6, routed)           0.382    14.973    muon_sorter_1/pt_compare_12_11_0_a2[7]
    SLICE_X131Y534       LUT4 (Prop_D6LUT_SLICEM_I3_O)
                                                      0.174    15.147 r  muon_sorter_1/pt_ret_1399_RNI2N6K5I2_lut6_2_o6/O
                         net (fo=6, routed)           0.171    15.318    muon_sorter_1/pt_ret_1399_RNI8FMO4Q1/I3
    SLICE_X131Y534       LUT5 (Prop_C5LUT_SLICEM_I3_O)
                                                      0.121    15.439 r  muon_sorter_1/pt_ret_1399_RNI8FMO4Q1/LUT5/O
                         net (fo=22, routed)          0.339    15.778    muon_sorter_1/max_pt_12[11]
    SLICE_X126Y534       LUT5 (Prop_B6LUT_SLICEL_I4_O)
                                                      0.040    15.818 r  muon_sorter_1/pt_ret_1861_RNI900LI43/O
                         net (fo=2, routed)           0.158    15.976    muon_sorter_1/max_pt_13_0_2[4]
    SLICE_X126Y534       LUT6 (Prop_G6LUT_SLICEL_I4_O)
                                                      0.038    16.014 r  muon_sorter_1/pt_ret_1331_RNIAL8NME/O
                         net (fo=16, routed)          0.241    16.255    muon_sorter_1/max_pt_13_3[4]
    SLICE_X124Y535       LUT3 (Prop_D6LUT_SLICEL_I2_O)
                                                      0.147    16.402 r  muon_sorter_1/sector_ret_400_RNO_0_lut6_2_o6/O
                         net (fo=1, routed)           0.330    16.732    muon_sorter_1/result_1_9[4]
    SLICE_X124Y532       LUT6 (Prop_B6LUT_SLICEL_I2_O)
                                                      0.100    16.832 r  muon_sorter_1/sector_ret_400_RNO_2/O
                         net (fo=1, routed)           0.058    16.890    muon_sorter_1/sector_2_1_0_1[0]
    SLICE_X124Y532       FDRE                                         r  muon_sorter_1/sector_ret_400/D
  -------------------------------------------------------------------    -------------------

                         (clock clk rise edge)       12.500    12.500 r  
    AV33                                              0.000    12.500 r  clk (IN)
                         net (fo=0)                   0.000    12.500    clk_ibuf_iso/I
    AV33                 INBUF (Prop_INBUF_HPIOB_M_PAD_O)
                                                      0.510    13.010 r  clk_ibuf_iso/INBUF_INST/O
                         net (fo=1, routed)           0.000    13.010    clk_ibuf_iso/OUT
    AV33                 IBUFCTRL (Prop_IBUFCTRL_HPIOB_M_I_O)
                                                      0.000    13.010 r  clk_ibuf_iso/IBUFCTRL_INST/O
                         net (fo=1, routed)           0.296    13.306    clk_ibuf_iso
    BUFGCE_X1Y224        BUFGCE (Prop_BUFCE_BUFGCE_I_O)
                                                      0.024    13.330 r  clk_ibuf/O
    X4Y9 (CLOCK_ROOT)    net (fo=4879, routed)        1.284    14.614    muon_sorter_1/clk_c
    SLICE_X124Y532       FDRE                                         r  muon_sorter_1/sector_ret_400/C
                         clock pessimism              0.326    14.940    
                         clock uncertainty           -0.035    14.905    
    SLICE_X124Y532       FDRE (Setup_BFF_SLICEL_C_D)
                                                      0.027    14.932    muon_sorter_1/sector_ret_400
  -------------------------------------------------------------------
                         required time                         14.932    
                         arrival time                         -16.890    
  -------------------------------------------------------------------
                         slack                                 -1.958    

Slack (VIOLATED) :        -1.958ns  (required time - arrival time)
  Source:                 muon_sorter_1/pt_ret_1861/C
                            (rising edge-triggered cell FDRE clocked by clk  {rise@0.000ns fall@6.250ns period=12.500ns})
  Destination:            muon_sorter_1/sector_ret_400/D
                            (rising edge-triggered cell FDRE clocked by clk  {rise@0.000ns fall@6.250ns period=12.500ns})
  Path Group:             clk
  Path Type:              Setup (Max at Slow Process Corner)
  Requirement:            12.500ns  (clk rise@12.500ns - clk rise@0.000ns)
  Data Path Delay:        14.423ns  (logic 3.537ns (24.523%)  route 10.886ns (75.477%))
  Logic Levels:           33  (LUT3=4 LUT4=3 LUT5=9 LUT6=17)
  Clock Path Skew:        -0.027ns (DCD - SCD + CPR)
    Destination Clock Delay (DCD):    2.114ns = ( 14.614 - 12.500 ) 
    Source Clock Delay      (SCD):    2.467ns
    Clock Pessimism Removal (CPR):    0.326ns
  Clock Uncertainty:      0.035ns  ((TSJ^2 + TIJ^2)^1/2 + DJ) / 2 + PE
    Total System Jitter     (TSJ):    0.071ns
    Total Input Jitter      (TIJ):    0.000ns
    Discrete Jitter          (DJ):    0.000ns
    Phase Error              (PE):    0.000ns
  Clock Net Delay (Source):      1.326ns (routing 0.185ns, distribution 1.141ns)
  Clock Net Delay (Destination): 1.284ns (routing 0.170ns, distribution 1.114ns)

    Location             Delay type                Incr(ns)  Path(ns)    Netlist Resource(s)
  -------------------------------------------------------------------    -------------------
                         (clock clk rise edge)        0.000     0.000 r  
    AV33                                              0.000     0.000 r  clk (IN)
                         net (fo=0)                   0.000     0.000    clk_ibuf_iso/I
    AV33                 INBUF (Prop_INBUF_HPIOB_M_PAD_O)
                                                      0.779     0.779 r  clk_ibuf_iso/INBUF_INST/O
                         net (fo=1, routed)           0.000     0.779    clk_ibuf_iso/OUT
    AV33                 IBUFCTRL (Prop_IBUFCTRL_HPIOB_M_I_O)
                                                      0.000     0.779 r  clk_ibuf_iso/IBUFCTRL_INST/O
                         net (fo=1, routed)           0.334     1.113    clk_ibuf_iso
    BUFGCE_X1Y224        BUFGCE (Prop_BUFCE_BUFGCE_I_O)
                                                      0.028     1.141 r  clk_ibuf/O
    X4Y9 (CLOCK_ROOT)    net (fo=4879, routed)        1.326     2.467    muon_sorter_1/clk_c
    SLICE_X131Y570       FDRE                                         r  muon_sorter_1/pt_ret_1861/C
  -------------------------------------------------------------------    -------------------
    SLICE_X131Y570       FDRE (Prop_GFF_SLICEM_C_Q)
                                                      0.095     2.562 r  muon_sorter_1/pt_ret_1861/Q
                         net (fo=10, routed)          0.655     3.217    muon_sorter_1/pt_ret_1826_RNICC2D5/I0
    SLICE_X128Y569       LUT6 (Prop_G6LUT_SLICEL_I0_O)
                                                      0.178     3.395 r  muon_sorter_1/pt_ret_1826_RNICC2D5/LUT6/O
                         net (fo=15, routed)          0.542     3.937    muon_sorter_1/max_pt_2_3[7]
    SLICE_X130Y566       LUT3 (Prop_B5LUT_SLICEL_I2_O)
                                                      0.173     4.110 r  muon_sorter_1/pt_ret_1392_RNIF2R77_lut6_2_o5/O
                         net (fo=2, routed)           0.145     4.255    muon_sorter_1/pt_compare_3_7_0_a2_0[2]
    SLICE_X131Y566       LUT6 (Prop_G6LUT_SLICEM_I2_O)
                                                      0.116     4.371 r  muon_sorter_1/pt_ret_1657_RNI2J7841/O
                         net (fo=2, routed)           0.175     4.546    muon_sorter_1/max_pt_3_2[2]
    SLICE_X128Y566       LUT4 (Prop_E6LUT_SLICEL_I3_O)
                                                      0.064     4.610 r  muon_sorter_1/pt_ret_1228_RNIA07P03/O
                         net (fo=15, routed)          0.401     5.011    muon_sorter_1/max_pt_3_3[2]
    SLICE_X125Y567       LUT5 (Prop_F6LUT_SLICEM_I4_O)
                                                      0.038     5.049 f  muon_sorter_1/pt_ret_1227_RNISK6A2F/O
                         net (fo=4, routed)           0.561     5.610    muon_sorter_1/pt_ret_1227_RNITPH5K33/I3
    SLICE_X124Y563       LUT5 (Prop_D5LUT_SLICEL_I3_O)
                                                      0.118     5.728 r  muon_sorter_1/pt_ret_1227_RNITPH5K33/LUT5/O
                         net (fo=1, routed)           0.191     5.919    muon_sorter_1/max_pt_4_0_x[11]
    SLICE_X124Y563       LUT6 (Prop_H6LUT_SLICEL_I5_O)
                                                      0.040     5.959 r  muon_sorter_1/pt_ret_1495_RNICB4O8P1/O
                         net (fo=14, routed)          0.310     6.269    muon_sorter_1/max_pt_4_3[11]
    SLICE_X125Y561       LUT6 (Prop_G6LUT_SLICEM_I5_O)
                                                      0.064     6.333 f  muon_sorter_1/pt_ret_1345_RNI8610TD/O
                         net (fo=3, routed)           0.486     6.819    muon_sorter_1/N_2116
    SLICE_X128Y561       LUT6 (Prop_C6LUT_SLICEL_I3_O)
                                                      0.063     6.882 r  muon_sorter_1/pt_ret_1347_RNIG1BNUC1/O
                         net (fo=11, routed)          0.209     7.091    muon_sorter_1/max_pt_5_0[15]
    SLICE_X130Y560       LUT5 (Prop_F6LUT_SLICEL_I4_O)
                                                      0.148     7.239 r  muon_sorter_1/pt_ret_1412_RNID6EIH81/O
                         net (fo=3, routed)           0.179     7.418    muon_sorter_1/max_pt_5_x_0[15]
    SLICE_X131Y559       LUT6 (Prop_H6LUT_SLICEM_I5_O)
                                                      0.151     7.569 f  muon_sorter_1/pt_ret_1412_RNINK29GF/O
                         net (fo=5, routed)           0.315     7.884    muon_sorter_1/pt_compare_14_15_27_0_a2[10]
    SLICE_X130Y558       LUT5 (Prop_B6LUT_SLICEL_I4_O)
                                                      0.040     7.924 r  muon_sorter_1/pt_ret_1412_RNIPVT51N1/O
                         net (fo=13, routed)          0.240     8.164    muon_sorter_1/max_pt_6_2[15]
    SLICE_X131Y558       LUT6 (Prop_G6LUT_SLICEM_I1_O)
                                                      0.148     8.312 f  muon_sorter_1/pt_ret_1412_RNIHGKLCF2/O
                         net (fo=4, routed)           0.556     8.868    muon_sorter_1/N_1888
    SLICE_X132Y553       LUT3 (Prop_A6LUT_SLICEL_I1_O)
                                                      0.064     8.932 r  muon_sorter_1/pt_ret_1412_RNIRNRE3E1/O
                         net (fo=1, routed)           0.187     9.119    muon_sorter_1/max_pt_7_3_N_2L1
    SLICE_X130Y553       LUT6 (Prop_H6LUT_SLICEL_I4_O)
                                                      0.064     9.183 r  muon_sorter_1/pt_ret_1276_RNIEQR0A81/O
                         net (fo=13, routed)          0.200     9.383    muon_sorter_1/max_pt_7_3[15]
    SLICE_X130Y552       LUT6 (Prop_D6LUT_SLICEL_I5_O)
                                                      0.039     9.422 f  muon_sorter_1/pt_ret_1493_RNIK1VNVG3/O
                         net (fo=4, routed)           0.750    10.172    muon_sorter_1/pt_compare_8_15_0_a2[3]
    SLICE_X129Y549       LUT5 (Prop_F6LUT_SLICEM_I3_O)
                                                      0.113    10.285 r  muon_sorter_1/pt_ret_1394_RNIABE7N02/O
                         net (fo=6, routed)           0.158    10.443    muon_sorter_1/max_pt_8_1[15]
    SLICE_X130Y548       LUT6 (Prop_G6LUT_SLICEL_I4_O)
                                                      0.114    10.557 r  muon_sorter_1/pt_ret_1412_RNIO6E8HO3/O
                         net (fo=31, routed)          0.258    10.815    muon_sorter_1/max_pt_8[15]
    SLICE_X132Y547       LUT5 (Prop_F6LUT_SLICEL_I4_O)
                                                      0.148    10.963 f  muon_sorter_1/pt_ret_1412_RNICVTEV92/O
                         net (fo=6, routed)           0.373    11.336    muon_sorter_1/pt_compare_9_15_0_a2[10]
    SLICE_X128Y544       LUT4 (Prop_A6LUT_SLICEL_I1_O)
                                                      0.100    11.436 r  muon_sorter_1/pt_ret_1861_RNIBECF4A/O
                         net (fo=17, routed)          0.339    11.775    muon_sorter_1/max_pt_9_2[15]
    SLICE_X129Y542       LUT6 (Prop_G6LUT_SLICEM_I1_O)
                                                      0.179    11.954 r  muon_sorter_1/pt_ret_1861_RNI3DC6LJ3/O
                         net (fo=8, routed)           0.281    12.235    muon_sorter_1/pt_ret_1861_RNIAEAISS/I1
    SLICE_X131Y541       LUT5 (Prop_H5LUT_SLICEM_I1_O)
                                                      0.167    12.402 r  muon_sorter_1/pt_ret_1861_RNIAEAISS/LUT5/O
                         net (fo=1, routed)           0.353    12.755    muon_sorter_1/max_pt_10_0_x[7]
    SLICE_X130Y541       LUT6 (Prop_F6LUT_SLICEL_I5_O)
                                                      0.039    12.794 r  muon_sorter_1/pt_ret_1861_RNIQU1A8K1/O
                         net (fo=14, routed)          0.316    13.110    muon_sorter_1/max_pt_10_3[7]
    SLICE_X127Y541       LUT6 (Prop_G6LUT_SLICEM_I3_O)
                                                      0.100    13.210 f  muon_sorter_1/pt_ret_1861_RNI99KT5N/O
                         net (fo=6, routed)           0.392    13.602    muon_sorter_1/N_1282
    SLICE_X130Y538       LUT3 (Prop_D5LUT_SLICEL_I0_O)
                                                      0.136    13.738 f  muon_sorter_1/pt_ret_1861_RNIOJLPRP2_lut6_2_o5/O
                         net (fo=1, routed)           0.201    13.939    muon_sorter_1/max_pt_11_2_x[7]
    SLICE_X130Y538       LUT6 (Prop_H6LUT_SLICEL_I4_O)
                                                      0.179    14.118 f  muon_sorter_1/pt_ret_1861_RNIKVGH3I3/O
                         net (fo=17, routed)          0.434    14.552    muon_sorter_1/max_pt_11_3[7]
    SLICE_X133Y536       LUT6 (Prop_B6LUT_SLICEM_I3_O)
                                                      0.039    14.591 f  muon_sorter_1/pt_ret_1399_RNIUKPNM91/O
                         net (fo=6, routed)           0.382    14.973    muon_sorter_1/pt_compare_12_11_0_a2[7]
    SLICE_X131Y534       LUT4 (Prop_D6LUT_SLICEM_I3_O)
                                                      0.174    15.147 r  muon_sorter_1/pt_ret_1399_RNI2N6K5I2_lut6_2_o6/O
                         net (fo=6, routed)           0.171    15.318    muon_sorter_1/pt_ret_1399_RNI8FMO4Q1/I3
    SLICE_X131Y534       LUT5 (Prop_C5LUT_SLICEM_I3_O)
                                                      0.121    15.439 r  muon_sorter_1/pt_ret_1399_RNI8FMO4Q1/LUT5/O
                         net (fo=22, routed)          0.339    15.778    muon_sorter_1/max_pt_12[11]
    SLICE_X126Y534       LUT5 (Prop_B6LUT_SLICEL_I4_O)
                                                      0.040    15.818 r  muon_sorter_1/pt_ret_1861_RNI900LI43/O
                         net (fo=2, routed)           0.158    15.976    muon_sorter_1/max_pt_13_0_2[4]
    SLICE_X126Y534       LUT6 (Prop_G6LUT_SLICEL_I4_O)
                                                      0.038    16.014 r  muon_sorter_1/pt_ret_1331_RNIAL8NME/O
                         net (fo=16, routed)          0.241    16.255    muon_sorter_1/max_pt_13_3[4]
    SLICE_X124Y535       LUT3 (Prop_D6LUT_SLICEL_I2_O)
                                                      0.147    16.402 r  muon_sorter_1/sector_ret_400_RNO_0_lut6_2_o6/O
                         net (fo=1, routed)           0.330    16.732    muon_sorter_1/result_1_9[4]
    SLICE_X124Y532       LUT6 (Prop_B6LUT_SLICEL_I2_O)
                                                      0.100    16.832 r  muon_sorter_1/sector_ret_400_RNO_2/O
                         net (fo=1, routed)           0.058    16.890    muon_sorter_1/sector_2_1_0_1[0]
    SLICE_X124Y532       FDRE                                         r  muon_sorter_1/sector_ret_400/D
  -------------------------------------------------------------------    -------------------

                         (clock clk rise edge)       12.500    12.500 r  
    AV33                                              0.000    12.500 r  clk (IN)
                         net (fo=0)                   0.000    12.500    clk_ibuf_iso/I
    AV33                 INBUF (Prop_INBUF_HPIOB_M_PAD_O)
                                                      0.510    13.010 r  clk_ibuf_iso/INBUF_INST/O
                         net (fo=1, routed)           0.000    13.010    clk_ibuf_iso/OUT
    AV33                 IBUFCTRL (Prop_IBUFCTRL_HPIOB_M_I_O)
                                                      0.000    13.010 r  clk_ibuf_iso/IBUFCTRL_INST/O
                         net (fo=1, routed)           0.296    13.306    clk_ibuf_iso
    BUFGCE_X1Y224        BUFGCE (Prop_BUFCE_BUFGCE_I_O)
                                                      0.024    13.330 r  clk_ibuf/O
    X4Y9 (CLOCK_ROOT)    net (fo=4879, routed)        1.284    14.614    muon_sorter_1/clk_c
    SLICE_X124Y532       FDRE                                         r  muon_sorter_1/sector_ret_400/C
                         clock pessimism              0.326    14.940    
                         clock uncertainty           -0.035    14.905    
    SLICE_X124Y532       FDRE (Setup_BFF_SLICEL_C_D)
                                                      0.027    14.932    muon_sorter_1/sector_ret_400
  -------------------------------------------------------------------
                         required time                         14.932    
                         arrival time                         -16.890    
  -------------------------------------------------------------------
                         slack                                 -1.958    

Slack (VIOLATED) :        -1.958ns  (required time - arrival time)
  Source:                 muon_sorter_1/pt_ret_1861/C
                            (rising edge-triggered cell FDRE clocked by clk  {rise@0.000ns fall@6.250ns period=12.500ns})
  Destination:            muon_sorter_1/sector_ret_400/D
                            (rising edge-triggered cell FDRE clocked by clk  {rise@0.000ns fall@6.250ns period=12.500ns})
  Path Group:             clk
  Path Type:              Setup (Max at Slow Process Corner)
  Requirement:            12.500ns  (clk rise@12.500ns - clk rise@0.000ns)
  Data Path Delay:        14.423ns  (logic 3.537ns (24.523%)  route 10.886ns (75.477%))
  Logic Levels:           33  (LUT3=4 LUT4=3 LUT5=9 LUT6=17)
  Clock Path Skew:        -0.027ns (DCD - SCD + CPR)
    Destination Clock Delay (DCD):    2.114ns = ( 14.614 - 12.500 ) 
    Source Clock Delay      (SCD):    2.467ns
    Clock Pessimism Removal (CPR):    0.326ns
  Clock Uncertainty:      0.035ns  ((TSJ^2 + TIJ^2)^1/2 + DJ) / 2 + PE
    Total System Jitter     (TSJ):    0.071ns
    Total Input Jitter      (TIJ):    0.000ns
    Discrete Jitter          (DJ):    0.000ns
    Phase Error              (PE):    0.000ns
  Clock Net Delay (Source):      1.326ns (routing 0.185ns, distribution 1.141ns)
  Clock Net Delay (Destination): 1.284ns (routing 0.170ns, distribution 1.114ns)

    Location             Delay type                Incr(ns)  Path(ns)    Netlist Resource(s)
  -------------------------------------------------------------------    -------------------
                         (clock clk rise edge)        0.000     0.000 r  
    AV33                                              0.000     0.000 r  clk (IN)
                         net (fo=0)                   0.000     0.000    clk_ibuf_iso/I
    AV33                 INBUF (Prop_INBUF_HPIOB_M_PAD_O)
                                                      0.779     0.779 r  clk_ibuf_iso/INBUF_INST/O
                         net (fo=1, routed)           0.000     0.779    clk_ibuf_iso/OUT
    AV33                 IBUFCTRL (Prop_IBUFCTRL_HPIOB_M_I_O)
                                                      0.000     0.779 r  clk_ibuf_iso/IBUFCTRL_INST/O
                         net (fo=1, routed)           0.334     1.113    clk_ibuf_iso
    BUFGCE_X1Y224        BUFGCE (Prop_BUFCE_BUFGCE_I_O)
                                                      0.028     1.141 r  clk_ibuf/O
    X4Y9 (CLOCK_ROOT)    net (fo=4879, routed)        1.326     2.467    muon_sorter_1/clk_c
    SLICE_X131Y570       FDRE                                         r  muon_sorter_1/pt_ret_1861/C
  -------------------------------------------------------------------    -------------------
    SLICE_X131Y570       FDRE (Prop_GFF_SLICEM_C_Q)
                                                      0.095     2.562 r  muon_sorter_1/pt_ret_1861/Q
                         net (fo=10, routed)          0.655     3.217    muon_sorter_1/pt_ret_1826_RNICC2D5/I0
    SLICE_X128Y569       LUT6 (Prop_G6LUT_SLICEL_I0_O)
                                                      0.178     3.395 r  muon_sorter_1/pt_ret_1826_RNICC2D5/LUT6/O
                         net (fo=15, routed)          0.542     3.937    muon_sorter_1/max_pt_2_3[7]
    SLICE_X130Y566       LUT3 (Prop_B5LUT_SLICEL_I2_O)
                                                      0.173     4.110 r  muon_sorter_1/pt_ret_1392_RNIF2R77_lut6_2_o5/O
                         net (fo=2, routed)           0.145     4.255    muon_sorter_1/pt_compare_3_7_0_a2_0[2]
    SLICE_X131Y566       LUT6 (Prop_G6LUT_SLICEM_I2_O)
                                                      0.116     4.371 r  muon_sorter_1/pt_ret_1657_RNI2J7841/O
                         net (fo=2, routed)           0.175     4.546    muon_sorter_1/max_pt_3_2[2]
    SLICE_X128Y566       LUT4 (Prop_E6LUT_SLICEL_I3_O)
                                                      0.064     4.610 r  muon_sorter_1/pt_ret_1228_RNIA07P03/O
                         net (fo=15, routed)          0.401     5.011    muon_sorter_1/max_pt_3_3[2]
    SLICE_X125Y567       LUT5 (Prop_F6LUT_SLICEM_I4_O)
                                                      0.038     5.049 r  muon_sorter_1/pt_ret_1227_RNISK6A2F/O
                         net (fo=4, routed)           0.561     5.610    muon_sorter_1/pt_ret_1227_RNITPH5K33/I3
    SLICE_X124Y563       LUT5 (Prop_D5LUT_SLICEL_I3_O)
                                                      0.118     5.728 f  muon_sorter_1/pt_ret_1227_RNITPH5K33/LUT5/O
                         net (fo=1, routed)           0.191     5.919    muon_sorter_1/max_pt_4_0_x[11]
    SLICE_X124Y563       LUT6 (Prop_H6LUT_SLICEL_I5_O)
                                                      0.040     5.959 f  muon_sorter_1/pt_ret_1495_RNICB4O8P1/O
                         net (fo=14, routed)          0.310     6.269    muon_sorter_1/max_pt_4_3[11]
    SLICE_X125Y561       LUT6 (Prop_G6LUT_SLICEM_I5_O)
                                                      0.064     6.333 f  muon_sorter_1/pt_ret_1345_RNI8610TD/O
                         net (fo=3, routed)           0.486     6.819    muon_sorter_1/N_2116
    SLICE_X128Y561       LUT6 (Prop_C6LUT_SLICEL_I3_O)
                                                      0.063     6.882 r  muon_sorter_1/pt_ret_1347_RNIG1BNUC1/O
                         net (fo=11, routed)          0.209     7.091    muon_sorter_1/max_pt_5_0[15]
    SLICE_X130Y560       LUT5 (Prop_F6LUT_SLICEL_I4_O)
                                                      0.148     7.239 r  muon_sorter_1/pt_ret_1412_RNID6EIH81/O
                         net (fo=3, routed)           0.179     7.418    muon_sorter_1/max_pt_5_x_0[15]
    SLICE_X131Y559       LUT6 (Prop_H6LUT_SLICEM_I5_O)
                                                      0.151     7.569 f  muon_sorter_1/pt_ret_1412_RNINK29GF/O
                         net (fo=5, routed)           0.315     7.884    muon_sorter_1/pt_compare_14_15_27_0_a2[10]
    SLICE_X130Y558       LUT5 (Prop_B6LUT_SLICEL_I4_O)
                                                      0.040     7.924 r  muon_sorter_1/pt_ret_1412_RNIPVT51N1/O
                         net (fo=13, routed)          0.240     8.164    muon_sorter_1/max_pt_6_2[15]
    SLICE_X131Y558       LUT6 (Prop_G6LUT_SLICEM_I1_O)
                                                      0.148     8.312 f  muon_sorter_1/pt_ret_1412_RNIHGKLCF2/O
                         net (fo=4, routed)           0.556     8.868    muon_sorter_1/N_1888
    SLICE_X132Y553       LUT3 (Prop_A6LUT_SLICEL_I1_O)
                                                      0.064     8.932 r  muon_sorter_1/pt_ret_1412_RNIRNRE3E1/O
                         net (fo=1, routed)           0.187     9.119    muon_sorter_1/max_pt_7_3_N_2L1
    SLICE_X130Y553       LUT6 (Prop_H6LUT_SLICEL_I4_O)
                                                      0.064     9.183 r  muon_sorter_1/pt_ret_1276_RNIEQR0A81/O
                         net (fo=13, routed)          0.200     9.383    muon_sorter_1/max_pt_7_3[15]
    SLICE_X130Y552       LUT6 (Prop_D6LUT_SLICEL_I5_O)
                                                      0.039     9.422 f  muon_sorter_1/pt_ret_1493_RNIK1VNVG3/O
                         net (fo=4, routed)           0.750    10.172    muon_sorter_1/pt_compare_8_15_0_a2[3]
    SLICE_X129Y549       LUT5 (Prop_F6LUT_SLICEM_I3_O)
                                                      0.113    10.285 r  muon_sorter_1/pt_ret_1394_RNIABE7N02/O
                         net (fo=6, routed)           0.158    10.443    muon_sorter_1/max_pt_8_1[15]
    SLICE_X130Y548       LUT6 (Prop_G6LUT_SLICEL_I4_O)
                                                      0.114    10.557 r  muon_sorter_1/pt_ret_1412_RNIO6E8HO3/O
                         net (fo=31, routed)          0.258    10.815    muon_sorter_1/max_pt_8[15]
    SLICE_X132Y547       LUT5 (Prop_F6LUT_SLICEL_I4_O)
                                                      0.148    10.963 f  muon_sorter_1/pt_ret_1412_RNICVTEV92/O
                         net (fo=6, routed)           0.373    11.336    muon_sorter_1/pt_compare_9_15_0_a2[10]
    SLICE_X128Y544       LUT4 (Prop_A6LUT_SLICEL_I1_O)
                                                      0.100    11.436 r  muon_sorter_1/pt_ret_1861_RNIBECF4A/O
                         net (fo=17, routed)          0.339    11.775    muon_sorter_1/max_pt_9_2[15]
    SLICE_X129Y542       LUT6 (Prop_G6LUT_SLICEM_I1_O)
                                                      0.179    11.954 r  muon_sorter_1/pt_ret_1861_RNI3DC6LJ3/O
                         net (fo=8, routed)           0.281    12.235    muon_sorter_1/pt_ret_1861_RNIAEAISS/I1
    SLICE_X131Y541       LUT5 (Prop_H5LUT_SLICEM_I1_O)
                                                      0.167    12.402 r  muon_sorter_1/pt_ret_1861_RNIAEAISS/LUT5/O
                         net (fo=1, routed)           0.353    12.755    muon_sorter_1/max_pt_10_0_x[7]
    SLICE_X130Y541       LUT6 (Prop_F6LUT_SLICEL_I5_O)
                                                      0.039    12.794 r  muon_sorter_1/pt_ret_1861_RNIQU1A8K1/O
                         net (fo=14, routed)          0.316    13.110    muon_sorter_1/max_pt_10_3[7]
    SLICE_X127Y541       LUT6 (Prop_G6LUT_SLICEM_I3_O)
                                                      0.100    13.210 f  muon_sorter_1/pt_ret_1861_RNI99KT5N/O
                         net (fo=6, routed)           0.392    13.602    muon_sorter_1/N_1282
    SLICE_X130Y538       LUT3 (Prop_D5LUT_SLICEL_I0_O)
                                                      0.136    13.738 f  muon_sorter_1/pt_ret_1861_RNIOJLPRP2_lut6_2_o5/O
                         net (fo=1, routed)           0.201    13.939    muon_sorter_1/max_pt_11_2_x[7]
    SLICE_X130Y538       LUT6 (Prop_H6LUT_SLICEL_I4_O)
                                                      0.179    14.118 f  muon_sorter_1/pt_ret_1861_RNIKVGH3I3/O
                         net (fo=17, routed)          0.434    14.552    muon_sorter_1/max_pt_11_3[7]
    SLICE_X133Y536       LUT6 (Prop_B6LUT_SLICEM_I3_O)
                                                      0.039    14.591 f  muon_sorter_1/pt_ret_1399_RNIUKPNM91/O
                         net (fo=6, routed)           0.382    14.973    muon_sorter_1/pt_compare_12_11_0_a2[7]
    SLICE_X131Y534       LUT4 (Prop_D6LUT_SLICEM_I3_O)
                                                      0.174    15.147 r  muon_sorter_1/pt_ret_1399_RNI2N6K5I2_lut6_2_o6/O
                         net (fo=6, routed)           0.171    15.318    muon_sorter_1/pt_ret_1399_RNI8FMO4Q1/I3
    SLICE_X131Y534       LUT5 (Prop_C5LUT_SLICEM_I3_O)
                                                      0.121    15.439 r  muon_sorter_1/pt_ret_1399_RNI8FMO4Q1/LUT5/O
                         net (fo=22, routed)          0.339    15.778    muon_sorter_1/max_pt_12[11]
    SLICE_X126Y534       LUT5 (Prop_B6LUT_SLICEL_I4_O)
                                                      0.040    15.818 r  muon_sorter_1/pt_ret_1861_RNI900LI43/O
                         net (fo=2, routed)           0.158    15.976    muon_sorter_1/max_pt_13_0_2[4]
    SLICE_X126Y534       LUT6 (Prop_G6LUT_SLICEL_I4_O)
                                                      0.038    16.014 r  muon_sorter_1/pt_ret_1331_RNIAL8NME/O
                         net (fo=16, routed)          0.241    16.255    muon_sorter_1/max_pt_13_3[4]
    SLICE_X124Y535       LUT3 (Prop_D6LUT_SLICEL_I2_O)
                                                      0.147    16.402 r  muon_sorter_1/sector_ret_400_RNO_0_lut6_2_o6/O
                         net (fo=1, routed)           0.330    16.732    muon_sorter_1/result_1_9[4]
    SLICE_X124Y532       LUT6 (Prop_B6LUT_SLICEL_I2_O)
                                                      0.100    16.832 r  muon_sorter_1/sector_ret_400_RNO_2/O
                         net (fo=1, routed)           0.058    16.890    muon_sorter_1/sector_2_1_0_1[0]
    SLICE_X124Y532       FDRE                                         r  muon_sorter_1/sector_ret_400/D
  -------------------------------------------------------------------    -------------------

                         (clock clk rise edge)       12.500    12.500 r  
    AV33                                              0.000    12.500 r  clk (IN)
                         net (fo=0)                   0.000    12.500    clk_ibuf_iso/I
    AV33                 INBUF (Prop_INBUF_HPIOB_M_PAD_O)
                                                      0.510    13.010 r  clk_ibuf_iso/INBUF_INST/O
                         net (fo=1, routed)           0.000    13.010    clk_ibuf_iso/OUT
    AV33                 IBUFCTRL (Prop_IBUFCTRL_HPIOB_M_I_O)
                                                      0.000    13.010 r  clk_ibuf_iso/IBUFCTRL_INST/O
                         net (fo=1, routed)           0.296    13.306    clk_ibuf_iso
    BUFGCE_X1Y224        BUFGCE (Prop_BUFCE_BUFGCE_I_O)
                                                      0.024    13.330 r  clk_ibuf/O
    X4Y9 (CLOCK_ROOT)    net (fo=4879, routed)        1.284    14.614    muon_sorter_1/clk_c
    SLICE_X124Y532       FDRE                                         r  muon_sorter_1/sector_ret_400/C
                         clock pessimism              0.326    14.940    
                         clock uncertainty           -0.035    14.905    
    SLICE_X124Y532       FDRE (Setup_BFF_SLICEL_C_D)
                                                      0.027    14.932    muon_sorter_1/sector_ret_400
  -------------------------------------------------------------------
                         required time                         14.932    
                         arrival time                         -16.890    
  -------------------------------------------------------------------
                         slack                                 -1.958    

Slack (VIOLATED) :        -1.958ns  (required time - arrival time)
  Source:                 muon_sorter_1/pt_ret_1861/C
                            (rising edge-triggered cell FDRE clocked by clk  {rise@0.000ns fall@6.250ns period=12.500ns})
  Destination:            muon_sorter_1/sector_ret_400/D
                            (rising edge-triggered cell FDRE clocked by clk  {rise@0.000ns fall@6.250ns period=12.500ns})
  Path Group:             clk
  Path Type:              Setup (Max at Slow Process Corner)
  Requirement:            12.500ns  (clk rise@12.500ns - clk rise@0.000ns)
  Data Path Delay:        14.423ns  (logic 3.537ns (24.523%)  route 10.886ns (75.477%))
  Logic Levels:           33  (LUT3=4 LUT4=3 LUT5=9 LUT6=17)
  Clock Path Skew:        -0.027ns (DCD - SCD + CPR)
    Destination Clock Delay (DCD):    2.114ns = ( 14.614 - 12.500 ) 
    Source Clock Delay      (SCD):    2.467ns
    Clock Pessimism Removal (CPR):    0.326ns
  Clock Uncertainty:      0.035ns  ((TSJ^2 + TIJ^2)^1/2 + DJ) / 2 + PE
    Total System Jitter     (TSJ):    0.071ns
    Total Input Jitter      (TIJ):    0.000ns
    Discrete Jitter          (DJ):    0.000ns
    Phase Error              (PE):    0.000ns
  Clock Net Delay (Source):      1.326ns (routing 0.185ns, distribution 1.141ns)
  Clock Net Delay (Destination): 1.284ns (routing 0.170ns, distribution 1.114ns)

    Location             Delay type                Incr(ns)  Path(ns)    Netlist Resource(s)
  -------------------------------------------------------------------    -------------------
                         (clock clk rise edge)        0.000     0.000 r  
    AV33                                              0.000     0.000 r  clk (IN)
                         net (fo=0)                   0.000     0.000    clk_ibuf_iso/I
    AV33                 INBUF (Prop_INBUF_HPIOB_M_PAD_O)
                                                      0.779     0.779 r  clk_ibuf_iso/INBUF_INST/O
                         net (fo=1, routed)           0.000     0.779    clk_ibuf_iso/OUT
    AV33                 IBUFCTRL (Prop_IBUFCTRL_HPIOB_M_I_O)
                                                      0.000     0.779 r  clk_ibuf_iso/IBUFCTRL_INST/O
                         net (fo=1, routed)           0.334     1.113    clk_ibuf_iso
    BUFGCE_X1Y224        BUFGCE (Prop_BUFCE_BUFGCE_I_O)
                                                      0.028     1.141 r  clk_ibuf/O
    X4Y9 (CLOCK_ROOT)    net (fo=4879, routed)        1.326     2.467    muon_sorter_1/clk_c
    SLICE_X131Y570       FDRE                                         r  muon_sorter_1/pt_ret_1861/C
  -------------------------------------------------------------------    -------------------
    SLICE_X131Y570       FDRE (Prop_GFF_SLICEM_C_Q)
                                                      0.095     2.562 r  muon_sorter_1/pt_ret_1861/Q
                         net (fo=10, routed)          0.655     3.217    muon_sorter_1/pt_ret_1826_RNICC2D5/I0
    SLICE_X128Y569       LUT6 (Prop_G6LUT_SLICEL_I0_O)
                                                      0.178     3.395 r  muon_sorter_1/pt_ret_1826_RNICC2D5/LUT6/O
                         net (fo=15, routed)          0.542     3.937    muon_sorter_1/max_pt_2_3[7]
    SLICE_X130Y566       LUT3 (Prop_B5LUT_SLICEL_I2_O)
                                                      0.173     4.110 r  muon_sorter_1/pt_ret_1392_RNIF2R77_lut6_2_o5/O
                         net (fo=2, routed)           0.145     4.255    muon_sorter_1/pt_compare_3_7_0_a2_0[2]
    SLICE_X131Y566       LUT6 (Prop_G6LUT_SLICEM_I2_O)
                                                      0.116     4.371 r  muon_sorter_1/pt_ret_1657_RNI2J7841/O
                         net (fo=2, routed)           0.175     4.546    muon_sorter_1/max_pt_3_2[2]
    SLICE_X128Y566       LUT4 (Prop_E6LUT_SLICEL_I3_O)
                                                      0.064     4.610 r  muon_sorter_1/pt_ret_1228_RNIA07P03/O
                         net (fo=15, routed)          0.401     5.011    muon_sorter_1/max_pt_3_3[2]
    SLICE_X125Y567       LUT5 (Prop_F6LUT_SLICEM_I4_O)
                                                      0.038     5.049 f  muon_sorter_1/pt_ret_1227_RNISK6A2F/O
                         net (fo=4, routed)           0.561     5.610    muon_sorter_1/pt_ret_1227_RNITPH5K33/I3
    SLICE_X124Y563       LUT5 (Prop_D5LUT_SLICEL_I3_O)
                                                      0.118     5.728 r  muon_sorter_1/pt_ret_1227_RNITPH5K33/LUT5/O
                         net (fo=1, routed)           0.191     5.919    muon_sorter_1/max_pt_4_0_x[11]
    SLICE_X124Y563       LUT6 (Prop_H6LUT_SLICEL_I5_O)
                                                      0.040     5.959 r  muon_sorter_1/pt_ret_1495_RNICB4O8P1/O
                         net (fo=14, routed)          0.310     6.269    muon_sorter_1/max_pt_4_3[11]
    SLICE_X125Y561       LUT6 (Prop_G6LUT_SLICEM_I5_O)
                                                      0.064     6.333 f  muon_sorter_1/pt_ret_1345_RNI8610TD/O
                         net (fo=3, routed)           0.486     6.819    muon_sorter_1/N_2116
    SLICE_X128Y561       LUT6 (Prop_C6LUT_SLICEL_I3_O)
                                                      0.063     6.882 r  muon_sorter_1/pt_ret_1347_RNIG1BNUC1/O
                         net (fo=11, routed)          0.209     7.091    muon_sorter_1/max_pt_5_0[15]
    SLICE_X130Y560       LUT5 (Prop_F6LUT_SLICEL_I4_O)
                                                      0.148     7.239 r  muon_sorter_1/pt_ret_1412_RNID6EIH81/O
                         net (fo=3, routed)           0.179     7.418    muon_sorter_1/max_pt_5_x_0[15]
    SLICE_X131Y559       LUT6 (Prop_H6LUT_SLICEM_I5_O)
                                                      0.151     7.569 f  muon_sorter_1/pt_ret_1412_RNINK29GF/O
                         net (fo=5, routed)           0.315     7.884    muon_sorter_1/pt_compare_14_15_27_0_a2[10]
    SLICE_X130Y558       LUT5 (Prop_B6LUT_SLICEL_I4_O)
                                                      0.040     7.924 r  muon_sorter_1/pt_ret_1412_RNIPVT51N1/O
                         net (fo=13, routed)          0.240     8.164    muon_sorter_1/max_pt_6_2[15]
    SLICE_X131Y558       LUT6 (Prop_G6LUT_SLICEM_I1_O)
                                                      0.148     8.312 f  muon_sorter_1/pt_ret_1412_RNIHGKLCF2/O
                         net (fo=4, routed)           0.556     8.868    muon_sorter_1/N_1888
    SLICE_X132Y553       LUT3 (Prop_A6LUT_SLICEL_I1_O)
                                                      0.064     8.932 r  muon_sorter_1/pt_ret_1412_RNIRNRE3E1/O
                         net (fo=1, routed)           0.187     9.119    muon_sorter_1/max_pt_7_3_N_2L1
    SLICE_X130Y553       LUT6 (Prop_H6LUT_SLICEL_I4_O)
                                                      0.064     9.183 r  muon_sorter_1/pt_ret_1276_RNIEQR0A81/O
                         net (fo=13, routed)          0.200     9.383    muon_sorter_1/max_pt_7_3[15]
    SLICE_X130Y552       LUT6 (Prop_D6LUT_SLICEL_I5_O)
                                                      0.039     9.422 r  muon_sorter_1/pt_ret_1493_RNIK1VNVG3/O
                         net (fo=4, routed)           0.750    10.172    muon_sorter_1/pt_compare_8_15_0_a2[3]
    SLICE_X129Y549       LUT5 (Prop_F6LUT_SLICEM_I3_O)
                                                      0.113    10.285 f  muon_sorter_1/pt_ret_1394_RNIABE7N02/O
                         net (fo=6, routed)           0.158    10.443    muon_sorter_1/max_pt_8_1[15]
    SLICE_X130Y548       LUT6 (Prop_G6LUT_SLICEL_I4_O)
                                                      0.114    10.557 f  muon_sorter_1/pt_ret_1412_RNIO6E8HO3/O
                         net (fo=31, routed)          0.258    10.815    muon_sorter_1/max_pt_8[15]
    SLICE_X132Y547       LUT5 (Prop_F6LUT_SLICEL_I4_O)
                                                      0.148    10.963 f  muon_sorter_1/pt_ret_1412_RNICVTEV92/O
                         net (fo=6, routed)           0.373    11.336    muon_sorter_1/pt_compare_9_15_0_a2[10]
    SLICE_X128Y544       LUT4 (Prop_A6LUT_SLICEL_I1_O)
                                                      0.100    11.436 r  muon_sorter_1/pt_ret_1861_RNIBECF4A/O
                         net (fo=17, routed)          0.339    11.775    muon_sorter_1/max_pt_9_2[15]
    SLICE_X129Y542       LUT6 (Prop_G6LUT_SLICEM_I1_O)
                                                      0.179    11.954 r  muon_sorter_1/pt_ret_1861_RNI3DC6LJ3/O
                         net (fo=8, routed)           0.281    12.235    muon_sorter_1/pt_ret_1861_RNIAEAISS/I1
    SLICE_X131Y541       LUT5 (Prop_H5LUT_SLICEM_I1_O)
                                                      0.167    12.402 r  muon_sorter_1/pt_ret_1861_RNIAEAISS/LUT5/O
                         net (fo=1, routed)           0.353    12.755    muon_sorter_1/max_pt_10_0_x[7]
    SLICE_X130Y541       LUT6 (Prop_F6LUT_SLICEL_I5_O)
                                                      0.039    12.794 r  muon_sorter_1/pt_ret_1861_RNIQU1A8K1/O
                         net (fo=14, routed)          0.316    13.110    muon_sorter_1/max_pt_10_3[7]
    SLICE_X127Y541       LUT6 (Prop_G6LUT_SLICEM_I3_O)
                                                      0.100    13.210 f  muon_sorter_1/pt_ret_1861_RNI99KT5N/O
                         net (fo=6, routed)           0.392    13.602    muon_sorter_1/N_1282
    SLICE_X130Y538       LUT3 (Prop_D5LUT_SLICEL_I0_O)
                                                      0.136    13.738 f  muon_sorter_1/pt_ret_1861_RNIOJLPRP2_lut6_2_o5/O
                         net (fo=1, routed)           0.201    13.939    muon_sorter_1/max_pt_11_2_x[7]
    SLICE_X130Y538       LUT6 (Prop_H6LUT_SLICEL_I4_O)
                                                      0.179    14.118 f  muon_sorter_1/pt_ret_1861_RNIKVGH3I3/O
                         net (fo=17, routed)          0.434    14.552    muon_sorter_1/max_pt_11_3[7]
    SLICE_X133Y536       LUT6 (Prop_B6LUT_SLICEM_I3_O)
                                                      0.039    14.591 f  muon_sorter_1/pt_ret_1399_RNIUKPNM91/O
                         net (fo=6, routed)           0.382    14.973    muon_sorter_1/pt_compare_12_11_0_a2[7]
    SLICE_X131Y534       LUT4 (Prop_D6LUT_SLICEM_I3_O)
                                                      0.174    15.147 r  muon_sorter_1/pt_ret_1399_RNI2N6K5I2_lut6_2_o6/O
                         net (fo=6, routed)           0.171    15.318    muon_sorter_1/pt_ret_1399_RNI8FMO4Q1/I3
    SLICE_X131Y534       LUT5 (Prop_C5LUT_SLICEM_I3_O)
                                                      0.121    15.439 r  muon_sorter_1/pt_ret_1399_RNI8FMO4Q1/LUT5/O
                         net (fo=22, routed)          0.339    15.778    muon_sorter_1/max_pt_12[11]
    SLICE_X126Y534       LUT5 (Prop_B6LUT_SLICEL_I4_O)
                                                      0.040    15.818 r  muon_sorter_1/pt_ret_1861_RNI900LI43/O
                         net (fo=2, routed)           0.158    15.976    muon_sorter_1/max_pt_13_0_2[4]
    SLICE_X126Y534       LUT6 (Prop_G6LUT_SLICEL_I4_O)
                                                      0.038    16.014 r  muon_sorter_1/pt_ret_1331_RNIAL8NME/O
                         net (fo=16, routed)          0.241    16.255    muon_sorter_1/max_pt_13_3[4]
    SLICE_X124Y535       LUT3 (Prop_D6LUT_SLICEL_I2_O)
                                                      0.147    16.402 r  muon_sorter_1/sector_ret_400_RNO_0_lut6_2_o6/O
                         net (fo=1, routed)           0.330    16.732    muon_sorter_1/result_1_9[4]
    SLICE_X124Y532       LUT6 (Prop_B6LUT_SLICEL_I2_O)
                                                      0.100    16.832 r  muon_sorter_1/sector_ret_400_RNO_2/O
                         net (fo=1, routed)           0.058    16.890    muon_sorter_1/sector_2_1_0_1[0]
    SLICE_X124Y532       FDRE                                         r  muon_sorter_1/sector_ret_400/D
  -------------------------------------------------------------------    -------------------

                         (clock clk rise edge)       12.500    12.500 r  
    AV33                                              0.000    12.500 r  clk (IN)
                         net (fo=0)                   0.000    12.500    clk_ibuf_iso/I
    AV33                 INBUF (Prop_INBUF_HPIOB_M_PAD_O)
                                                      0.510    13.010 r  clk_ibuf_iso/INBUF_INST/O
                         net (fo=1, routed)           0.000    13.010    clk_ibuf_iso/OUT
    AV33                 IBUFCTRL (Prop_IBUFCTRL_HPIOB_M_I_O)
                                                      0.000    13.010 r  clk_ibuf_iso/IBUFCTRL_INST/O
                         net (fo=1, routed)           0.296    13.306    clk_ibuf_iso
    BUFGCE_X1Y224        BUFGCE (Prop_BUFCE_BUFGCE_I_O)
                                                      0.024    13.330 r  clk_ibuf/O
    X4Y9 (CLOCK_ROOT)    net (fo=4879, routed)        1.284    14.614    muon_sorter_1/clk_c
    SLICE_X124Y532       FDRE                                         r  muon_sorter_1/sector_ret_400/C
                         clock pessimism              0.326    14.940    
                         clock uncertainty           -0.035    14.905    
    SLICE_X124Y532       FDRE (Setup_BFF_SLICEL_C_D)
                                                      0.027    14.932    muon_sorter_1/sector_ret_400
  -------------------------------------------------------------------
                         required time                         14.932    
                         arrival time                         -16.890    
  -------------------------------------------------------------------
                         slack                                 -1.958    





Pulse Width Checks
--------------------------------------------------------------------------------------
Clock Name:         clk
Waveform(ns):       { 0.000 6.250 }
Period(ns):         12.500
Sources:            { clk }

Check Type        Corner  Lib Pin     Reference Pin  Required(ns)  Actual(ns)  Slack(ns)  Location        Pin
Min Period        n/a     BUFGCE/I    n/a            1.499         12.500      11.001     BUFGCE_X1Y224   clk_ibuf/I
Min Period        n/a     SRL16E/CLK  n/a            1.146         12.500      11.354     SLICE_X116Y548  muon_sorter_1/sr_3_0.roi_0_sr_3_2.sector_1/CLK
Min Period        n/a     SRL16E/CLK  n/a            1.146         12.500      11.354     SLICE_X116Y555  muon_sorter_1/sr_3_0.roi_1_sr_3_2.sector_1/CLK
Min Period        n/a     SRL16E/CLK  n/a            1.146         12.500      11.354     SLICE_X125Y545  muon_sorter_1/sr_3_7.roi_0_sr_3_2.sector_1/CLK
Min Period        n/a     SRL16E/CLK  n/a            1.146         12.500      11.354     SLICE_X113Y549  muon_sorter_1/sr_3_0.roi_2_sr_3_2.sector_1/CLK
Low Pulse Width   Fast    SRL16E/CLK  n/a            0.573         6.250       5.677      SLICE_X116Y548  muon_sorter_1/sr_3_0.roi_0_sr_3_2.sector_1/CLK
Low Pulse Width   Fast    SRL16E/CLK  n/a            0.573         6.250       5.677      SLICE_X116Y555  muon_sorter_1/sr_3_0.roi_1_sr_3_2.sector_1/CLK
Low Pulse Width   Slow    SRL16E/CLK  n/a            0.573         6.250       5.677      SLICE_X125Y545  muon_sorter_1/sr_3_7.roi_0_sr_3_2.sector_1/CLK
Low Pulse Width   Fast    SRL16E/CLK  n/a            0.573         6.250       5.677      SLICE_X113Y549  muon_sorter_1/sr_3_0.roi_2_sr_3_2.sector_1/CLK
Low Pulse Width   Fast    SRL16E/CLK  n/a            0.573         6.250       5.677      SLICE_X121Y546  muon_sorter_1/sr_3_0.roi_3_sr_3_2.sector_1/CLK
High Pulse Width  Slow    SRL16E/CLK  n/a            0.573         6.250       5.677      SLICE_X116Y548  muon_sorter_1/sr_3_0.roi_0_sr_3_2.sector_1/CLK
High Pulse Width  Slow    SRL16E/CLK  n/a            0.573         6.250       5.677      SLICE_X125Y548  muon_sorter_1/sr_3_2.roi_1_sr_3_2.sector_1/CLK
High Pulse Width  Slow    SRL16E/CLK  n/a            0.573         6.250       5.677      SLICE_X116Y548  muon_sorter_1/sr_3_0.roi_5_sr_3_2.sector_1/CLK
High Pulse Width  Slow    SRL16E/CLK  n/a            0.573         6.250       5.677      SLICE_X116Y548  muon_sorter_1/sr_3_7.roi_5_sr_3_2.sector_1/CLK
High Pulse Width  Slow    SRL16E/CLK  n/a            0.573         6.250       5.677      SLICE_X125Y548  muon_sorter_1/sr_3_0.roi_sr_3_2.sector_1/CLK



---------------------------------------------------------------------------------------------------
From Clock:  clk_wrapper
  To Clock:  clk_wrapper

Setup :           NA  Failing Endpoints,  Worst Slack           NA  ,  Total Violation           NA
Hold  :           NA  Failing Endpoints,  Worst Slack           NA  ,  Total Violation           NA
PW    :            0  Failing Endpoints,  Worst Slack      498.562ns,  Total Violation        0.000ns
---------------------------------------------------------------------------------------------------


Pulse Width Checks
--------------------------------------------------------------------------------------
Clock Name:         clk_wrapper
Waveform(ns):       { 0.000 500.000 }
Period(ns):         1000.000
Sources:            { clk_wrapper }

Check Type        Corner  Lib Pin   Reference Pin  Required(ns)  Actual(ns)  Slack(ns)  Location               Pin
Min Period        n/a     FDRE/C    n/a            3.195         1000.000    996.805    BITSLICE_RX_TX_X1Y483  reducer_1/delay_block[4][0]/C
Min Period        n/a     BUFGCE/I  n/a            1.499         1000.000    998.501    BUFGCE_X1Y230          clk_wrapper_ibuf/I
Min Period        n/a     FDRE/C    n/a            0.550         1000.000    999.450    SLICE_X110Y544         reducer_1/delay_block[0][73]/C
Min Period        n/a     FDRE/C    n/a            0.550         1000.000    999.450    SLICE_X110Y544         reducer_1/delay_block[0][74]/C
Min Period        n/a     FDRE/C    n/a            0.550         1000.000    999.450    SLICE_X110Y544         reducer_1/delay_block[0][75]/C
Low Pulse Width   Slow    FDRE/C    n/a            1.438         500.000     498.562    BITSLICE_RX_TX_X1Y483  reducer_1/delay_block[4][0]/C
Low Pulse Width   Fast    FDRE/C    n/a            1.438         500.000     498.562    BITSLICE_RX_TX_X1Y483  reducer_1/delay_block[4][0]/C
Low Pulse Width   Slow    FDRE/C    n/a            0.275         500.000     499.725    SLICE_X110Y544         reducer_1/delay_block[0][73]/C
Low Pulse Width   Slow    FDRE/C    n/a            0.275         500.000     499.725    SLICE_X110Y544         reducer_1/delay_block[0][74]/C
Low Pulse Width   Slow    FDRE/C    n/a            0.275         500.000     499.725    SLICE_X110Y544         reducer_1/delay_block[0][75]/C
High Pulse Width  Fast    FDRE/C    n/a            1.438         500.000     498.562    BITSLICE_RX_TX_X1Y483  reducer_1/delay_block[4][0]/C
High Pulse Width  Slow    FDRE/C    n/a            1.438         500.000     498.562    BITSLICE_RX_TX_X1Y483  reducer_1/delay_block[4][0]/C
High Pulse Width  Fast    FDRE/C    n/a            0.275         500.000     499.725    SLICE_X110Y544         reducer_1/delay_block[0][73]/C
High Pulse Width  Fast    FDRE/C    n/a            0.275         500.000     499.725    SLICE_X110Y544         reducer_1/delay_block[0][74]/C
High Pulse Width  Fast    FDRE/C    n/a            0.275         500.000     499.725    SLICE_X110Y544         reducer_1/delay_block[0][75]/C



