Copyright 1986-2018 Xilinx, Inc. All Rights Reserved.
-------------------------------------------------------------------------------------------------
| Tool Version      : Vivado v.2018.2 (win64) Build 2258646 Thu Jun 14 20:03:12 MDT 2018
| Date              : Thu Feb 14 14:31:27 2019
| Host              : PCPHESEBE02 running 64-bit Service Pack 1  (build 7601)
| Command           : report_timing_summary -setup -nworst 5 -max_paths 5 -file timing_setup.txt
| Design            : wrapper
| Device            : xcvu9p-flgc2104
| Speed File        : -1  PRODUCTION 1.20 05-21-2018
| Temperature Grade : E
-------------------------------------------------------------------------------------------------

Timing Summary Report

------------------------------------------------------------------------------------------------
| Timer Settings
| --------------
------------------------------------------------------------------------------------------------

  Enable Multi Corner Analysis               :  Yes
  Enable Pessimism Removal                   :  Yes
  Pessimism Removal Resolution               :  Nearest Common Node
  Enable Input Delay Default Clock           :  No
  Enable Preset / Clear Arcs                 :  No
  Disable Flight Delays                      :  No
  Ignore I/O Paths                           :  No
  Timing Early Launch at Borrowing Latches   :  false

  Corner  Analyze    Analyze    
  Name    Max Paths  Min Paths  
  ------  ---------  ---------  
  Slow    Yes        Yes        
  Fast    Yes        Yes        



check_timing report

Table of Contents
-----------------
1. checking no_clock
2. checking constant_clock
3. checking pulse_width_clock
4. checking unconstrained_internal_endpoints
5. checking no_input_delay
6. checking no_output_delay
7. checking multiple_clock
8. checking generated_clocks
9. checking loops
10. checking partial_input_delay
11. checking partial_output_delay
12. checking latch_loops

1. checking no_clock
--------------------
 There are 0 register/latch pins with no clock.


2. checking constant_clock
--------------------------
 There are 0 register/latch pins with constant_clock.


3. checking pulse_width_clock
-----------------------------
 There are 0 register/latch pins which need pulse_width check


4. checking unconstrained_internal_endpoints
--------------------------------------------
 There are 0 pins that are not constrained for maximum delay.

 There are 0 pins that are not constrained for maximum delay due to constant clock.


5. checking no_input_delay
--------------------------
 There is 1 input port with no input delay specified. (HIGH)

 There are 0 input ports with no input delay but user has a false path constraint.


6. checking no_output_delay
---------------------------
 There is 1 port with no output delay specified. (HIGH)

 There are 0 ports with no output delay but user has a false path constraint

 There are 0 ports with no output delay but with a timing clock defined on it or propagating through it


7. checking multiple_clock
--------------------------
 There are 0 register/latch pins with multiple clocks.


8. checking generated_clocks
----------------------------
 There are 0 generated clocks that are not connected to a clock source.


9. checking loops
-----------------
 There are 0 combinational loops in the design.


10. checking partial_input_delay
--------------------------------
 There are 0 input ports with partial input delay specified.


11. checking partial_output_delay
---------------------------------
 There are 0 ports with partial output delay specified.


12. checking latch_loops
------------------------
 There are 0 combinational latch loops in the design through latch input



------------------------------------------------------------------------------------------------
| Design Timing Summary
| ---------------------
------------------------------------------------------------------------------------------------

    WNS(ns)      TNS(ns)  TNS Failing Endpoints  TNS Total Endpoints     WPWS(ns)     TPWS(ns)  TPWS Failing Endpoints  TPWS Total Endpoints  
    -------      -------  ---------------------  -------------------     --------     --------  ----------------------  --------------------  
     -4.502    -1390.873                    409                 2288        2.850        0.000                       0                  3127  


Timing constraints are not met.


------------------------------------------------------------------------------------------------
| Clock Summary
| -------------
------------------------------------------------------------------------------------------------

Clock        Waveform(ns)         Period(ns)      Frequency(MHz)
-----        ------------         ----------      --------------
clk          {0.000 3.125}        6.250           160.000         
clk_wrapper  {0.000 500.000}      1000.000        1.000           


------------------------------------------------------------------------------------------------
| Intra Clock Table
| -----------------
------------------------------------------------------------------------------------------------

Clock             WNS(ns)      TNS(ns)  TNS Failing Endpoints  TNS Total Endpoints     WPWS(ns)     TPWS(ns)  TPWS Failing Endpoints  TPWS Total Endpoints  
-----             -------      -------  ---------------------  -------------------     --------     --------  ----------------------  --------------------  
clk                -4.502    -1390.873                    409                 2288        2.850        0.000                       0                  2528  
clk_wrapper                                                                             498.562        0.000                       0                   599  


------------------------------------------------------------------------------------------------
| Inter Clock Table
| -----------------
------------------------------------------------------------------------------------------------

From Clock    To Clock          WNS(ns)      TNS(ns)  TNS Failing Endpoints  TNS Total Endpoints  
----------    --------          -------      -------  ---------------------  -------------------  


------------------------------------------------------------------------------------------------
| Other Path Groups Table
| -----------------------
------------------------------------------------------------------------------------------------

Path Group    From Clock    To Clock          WNS(ns)      TNS(ns)  TNS Failing Endpoints  TNS Total Endpoints  
----------    ----------    --------          -------      -------  ---------------------  -------------------  


------------------------------------------------------------------------------------------------
| Timing Details
| --------------
------------------------------------------------------------------------------------------------


---------------------------------------------------------------------------------------------------
From Clock:  clk
  To Clock:  clk

Setup :          409  Failing Endpoints,  Worst Slack       -4.502ns,  Total Violation    -1390.873ns
Hold  :           NA  Failing Endpoints,  Worst Slack           NA  ,  Total Violation           NA
PW    :            0  Failing Endpoints,  Worst Slack        2.850ns,  Total Violation        0.000ns
---------------------------------------------------------------------------------------------------


Max Delay Paths
--------------------------------------------------------------------------------------
Slack (VIOLATED) :        -4.502ns  (required time - arrival time)
  Source:                 muon_cand_8.pt_1_rep1/C
                            (rising edge-triggered cell FDRE clocked by clk  {rise@0.000ns fall@3.125ns period=6.250ns})
  Destination:            muon_sorter_1/sr_p.sr_1_15.sector_ret_3225/D
                            (rising edge-triggered cell FDRE clocked by clk  {rise@0.000ns fall@3.125ns period=6.250ns})
  Path Group:             clk
  Path Type:              Setup (Max at Slow Process Corner)
  Requirement:            6.250ns  (clk rise@6.250ns - clk rise@0.000ns)
  Data Path Delay:        10.708ns  (logic 2.785ns (26.009%)  route 7.923ns (73.991%))
  Logic Levels:           23  (LUT4=3 LUT5=8 LUT6=12)
  Clock Path Skew:        -0.035ns (DCD - SCD + CPR)
    Destination Clock Delay (DCD):    3.007ns = ( 9.257 - 6.250 ) 
    Source Clock Delay      (SCD):    3.518ns
    Clock Pessimism Removal (CPR):    0.476ns
  Clock Uncertainty:      0.035ns  ((TSJ^2 + TIJ^2)^1/2 + DJ) / 2 + PE
    Total System Jitter     (TSJ):    0.071ns
    Total Input Jitter      (TIJ):    0.000ns
    Discrete Jitter          (DJ):    0.000ns
    Phase Error              (PE):    0.000ns
  Clock Net Delay (Source):      2.377ns (routing 1.460ns, distribution 0.917ns)
  Clock Net Delay (Destination): 2.177ns (routing 1.334ns, distribution 0.843ns)

    Location             Delay type                Incr(ns)  Path(ns)    Netlist Resource(s)
  -------------------------------------------------------------------    -------------------
                         (clock clk rise edge)        0.000     0.000 r  
    AV33                                              0.000     0.000 r  clk (IN)
                         net (fo=0)                   0.000     0.000    clk_ibuf_iso/I
    AV33                 INBUF (Prop_INBUF_HPIOB_M_PAD_O)
                                                      0.779     0.779 r  clk_ibuf_iso/INBUF_INST/O
                         net (fo=1, routed)           0.000     0.779    clk_ibuf_iso/OUT
    AV33                 IBUFCTRL (Prop_IBUFCTRL_HPIOB_M_I_O)
                                                      0.000     0.779 r  clk_ibuf_iso/IBUFCTRL_INST/O
                         net (fo=1, routed)           0.334     1.113    clk_ibuf_iso
    BUFGCE_X1Y224        BUFGCE (Prop_BUFCE_BUFGCE_I_O)
                                                      0.028     1.141 r  clk_ibuf/O
    X3Y6 (CLOCK_ROOT)    net (fo=2527, routed)        2.377     3.518    clk_c
    SLICE_X103Y388       FDRE                                         r  muon_cand_8.pt_1_rep1/C
  -------------------------------------------------------------------    -------------------
    SLICE_X103Y388       FDRE (Prop_HFF_SLICEL_C_Q)
                                                      0.096     3.614 f  muon_cand_8.pt_1_rep1/Q
                         net (fo=8, routed)           0.319     3.933    muon_sorter_1/pt_1_rep1_5
    SLICE_X103Y384       LUT4 (Prop_C6LUT_SLICEL_I0_O)
                                                      0.148     4.081 f  muon_sorter_1/compare_p.13.8.compare_pt.op_qge.op_qge.un16422_pt_compare_c2/O
                         net (fo=1, routed)           0.113     4.194    muon_sorter_1/un16422_pt_compare_c2
    SLICE_X103Y386       LUT5 (Prop_B6LUT_SLICEL_I4_O)
                                                      0.115     4.309 f  muon_sorter_1/compare_p.13.8.compare_pt.op_qge.op_qge.un16422_pt_compare_c4/O
                         net (fo=10, routed)          0.606     4.915    muon_sorter_1/un16422_pt_compare
    SLICE_X105Y391       LUT5 (Prop_B6LUT_SLICEL_I1_O)
                                                      0.115     5.030 r  muon_sorter_1/max_pt_0_1[13]/O
                         net (fo=18, routed)          0.281     5.311    muon_sorter_1/max_pt_0_1[13]
    SLICE_X105Y394       LUT6 (Prop_F6LUT_SLICEL_I5_O)
                                                      0.177     5.488 r  muon_sorter_1/pt_compare_11_13_17_0_a2[5]/O
                         net (fo=3, routed)           0.253     5.741    muon_sorter_1/pt_compare_11_13_17_0_a2[5]
    SLICE_X106Y393       LUT4 (Prop_E6LUT_SLICEL_I2_O)
                                                      0.100     5.841 f  muon_sorter_1/max_pt_1_1_N_6L11/O
                         net (fo=1, routed)           0.048     5.889    muon_sorter_1/max_pt_1_1_N_6L11
    SLICE_X106Y393       LUT4 (Prop_D6LUT_SLICEL_I2_O)
                                                      0.099     5.988 r  muon_sorter_1/max_pt_1_1[5]/O
                         net (fo=12, routed)          0.573     6.561    muon_sorter_1/max_pt_1_1[5]
    SLICE_X99Y391        LUT6 (Prop_B6LUT_SLICEM_I3_O)
                                                      0.116     6.677 f  muon_sorter_1/pt_compare_2_5_0_a2[0]/O
                         net (fo=4, routed)           0.173     6.850    muon_sorter_1/pt_compare_2_5_0_a2[0]
    SLICE_X99Y392        LUT6 (Prop_H6LUT_SLICEM_I5_O)
                                                      0.066     6.916 r  muon_sorter_1/max_pt_2_0_3_N_3L4/O
                         net (fo=1, routed)           0.126     7.042    muon_sorter_1/max_pt_2_0_3_N_3L4
    SLICE_X99Y393        LUT5 (Prop_G6LUT_SLICEM_I4_O)
                                                      0.179     7.221 r  muon_sorter_1/max_pt_2_0_3[5]/O
                         net (fo=3, routed)           0.186     7.407    muon_sorter_1/max_pt_2_0_3[5]
    SLICE_X98Y392        LUT5 (Prop_B6LUT_SLICEL_I4_O)
                                                      0.177     7.584 r  muon_sorter_1/max_pt_2_3[5]/O
                         net (fo=14, routed)          0.127     7.711    muon_sorter_1/max_pt_2_3[5]
    SLICE_X98Y391        LUT5 (Prop_A6LUT_SLICEL_I4_O)
                                                      0.100     7.811 r  muon_sorter_1/pt_compare_3_5_0_a2[0]/O
                         net (fo=6, routed)           0.504     8.315    muon_sorter_1/N_338
    SLICE_X95Y387        LUT6 (Prop_C6LUT_SLICEM_I3_O)
                                                      0.174     8.489 r  muon_sorter_1/max_pt_3_0[0]/O
                         net (fo=2, routed)           0.203     8.692    muon_sorter_1/max_pt_3_0[0]
    SLICE_X95Y390        LUT6 (Prop_D6LUT_SLICEM_I4_O)
                                                      0.114     8.806 r  muon_sorter_1/max_pt_3[0]/O
                         net (fo=36, routed)          0.430     9.236    muon_sorter_1/max_pt_3[0]
    SLICE_X94Y394        LUT5 (Prop_F6LUT_SLICEL_I2_O)
                                                      0.098     9.334 r  muon_sorter_1/max_pt_4_3_N_5L9_0_N_8L16_0/O
                         net (fo=1, routed)           0.046     9.380    muon_sorter_1/max_pt_4_3_N_5L9_0_N_8L16_0
    SLICE_X94Y394        LUT6 (Prop_G6LUT_SLICEL_I5_O)
                                                      0.063     9.443 f  muon_sorter_1/max_pt_4_3_N_5L9_0/O
                         net (fo=3, routed)           0.350     9.793    muon_sorter_1/max_pt_4_3_N_5L9_0
    SLICE_X96Y396        LUT5 (Prop_B6LUT_SLICEL_I4_O)
                                                      0.177     9.970 r  muon_sorter_1/max_pt_4_3_x[12]/O
                         net (fo=1, routed)           0.331    10.301    muon_sorter_1/max_pt_4_3_x[12]
    SLICE_X94Y396        LUT6 (Prop_H6LUT_SLICEL_I1_O)
                                                      0.064    10.365 f  muon_sorter_1/pt_compare_13_14_25_0_a2[12]/O
                         net (fo=4, routed)           0.278    10.643    muon_sorter_1/pt_compare_13_14_25_0_a2[12]
    SLICE_X95Y398        LUT5 (Prop_A6LUT_SLICEM_I4_O)
                                                      0.100    10.743 r  muon_sorter_1/pt_compare_13_14_25_0_a2_RNI7C6H1[11]/O
                         net (fo=35, routed)          0.668    11.411    muon_sorter_1/max_pt_5_1[14]
    SLICE_X97Y399        LUT6 (Prop_G6LUT_SLICEM_I3_O)
                                                      0.064    11.475 r  muon_sorter_1/pt_compare_13_14_25_0_a2_RNIFHTJC[9]/O
                         net (fo=3, routed)           0.436    11.911    muon_sorter_1/pt_compare_6_14_0_a2_0[9]
    SLICE_X90Y401        LUT6 (Prop_G6LUT_SLICEM_I2_O)
                                                      0.100    12.011 r  muon_sorter_1/max_pt_6_1[9]/O
                         net (fo=17, routed)          0.441    12.452    muon_sorter_1/max_pt_6_1[9]
    SLICE_X95Y405        LUT6 (Prop_A6LUT_SLICEM_I3_O)
                                                      0.179    12.631 f  muon_sorter_1/pt_compare_7_9_0_a2[4]/O
                         net (fo=9, routed)           0.398    13.029    muon_sorter_1/N_531
    SLICE_X92Y407        LUT6 (Prop_H6LUT_SLICEM_I4_O)
                                                      0.066    13.095 r  muon_sorter_1/max_pt_7_0_0_e[9]/O
                         net (fo=5, routed)           0.672    13.767    muon_sorter_1/max_pt_7_0_0_e[9]
    SLICE_X99Y404        LUT6 (Prop_F6LUT_SLICEM_I5_O)
                                                      0.098    13.865 r  muon_sorter_1/pt_compare_8_9_0_a2[5]/O
                         net (fo=3, routed)           0.361    14.226    muon_sorter_1/N_669_ret_0i
    SLICE_X102Y403       FDRE                                         r  muon_sorter_1/sr_p.sr_1_15.sector_ret_3225/D
  -------------------------------------------------------------------    -------------------

                         (clock clk rise edge)        6.250     6.250 r  
    AV33                                              0.000     6.250 r  clk (IN)
                         net (fo=0)                   0.000     6.250    clk_ibuf_iso/I
    AV33                 INBUF (Prop_INBUF_HPIOB_M_PAD_O)
                                                      0.510     6.760 r  clk_ibuf_iso/INBUF_INST/O
                         net (fo=1, routed)           0.000     6.760    clk_ibuf_iso/OUT
    AV33                 IBUFCTRL (Prop_IBUFCTRL_HPIOB_M_I_O)
                                                      0.000     6.760 r  clk_ibuf_iso/IBUFCTRL_INST/O
                         net (fo=1, routed)           0.296     7.056    clk_ibuf_iso
    BUFGCE_X1Y224        BUFGCE (Prop_BUFCE_BUFGCE_I_O)
                                                      0.024     7.080 r  clk_ibuf/O
    X3Y6 (CLOCK_ROOT)    net (fo=2527, routed)        2.177     9.257    muon_sorter_1/clk_c
    SLICE_X102Y403       FDRE                                         r  muon_sorter_1/sr_p.sr_1_15.sector_ret_3225/C
                         clock pessimism              0.476     9.733    
                         clock uncertainty           -0.035     9.697    
    SLICE_X102Y403       FDRE (Setup_EFF2_SLICEM_C_D)
                                                      0.027     9.724    muon_sorter_1/sr_p.sr_1_15.sector_ret_3225
  -------------------------------------------------------------------
                         required time                          9.724    
                         arrival time                         -14.226    
  -------------------------------------------------------------------
                         slack                                 -4.502    

Slack (VIOLATED) :        -4.502ns  (required time - arrival time)
  Source:                 muon_cand_8.pt_1_rep1/C
                            (rising edge-triggered cell FDRE clocked by clk  {rise@0.000ns fall@3.125ns period=6.250ns})
  Destination:            muon_sorter_1/sr_p.sr_1_15.sector_ret_3225/D
                            (rising edge-triggered cell FDRE clocked by clk  {rise@0.000ns fall@3.125ns period=6.250ns})
  Path Group:             clk
  Path Type:              Setup (Max at Slow Process Corner)
  Requirement:            6.250ns  (clk rise@6.250ns - clk rise@0.000ns)
  Data Path Delay:        10.708ns  (logic 2.785ns (26.009%)  route 7.923ns (73.991%))
  Logic Levels:           23  (LUT4=3 LUT5=8 LUT6=12)
  Clock Path Skew:        -0.035ns (DCD - SCD + CPR)
    Destination Clock Delay (DCD):    3.007ns = ( 9.257 - 6.250 ) 
    Source Clock Delay      (SCD):    3.518ns
    Clock Pessimism Removal (CPR):    0.476ns
  Clock Uncertainty:      0.035ns  ((TSJ^2 + TIJ^2)^1/2 + DJ) / 2 + PE
    Total System Jitter     (TSJ):    0.071ns
    Total Input Jitter      (TIJ):    0.000ns
    Discrete Jitter          (DJ):    0.000ns
    Phase Error              (PE):    0.000ns
  Clock Net Delay (Source):      2.377ns (routing 1.460ns, distribution 0.917ns)
  Clock Net Delay (Destination): 2.177ns (routing 1.334ns, distribution 0.843ns)

    Location             Delay type                Incr(ns)  Path(ns)    Netlist Resource(s)
  -------------------------------------------------------------------    -------------------
                         (clock clk rise edge)        0.000     0.000 r  
    AV33                                              0.000     0.000 r  clk (IN)
                         net (fo=0)                   0.000     0.000    clk_ibuf_iso/I
    AV33                 INBUF (Prop_INBUF_HPIOB_M_PAD_O)
                                                      0.779     0.779 r  clk_ibuf_iso/INBUF_INST/O
                         net (fo=1, routed)           0.000     0.779    clk_ibuf_iso/OUT
    AV33                 IBUFCTRL (Prop_IBUFCTRL_HPIOB_M_I_O)
                                                      0.000     0.779 r  clk_ibuf_iso/IBUFCTRL_INST/O
                         net (fo=1, routed)           0.334     1.113    clk_ibuf_iso
    BUFGCE_X1Y224        BUFGCE (Prop_BUFCE_BUFGCE_I_O)
                                                      0.028     1.141 r  clk_ibuf/O
    X3Y6 (CLOCK_ROOT)    net (fo=2527, routed)        2.377     3.518    clk_c
    SLICE_X103Y388       FDRE                                         r  muon_cand_8.pt_1_rep1/C
  -------------------------------------------------------------------    -------------------
    SLICE_X103Y388       FDRE (Prop_HFF_SLICEL_C_Q)
                                                      0.096     3.614 r  muon_cand_8.pt_1_rep1/Q
                         net (fo=8, routed)           0.319     3.933    muon_sorter_1/pt_1_rep1_5
    SLICE_X103Y384       LUT4 (Prop_C6LUT_SLICEL_I0_O)
                                                      0.148     4.081 r  muon_sorter_1/compare_p.13.8.compare_pt.op_qge.op_qge.un16422_pt_compare_c2/O
                         net (fo=1, routed)           0.113     4.194    muon_sorter_1/un16422_pt_compare_c2
    SLICE_X103Y386       LUT5 (Prop_B6LUT_SLICEL_I4_O)
                                                      0.115     4.309 r  muon_sorter_1/compare_p.13.8.compare_pt.op_qge.op_qge.un16422_pt_compare_c4/O
                         net (fo=10, routed)          0.606     4.915    muon_sorter_1/un16422_pt_compare
    SLICE_X105Y391       LUT5 (Prop_B6LUT_SLICEL_I1_O)
                                                      0.115     5.030 f  muon_sorter_1/max_pt_0_1[13]/O
                         net (fo=18, routed)          0.281     5.311    muon_sorter_1/max_pt_0_1[13]
    SLICE_X105Y394       LUT6 (Prop_F6LUT_SLICEL_I5_O)
                                                      0.177     5.488 r  muon_sorter_1/pt_compare_11_13_17_0_a2[5]/O
                         net (fo=3, routed)           0.253     5.741    muon_sorter_1/pt_compare_11_13_17_0_a2[5]
    SLICE_X106Y393       LUT4 (Prop_E6LUT_SLICEL_I2_O)
                                                      0.100     5.841 f  muon_sorter_1/max_pt_1_1_N_6L11/O
                         net (fo=1, routed)           0.048     5.889    muon_sorter_1/max_pt_1_1_N_6L11
    SLICE_X106Y393       LUT4 (Prop_D6LUT_SLICEL_I2_O)
                                                      0.099     5.988 r  muon_sorter_1/max_pt_1_1[5]/O
                         net (fo=12, routed)          0.573     6.561    muon_sorter_1/max_pt_1_1[5]
    SLICE_X99Y391        LUT6 (Prop_B6LUT_SLICEM_I3_O)
                                                      0.116     6.677 f  muon_sorter_1/pt_compare_2_5_0_a2[0]/O
                         net (fo=4, routed)           0.173     6.850    muon_sorter_1/pt_compare_2_5_0_a2[0]
    SLICE_X99Y392        LUT6 (Prop_H6LUT_SLICEM_I5_O)
                                                      0.066     6.916 r  muon_sorter_1/max_pt_2_0_3_N_3L4/O
                         net (fo=1, routed)           0.126     7.042    muon_sorter_1/max_pt_2_0_3_N_3L4
    SLICE_X99Y393        LUT5 (Prop_G6LUT_SLICEM_I4_O)
                                                      0.179     7.221 r  muon_sorter_1/max_pt_2_0_3[5]/O
                         net (fo=3, routed)           0.186     7.407    muon_sorter_1/max_pt_2_0_3[5]
    SLICE_X98Y392        LUT5 (Prop_B6LUT_SLICEL_I4_O)
                                                      0.177     7.584 r  muon_sorter_1/max_pt_2_3[5]/O
                         net (fo=14, routed)          0.127     7.711    muon_sorter_1/max_pt_2_3[5]
    SLICE_X98Y391        LUT5 (Prop_A6LUT_SLICEL_I4_O)
                                                      0.100     7.811 r  muon_sorter_1/pt_compare_3_5_0_a2[0]/O
                         net (fo=6, routed)           0.504     8.315    muon_sorter_1/N_338
    SLICE_X95Y387        LUT6 (Prop_C6LUT_SLICEM_I3_O)
                                                      0.174     8.489 r  muon_sorter_1/max_pt_3_0[0]/O
                         net (fo=2, routed)           0.203     8.692    muon_sorter_1/max_pt_3_0[0]
    SLICE_X95Y390        LUT6 (Prop_D6LUT_SLICEM_I4_O)
                                                      0.114     8.806 r  muon_sorter_1/max_pt_3[0]/O
                         net (fo=36, routed)          0.430     9.236    muon_sorter_1/max_pt_3[0]
    SLICE_X94Y394        LUT5 (Prop_F6LUT_SLICEL_I2_O)
                                                      0.098     9.334 r  muon_sorter_1/max_pt_4_3_N_5L9_0_N_8L16_0/O
                         net (fo=1, routed)           0.046     9.380    muon_sorter_1/max_pt_4_3_N_5L9_0_N_8L16_0
    SLICE_X94Y394        LUT6 (Prop_G6LUT_SLICEL_I5_O)
                                                      0.063     9.443 f  muon_sorter_1/max_pt_4_3_N_5L9_0/O
                         net (fo=3, routed)           0.350     9.793    muon_sorter_1/max_pt_4_3_N_5L9_0
    SLICE_X96Y396        LUT5 (Prop_B6LUT_SLICEL_I4_O)
                                                      0.177     9.970 r  muon_sorter_1/max_pt_4_3_x[12]/O
                         net (fo=1, routed)           0.331    10.301    muon_sorter_1/max_pt_4_3_x[12]
    SLICE_X94Y396        LUT6 (Prop_H6LUT_SLICEL_I1_O)
                                                      0.064    10.365 f  muon_sorter_1/pt_compare_13_14_25_0_a2[12]/O
                         net (fo=4, routed)           0.278    10.643    muon_sorter_1/pt_compare_13_14_25_0_a2[12]
    SLICE_X95Y398        LUT5 (Prop_A6LUT_SLICEM_I4_O)
                                                      0.100    10.743 r  muon_sorter_1/pt_compare_13_14_25_0_a2_RNI7C6H1[11]/O
                         net (fo=35, routed)          0.668    11.411    muon_sorter_1/max_pt_5_1[14]
    SLICE_X97Y399        LUT6 (Prop_G6LUT_SLICEM_I3_O)
                                                      0.064    11.475 r  muon_sorter_1/pt_compare_13_14_25_0_a2_RNIFHTJC[9]/O
                         net (fo=3, routed)           0.436    11.911    muon_sorter_1/pt_compare_6_14_0_a2_0[9]
    SLICE_X90Y401        LUT6 (Prop_G6LUT_SLICEM_I2_O)
                                                      0.100    12.011 r  muon_sorter_1/max_pt_6_1[9]/O
                         net (fo=17, routed)          0.441    12.452    muon_sorter_1/max_pt_6_1[9]
    SLICE_X95Y405        LUT6 (Prop_A6LUT_SLICEM_I3_O)
                                                      0.179    12.631 f  muon_sorter_1/pt_compare_7_9_0_a2[4]/O
                         net (fo=9, routed)           0.398    13.029    muon_sorter_1/N_531
    SLICE_X92Y407        LUT6 (Prop_H6LUT_SLICEM_I4_O)
                                                      0.066    13.095 r  muon_sorter_1/max_pt_7_0_0_e[9]/O
                         net (fo=5, routed)           0.672    13.767    muon_sorter_1/max_pt_7_0_0_e[9]
    SLICE_X99Y404        LUT6 (Prop_F6LUT_SLICEM_I5_O)
                                                      0.098    13.865 r  muon_sorter_1/pt_compare_8_9_0_a2[5]/O
                         net (fo=3, routed)           0.361    14.226    muon_sorter_1/N_669_ret_0i
    SLICE_X102Y403       FDRE                                         r  muon_sorter_1/sr_p.sr_1_15.sector_ret_3225/D
  -------------------------------------------------------------------    -------------------

                         (clock clk rise edge)        6.250     6.250 r  
    AV33                                              0.000     6.250 r  clk (IN)
                         net (fo=0)                   0.000     6.250    clk_ibuf_iso/I
    AV33                 INBUF (Prop_INBUF_HPIOB_M_PAD_O)
                                                      0.510     6.760 r  clk_ibuf_iso/INBUF_INST/O
                         net (fo=1, routed)           0.000     6.760    clk_ibuf_iso/OUT
    AV33                 IBUFCTRL (Prop_IBUFCTRL_HPIOB_M_I_O)
                                                      0.000     6.760 r  clk_ibuf_iso/IBUFCTRL_INST/O
                         net (fo=1, routed)           0.296     7.056    clk_ibuf_iso
    BUFGCE_X1Y224        BUFGCE (Prop_BUFCE_BUFGCE_I_O)
                                                      0.024     7.080 r  clk_ibuf/O
    X3Y6 (CLOCK_ROOT)    net (fo=2527, routed)        2.177     9.257    muon_sorter_1/clk_c
    SLICE_X102Y403       FDRE                                         r  muon_sorter_1/sr_p.sr_1_15.sector_ret_3225/C
                         clock pessimism              0.476     9.733    
                         clock uncertainty           -0.035     9.697    
    SLICE_X102Y403       FDRE (Setup_EFF2_SLICEM_C_D)
                                                      0.027     9.724    muon_sorter_1/sr_p.sr_1_15.sector_ret_3225
  -------------------------------------------------------------------
                         required time                          9.724    
                         arrival time                         -14.226    
  -------------------------------------------------------------------
                         slack                                 -4.502    

Slack (VIOLATED) :        -4.502ns  (required time - arrival time)
  Source:                 muon_cand_8.pt_1_rep1/C
                            (rising edge-triggered cell FDRE clocked by clk  {rise@0.000ns fall@3.125ns period=6.250ns})
  Destination:            muon_sorter_1/sr_p.sr_1_15.sector_ret_3225/D
                            (rising edge-triggered cell FDRE clocked by clk  {rise@0.000ns fall@3.125ns period=6.250ns})
  Path Group:             clk
  Path Type:              Setup (Max at Slow Process Corner)
  Requirement:            6.250ns  (clk rise@6.250ns - clk rise@0.000ns)
  Data Path Delay:        10.708ns  (logic 2.785ns (26.009%)  route 7.923ns (73.991%))
  Logic Levels:           23  (LUT4=3 LUT5=8 LUT6=12)
  Clock Path Skew:        -0.035ns (DCD - SCD + CPR)
    Destination Clock Delay (DCD):    3.007ns = ( 9.257 - 6.250 ) 
    Source Clock Delay      (SCD):    3.518ns
    Clock Pessimism Removal (CPR):    0.476ns
  Clock Uncertainty:      0.035ns  ((TSJ^2 + TIJ^2)^1/2 + DJ) / 2 + PE
    Total System Jitter     (TSJ):    0.071ns
    Total Input Jitter      (TIJ):    0.000ns
    Discrete Jitter          (DJ):    0.000ns
    Phase Error              (PE):    0.000ns
  Clock Net Delay (Source):      2.377ns (routing 1.460ns, distribution 0.917ns)
  Clock Net Delay (Destination): 2.177ns (routing 1.334ns, distribution 0.843ns)

    Location             Delay type                Incr(ns)  Path(ns)    Netlist Resource(s)
  -------------------------------------------------------------------    -------------------
                         (clock clk rise edge)        0.000     0.000 r  
    AV33                                              0.000     0.000 r  clk (IN)
                         net (fo=0)                   0.000     0.000    clk_ibuf_iso/I
    AV33                 INBUF (Prop_INBUF_HPIOB_M_PAD_O)
                                                      0.779     0.779 r  clk_ibuf_iso/INBUF_INST/O
                         net (fo=1, routed)           0.000     0.779    clk_ibuf_iso/OUT
    AV33                 IBUFCTRL (Prop_IBUFCTRL_HPIOB_M_I_O)
                                                      0.000     0.779 r  clk_ibuf_iso/IBUFCTRL_INST/O
                         net (fo=1, routed)           0.334     1.113    clk_ibuf_iso
    BUFGCE_X1Y224        BUFGCE (Prop_BUFCE_BUFGCE_I_O)
                                                      0.028     1.141 r  clk_ibuf/O
    X3Y6 (CLOCK_ROOT)    net (fo=2527, routed)        2.377     3.518    clk_c
    SLICE_X103Y388       FDRE                                         r  muon_cand_8.pt_1_rep1/C
  -------------------------------------------------------------------    -------------------
    SLICE_X103Y388       FDRE (Prop_HFF_SLICEL_C_Q)
                                                      0.096     3.614 f  muon_cand_8.pt_1_rep1/Q
                         net (fo=8, routed)           0.319     3.933    muon_sorter_1/pt_1_rep1_5
    SLICE_X103Y384       LUT4 (Prop_C6LUT_SLICEL_I0_O)
                                                      0.148     4.081 f  muon_sorter_1/compare_p.13.8.compare_pt.op_qge.op_qge.un16422_pt_compare_c2/O
                         net (fo=1, routed)           0.113     4.194    muon_sorter_1/un16422_pt_compare_c2
    SLICE_X103Y386       LUT5 (Prop_B6LUT_SLICEL_I4_O)
                                                      0.115     4.309 f  muon_sorter_1/compare_p.13.8.compare_pt.op_qge.op_qge.un16422_pt_compare_c4/O
                         net (fo=10, routed)          0.606     4.915    muon_sorter_1/un16422_pt_compare
    SLICE_X105Y391       LUT5 (Prop_B6LUT_SLICEL_I1_O)
                                                      0.115     5.030 r  muon_sorter_1/max_pt_0_1[13]/O
                         net (fo=18, routed)          0.281     5.311    muon_sorter_1/max_pt_0_1[13]
    SLICE_X105Y394       LUT6 (Prop_F6LUT_SLICEL_I5_O)
                                                      0.177     5.488 f  muon_sorter_1/pt_compare_11_13_17_0_a2[5]/O
                         net (fo=3, routed)           0.253     5.741    muon_sorter_1/pt_compare_11_13_17_0_a2[5]
    SLICE_X106Y393       LUT4 (Prop_E6LUT_SLICEL_I2_O)
                                                      0.100     5.841 r  muon_sorter_1/max_pt_1_1_N_6L11/O
                         net (fo=1, routed)           0.048     5.889    muon_sorter_1/max_pt_1_1_N_6L11
    SLICE_X106Y393       LUT4 (Prop_D6LUT_SLICEL_I2_O)
                                                      0.099     5.988 f  muon_sorter_1/max_pt_1_1[5]/O
                         net (fo=12, routed)          0.573     6.561    muon_sorter_1/max_pt_1_1[5]
    SLICE_X99Y391        LUT6 (Prop_B6LUT_SLICEM_I3_O)
                                                      0.116     6.677 f  muon_sorter_1/pt_compare_2_5_0_a2[0]/O
                         net (fo=4, routed)           0.173     6.850    muon_sorter_1/pt_compare_2_5_0_a2[0]
    SLICE_X99Y392        LUT6 (Prop_H6LUT_SLICEM_I5_O)
                                                      0.066     6.916 r  muon_sorter_1/max_pt_2_0_3_N_3L4/O
                         net (fo=1, routed)           0.126     7.042    muon_sorter_1/max_pt_2_0_3_N_3L4
    SLICE_X99Y393        LUT5 (Prop_G6LUT_SLICEM_I4_O)
                                                      0.179     7.221 r  muon_sorter_1/max_pt_2_0_3[5]/O
                         net (fo=3, routed)           0.186     7.407    muon_sorter_1/max_pt_2_0_3[5]
    SLICE_X98Y392        LUT5 (Prop_B6LUT_SLICEL_I4_O)
                                                      0.177     7.584 r  muon_sorter_1/max_pt_2_3[5]/O
                         net (fo=14, routed)          0.127     7.711    muon_sorter_1/max_pt_2_3[5]
    SLICE_X98Y391        LUT5 (Prop_A6LUT_SLICEL_I4_O)
                                                      0.100     7.811 r  muon_sorter_1/pt_compare_3_5_0_a2[0]/O
                         net (fo=6, routed)           0.504     8.315    muon_sorter_1/N_338
    SLICE_X95Y387        LUT6 (Prop_C6LUT_SLICEM_I3_O)
                                                      0.174     8.489 r  muon_sorter_1/max_pt_3_0[0]/O
                         net (fo=2, routed)           0.203     8.692    muon_sorter_1/max_pt_3_0[0]
    SLICE_X95Y390        LUT6 (Prop_D6LUT_SLICEM_I4_O)
                                                      0.114     8.806 r  muon_sorter_1/max_pt_3[0]/O
                         net (fo=36, routed)          0.430     9.236    muon_sorter_1/max_pt_3[0]
    SLICE_X94Y394        LUT5 (Prop_F6LUT_SLICEL_I2_O)
                                                      0.098     9.334 r  muon_sorter_1/max_pt_4_3_N_5L9_0_N_8L16_0/O
                         net (fo=1, routed)           0.046     9.380    muon_sorter_1/max_pt_4_3_N_5L9_0_N_8L16_0
    SLICE_X94Y394        LUT6 (Prop_G6LUT_SLICEL_I5_O)
                                                      0.063     9.443 f  muon_sorter_1/max_pt_4_3_N_5L9_0/O
                         net (fo=3, routed)           0.350     9.793    muon_sorter_1/max_pt_4_3_N_5L9_0
    SLICE_X96Y396        LUT5 (Prop_B6LUT_SLICEL_I4_O)
                                                      0.177     9.970 r  muon_sorter_1/max_pt_4_3_x[12]/O
                         net (fo=1, routed)           0.331    10.301    muon_sorter_1/max_pt_4_3_x[12]
    SLICE_X94Y396        LUT6 (Prop_H6LUT_SLICEL_I1_O)
                                                      0.064    10.365 f  muon_sorter_1/pt_compare_13_14_25_0_a2[12]/O
                         net (fo=4, routed)           0.278    10.643    muon_sorter_1/pt_compare_13_14_25_0_a2[12]
    SLICE_X95Y398        LUT5 (Prop_A6LUT_SLICEM_I4_O)
                                                      0.100    10.743 r  muon_sorter_1/pt_compare_13_14_25_0_a2_RNI7C6H1[11]/O
                         net (fo=35, routed)          0.668    11.411    muon_sorter_1/max_pt_5_1[14]
    SLICE_X97Y399        LUT6 (Prop_G6LUT_SLICEM_I3_O)
                                                      0.064    11.475 r  muon_sorter_1/pt_compare_13_14_25_0_a2_RNIFHTJC[9]/O
                         net (fo=3, routed)           0.436    11.911    muon_sorter_1/pt_compare_6_14_0_a2_0[9]
    SLICE_X90Y401        LUT6 (Prop_G6LUT_SLICEM_I2_O)
                                                      0.100    12.011 r  muon_sorter_1/max_pt_6_1[9]/O
                         net (fo=17, routed)          0.441    12.452    muon_sorter_1/max_pt_6_1[9]
    SLICE_X95Y405        LUT6 (Prop_A6LUT_SLICEM_I3_O)
                                                      0.179    12.631 f  muon_sorter_1/pt_compare_7_9_0_a2[4]/O
                         net (fo=9, routed)           0.398    13.029    muon_sorter_1/N_531
    SLICE_X92Y407        LUT6 (Prop_H6LUT_SLICEM_I4_O)
                                                      0.066    13.095 r  muon_sorter_1/max_pt_7_0_0_e[9]/O
                         net (fo=5, routed)           0.672    13.767    muon_sorter_1/max_pt_7_0_0_e[9]
    SLICE_X99Y404        LUT6 (Prop_F6LUT_SLICEM_I5_O)
                                                      0.098    13.865 r  muon_sorter_1/pt_compare_8_9_0_a2[5]/O
                         net (fo=3, routed)           0.361    14.226    muon_sorter_1/N_669_ret_0i
    SLICE_X102Y403       FDRE                                         r  muon_sorter_1/sr_p.sr_1_15.sector_ret_3225/D
  -------------------------------------------------------------------    -------------------

                         (clock clk rise edge)        6.250     6.250 r  
    AV33                                              0.000     6.250 r  clk (IN)
                         net (fo=0)                   0.000     6.250    clk_ibuf_iso/I
    AV33                 INBUF (Prop_INBUF_HPIOB_M_PAD_O)
                                                      0.510     6.760 r  clk_ibuf_iso/INBUF_INST/O
                         net (fo=1, routed)           0.000     6.760    clk_ibuf_iso/OUT
    AV33                 IBUFCTRL (Prop_IBUFCTRL_HPIOB_M_I_O)
                                                      0.000     6.760 r  clk_ibuf_iso/IBUFCTRL_INST/O
                         net (fo=1, routed)           0.296     7.056    clk_ibuf_iso
    BUFGCE_X1Y224        BUFGCE (Prop_BUFCE_BUFGCE_I_O)
                                                      0.024     7.080 r  clk_ibuf/O
    X3Y6 (CLOCK_ROOT)    net (fo=2527, routed)        2.177     9.257    muon_sorter_1/clk_c
    SLICE_X102Y403       FDRE                                         r  muon_sorter_1/sr_p.sr_1_15.sector_ret_3225/C
                         clock pessimism              0.476     9.733    
                         clock uncertainty           -0.035     9.697    
    SLICE_X102Y403       FDRE (Setup_EFF2_SLICEM_C_D)
                                                      0.027     9.724    muon_sorter_1/sr_p.sr_1_15.sector_ret_3225
  -------------------------------------------------------------------
                         required time                          9.724    
                         arrival time                         -14.226    
  -------------------------------------------------------------------
                         slack                                 -4.502    

Slack (VIOLATED) :        -4.502ns  (required time - arrival time)
  Source:                 muon_cand_8.pt_1_rep1/C
                            (rising edge-triggered cell FDRE clocked by clk  {rise@0.000ns fall@3.125ns period=6.250ns})
  Destination:            muon_sorter_1/sr_p.sr_1_15.sector_ret_3225/D
                            (rising edge-triggered cell FDRE clocked by clk  {rise@0.000ns fall@3.125ns period=6.250ns})
  Path Group:             clk
  Path Type:              Setup (Max at Slow Process Corner)
  Requirement:            6.250ns  (clk rise@6.250ns - clk rise@0.000ns)
  Data Path Delay:        10.708ns  (logic 2.785ns (26.009%)  route 7.923ns (73.991%))
  Logic Levels:           23  (LUT4=3 LUT5=8 LUT6=12)
  Clock Path Skew:        -0.035ns (DCD - SCD + CPR)
    Destination Clock Delay (DCD):    3.007ns = ( 9.257 - 6.250 ) 
    Source Clock Delay      (SCD):    3.518ns
    Clock Pessimism Removal (CPR):    0.476ns
  Clock Uncertainty:      0.035ns  ((TSJ^2 + TIJ^2)^1/2 + DJ) / 2 + PE
    Total System Jitter     (TSJ):    0.071ns
    Total Input Jitter      (TIJ):    0.000ns
    Discrete Jitter          (DJ):    0.000ns
    Phase Error              (PE):    0.000ns
  Clock Net Delay (Source):      2.377ns (routing 1.460ns, distribution 0.917ns)
  Clock Net Delay (Destination): 2.177ns (routing 1.334ns, distribution 0.843ns)

    Location             Delay type                Incr(ns)  Path(ns)    Netlist Resource(s)
  -------------------------------------------------------------------    -------------------
                         (clock clk rise edge)        0.000     0.000 r  
    AV33                                              0.000     0.000 r  clk (IN)
                         net (fo=0)                   0.000     0.000    clk_ibuf_iso/I
    AV33                 INBUF (Prop_INBUF_HPIOB_M_PAD_O)
                                                      0.779     0.779 r  clk_ibuf_iso/INBUF_INST/O
                         net (fo=1, routed)           0.000     0.779    clk_ibuf_iso/OUT
    AV33                 IBUFCTRL (Prop_IBUFCTRL_HPIOB_M_I_O)
                                                      0.000     0.779 r  clk_ibuf_iso/IBUFCTRL_INST/O
                         net (fo=1, routed)           0.334     1.113    clk_ibuf_iso
    BUFGCE_X1Y224        BUFGCE (Prop_BUFCE_BUFGCE_I_O)
                                                      0.028     1.141 r  clk_ibuf/O
    X3Y6 (CLOCK_ROOT)    net (fo=2527, routed)        2.377     3.518    clk_c
    SLICE_X103Y388       FDRE                                         r  muon_cand_8.pt_1_rep1/C
  -------------------------------------------------------------------    -------------------
    SLICE_X103Y388       FDRE (Prop_HFF_SLICEL_C_Q)
                                                      0.096     3.614 r  muon_cand_8.pt_1_rep1/Q
                         net (fo=8, routed)           0.319     3.933    muon_sorter_1/pt_1_rep1_5
    SLICE_X103Y384       LUT4 (Prop_C6LUT_SLICEL_I0_O)
                                                      0.148     4.081 r  muon_sorter_1/compare_p.13.8.compare_pt.op_qge.op_qge.un16422_pt_compare_c2/O
                         net (fo=1, routed)           0.113     4.194    muon_sorter_1/un16422_pt_compare_c2
    SLICE_X103Y386       LUT5 (Prop_B6LUT_SLICEL_I4_O)
                                                      0.115     4.309 r  muon_sorter_1/compare_p.13.8.compare_pt.op_qge.op_qge.un16422_pt_compare_c4/O
                         net (fo=10, routed)          0.606     4.915    muon_sorter_1/un16422_pt_compare
    SLICE_X105Y391       LUT5 (Prop_B6LUT_SLICEL_I1_O)
                                                      0.115     5.030 f  muon_sorter_1/max_pt_0_1[13]/O
                         net (fo=18, routed)          0.281     5.311    muon_sorter_1/max_pt_0_1[13]
    SLICE_X105Y394       LUT6 (Prop_F6LUT_SLICEL_I5_O)
                                                      0.177     5.488 f  muon_sorter_1/pt_compare_11_13_17_0_a2[5]/O
                         net (fo=3, routed)           0.253     5.741    muon_sorter_1/pt_compare_11_13_17_0_a2[5]
    SLICE_X106Y393       LUT4 (Prop_E6LUT_SLICEL_I2_O)
                                                      0.100     5.841 r  muon_sorter_1/max_pt_1_1_N_6L11/O
                         net (fo=1, routed)           0.048     5.889    muon_sorter_1/max_pt_1_1_N_6L11
    SLICE_X106Y393       LUT4 (Prop_D6LUT_SLICEL_I2_O)
                                                      0.099     5.988 f  muon_sorter_1/max_pt_1_1[5]/O
                         net (fo=12, routed)          0.573     6.561    muon_sorter_1/max_pt_1_1[5]
    SLICE_X99Y391        LUT6 (Prop_B6LUT_SLICEM_I3_O)
                                                      0.116     6.677 f  muon_sorter_1/pt_compare_2_5_0_a2[0]/O
                         net (fo=4, routed)           0.173     6.850    muon_sorter_1/pt_compare_2_5_0_a2[0]
    SLICE_X99Y392        LUT6 (Prop_H6LUT_SLICEM_I5_O)
                                                      0.066     6.916 r  muon_sorter_1/max_pt_2_0_3_N_3L4/O
                         net (fo=1, routed)           0.126     7.042    muon_sorter_1/max_pt_2_0_3_N_3L4
    SLICE_X99Y393        LUT5 (Prop_G6LUT_SLICEM_I4_O)
                                                      0.179     7.221 r  muon_sorter_1/max_pt_2_0_3[5]/O
                         net (fo=3, routed)           0.186     7.407    muon_sorter_1/max_pt_2_0_3[5]
    SLICE_X98Y392        LUT5 (Prop_B6LUT_SLICEL_I4_O)
                                                      0.177     7.584 r  muon_sorter_1/max_pt_2_3[5]/O
                         net (fo=14, routed)          0.127     7.711    muon_sorter_1/max_pt_2_3[5]
    SLICE_X98Y391        LUT5 (Prop_A6LUT_SLICEL_I4_O)
                                                      0.100     7.811 r  muon_sorter_1/pt_compare_3_5_0_a2[0]/O
                         net (fo=6, routed)           0.504     8.315    muon_sorter_1/N_338
    SLICE_X95Y387        LUT6 (Prop_C6LUT_SLICEM_I3_O)
                                                      0.174     8.489 r  muon_sorter_1/max_pt_3_0[0]/O
                         net (fo=2, routed)           0.203     8.692    muon_sorter_1/max_pt_3_0[0]
    SLICE_X95Y390        LUT6 (Prop_D6LUT_SLICEM_I4_O)
                                                      0.114     8.806 r  muon_sorter_1/max_pt_3[0]/O
                         net (fo=36, routed)          0.430     9.236    muon_sorter_1/max_pt_3[0]
    SLICE_X94Y394        LUT5 (Prop_F6LUT_SLICEL_I2_O)
                                                      0.098     9.334 r  muon_sorter_1/max_pt_4_3_N_5L9_0_N_8L16_0/O
                         net (fo=1, routed)           0.046     9.380    muon_sorter_1/max_pt_4_3_N_5L9_0_N_8L16_0
    SLICE_X94Y394        LUT6 (Prop_G6LUT_SLICEL_I5_O)
                                                      0.063     9.443 f  muon_sorter_1/max_pt_4_3_N_5L9_0/O
                         net (fo=3, routed)           0.350     9.793    muon_sorter_1/max_pt_4_3_N_5L9_0
    SLICE_X96Y396        LUT5 (Prop_B6LUT_SLICEL_I4_O)
                                                      0.177     9.970 r  muon_sorter_1/max_pt_4_3_x[12]/O
                         net (fo=1, routed)           0.331    10.301    muon_sorter_1/max_pt_4_3_x[12]
    SLICE_X94Y396        LUT6 (Prop_H6LUT_SLICEL_I1_O)
                                                      0.064    10.365 f  muon_sorter_1/pt_compare_13_14_25_0_a2[12]/O
                         net (fo=4, routed)           0.278    10.643    muon_sorter_1/pt_compare_13_14_25_0_a2[12]
    SLICE_X95Y398        LUT5 (Prop_A6LUT_SLICEM_I4_O)
                                                      0.100    10.743 r  muon_sorter_1/pt_compare_13_14_25_0_a2_RNI7C6H1[11]/O
                         net (fo=35, routed)          0.668    11.411    muon_sorter_1/max_pt_5_1[14]
    SLICE_X97Y399        LUT6 (Prop_G6LUT_SLICEM_I3_O)
                                                      0.064    11.475 r  muon_sorter_1/pt_compare_13_14_25_0_a2_RNIFHTJC[9]/O
                         net (fo=3, routed)           0.436    11.911    muon_sorter_1/pt_compare_6_14_0_a2_0[9]
    SLICE_X90Y401        LUT6 (Prop_G6LUT_SLICEM_I2_O)
                                                      0.100    12.011 r  muon_sorter_1/max_pt_6_1[9]/O
                         net (fo=17, routed)          0.441    12.452    muon_sorter_1/max_pt_6_1[9]
    SLICE_X95Y405        LUT6 (Prop_A6LUT_SLICEM_I3_O)
                                                      0.179    12.631 f  muon_sorter_1/pt_compare_7_9_0_a2[4]/O
                         net (fo=9, routed)           0.398    13.029    muon_sorter_1/N_531
    SLICE_X92Y407        LUT6 (Prop_H6LUT_SLICEM_I4_O)
                                                      0.066    13.095 r  muon_sorter_1/max_pt_7_0_0_e[9]/O
                         net (fo=5, routed)           0.672    13.767    muon_sorter_1/max_pt_7_0_0_e[9]
    SLICE_X99Y404        LUT6 (Prop_F6LUT_SLICEM_I5_O)
                                                      0.098    13.865 r  muon_sorter_1/pt_compare_8_9_0_a2[5]/O
                         net (fo=3, routed)           0.361    14.226    muon_sorter_1/N_669_ret_0i
    SLICE_X102Y403       FDRE                                         r  muon_sorter_1/sr_p.sr_1_15.sector_ret_3225/D
  -------------------------------------------------------------------    -------------------

                         (clock clk rise edge)        6.250     6.250 r  
    AV33                                              0.000     6.250 r  clk (IN)
                         net (fo=0)                   0.000     6.250    clk_ibuf_iso/I
    AV33                 INBUF (Prop_INBUF_HPIOB_M_PAD_O)
                                                      0.510     6.760 r  clk_ibuf_iso/INBUF_INST/O
                         net (fo=1, routed)           0.000     6.760    clk_ibuf_iso/OUT
    AV33                 IBUFCTRL (Prop_IBUFCTRL_HPIOB_M_I_O)
                                                      0.000     6.760 r  clk_ibuf_iso/IBUFCTRL_INST/O
                         net (fo=1, routed)           0.296     7.056    clk_ibuf_iso
    BUFGCE_X1Y224        BUFGCE (Prop_BUFCE_BUFGCE_I_O)
                                                      0.024     7.080 r  clk_ibuf/O
    X3Y6 (CLOCK_ROOT)    net (fo=2527, routed)        2.177     9.257    muon_sorter_1/clk_c
    SLICE_X102Y403       FDRE                                         r  muon_sorter_1/sr_p.sr_1_15.sector_ret_3225/C
                         clock pessimism              0.476     9.733    
                         clock uncertainty           -0.035     9.697    
    SLICE_X102Y403       FDRE (Setup_EFF2_SLICEM_C_D)
                                                      0.027     9.724    muon_sorter_1/sr_p.sr_1_15.sector_ret_3225
  -------------------------------------------------------------------
                         required time                          9.724    
                         arrival time                         -14.226    
  -------------------------------------------------------------------
                         slack                                 -4.502    

Slack (VIOLATED) :        -4.502ns  (required time - arrival time)
  Source:                 muon_cand_8.pt_1_rep1/C
                            (rising edge-triggered cell FDRE clocked by clk  {rise@0.000ns fall@3.125ns period=6.250ns})
  Destination:            muon_sorter_1/sr_p.sr_1_15.sector_ret_3225/D
                            (rising edge-triggered cell FDRE clocked by clk  {rise@0.000ns fall@3.125ns period=6.250ns})
  Path Group:             clk
  Path Type:              Setup (Max at Slow Process Corner)
  Requirement:            6.250ns  (clk rise@6.250ns - clk rise@0.000ns)
  Data Path Delay:        10.708ns  (logic 2.785ns (26.009%)  route 7.923ns (73.991%))
  Logic Levels:           23  (LUT4=3 LUT5=8 LUT6=12)
  Clock Path Skew:        -0.035ns (DCD - SCD + CPR)
    Destination Clock Delay (DCD):    3.007ns = ( 9.257 - 6.250 ) 
    Source Clock Delay      (SCD):    3.518ns
    Clock Pessimism Removal (CPR):    0.476ns
  Clock Uncertainty:      0.035ns  ((TSJ^2 + TIJ^2)^1/2 + DJ) / 2 + PE
    Total System Jitter     (TSJ):    0.071ns
    Total Input Jitter      (TIJ):    0.000ns
    Discrete Jitter          (DJ):    0.000ns
    Phase Error              (PE):    0.000ns
  Clock Net Delay (Source):      2.377ns (routing 1.460ns, distribution 0.917ns)
  Clock Net Delay (Destination): 2.177ns (routing 1.334ns, distribution 0.843ns)

    Location             Delay type                Incr(ns)  Path(ns)    Netlist Resource(s)
  -------------------------------------------------------------------    -------------------
                         (clock clk rise edge)        0.000     0.000 r  
    AV33                                              0.000     0.000 r  clk (IN)
                         net (fo=0)                   0.000     0.000    clk_ibuf_iso/I
    AV33                 INBUF (Prop_INBUF_HPIOB_M_PAD_O)
                                                      0.779     0.779 r  clk_ibuf_iso/INBUF_INST/O
                         net (fo=1, routed)           0.000     0.779    clk_ibuf_iso/OUT
    AV33                 IBUFCTRL (Prop_IBUFCTRL_HPIOB_M_I_O)
                                                      0.000     0.779 r  clk_ibuf_iso/IBUFCTRL_INST/O
                         net (fo=1, routed)           0.334     1.113    clk_ibuf_iso
    BUFGCE_X1Y224        BUFGCE (Prop_BUFCE_BUFGCE_I_O)
                                                      0.028     1.141 r  clk_ibuf/O
    X3Y6 (CLOCK_ROOT)    net (fo=2527, routed)        2.377     3.518    clk_c
    SLICE_X103Y388       FDRE                                         r  muon_cand_8.pt_1_rep1/C
  -------------------------------------------------------------------    -------------------
    SLICE_X103Y388       FDRE (Prop_HFF_SLICEL_C_Q)
                                                      0.096     3.614 f  muon_cand_8.pt_1_rep1/Q
                         net (fo=8, routed)           0.319     3.933    muon_sorter_1/pt_1_rep1_5
    SLICE_X103Y384       LUT4 (Prop_C6LUT_SLICEL_I0_O)
                                                      0.148     4.081 f  muon_sorter_1/compare_p.13.8.compare_pt.op_qge.op_qge.un16422_pt_compare_c2/O
                         net (fo=1, routed)           0.113     4.194    muon_sorter_1/un16422_pt_compare_c2
    SLICE_X103Y386       LUT5 (Prop_B6LUT_SLICEL_I4_O)
                                                      0.115     4.309 f  muon_sorter_1/compare_p.13.8.compare_pt.op_qge.op_qge.un16422_pt_compare_c4/O
                         net (fo=10, routed)          0.606     4.915    muon_sorter_1/un16422_pt_compare
    SLICE_X105Y391       LUT5 (Prop_B6LUT_SLICEL_I1_O)
                                                      0.115     5.030 r  muon_sorter_1/max_pt_0_1[13]/O
                         net (fo=18, routed)          0.281     5.311    muon_sorter_1/max_pt_0_1[13]
    SLICE_X105Y394       LUT6 (Prop_F6LUT_SLICEL_I5_O)
                                                      0.177     5.488 r  muon_sorter_1/pt_compare_11_13_17_0_a2[5]/O
                         net (fo=3, routed)           0.253     5.741    muon_sorter_1/pt_compare_11_13_17_0_a2[5]
    SLICE_X106Y393       LUT4 (Prop_E6LUT_SLICEL_I2_O)
                                                      0.100     5.841 f  muon_sorter_1/max_pt_1_1_N_6L11/O
                         net (fo=1, routed)           0.048     5.889    muon_sorter_1/max_pt_1_1_N_6L11
    SLICE_X106Y393       LUT4 (Prop_D6LUT_SLICEL_I2_O)
                                                      0.099     5.988 r  muon_sorter_1/max_pt_1_1[5]/O
                         net (fo=12, routed)          0.573     6.561    muon_sorter_1/max_pt_1_1[5]
    SLICE_X99Y391        LUT6 (Prop_B6LUT_SLICEM_I3_O)
                                                      0.116     6.677 r  muon_sorter_1/pt_compare_2_5_0_a2[0]/O
                         net (fo=4, routed)           0.173     6.850    muon_sorter_1/pt_compare_2_5_0_a2[0]
    SLICE_X99Y392        LUT6 (Prop_H6LUT_SLICEM_I5_O)
                                                      0.066     6.916 f  muon_sorter_1/max_pt_2_0_3_N_3L4/O
                         net (fo=1, routed)           0.126     7.042    muon_sorter_1/max_pt_2_0_3_N_3L4
    SLICE_X99Y393        LUT5 (Prop_G6LUT_SLICEM_I4_O)
                                                      0.179     7.221 f  muon_sorter_1/max_pt_2_0_3[5]/O
                         net (fo=3, routed)           0.186     7.407    muon_sorter_1/max_pt_2_0_3[5]
    SLICE_X98Y392        LUT5 (Prop_B6LUT_SLICEL_I4_O)
                                                      0.177     7.584 f  muon_sorter_1/max_pt_2_3[5]/O
                         net (fo=14, routed)          0.127     7.711    muon_sorter_1/max_pt_2_3[5]
    SLICE_X98Y391        LUT5 (Prop_A6LUT_SLICEL_I4_O)
                                                      0.100     7.811 r  muon_sorter_1/pt_compare_3_5_0_a2[0]/O
                         net (fo=6, routed)           0.504     8.315    muon_sorter_1/N_338
    SLICE_X95Y387        LUT6 (Prop_C6LUT_SLICEM_I3_O)
                                                      0.174     8.489 r  muon_sorter_1/max_pt_3_0[0]/O
                         net (fo=2, routed)           0.203     8.692    muon_sorter_1/max_pt_3_0[0]
    SLICE_X95Y390        LUT6 (Prop_D6LUT_SLICEM_I4_O)
                                                      0.114     8.806 r  muon_sorter_1/max_pt_3[0]/O
                         net (fo=36, routed)          0.430     9.236    muon_sorter_1/max_pt_3[0]
    SLICE_X94Y394        LUT5 (Prop_F6LUT_SLICEL_I2_O)
                                                      0.098     9.334 r  muon_sorter_1/max_pt_4_3_N_5L9_0_N_8L16_0/O
                         net (fo=1, routed)           0.046     9.380    muon_sorter_1/max_pt_4_3_N_5L9_0_N_8L16_0
    SLICE_X94Y394        LUT6 (Prop_G6LUT_SLICEL_I5_O)
                                                      0.063     9.443 f  muon_sorter_1/max_pt_4_3_N_5L9_0/O
                         net (fo=3, routed)           0.350     9.793    muon_sorter_1/max_pt_4_3_N_5L9_0
    SLICE_X96Y396        LUT5 (Prop_B6LUT_SLICEL_I4_O)
                                                      0.177     9.970 r  muon_sorter_1/max_pt_4_3_x[12]/O
                         net (fo=1, routed)           0.331    10.301    muon_sorter_1/max_pt_4_3_x[12]
    SLICE_X94Y396        LUT6 (Prop_H6LUT_SLICEL_I1_O)
                                                      0.064    10.365 f  muon_sorter_1/pt_compare_13_14_25_0_a2[12]/O
                         net (fo=4, routed)           0.278    10.643    muon_sorter_1/pt_compare_13_14_25_0_a2[12]
    SLICE_X95Y398        LUT5 (Prop_A6LUT_SLICEM_I4_O)
                                                      0.100    10.743 r  muon_sorter_1/pt_compare_13_14_25_0_a2_RNI7C6H1[11]/O
                         net (fo=35, routed)          0.668    11.411    muon_sorter_1/max_pt_5_1[14]
    SLICE_X97Y399        LUT6 (Prop_G6LUT_SLICEM_I3_O)
                                                      0.064    11.475 r  muon_sorter_1/pt_compare_13_14_25_0_a2_RNIFHTJC[9]/O
                         net (fo=3, routed)           0.436    11.911    muon_sorter_1/pt_compare_6_14_0_a2_0[9]
    SLICE_X90Y401        LUT6 (Prop_G6LUT_SLICEM_I2_O)
                                                      0.100    12.011 r  muon_sorter_1/max_pt_6_1[9]/O
                         net (fo=17, routed)          0.441    12.452    muon_sorter_1/max_pt_6_1[9]
    SLICE_X95Y405        LUT6 (Prop_A6LUT_SLICEM_I3_O)
                                                      0.179    12.631 f  muon_sorter_1/pt_compare_7_9_0_a2[4]/O
                         net (fo=9, routed)           0.398    13.029    muon_sorter_1/N_531
    SLICE_X92Y407        LUT6 (Prop_H6LUT_SLICEM_I4_O)
                                                      0.066    13.095 r  muon_sorter_1/max_pt_7_0_0_e[9]/O
                         net (fo=5, routed)           0.672    13.767    muon_sorter_1/max_pt_7_0_0_e[9]
    SLICE_X99Y404        LUT6 (Prop_F6LUT_SLICEM_I5_O)
                                                      0.098    13.865 r  muon_sorter_1/pt_compare_8_9_0_a2[5]/O
                         net (fo=3, routed)           0.361    14.226    muon_sorter_1/N_669_ret_0i
    SLICE_X102Y403       FDRE                                         r  muon_sorter_1/sr_p.sr_1_15.sector_ret_3225/D
  -------------------------------------------------------------------    -------------------

                         (clock clk rise edge)        6.250     6.250 r  
    AV33                                              0.000     6.250 r  clk (IN)
                         net (fo=0)                   0.000     6.250    clk_ibuf_iso/I
    AV33                 INBUF (Prop_INBUF_HPIOB_M_PAD_O)
                                                      0.510     6.760 r  clk_ibuf_iso/INBUF_INST/O
                         net (fo=1, routed)           0.000     6.760    clk_ibuf_iso/OUT
    AV33                 IBUFCTRL (Prop_IBUFCTRL_HPIOB_M_I_O)
                                                      0.000     6.760 r  clk_ibuf_iso/IBUFCTRL_INST/O
                         net (fo=1, routed)           0.296     7.056    clk_ibuf_iso
    BUFGCE_X1Y224        BUFGCE (Prop_BUFCE_BUFGCE_I_O)
                                                      0.024     7.080 r  clk_ibuf/O
    X3Y6 (CLOCK_ROOT)    net (fo=2527, routed)        2.177     9.257    muon_sorter_1/clk_c
    SLICE_X102Y403       FDRE                                         r  muon_sorter_1/sr_p.sr_1_15.sector_ret_3225/C
                         clock pessimism              0.476     9.733    
                         clock uncertainty           -0.035     9.697    
    SLICE_X102Y403       FDRE (Setup_EFF2_SLICEM_C_D)
                                                      0.027     9.724    muon_sorter_1/sr_p.sr_1_15.sector_ret_3225
  -------------------------------------------------------------------
                         required time                          9.724    
                         arrival time                         -14.226    
  -------------------------------------------------------------------
                         slack                                 -4.502    





Pulse Width Checks
--------------------------------------------------------------------------------------
Clock Name:         clk
Waveform(ns):       { 0.000 3.125 }
Period(ns):         6.250
Sources:            { clk }

Check Type        Corner  Lib Pin   Reference Pin  Required(ns)  Actual(ns)  Slack(ns)  Location        Pin
Min Period        n/a     BUFGCE/I  n/a            1.499         6.250       4.751      BUFGCE_X1Y224   clk_ibuf/I
Min Period        n/a     FDRE/C    n/a            0.550         6.250       5.700      SLICE_X105Y387  muon_cand_3.pt_0_rep1/C
Min Period        n/a     FDRE/C    n/a            0.550         6.250       5.700      SLICE_X105Y385  muon_cand_3.pt_1_rep1/C
Min Period        n/a     FDRE/C    n/a            0.550         6.250       5.700      SLICE_X105Y388  muon_cand_3.pt_2_rep1/C
Min Period        n/a     FDRE/C    n/a            0.550         6.250       5.700      SLICE_X106Y388  muon_cand_3.pt_3_rep1/C
Low Pulse Width   Fast    FDRE/C    n/a            0.275         3.125       2.850      SLICE_X105Y387  muon_cand_3.pt_fast[0]/C
Low Pulse Width   Fast    FDRE/C    n/a            0.275         3.125       2.850      SLICE_X98Y421   muon_cand_3.roi[6]/C
Low Pulse Width   Fast    FDRE/C    n/a            0.275         3.125       2.850      SLICE_X98Y421   muon_sorter_1/sr_p.sr_1_7.roi_ret_206/C
Low Pulse Width   Fast    FDRE/C    n/a            0.275         3.125       2.850      SLICE_X100Y379  shift_reg_tap_i/sr_p.sr_3[16]/C
Low Pulse Width   Fast    FDRE/C    n/a            0.275         3.125       2.850      SLICE_X100Y385  muon_cand_4.pt[2]/C
High Pulse Width  Slow    FDRE/C    n/a            0.275         3.125       2.850      SLICE_X106Y388  muon_cand_3.pt_3_rep1/C
High Pulse Width  Slow    FDRE/C    n/a            0.275         3.125       2.850      SLICE_X106Y387  muon_cand_3.pt_fast[1]/C
High Pulse Width  Slow    FDRE/C    n/a            0.275         3.125       2.850      SLICE_X90Y384   muon_cand_3.roi[0]/C
High Pulse Width  Slow    FDRE/C    n/a            0.275         3.125       2.850      SLICE_X90Y384   muon_cand_3.roi[1]/C
High Pulse Width  Slow    FDRE/C    n/a            0.275         3.125       2.850      SLICE_X94Y423   muon_cand_3.roi[2]/C



---------------------------------------------------------------------------------------------------
From Clock:  clk_wrapper
  To Clock:  clk_wrapper

Setup :           NA  Failing Endpoints,  Worst Slack           NA  ,  Total Violation           NA
Hold  :           NA  Failing Endpoints,  Worst Slack           NA  ,  Total Violation           NA
PW    :            0  Failing Endpoints,  Worst Slack      498.562ns,  Total Violation        0.000ns
---------------------------------------------------------------------------------------------------


Pulse Width Checks
--------------------------------------------------------------------------------------
Clock Name:         clk_wrapper
Waveform(ns):       { 0.000 500.000 }
Period(ns):         1000.000
Sources:            { clk_wrapper }

Check Type        Corner  Lib Pin   Reference Pin  Required(ns)  Actual(ns)  Slack(ns)  Location               Pin
Min Period        n/a     FDRE/C    n/a            3.195         1000.000    996.805    BITSLICE_RX_TX_X1Y483  reducer_1/delay_block[4][0]/C
Min Period        n/a     BUFGCE/I  n/a            1.499         1000.000    998.501    BUFGCE_X1Y230          clk_wrapper_ibuf/I
Min Period        n/a     FDRE/C    n/a            0.550         1000.000    999.450    SLICE_X101Y420         lsfr_1/output_vector_1[255]/C
Min Period        n/a     FDRE/C    n/a            0.550         1000.000    999.450    SLICE_X112Y419         lsfr_1/shiftreg_vector[0]/C
Min Period        n/a     FDRE/C    n/a            0.550         1000.000    999.450    SLICE_X98Y375          lsfr_1/shiftreg_vector[100]/C
Low Pulse Width   Slow    FDRE/C    n/a            1.438         500.000     498.562    BITSLICE_RX_TX_X1Y483  reducer_1/delay_block[4][0]/C
Low Pulse Width   Fast    FDRE/C    n/a            1.438         500.000     498.562    BITSLICE_RX_TX_X1Y483  reducer_1/delay_block[4][0]/C
Low Pulse Width   Slow    FDRE/C    n/a            0.275         500.000     499.725    SLICE_X100Y376         lsfr_1/shiftreg_vector[117]/C
Low Pulse Width   Slow    FDRE/C    n/a            0.275         500.000     499.725    SLICE_X100Y376         lsfr_1/shiftreg_vector[118]/C
Low Pulse Width   Slow    FDRE/C    n/a            0.275         500.000     499.725    SLICE_X100Y376         lsfr_1/shiftreg_vector[119]/C
High Pulse Width  Fast    FDRE/C    n/a            1.438         500.000     498.562    BITSLICE_RX_TX_X1Y483  reducer_1/delay_block[4][0]/C
High Pulse Width  Slow    FDRE/C    n/a            1.438         500.000     498.562    BITSLICE_RX_TX_X1Y483  reducer_1/delay_block[4][0]/C
High Pulse Width  Fast    FDRE/C    n/a            0.275         500.000     499.725    SLICE_X112Y419         lsfr_1/shiftreg_vector[0]/C
High Pulse Width  Fast    FDRE/C    n/a            0.275         500.000     499.725    SLICE_X98Y375          lsfr_1/shiftreg_vector[100]/C
High Pulse Width  Fast    FDRE/C    n/a            0.275         500.000     499.725    SLICE_X98Y375          lsfr_1/shiftreg_vector[101]/C



