Copyright 1986-2018 Xilinx, Inc. All Rights Reserved.
-----------------------------------------------------------------------------------------------
| Tool Version      : Vivado v.2018.2 (win64) Build 2258646 Thu Jun 14 20:03:12 MDT 2018
| Date              : Wed Feb  6 13:27:08 2019
| Host              : PCPHESEBE02 running 64-bit Service Pack 1  (build 7601)
| Command           : report_timing_summary -hold -nworst 5 -max_paths 5 -file timing_hold.txt
| Design            : wrapper
| Device            : xcvu9p-flgc2104
| Speed File        : -1  PRODUCTION 1.20 05-21-2018
| Temperature Grade : E
-----------------------------------------------------------------------------------------------

Timing Summary Report

------------------------------------------------------------------------------------------------
| Timer Settings
| --------------
------------------------------------------------------------------------------------------------

  Enable Multi Corner Analysis               :  Yes
  Enable Pessimism Removal                   :  Yes
  Pessimism Removal Resolution               :  Nearest Common Node
  Enable Input Delay Default Clock           :  No
  Enable Preset / Clear Arcs                 :  No
  Disable Flight Delays                      :  No
  Ignore I/O Paths                           :  No
  Timing Early Launch at Borrowing Latches   :  false

  Corner  Analyze    Analyze    
  Name    Max Paths  Min Paths  
  ------  ---------  ---------  
  Slow    Yes        Yes        
  Fast    Yes        Yes        



check_timing report

Table of Contents
-----------------
1. checking no_clock
2. checking constant_clock
3. checking pulse_width_clock
4. checking unconstrained_internal_endpoints
5. checking no_input_delay
6. checking no_output_delay
7. checking multiple_clock
8. checking generated_clocks
9. checking loops
10. checking partial_input_delay
11. checking partial_output_delay
12. checking latch_loops

1. checking no_clock
--------------------
 There are 0 register/latch pins with no clock.


2. checking constant_clock
--------------------------
 There are 0 register/latch pins with constant_clock.


3. checking pulse_width_clock
-----------------------------
 There are 0 register/latch pins which need pulse_width check


4. checking unconstrained_internal_endpoints
--------------------------------------------
 There are 0 pins that are not constrained for maximum delay.

 There are 0 pins that are not constrained for maximum delay due to constant clock.


5. checking no_input_delay
--------------------------
 There is 1 input port with no input delay specified. (HIGH)

 There are 0 input ports with no input delay but user has a false path constraint.


6. checking no_output_delay
---------------------------
 There is 1 port with no output delay specified. (HIGH)

 There are 0 ports with no output delay but user has a false path constraint

 There are 0 ports with no output delay but with a timing clock defined on it or propagating through it


7. checking multiple_clock
--------------------------
 There are 0 register/latch pins with multiple clocks.


8. checking generated_clocks
----------------------------
 There are 0 generated clocks that are not connected to a clock source.


9. checking loops
-----------------
 There are 0 combinational loops in the design.


10. checking partial_input_delay
--------------------------------
 There are 0 input ports with partial input delay specified.


11. checking partial_output_delay
---------------------------------
 There are 0 ports with partial output delay specified.


12. checking latch_loops
------------------------
 There are 0 combinational latch loops in the design through latch input



------------------------------------------------------------------------------------------------
| Design Timing Summary
| ---------------------
------------------------------------------------------------------------------------------------

    WHS(ns)      THS(ns)  THS Failing Endpoints  THS Total Endpoints     WPWS(ns)     TPWS(ns)  TPWS Failing Endpoints  TPWS Total Endpoints  
    -------      -------  ---------------------  -------------------     --------     --------  ----------------------  --------------------  
      0.015        0.000                      0                 9127        1.287        0.000                       0                  9969  


All user specified timing constraints are met.


------------------------------------------------------------------------------------------------
| Clock Summary
| -------------
------------------------------------------------------------------------------------------------

Clock        Waveform(ns)         Period(ns)      Frequency(MHz)
-----        ------------         ----------      --------------
clk          {0.000 1.563}        3.125           320.000         
clk_wrapper  {0.000 500.000}      1000.000        1.000           


------------------------------------------------------------------------------------------------
| Intra Clock Table
| -----------------
------------------------------------------------------------------------------------------------

Clock             WHS(ns)      THS(ns)  THS Failing Endpoints  THS Total Endpoints     WPWS(ns)     TPWS(ns)  TPWS Failing Endpoints  TPWS Total Endpoints  
-----             -------      -------  ---------------------  -------------------     --------     --------  ----------------------  --------------------  
clk                 0.015        0.000                      0                 9127        1.287        0.000                       0                  9370  
clk_wrapper                                                                             498.562        0.000                       0                   599  


------------------------------------------------------------------------------------------------
| Inter Clock Table
| -----------------
------------------------------------------------------------------------------------------------

From Clock    To Clock          WHS(ns)      THS(ns)  THS Failing Endpoints  THS Total Endpoints  
----------    --------          -------      -------  ---------------------  -------------------  


------------------------------------------------------------------------------------------------
| Other Path Groups Table
| -----------------------
------------------------------------------------------------------------------------------------

Path Group    From Clock    To Clock          WHS(ns)      THS(ns)  THS Failing Endpoints  THS Total Endpoints  
----------    ----------    --------          -------      -------  ---------------------  -------------------  


------------------------------------------------------------------------------------------------
| Timing Details
| --------------
------------------------------------------------------------------------------------------------


---------------------------------------------------------------------------------------------------
From Clock:  clk
  To Clock:  clk

Setup :           NA  Failing Endpoints,  Worst Slack           NA  ,  Total Violation           NA
Hold  :            0  Failing Endpoints,  Worst Slack        0.015ns,  Total Violation        0.000ns
PW    :            0  Failing Endpoints,  Worst Slack        1.287ns,  Total Violation        0.000ns
---------------------------------------------------------------------------------------------------


Min Delay Paths
--------------------------------------------------------------------------------------
Slack (MET) :             0.015ns  (arrival time - required time)
  Source:                 muon_sorter_1/sr_p.sr_2_13.roi[3]/C
                            (rising edge-triggered cell FDRE clocked by clk  {rise@0.000ns fall@1.563ns period=3.125ns})
  Destination:            shift_reg_tap_o/sr_p.sr_1[219]/D
                            (rising edge-triggered cell FDRE clocked by clk  {rise@0.000ns fall@1.563ns period=3.125ns})
  Path Group:             clk
  Path Type:              Hold (Min at Slow Process Corner)
  Requirement:            0.000ns  (clk rise@0.000ns - clk rise@0.000ns)
  Data Path Delay:        0.191ns  (logic 0.070ns (36.649%)  route 0.121ns (63.351%))
  Logic Levels:           0  
  Clock Path Skew:        0.121ns (DCD - SCD - CPR)
    Destination Clock Delay (DCD):    3.797ns
    Source Clock Delay      (SCD):    3.177ns
    Clock Pessimism Removal (CPR):    0.499ns
  Clock Net Delay (Source):      2.347ns (routing 1.538ns, distribution 0.809ns)
  Clock Net Delay (Destination): 2.656ns (routing 1.683ns, distribution 0.973ns)

    Location             Delay type                Incr(ns)  Path(ns)    Netlist Resource(s)
  -------------------------------------------------------------------    -------------------
                         (clock clk rise edge)        0.000     0.000 r  
    AV33                                              0.000     0.000 r  clk (IN)
                         net (fo=0)                   0.000     0.000    clk_ibuf_iso/I
    AV33                 INBUF (Prop_INBUF_HPIOB_M_PAD_O)
                                                      0.510     0.510 r  clk_ibuf_iso/INBUF_INST/O
                         net (fo=1, routed)           0.000     0.510    clk_ibuf_iso/OUT
    AV33                 IBUFCTRL (Prop_IBUFCTRL_HPIOB_M_I_O)
                                                      0.000     0.510 r  clk_ibuf_iso/IBUFCTRL_INST/O
                         net (fo=1, routed)           0.296     0.806    clk_ibuf_iso
    BUFGCE_X1Y224        BUFGCE (Prop_BUFCE_BUFGCE_I_O)
                                                      0.024     0.830 r  clk_ibuf/O
    X3Y5 (CLOCK_ROOT)    net (fo=9369, routed)        2.347     3.177    muon_sorter_1/clk_c
    SLICE_X98Y391        FDRE                                         r  muon_sorter_1/sr_p.sr_2_13.roi[3]/C
  -------------------------------------------------------------------    -------------------
    SLICE_X98Y391        FDRE (Prop_HFF_SLICEL_C_Q)
                                                      0.070     3.247 r  muon_sorter_1/sr_p.sr_2_13.roi[3]/Q
                         net (fo=1, routed)           0.121     3.368    shift_reg_tap_o/roi_12[3]
    SLICE_X98Y388        FDRE                                         r  shift_reg_tap_o/sr_p.sr_1[219]/D
  -------------------------------------------------------------------    -------------------

                         (clock clk rise edge)        0.000     0.000 r  
    AV33                                              0.000     0.000 r  clk (IN)
                         net (fo=0)                   0.000     0.000    clk_ibuf_iso/I
    AV33                 INBUF (Prop_INBUF_HPIOB_M_PAD_O)
                                                      0.779     0.779 r  clk_ibuf_iso/INBUF_INST/O
                         net (fo=1, routed)           0.000     0.779    clk_ibuf_iso/OUT
    AV33                 IBUFCTRL (Prop_IBUFCTRL_HPIOB_M_I_O)
                                                      0.000     0.779 r  clk_ibuf_iso/IBUFCTRL_INST/O
                         net (fo=1, routed)           0.334     1.113    clk_ibuf_iso
    BUFGCE_X1Y224        BUFGCE (Prop_BUFCE_BUFGCE_I_O)
                                                      0.028     1.141 r  clk_ibuf/O
    X3Y5 (CLOCK_ROOT)    net (fo=9369, routed)        2.656     3.797    shift_reg_tap_o/clk_c
    SLICE_X98Y388        FDRE                                         r  shift_reg_tap_o/sr_p.sr_1[219]/C
                         clock pessimism             -0.499     3.298    
    SLICE_X98Y388        FDRE (Hold_FFF2_SLICEL_C_D)
                                                      0.055     3.353    shift_reg_tap_o/sr_p.sr_1[219]
  -------------------------------------------------------------------
                         required time                         -3.353    
                         arrival time                           3.368    
  -------------------------------------------------------------------
                         slack                                  0.015    

Slack (MET) :             0.015ns  (arrival time - required time)
  Source:                 muon_sorter_1/sr_p.sr_2_13.roi[3]/C
                            (rising edge-triggered cell FDRE clocked by clk  {rise@0.000ns fall@1.563ns period=3.125ns})
  Destination:            shift_reg_tap_o/sr_p.sr_1[219]/D
                            (rising edge-triggered cell FDRE clocked by clk  {rise@0.000ns fall@1.563ns period=3.125ns})
  Path Group:             clk
  Path Type:              Hold (Min at Slow Process Corner)
  Requirement:            0.000ns  (clk rise@0.000ns - clk rise@0.000ns)
  Data Path Delay:        0.191ns  (logic 0.070ns (36.649%)  route 0.121ns (63.351%))
  Logic Levels:           0  
  Clock Path Skew:        0.121ns (DCD - SCD - CPR)
    Destination Clock Delay (DCD):    3.797ns
    Source Clock Delay      (SCD):    3.177ns
    Clock Pessimism Removal (CPR):    0.499ns
  Clock Net Delay (Source):      2.347ns (routing 1.538ns, distribution 0.809ns)
  Clock Net Delay (Destination): 2.656ns (routing 1.683ns, distribution 0.973ns)

    Location             Delay type                Incr(ns)  Path(ns)    Netlist Resource(s)
  -------------------------------------------------------------------    -------------------
                         (clock clk rise edge)        0.000     0.000 r  
    AV33                                              0.000     0.000 r  clk (IN)
                         net (fo=0)                   0.000     0.000    clk_ibuf_iso/I
    AV33                 INBUF (Prop_INBUF_HPIOB_M_PAD_O)
                                                      0.510     0.510 r  clk_ibuf_iso/INBUF_INST/O
                         net (fo=1, routed)           0.000     0.510    clk_ibuf_iso/OUT
    AV33                 IBUFCTRL (Prop_IBUFCTRL_HPIOB_M_I_O)
                                                      0.000     0.510 r  clk_ibuf_iso/IBUFCTRL_INST/O
                         net (fo=1, routed)           0.296     0.806    clk_ibuf_iso
    BUFGCE_X1Y224        BUFGCE (Prop_BUFCE_BUFGCE_I_O)
                                                      0.024     0.830 r  clk_ibuf/O
    X3Y5 (CLOCK_ROOT)    net (fo=9369, routed)        2.347     3.177    muon_sorter_1/clk_c
    SLICE_X98Y391        FDRE                                         r  muon_sorter_1/sr_p.sr_2_13.roi[3]/C
  -------------------------------------------------------------------    -------------------
    SLICE_X98Y391        FDRE (Prop_HFF_SLICEL_C_Q)
                                                      0.070     3.247 f  muon_sorter_1/sr_p.sr_2_13.roi[3]/Q
                         net (fo=1, routed)           0.121     3.368    shift_reg_tap_o/roi_12[3]
    SLICE_X98Y388        FDRE                                         f  shift_reg_tap_o/sr_p.sr_1[219]/D
  -------------------------------------------------------------------    -------------------

                         (clock clk rise edge)        0.000     0.000 r  
    AV33                                              0.000     0.000 r  clk (IN)
                         net (fo=0)                   0.000     0.000    clk_ibuf_iso/I
    AV33                 INBUF (Prop_INBUF_HPIOB_M_PAD_O)
                                                      0.779     0.779 r  clk_ibuf_iso/INBUF_INST/O
                         net (fo=1, routed)           0.000     0.779    clk_ibuf_iso/OUT
    AV33                 IBUFCTRL (Prop_IBUFCTRL_HPIOB_M_I_O)
                                                      0.000     0.779 r  clk_ibuf_iso/IBUFCTRL_INST/O
                         net (fo=1, routed)           0.334     1.113    clk_ibuf_iso
    BUFGCE_X1Y224        BUFGCE (Prop_BUFCE_BUFGCE_I_O)
                                                      0.028     1.141 r  clk_ibuf/O
    X3Y5 (CLOCK_ROOT)    net (fo=9369, routed)        2.656     3.797    shift_reg_tap_o/clk_c
    SLICE_X98Y388        FDRE                                         r  shift_reg_tap_o/sr_p.sr_1[219]/C
                         clock pessimism             -0.499     3.298    
    SLICE_X98Y388        FDRE (Hold_FFF2_SLICEL_C_D)
                                                      0.055     3.353    shift_reg_tap_o/sr_p.sr_1[219]
  -------------------------------------------------------------------
                         required time                         -3.353    
                         arrival time                           3.368    
  -------------------------------------------------------------------
                         slack                                  0.015    

Slack (MET) :             0.019ns  (arrival time - required time)
  Source:                 shift_reg_tap_i/sr_p.sr_13[205]/C
                            (rising edge-triggered cell FDRE clocked by clk  {rise@0.000ns fall@1.563ns period=3.125ns})
  Destination:            shift_reg_tap_i/sr_p.sr_14[205]/D
                            (rising edge-triggered cell FDRE clocked by clk  {rise@0.000ns fall@1.563ns period=3.125ns})
  Path Group:             clk
  Path Type:              Hold (Min at Fast Process Corner)
  Requirement:            0.000ns  (clk rise@0.000ns - clk rise@0.000ns)
  Data Path Delay:        0.072ns  (logic 0.039ns (54.167%)  route 0.033ns (45.833%))
  Logic Levels:           0  
  Clock Path Skew:        0.006ns (DCD - SCD - CPR)
    Destination Clock Delay (DCD):    2.275ns
    Source Clock Delay      (SCD):    1.883ns
    Clock Pessimism Removal (CPR):    0.386ns
  Clock Net Delay (Source):      1.337ns (routing 0.870ns, distribution 0.467ns)
  Clock Net Delay (Destination): 1.503ns (routing 0.965ns, distribution 0.538ns)

    Location             Delay type                Incr(ns)  Path(ns)    Netlist Resource(s)
  -------------------------------------------------------------------    -------------------
                         (clock clk rise edge)        0.000     0.000 r  
    AV33                                              0.000     0.000 r  clk (IN)
                         net (fo=0)                   0.000     0.000    clk_ibuf_iso/I
    AV33                 INBUF (Prop_INBUF_HPIOB_M_PAD_O)
                                                      0.385     0.385 r  clk_ibuf_iso/INBUF_INST/O
                         net (fo=1, routed)           0.000     0.385    clk_ibuf_iso/OUT
    AV33                 IBUFCTRL (Prop_IBUFCTRL_HPIOB_M_I_O)
                                                      0.000     0.385 r  clk_ibuf_iso/IBUFCTRL_INST/O
                         net (fo=1, routed)           0.144     0.529    clk_ibuf_iso
    BUFGCE_X1Y224        BUFGCE (Prop_BUFCE_BUFGCE_I_O)
                                                      0.017     0.546 r  clk_ibuf/O
    X3Y5 (CLOCK_ROOT)    net (fo=9369, routed)        1.337     1.883    shift_reg_tap_i/clk_c
    SLICE_X98Y346        FDRE                                         r  shift_reg_tap_i/sr_p.sr_13[205]/C
  -------------------------------------------------------------------    -------------------
    SLICE_X98Y346        FDRE (Prop_BFF_SLICEL_C_Q)
                                                      0.039     1.922 r  shift_reg_tap_i/sr_p.sr_13[205]/Q
                         net (fo=1, routed)           0.033     1.955    shift_reg_tap_i/sr_13[205]
    SLICE_X98Y346        FDRE                                         r  shift_reg_tap_i/sr_p.sr_14[205]/D
  -------------------------------------------------------------------    -------------------

                         (clock clk rise edge)        0.000     0.000 r  
    AV33                                              0.000     0.000 r  clk (IN)
                         net (fo=0)                   0.000     0.000    clk_ibuf_iso/I
    AV33                 INBUF (Prop_INBUF_HPIOB_M_PAD_O)
                                                      0.572     0.572 r  clk_ibuf_iso/INBUF_INST/O
                         net (fo=1, routed)           0.000     0.572    clk_ibuf_iso/OUT
    AV33                 IBUFCTRL (Prop_IBUFCTRL_HPIOB_M_I_O)
                                                      0.000     0.572 r  clk_ibuf_iso/IBUFCTRL_INST/O
                         net (fo=1, routed)           0.181     0.753    clk_ibuf_iso
    BUFGCE_X1Y224        BUFGCE (Prop_BUFCE_BUFGCE_I_O)
                                                      0.019     0.772 r  clk_ibuf/O
    X3Y5 (CLOCK_ROOT)    net (fo=9369, routed)        1.503     2.275    shift_reg_tap_i/clk_c
    SLICE_X98Y346        FDRE                                         r  shift_reg_tap_i/sr_p.sr_14[205]/C
                         clock pessimism             -0.386     1.889    
    SLICE_X98Y346        FDRE (Hold_CFF2_SLICEL_C_D)
                                                      0.047     1.936    shift_reg_tap_i/sr_p.sr_14[205]
  -------------------------------------------------------------------
                         required time                         -1.936    
                         arrival time                           1.955    
  -------------------------------------------------------------------
                         slack                                  0.019    

Slack (MET) :             0.019ns  (arrival time - required time)
  Source:                 shift_reg_tap_i/sr_p.sr_13[205]/C
                            (rising edge-triggered cell FDRE clocked by clk  {rise@0.000ns fall@1.563ns period=3.125ns})
  Destination:            shift_reg_tap_i/sr_p.sr_14[205]/D
                            (rising edge-triggered cell FDRE clocked by clk  {rise@0.000ns fall@1.563ns period=3.125ns})
  Path Group:             clk
  Path Type:              Hold (Min at Fast Process Corner)
  Requirement:            0.000ns  (clk rise@0.000ns - clk rise@0.000ns)
  Data Path Delay:        0.072ns  (logic 0.039ns (54.167%)  route 0.033ns (45.833%))
  Logic Levels:           0  
  Clock Path Skew:        0.006ns (DCD - SCD - CPR)
    Destination Clock Delay (DCD):    2.275ns
    Source Clock Delay      (SCD):    1.883ns
    Clock Pessimism Removal (CPR):    0.386ns
  Clock Net Delay (Source):      1.337ns (routing 0.870ns, distribution 0.467ns)
  Clock Net Delay (Destination): 1.503ns (routing 0.965ns, distribution 0.538ns)

    Location             Delay type                Incr(ns)  Path(ns)    Netlist Resource(s)
  -------------------------------------------------------------------    -------------------
                         (clock clk rise edge)        0.000     0.000 r  
    AV33                                              0.000     0.000 r  clk (IN)
                         net (fo=0)                   0.000     0.000    clk_ibuf_iso/I
    AV33                 INBUF (Prop_INBUF_HPIOB_M_PAD_O)
                                                      0.385     0.385 r  clk_ibuf_iso/INBUF_INST/O
                         net (fo=1, routed)           0.000     0.385    clk_ibuf_iso/OUT
    AV33                 IBUFCTRL (Prop_IBUFCTRL_HPIOB_M_I_O)
                                                      0.000     0.385 r  clk_ibuf_iso/IBUFCTRL_INST/O
                         net (fo=1, routed)           0.144     0.529    clk_ibuf_iso
    BUFGCE_X1Y224        BUFGCE (Prop_BUFCE_BUFGCE_I_O)
                                                      0.017     0.546 r  clk_ibuf/O
    X3Y5 (CLOCK_ROOT)    net (fo=9369, routed)        1.337     1.883    shift_reg_tap_i/clk_c
    SLICE_X98Y346        FDRE                                         r  shift_reg_tap_i/sr_p.sr_13[205]/C
  -------------------------------------------------------------------    -------------------
    SLICE_X98Y346        FDRE (Prop_BFF_SLICEL_C_Q)
                                                      0.039     1.922 f  shift_reg_tap_i/sr_p.sr_13[205]/Q
                         net (fo=1, routed)           0.033     1.955    shift_reg_tap_i/sr_13[205]
    SLICE_X98Y346        FDRE                                         f  shift_reg_tap_i/sr_p.sr_14[205]/D
  -------------------------------------------------------------------    -------------------

                         (clock clk rise edge)        0.000     0.000 r  
    AV33                                              0.000     0.000 r  clk (IN)
                         net (fo=0)                   0.000     0.000    clk_ibuf_iso/I
    AV33                 INBUF (Prop_INBUF_HPIOB_M_PAD_O)
                                                      0.572     0.572 r  clk_ibuf_iso/INBUF_INST/O
                         net (fo=1, routed)           0.000     0.572    clk_ibuf_iso/OUT
    AV33                 IBUFCTRL (Prop_IBUFCTRL_HPIOB_M_I_O)
                                                      0.000     0.572 r  clk_ibuf_iso/IBUFCTRL_INST/O
                         net (fo=1, routed)           0.181     0.753    clk_ibuf_iso
    BUFGCE_X1Y224        BUFGCE (Prop_BUFCE_BUFGCE_I_O)
                                                      0.019     0.772 r  clk_ibuf/O
    X3Y5 (CLOCK_ROOT)    net (fo=9369, routed)        1.503     2.275    shift_reg_tap_i/clk_c
    SLICE_X98Y346        FDRE                                         r  shift_reg_tap_i/sr_p.sr_14[205]/C
                         clock pessimism             -0.386     1.889    
    SLICE_X98Y346        FDRE (Hold_CFF2_SLICEL_C_D)
                                                      0.047     1.936    shift_reg_tap_i/sr_p.sr_14[205]
  -------------------------------------------------------------------
                         required time                         -1.936    
                         arrival time                           1.955    
  -------------------------------------------------------------------
                         slack                                  0.019    

Slack (MET) :             0.019ns  (arrival time - required time)
  Source:                 shift_reg_tap_i/sr_p.sr_7[89]/C
                            (rising edge-triggered cell FDRE clocked by clk  {rise@0.000ns fall@1.563ns period=3.125ns})
  Destination:            shift_reg_tap_i/sr_p.sr_8[89]/D
                            (rising edge-triggered cell FDRE clocked by clk  {rise@0.000ns fall@1.563ns period=3.125ns})
  Path Group:             clk
  Path Type:              Hold (Min at Fast Process Corner)
  Requirement:            0.000ns  (clk rise@0.000ns - clk rise@0.000ns)
  Data Path Delay:        0.072ns  (logic 0.039ns (54.167%)  route 0.033ns (45.833%))
  Logic Levels:           0  
  Clock Path Skew:        0.006ns (DCD - SCD - CPR)
    Destination Clock Delay (DCD):    2.289ns
    Source Clock Delay      (SCD):    1.895ns
    Clock Pessimism Removal (CPR):    0.388ns
  Clock Net Delay (Source):      1.349ns (routing 0.870ns, distribution 0.479ns)
  Clock Net Delay (Destination): 1.517ns (routing 0.965ns, distribution 0.552ns)

    Location             Delay type                Incr(ns)  Path(ns)    Netlist Resource(s)
  -------------------------------------------------------------------    -------------------
                         (clock clk rise edge)        0.000     0.000 r  
    AV33                                              0.000     0.000 r  clk (IN)
                         net (fo=0)                   0.000     0.000    clk_ibuf_iso/I
    AV33                 INBUF (Prop_INBUF_HPIOB_M_PAD_O)
                                                      0.385     0.385 r  clk_ibuf_iso/INBUF_INST/O
                         net (fo=1, routed)           0.000     0.385    clk_ibuf_iso/OUT
    AV33                 IBUFCTRL (Prop_IBUFCTRL_HPIOB_M_I_O)
                                                      0.000     0.385 r  clk_ibuf_iso/IBUFCTRL_INST/O
                         net (fo=1, routed)           0.144     0.529    clk_ibuf_iso
    BUFGCE_X1Y224        BUFGCE (Prop_BUFCE_BUFGCE_I_O)
                                                      0.017     0.546 r  clk_ibuf/O
    X3Y5 (CLOCK_ROOT)    net (fo=9369, routed)        1.349     1.895    shift_reg_tap_i/clk_c
    SLICE_X94Y401        FDRE                                         r  shift_reg_tap_i/sr_p.sr_7[89]/C
  -------------------------------------------------------------------    -------------------
    SLICE_X94Y401        FDRE (Prop_HFF_SLICEL_C_Q)
                                                      0.039     1.934 r  shift_reg_tap_i/sr_p.sr_7[89]/Q
                         net (fo=1, routed)           0.033     1.967    shift_reg_tap_i/sr_7[89]
    SLICE_X94Y401        FDRE                                         r  shift_reg_tap_i/sr_p.sr_8[89]/D
  -------------------------------------------------------------------    -------------------

                         (clock clk rise edge)        0.000     0.000 r  
    AV33                                              0.000     0.000 r  clk (IN)
                         net (fo=0)                   0.000     0.000    clk_ibuf_iso/I
    AV33                 INBUF (Prop_INBUF_HPIOB_M_PAD_O)
                                                      0.572     0.572 r  clk_ibuf_iso/INBUF_INST/O
                         net (fo=1, routed)           0.000     0.572    clk_ibuf_iso/OUT
    AV33                 IBUFCTRL (Prop_IBUFCTRL_HPIOB_M_I_O)
                                                      0.000     0.572 r  clk_ibuf_iso/IBUFCTRL_INST/O
                         net (fo=1, routed)           0.181     0.753    clk_ibuf_iso
    BUFGCE_X1Y224        BUFGCE (Prop_BUFCE_BUFGCE_I_O)
                                                      0.019     0.772 r  clk_ibuf/O
    X3Y5 (CLOCK_ROOT)    net (fo=9369, routed)        1.517     2.289    shift_reg_tap_i/clk_c
    SLICE_X94Y401        FDRE                                         r  shift_reg_tap_i/sr_p.sr_8[89]/C
                         clock pessimism             -0.388     1.901    
    SLICE_X94Y401        FDRE (Hold_HFF2_SLICEL_C_D)
                                                      0.047     1.948    shift_reg_tap_i/sr_p.sr_8[89]
  -------------------------------------------------------------------
                         required time                         -1.948    
                         arrival time                           1.967    
  -------------------------------------------------------------------
                         slack                                  0.019    





Pulse Width Checks
--------------------------------------------------------------------------------------
Clock Name:         clk
Waveform(ns):       { 0.000 1.563 }
Period(ns):         3.125
Sources:            { clk }

Check Type        Corner  Lib Pin   Reference Pin  Required(ns)  Actual(ns)  Slack(ns)  Location        Pin
Min Period        n/a     BUFGCE/I  n/a            1.499         3.125       1.626      BUFGCE_X1Y224   clk_ibuf/I
Min Period        n/a     FDRE/C    n/a            0.550         3.125       2.575      SLICE_X96Y371   muon_sorter_1/sr_p.sr_1_9.roi_ret_18/C
Min Period        n/a     FDRE/C    n/a            0.550         3.125       2.575      SLICE_X90Y385   muon_sorter_1/sr_p.sr_2_15.pt_ret_186/C
Min Period        n/a     FDRE/C    n/a            0.550         3.125       2.575      SLICE_X91Y380   muon_sorter_1/sr_p.sr_2_15.pt_ret_191/C
Min Period        n/a     FDRE/C    n/a            0.550         3.125       2.575      SLICE_X90Y382   muon_sorter_1/sr_p.sr_2_15.pt_ret_192/C
Low Pulse Width   Fast    FDRE/C    n/a            0.275         1.562       1.287      SLICE_X90Y382   muon_sorter_1/sr_p.sr_2_15.pt_ret_192/C
Low Pulse Width   Fast    FDRE/C    n/a            0.275         1.562       1.287      SLICE_X110Y362  shift_reg_tap_i/sr_p.sr_11[54]/C
Low Pulse Width   Slow    FDRE/C    n/a            0.275         1.562       1.287      SLICE_X101Y356  shift_reg_tap_i/sr_p.sr_15[180]/C
Low Pulse Width   Fast    FDRE/C    n/a            0.275         1.562       1.287      SLICE_X110Y361  shift_reg_tap_i/sr_p.sr_3[69]/C
Low Pulse Width   Slow    FDRE/C    n/a            0.275         1.562       1.287      SLICE_X105Y386  shift_reg_tap_i/sr_p.sr_3[73]/C
High Pulse Width  Slow    FDRE/C    n/a            0.275         1.563       1.288      SLICE_X110Y359  shift_reg_tap_i/sr_p.sr_11[53]/C
High Pulse Width  Slow    FDRE/C    n/a            0.275         1.563       1.288      SLICE_X94Y368   shift_reg_tap_i/sr_p.sr_11[5]/C
High Pulse Width  Slow    FDRE/C    n/a            0.275         1.563       1.288      SLICE_X98Y342   shift_reg_tap_i/sr_p.sr_11[60]/C
High Pulse Width  Slow    FDRE/C    n/a            0.275         1.563       1.288      SLICE_X99Y341   shift_reg_tap_i/sr_p.sr_11[61]/C
High Pulse Width  Slow    FDRE/C    n/a            0.275         1.563       1.288      SLICE_X102Y341  shift_reg_tap_i/sr_p.sr_11[63]/C



---------------------------------------------------------------------------------------------------
From Clock:  clk_wrapper
  To Clock:  clk_wrapper

Setup :           NA  Failing Endpoints,  Worst Slack           NA  ,  Total Violation           NA
Hold  :           NA  Failing Endpoints,  Worst Slack           NA  ,  Total Violation           NA
PW    :            0  Failing Endpoints,  Worst Slack      498.562ns,  Total Violation        0.000ns
---------------------------------------------------------------------------------------------------


Pulse Width Checks
--------------------------------------------------------------------------------------
Clock Name:         clk_wrapper
Waveform(ns):       { 0.000 500.000 }
Period(ns):         1000.000
Sources:            { clk_wrapper }

Check Type        Corner  Lib Pin   Reference Pin  Required(ns)  Actual(ns)  Slack(ns)  Location               Pin
Min Period        n/a     FDRE/C    n/a            3.195         1000.000    996.805    BITSLICE_RX_TX_X1Y483  reducer_1/delay_block[4][0]/C
Min Period        n/a     BUFGCE/I  n/a            1.499         1000.000    998.501    BUFGCE_X1Y230          clk_wrapper_ibuf/I
Min Period        n/a     FDRE/C    n/a            0.550         1000.000    999.450    SLICE_X106Y399         lsfr_1/output_vector_1[255]/C
Min Period        n/a     FDRE/C    n/a            0.550         1000.000    999.450    SLICE_X106Y412         lsfr_1/shiftreg_vector[0]/C
Min Period        n/a     FDRE/C    n/a            0.550         1000.000    999.450    SLICE_X95Y406          lsfr_1/shiftreg_vector[100]/C
Low Pulse Width   Slow    FDRE/C    n/a            1.438         500.000     498.562    BITSLICE_RX_TX_X1Y483  reducer_1/delay_block[4][0]/C
Low Pulse Width   Fast    FDRE/C    n/a            1.438         500.000     498.562    BITSLICE_RX_TX_X1Y483  reducer_1/delay_block[4][0]/C
Low Pulse Width   Slow    FDRE/C    n/a            0.275         500.000     499.725    SLICE_X97Y406          lsfr_1/shiftreg_vector[105]/C
Low Pulse Width   Slow    FDRE/C    n/a            0.275         500.000     499.725    SLICE_X97Y406          lsfr_1/shiftreg_vector[106]/C
Low Pulse Width   Slow    FDRE/C    n/a            0.275         500.000     499.725    SLICE_X97Y406          lsfr_1/shiftreg_vector[107]/C
High Pulse Width  Fast    FDRE/C    n/a            1.438         500.000     498.562    BITSLICE_RX_TX_X1Y483  reducer_1/delay_block[4][0]/C
High Pulse Width  Slow    FDRE/C    n/a            1.438         500.000     498.562    BITSLICE_RX_TX_X1Y483  reducer_1/delay_block[4][0]/C
High Pulse Width  Fast    FDRE/C    n/a            0.275         500.000     499.725    SLICE_X96Y403          lsfr_1/shiftreg_vector[101]/C
High Pulse Width  Fast    FDRE/C    n/a            0.275         500.000     499.725    SLICE_X96Y403          lsfr_1/shiftreg_vector[102]/C
High Pulse Width  Fast    FDRE/C    n/a            0.275         500.000     499.725    SLICE_X96Y403          lsfr_1/shiftreg_vector[103]/C



