Copyright 1986-2018 Xilinx, Inc. All Rights Reserved.
------------------------------------------------------------------------------------
| Tool Version : Vivado v.2018.2 (win64) Build 2258646 Thu Jun 14 20:03:12 MDT 2018
| Date         : Mon Apr  8 18:59:50 2019
| Host         : PCPHESEBE02 running 64-bit Service Pack 1  (build 7601)
| Command      : report_high_fanout_nets -histogram -file fanout_hist.txt
| Design       : wrapper_csn
| Device       : xcvu9p
------------------------------------------------------------------------------------

High Fan-out Nets Information

1. Histogram
------------

+---------+------+--------+
|  Fanout | Nets |      % |
+---------+------+--------+
|       1 |  888 |  33.93 |
|       2 |  646 |  24.68 |
|       3 |  373 |  14.25 |
|       4 |  257 |   9.82 |
|    5-10 |  312 |  11.92 |
|   11-50 |  141 |   5.38 |
|  51-100 |    0 |   0.00 |
| 101-500 |    0 |   0.00 |
|    >500 |    0 |   0.00 |
+---------+------+--------+
|     ALL | 2617 | 100.00 |
+---------+------+--------+


