Copyright 1986-2018 Xilinx, Inc. All Rights Reserved.
-------------------------------------------------------------------------------------------------
| Tool Version      : Vivado v.2018.2 (win64) Build 2258646 Thu Jun 14 20:03:12 MDT 2018
| Date              : Mon Apr  8 18:57:28 2019
| Host              : PCPHESEBE02 running 64-bit Service Pack 1  (build 7601)
| Command           : report_timing_summary -setup -nworst 5 -max_paths 5 -file timing_setup.txt
| Design            : wrapper_csn
| Device            : xcvu9p-flgc2104
| Speed File        : -1  PRODUCTION 1.20 05-21-2018
| Temperature Grade : E
-------------------------------------------------------------------------------------------------

Timing Summary Report

------------------------------------------------------------------------------------------------
| Timer Settings
| --------------
------------------------------------------------------------------------------------------------

  Enable Multi Corner Analysis               :  Yes
  Enable Pessimism Removal                   :  Yes
  Pessimism Removal Resolution               :  Nearest Common Node
  Enable Input Delay Default Clock           :  No
  Enable Preset / Clear Arcs                 :  No
  Disable Flight Delays                      :  No
  Ignore I/O Paths                           :  No
  Timing Early Launch at Borrowing Latches   :  false

  Corner  Analyze    Analyze    
  Name    Max Paths  Min Paths  
  ------  ---------  ---------  
  Slow    Yes        Yes        
  Fast    Yes        Yes        



check_timing report

Table of Contents
-----------------
1. checking no_clock
2. checking constant_clock
3. checking pulse_width_clock
4. checking unconstrained_internal_endpoints
5. checking no_input_delay
6. checking no_output_delay
7. checking multiple_clock
8. checking generated_clocks
9. checking loops
10. checking partial_input_delay
11. checking partial_output_delay
12. checking latch_loops

1. checking no_clock
--------------------
 There are 0 register/latch pins with no clock.


2. checking constant_clock
--------------------------
 There are 0 register/latch pins with constant_clock.


3. checking pulse_width_clock
-----------------------------
 There are 0 register/latch pins which need pulse_width check


4. checking unconstrained_internal_endpoints
--------------------------------------------
 There are 0 pins that are not constrained for maximum delay.

 There are 0 pins that are not constrained for maximum delay due to constant clock.


5. checking no_input_delay
--------------------------
 There is 1 input port with no input delay specified. (HIGH)

 There are 0 input ports with no input delay but user has a false path constraint.


6. checking no_output_delay
---------------------------
 There is 1 port with no output delay specified. (HIGH)

 There are 0 ports with no output delay but user has a false path constraint

 There are 0 ports with no output delay but with a timing clock defined on it or propagating through it


7. checking multiple_clock
--------------------------
 There are 0 register/latch pins with multiple clocks.


8. checking generated_clocks
----------------------------
 There are 0 generated clocks that are not connected to a clock source.


9. checking loops
-----------------
 There are 0 combinational loops in the design.


10. checking partial_input_delay
--------------------------------
 There are 0 input ports with partial input delay specified.


11. checking partial_output_delay
---------------------------------
 There are 0 ports with partial output delay specified.


12. checking latch_loops
------------------------
 There are 0 combinational latch loops in the design through latch input



------------------------------------------------------------------------------------------------
| Design Timing Summary
| ---------------------
------------------------------------------------------------------------------------------------

    WNS(ns)      TNS(ns)  TNS Failing Endpoints  TNS Total Endpoints     WPWS(ns)     TPWS(ns)  TPWS Failing Endpoints  TPWS Total Endpoints  
    -------      -------  ---------------------  -------------------     --------     --------  ----------------------  --------------------  
     -2.254     -368.623                    192                  208        1.511        0.000                       0                   935  


Timing constraints are not met.


------------------------------------------------------------------------------------------------
| Clock Summary
| -------------
------------------------------------------------------------------------------------------------

Clock        Waveform(ns)         Period(ns)      Frequency(MHz)
-----        ------------         ----------      --------------
clk          {0.000 1.786}        3.572           279.955         
clk_wrapper  {0.000 500.000}      1000.000        1.000           


------------------------------------------------------------------------------------------------
| Intra Clock Table
| -----------------
------------------------------------------------------------------------------------------------

Clock             WNS(ns)      TNS(ns)  TNS Failing Endpoints  TNS Total Endpoints     WPWS(ns)     TPWS(ns)  TPWS Failing Endpoints  TPWS Total Endpoints  
-----             -------      -------  ---------------------  -------------------     --------     --------  ----------------------  --------------------  
clk                -2.254     -368.623                    192                  208        1.511        0.000                       0                   447  
clk_wrapper                                                                             498.562        0.000                       0                   488  


------------------------------------------------------------------------------------------------
| Inter Clock Table
| -----------------
------------------------------------------------------------------------------------------------

From Clock    To Clock          WNS(ns)      TNS(ns)  TNS Failing Endpoints  TNS Total Endpoints  
----------    --------          -------      -------  ---------------------  -------------------  


------------------------------------------------------------------------------------------------
| Other Path Groups Table
| -----------------------
------------------------------------------------------------------------------------------------

Path Group    From Clock    To Clock          WNS(ns)      TNS(ns)  TNS Failing Endpoints  TNS Total Endpoints  
----------    ----------    --------          -------      -------  ---------------------  -------------------  


------------------------------------------------------------------------------------------------
| Timing Details
| --------------
------------------------------------------------------------------------------------------------


---------------------------------------------------------------------------------------------------
From Clock:  clk
  To Clock:  clk

Setup :          192  Failing Endpoints,  Worst Slack       -2.254ns,  Total Violation     -368.623ns
Hold  :           NA  Failing Endpoints,  Worst Slack           NA  ,  Total Violation           NA
PW    :            0  Failing Endpoints,  Worst Slack        1.511ns,  Total Violation        0.000ns
---------------------------------------------------------------------------------------------------


Max Delay Paths
--------------------------------------------------------------------------------------
Slack (VIOLATED) :        -2.254ns  (required time - arrival time)
  Source:                 shift_reg_tap_i/sr_p.sr_1_fast[146]/C
                            (rising edge-triggered cell FDRE clocked by clk  {rise@0.000ns fall@1.786ns period=3.572ns})
  Destination:            shift_reg_tap_o/sr_p.sr_1[130]/D
                            (rising edge-triggered cell FDRE clocked by clk  {rise@0.000ns fall@1.786ns period=3.572ns})
  Path Group:             clk
  Path Type:              Setup (Max at Slow Process Corner)
  Requirement:            3.572ns  (clk rise@3.572ns - clk rise@0.000ns)
  Data Path Delay:        5.778ns  (logic 2.166ns (37.487%)  route 3.612ns (62.513%))
  Logic Levels:           18  (LUT4=3 LUT5=5 LUT6=10)
  Clock Path Skew:        -0.039ns (DCD - SCD + CPR)
    Destination Clock Delay (DCD):    2.781ns = ( 6.353 - 3.572 ) 
    Source Clock Delay      (SCD):    3.277ns
    Clock Pessimism Removal (CPR):    0.457ns
  Clock Uncertainty:      0.035ns  ((TSJ^2 + TIJ^2)^1/2 + DJ) / 2 + PE
    Total System Jitter     (TSJ):    0.071ns
    Total Input Jitter      (TIJ):    0.000ns
    Discrete Jitter          (DJ):    0.000ns
    Phase Error              (PE):    0.000ns
  Clock Net Delay (Source):      2.136ns (routing 1.237ns, distribution 0.899ns)
  Clock Net Delay (Destination): 1.951ns (routing 1.130ns, distribution 0.821ns)

    Location             Delay type                Incr(ns)  Path(ns)    Netlist Resource(s)
  -------------------------------------------------------------------    -------------------
                         (clock clk rise edge)        0.000     0.000 r  
    AV33                                              0.000     0.000 r  clk (IN)
                         net (fo=0)                   0.000     0.000    clk_ibuf_iso/I
    AV33                 INBUF (Prop_INBUF_HPIOB_M_PAD_O)
                                                      0.779     0.779 r  clk_ibuf_iso/INBUF_INST/O
                         net (fo=1, routed)           0.000     0.779    clk_ibuf_iso/OUT
    AV33                 IBUFCTRL (Prop_IBUFCTRL_HPIOB_M_I_O)
                                                      0.000     0.779 r  clk_ibuf_iso/IBUFCTRL_INST/O
                         net (fo=1, routed)           0.334     1.113    clk_ibuf_iso
    BUFGCE_X1Y224        BUFGCE (Prop_BUFCE_BUFGCE_I_O)
                                                      0.028     1.141 r  clk_ibuf/O
    X3Y7 (CLOCK_ROOT)    net (fo=446, routed)         2.136     3.277    shift_reg_tap_i/clk_c
    SLICE_X94Y447        FDRE                                         r  shift_reg_tap_i/sr_p.sr_1_fast[146]/C
  -------------------------------------------------------------------    -------------------
    SLICE_X94Y447        FDRE (Prop_DFF2_SLICEL_C_Q)
                                                      0.098     3.375 r  shift_reg_tap_i/sr_p.sr_1_fast[146]/Q
                         net (fo=8, routed)           0.221     3.596    dut_inst/stage_g.20.csn_cmp_inst/input_slr_fast_13
    SLICE_X93Y447        LUT4 (Prop_E6LUT_SLICEM_I2_O)
                                                      0.063     3.659 r  dut_inst/stage_g.20.csn_cmp_inst/un1_b_i_ac0_5_d_0/O
                         net (fo=13, routed)          0.156     3.815    dut_inst/stage_g.20.csn_cmp_inst/un1_b_i_ac0_5_d_0_16
    SLICE_X94Y447        LUT6 (Prop_G6LUT_SLICEL_I5_O)
                                                      0.100     3.915 f  dut_inst/stage_g.20.csn_cmp_inst/b_o_comb.pt[0]/O
                         net (fo=3, routed)           0.117     4.032    dut_inst/stage_g.22.csn_cmp_inst/pt_5[0]
    SLICE_X94Y448        LUT6 (Prop_D6LUT_SLICEL_I4_O)
                                                      0.147     4.179 r  dut_inst/stage_g.22.csn_cmp_inst/un1_b_i_c2/O
                         net (fo=4, routed)           0.177     4.356    dut_inst/stage_g.22.csn_cmp_inst/un1_b_i_c2_0
    SLICE_X94Y447        LUT5 (Prop_C6LUT_SLICEL_I4_O)
                                                      0.113     4.469 r  dut_inst/stage_g.22.csn_cmp_inst/a_o_comb.pt[0]/O
                         net (fo=4, routed)           0.078     4.547    dut_inst/stage_g.23.csn_cmp_inst/pt_4_0
    SLICE_X94Y446        LUT6 (Prop_H6LUT_SLICEL_I4_O)
                                                      0.149     4.696 r  dut_inst/stage_g.23.csn_cmp_inst/un1_b_i_c2/O
                         net (fo=4, routed)           0.075     4.771    dut_inst/stage_g.23.csn_cmp_inst/un1_b_i_c2_19
    SLICE_X94Y446        LUT5 (Prop_B6LUT_SLICEL_I4_O)
                                                      0.177     4.948 r  dut_inst/stage_g.23.csn_cmp_inst/un1_b_i_ac0_5_0/O
                         net (fo=35, routed)          0.397     5.345    dut_inst/stage_g.34.csn_cmp_inst/un1_b_i_ac0_5_0_20
    SLICE_X97Y447        LUT6 (Prop_E6LUT_SLICEM_I4_O)
                                                      0.148     5.493 r  dut_inst/stage_g.34.csn_cmp_inst/un1_b_i_ac0_2_xx/O
                         net (fo=1, routed)           0.116     5.609    dut_inst/stage_g.34.csn_cmp_inst/un1_b_i_ac0_2_xx_0
    SLICE_X97Y446        LUT6 (Prop_E6LUT_SLICEM_I2_O)
                                                      0.148     5.757 r  dut_inst/stage_g.34.csn_cmp_inst/un1_b_i_c2/O
                         net (fo=8, routed)           0.134     5.891    dut_inst/stage_g.34.csn_cmp_inst/un1_b_i_c2_2
    SLICE_X97Y445        LUT6 (Prop_F6LUT_SLICEM_I5_O)
                                                      0.177     6.068 r  dut_inst/stage_g.34.csn_cmp_inst/a_o_comb.pt[3]/O
                         net (fo=22, routed)          0.271     6.339    dut_inst/stage_g.36.csn_cmp_inst/pt_31_0
    SLICE_X96Y444        LUT5 (Prop_A6LUT_SLICEL_I2_O)
                                                      0.064     6.403 r  dut_inst/stage_g.36.csn_cmp_inst/un1_b_i_ac0_5_0/O
                         net (fo=25, routed)          0.343     6.746    dut_inst/stage_g.39.csn_cmp_inst/un1_b_i_ac0_5_0_15
    SLICE_X94Y444        LUT6 (Prop_H6LUT_SLICEL_I5_O)
                                                      0.179     6.925 r  dut_inst/stage_g.39.csn_cmp_inst/un1_b_i_ac0_5_0_0/O
                         net (fo=16, routed)          0.263     7.188    dut_inst/stage_g.39.csn_cmp_inst/un1_b_i_ac0_5_0_0_3
    SLICE_X95Y442        LUT4 (Prop_B6LUT_SLICEM_I2_O)
                                                      0.063     7.251 f  dut_inst/stage_g.39.csn_cmp_inst/b_o_comb.pt[1]/O
                         net (fo=4, routed)           0.194     7.445    dut_inst/stage_g.46.csn_cmp_inst/pt_41_0
    SLICE_X95Y441        LUT6 (Prop_H6LUT_SLICEM_I1_O)
                                                      0.182     7.627 r  dut_inst/stage_g.46.csn_cmp_inst/un1_b_i_d1_ac0_5_d/O
                         net (fo=4, routed)           0.181     7.808    dut_inst/stage_g.46.csn_cmp_inst/un1_b_i_d1_ac0_5_d
    SLICE_X95Y441        LUT4 (Prop_A6LUT_SLICEM_I2_O)
                                                      0.116     7.924 r  dut_inst/stage_g.46.csn_cmp_inst/un1_b_i_d1_ac0_5_0_0_RNIO29R/O
                         net (fo=28, routed)          0.315     8.239    dut_inst/stage_g.46.csn_cmp_inst/un1_b_i_d1_ac0_5_0_0_RNIO29R_1z
    SLICE_X96Y441        LUT5 (Prop_B6LUT_SLICEL_I4_O)
                                                      0.040     8.279 f  dut_inst/stage_g.46.csn_cmp_inst/a_o_comb.pt[0]/O
                         net (fo=3, routed)           0.221     8.500    dut_inst/stage_g.60.csn_cmp_inst/pt_31_0
    SLICE_X97Y440        LUT5 (Prop_D6LUT_SLICEM_I3_O)
                                                      0.038     8.538 r  dut_inst/stage_g.60.csn_cmp_inst/un1_b_i_ac0_1_0/O
                         net (fo=1, routed)           0.103     8.641    dut_inst/stage_g.60.csn_cmp_inst/un1_b_i_ac0_1_0
    SLICE_X96Y440        LUT6 (Prop_B6LUT_SLICEL_I4_O)
                                                      0.064     8.705 r  dut_inst/stage_g.60.csn_cmp_inst/un1_b_i_ac0_5_d/O
                         net (fo=24, routed)          0.192     8.897    dut_inst/stage_g.60.csn_cmp_inst/un1_b_i_ac0_5_d_1
    SLICE_X96Y441        LUT6 (Prop_A6LUT_SLICEL_I5_O)
                                                      0.100     8.997 r  dut_inst/stage_g.60.csn_cmp_inst/b_o_comb.pt[0]/O
                         net (fo=1, routed)           0.058     9.055    shift_reg_tap_o/pt_2_0[0]
    SLICE_X96Y441        FDRE                                         r  shift_reg_tap_o/sr_p.sr_1[130]/D
  -------------------------------------------------------------------    -------------------

                         (clock clk rise edge)        3.572     3.572 r  
    AV33                                              0.000     3.572 r  clk (IN)
                         net (fo=0)                   0.000     3.572    clk_ibuf_iso/I
    AV33                 INBUF (Prop_INBUF_HPIOB_M_PAD_O)
                                                      0.510     4.082 r  clk_ibuf_iso/INBUF_INST/O
                         net (fo=1, routed)           0.000     4.082    clk_ibuf_iso/OUT
    AV33                 IBUFCTRL (Prop_IBUFCTRL_HPIOB_M_I_O)
                                                      0.000     4.082 r  clk_ibuf_iso/IBUFCTRL_INST/O
                         net (fo=1, routed)           0.296     4.378    clk_ibuf_iso
    BUFGCE_X1Y224        BUFGCE (Prop_BUFCE_BUFGCE_I_O)
                                                      0.024     4.402 r  clk_ibuf/O
    X3Y7 (CLOCK_ROOT)    net (fo=446, routed)         1.951     6.353    shift_reg_tap_o/clk_c
    SLICE_X96Y441        FDRE                                         r  shift_reg_tap_o/sr_p.sr_1[130]/C
                         clock pessimism              0.457     6.810    
                         clock uncertainty           -0.035     6.774    
    SLICE_X96Y441        FDRE (Setup_AFF_SLICEL_C_D)
                                                      0.027     6.801    shift_reg_tap_o/sr_p.sr_1[130]
  -------------------------------------------------------------------
                         required time                          6.801    
                         arrival time                          -9.055    
  -------------------------------------------------------------------
                         slack                                 -2.254    

Slack (VIOLATED) :        -2.254ns  (required time - arrival time)
  Source:                 shift_reg_tap_i/sr_p.sr_1_fast[146]/C
                            (rising edge-triggered cell FDRE clocked by clk  {rise@0.000ns fall@1.786ns period=3.572ns})
  Destination:            shift_reg_tap_o/sr_p.sr_1[130]/D
                            (rising edge-triggered cell FDRE clocked by clk  {rise@0.000ns fall@1.786ns period=3.572ns})
  Path Group:             clk
  Path Type:              Setup (Max at Slow Process Corner)
  Requirement:            3.572ns  (clk rise@3.572ns - clk rise@0.000ns)
  Data Path Delay:        5.778ns  (logic 2.166ns (37.487%)  route 3.612ns (62.513%))
  Logic Levels:           18  (LUT4=3 LUT5=5 LUT6=10)
  Clock Path Skew:        -0.039ns (DCD - SCD + CPR)
    Destination Clock Delay (DCD):    2.781ns = ( 6.353 - 3.572 ) 
    Source Clock Delay      (SCD):    3.277ns
    Clock Pessimism Removal (CPR):    0.457ns
  Clock Uncertainty:      0.035ns  ((TSJ^2 + TIJ^2)^1/2 + DJ) / 2 + PE
    Total System Jitter     (TSJ):    0.071ns
    Total Input Jitter      (TIJ):    0.000ns
    Discrete Jitter          (DJ):    0.000ns
    Phase Error              (PE):    0.000ns
  Clock Net Delay (Source):      2.136ns (routing 1.237ns, distribution 0.899ns)
  Clock Net Delay (Destination): 1.951ns (routing 1.130ns, distribution 0.821ns)

    Location             Delay type                Incr(ns)  Path(ns)    Netlist Resource(s)
  -------------------------------------------------------------------    -------------------
                         (clock clk rise edge)        0.000     0.000 r  
    AV33                                              0.000     0.000 r  clk (IN)
                         net (fo=0)                   0.000     0.000    clk_ibuf_iso/I
    AV33                 INBUF (Prop_INBUF_HPIOB_M_PAD_O)
                                                      0.779     0.779 r  clk_ibuf_iso/INBUF_INST/O
                         net (fo=1, routed)           0.000     0.779    clk_ibuf_iso/OUT
    AV33                 IBUFCTRL (Prop_IBUFCTRL_HPIOB_M_I_O)
                                                      0.000     0.779 r  clk_ibuf_iso/IBUFCTRL_INST/O
                         net (fo=1, routed)           0.334     1.113    clk_ibuf_iso
    BUFGCE_X1Y224        BUFGCE (Prop_BUFCE_BUFGCE_I_O)
                                                      0.028     1.141 r  clk_ibuf/O
    X3Y7 (CLOCK_ROOT)    net (fo=446, routed)         2.136     3.277    shift_reg_tap_i/clk_c
    SLICE_X94Y447        FDRE                                         r  shift_reg_tap_i/sr_p.sr_1_fast[146]/C
  -------------------------------------------------------------------    -------------------
    SLICE_X94Y447        FDRE (Prop_DFF2_SLICEL_C_Q)
                                                      0.098     3.375 r  shift_reg_tap_i/sr_p.sr_1_fast[146]/Q
                         net (fo=8, routed)           0.221     3.596    dut_inst/stage_g.20.csn_cmp_inst/input_slr_fast_13
    SLICE_X93Y447        LUT4 (Prop_E6LUT_SLICEM_I2_O)
                                                      0.063     3.659 r  dut_inst/stage_g.20.csn_cmp_inst/un1_b_i_ac0_5_d_0/O
                         net (fo=13, routed)          0.156     3.815    dut_inst/stage_g.20.csn_cmp_inst/un1_b_i_ac0_5_d_0_16
    SLICE_X94Y447        LUT6 (Prop_G6LUT_SLICEL_I5_O)
                                                      0.100     3.915 r  dut_inst/stage_g.20.csn_cmp_inst/b_o_comb.pt[0]/O
                         net (fo=3, routed)           0.117     4.032    dut_inst/stage_g.22.csn_cmp_inst/pt_5[0]
    SLICE_X94Y448        LUT6 (Prop_D6LUT_SLICEL_I4_O)
                                                      0.147     4.179 f  dut_inst/stage_g.22.csn_cmp_inst/un1_b_i_c2/O
                         net (fo=4, routed)           0.177     4.356    dut_inst/stage_g.22.csn_cmp_inst/un1_b_i_c2_0
    SLICE_X94Y447        LUT5 (Prop_C6LUT_SLICEL_I4_O)
                                                      0.113     4.469 r  dut_inst/stage_g.22.csn_cmp_inst/a_o_comb.pt[0]/O
                         net (fo=4, routed)           0.078     4.547    dut_inst/stage_g.23.csn_cmp_inst/pt_4_0
    SLICE_X94Y446        LUT6 (Prop_H6LUT_SLICEL_I4_O)
                                                      0.149     4.696 r  dut_inst/stage_g.23.csn_cmp_inst/un1_b_i_c2/O
                         net (fo=4, routed)           0.075     4.771    dut_inst/stage_g.23.csn_cmp_inst/un1_b_i_c2_19
    SLICE_X94Y446        LUT5 (Prop_B6LUT_SLICEL_I4_O)
                                                      0.177     4.948 r  dut_inst/stage_g.23.csn_cmp_inst/un1_b_i_ac0_5_0/O
                         net (fo=35, routed)          0.397     5.345    dut_inst/stage_g.34.csn_cmp_inst/un1_b_i_ac0_5_0_20
    SLICE_X97Y447        LUT6 (Prop_E6LUT_SLICEM_I4_O)
                                                      0.148     5.493 r  dut_inst/stage_g.34.csn_cmp_inst/un1_b_i_ac0_2_xx/O
                         net (fo=1, routed)           0.116     5.609    dut_inst/stage_g.34.csn_cmp_inst/un1_b_i_ac0_2_xx_0
    SLICE_X97Y446        LUT6 (Prop_E6LUT_SLICEM_I2_O)
                                                      0.148     5.757 r  dut_inst/stage_g.34.csn_cmp_inst/un1_b_i_c2/O
                         net (fo=8, routed)           0.134     5.891    dut_inst/stage_g.34.csn_cmp_inst/un1_b_i_c2_2
    SLICE_X97Y445        LUT6 (Prop_F6LUT_SLICEM_I5_O)
                                                      0.177     6.068 r  dut_inst/stage_g.34.csn_cmp_inst/a_o_comb.pt[3]/O
                         net (fo=22, routed)          0.271     6.339    dut_inst/stage_g.36.csn_cmp_inst/pt_31_0
    SLICE_X96Y444        LUT5 (Prop_A6LUT_SLICEL_I2_O)
                                                      0.064     6.403 r  dut_inst/stage_g.36.csn_cmp_inst/un1_b_i_ac0_5_0/O
                         net (fo=25, routed)          0.343     6.746    dut_inst/stage_g.39.csn_cmp_inst/un1_b_i_ac0_5_0_15
    SLICE_X94Y444        LUT6 (Prop_H6LUT_SLICEL_I5_O)
                                                      0.179     6.925 r  dut_inst/stage_g.39.csn_cmp_inst/un1_b_i_ac0_5_0_0/O
                         net (fo=16, routed)          0.263     7.188    dut_inst/stage_g.39.csn_cmp_inst/un1_b_i_ac0_5_0_0_3
    SLICE_X95Y442        LUT4 (Prop_B6LUT_SLICEM_I2_O)
                                                      0.063     7.251 f  dut_inst/stage_g.39.csn_cmp_inst/b_o_comb.pt[1]/O
                         net (fo=4, routed)           0.194     7.445    dut_inst/stage_g.46.csn_cmp_inst/pt_41_0
    SLICE_X95Y441        LUT6 (Prop_H6LUT_SLICEM_I1_O)
                                                      0.182     7.627 r  dut_inst/stage_g.46.csn_cmp_inst/un1_b_i_d1_ac0_5_d/O
                         net (fo=4, routed)           0.181     7.808    dut_inst/stage_g.46.csn_cmp_inst/un1_b_i_d1_ac0_5_d
    SLICE_X95Y441        LUT4 (Prop_A6LUT_SLICEM_I2_O)
                                                      0.116     7.924 r  dut_inst/stage_g.46.csn_cmp_inst/un1_b_i_d1_ac0_5_0_0_RNIO29R/O
                         net (fo=28, routed)          0.315     8.239    dut_inst/stage_g.46.csn_cmp_inst/un1_b_i_d1_ac0_5_0_0_RNIO29R_1z
    SLICE_X96Y441        LUT5 (Prop_B6LUT_SLICEL_I4_O)
                                                      0.040     8.279 f  dut_inst/stage_g.46.csn_cmp_inst/a_o_comb.pt[0]/O
                         net (fo=3, routed)           0.221     8.500    dut_inst/stage_g.60.csn_cmp_inst/pt_31_0
    SLICE_X97Y440        LUT5 (Prop_D6LUT_SLICEM_I3_O)
                                                      0.038     8.538 r  dut_inst/stage_g.60.csn_cmp_inst/un1_b_i_ac0_1_0/O
                         net (fo=1, routed)           0.103     8.641    dut_inst/stage_g.60.csn_cmp_inst/un1_b_i_ac0_1_0
    SLICE_X96Y440        LUT6 (Prop_B6LUT_SLICEL_I4_O)
                                                      0.064     8.705 r  dut_inst/stage_g.60.csn_cmp_inst/un1_b_i_ac0_5_d/O
                         net (fo=24, routed)          0.192     8.897    dut_inst/stage_g.60.csn_cmp_inst/un1_b_i_ac0_5_d_1
    SLICE_X96Y441        LUT6 (Prop_A6LUT_SLICEL_I5_O)
                                                      0.100     8.997 r  dut_inst/stage_g.60.csn_cmp_inst/b_o_comb.pt[0]/O
                         net (fo=1, routed)           0.058     9.055    shift_reg_tap_o/pt_2_0[0]
    SLICE_X96Y441        FDRE                                         r  shift_reg_tap_o/sr_p.sr_1[130]/D
  -------------------------------------------------------------------    -------------------

                         (clock clk rise edge)        3.572     3.572 r  
    AV33                                              0.000     3.572 r  clk (IN)
                         net (fo=0)                   0.000     3.572    clk_ibuf_iso/I
    AV33                 INBUF (Prop_INBUF_HPIOB_M_PAD_O)
                                                      0.510     4.082 r  clk_ibuf_iso/INBUF_INST/O
                         net (fo=1, routed)           0.000     4.082    clk_ibuf_iso/OUT
    AV33                 IBUFCTRL (Prop_IBUFCTRL_HPIOB_M_I_O)
                                                      0.000     4.082 r  clk_ibuf_iso/IBUFCTRL_INST/O
                         net (fo=1, routed)           0.296     4.378    clk_ibuf_iso
    BUFGCE_X1Y224        BUFGCE (Prop_BUFCE_BUFGCE_I_O)
                                                      0.024     4.402 r  clk_ibuf/O
    X3Y7 (CLOCK_ROOT)    net (fo=446, routed)         1.951     6.353    shift_reg_tap_o/clk_c
    SLICE_X96Y441        FDRE                                         r  shift_reg_tap_o/sr_p.sr_1[130]/C
                         clock pessimism              0.457     6.810    
                         clock uncertainty           -0.035     6.774    
    SLICE_X96Y441        FDRE (Setup_AFF_SLICEL_C_D)
                                                      0.027     6.801    shift_reg_tap_o/sr_p.sr_1[130]
  -------------------------------------------------------------------
                         required time                          6.801    
                         arrival time                          -9.055    
  -------------------------------------------------------------------
                         slack                                 -2.254    

Slack (VIOLATED) :        -2.254ns  (required time - arrival time)
  Source:                 shift_reg_tap_i/sr_p.sr_1_fast[146]/C
                            (rising edge-triggered cell FDRE clocked by clk  {rise@0.000ns fall@1.786ns period=3.572ns})
  Destination:            shift_reg_tap_o/sr_p.sr_1[130]/D
                            (rising edge-triggered cell FDRE clocked by clk  {rise@0.000ns fall@1.786ns period=3.572ns})
  Path Group:             clk
  Path Type:              Setup (Max at Slow Process Corner)
  Requirement:            3.572ns  (clk rise@3.572ns - clk rise@0.000ns)
  Data Path Delay:        5.778ns  (logic 2.166ns (37.487%)  route 3.612ns (62.513%))
  Logic Levels:           18  (LUT4=3 LUT5=5 LUT6=10)
  Clock Path Skew:        -0.039ns (DCD - SCD + CPR)
    Destination Clock Delay (DCD):    2.781ns = ( 6.353 - 3.572 ) 
    Source Clock Delay      (SCD):    3.277ns
    Clock Pessimism Removal (CPR):    0.457ns
  Clock Uncertainty:      0.035ns  ((TSJ^2 + TIJ^2)^1/2 + DJ) / 2 + PE
    Total System Jitter     (TSJ):    0.071ns
    Total Input Jitter      (TIJ):    0.000ns
    Discrete Jitter          (DJ):    0.000ns
    Phase Error              (PE):    0.000ns
  Clock Net Delay (Source):      2.136ns (routing 1.237ns, distribution 0.899ns)
  Clock Net Delay (Destination): 1.951ns (routing 1.130ns, distribution 0.821ns)

    Location             Delay type                Incr(ns)  Path(ns)    Netlist Resource(s)
  -------------------------------------------------------------------    -------------------
                         (clock clk rise edge)        0.000     0.000 r  
    AV33                                              0.000     0.000 r  clk (IN)
                         net (fo=0)                   0.000     0.000    clk_ibuf_iso/I
    AV33                 INBUF (Prop_INBUF_HPIOB_M_PAD_O)
                                                      0.779     0.779 r  clk_ibuf_iso/INBUF_INST/O
                         net (fo=1, routed)           0.000     0.779    clk_ibuf_iso/OUT
    AV33                 IBUFCTRL (Prop_IBUFCTRL_HPIOB_M_I_O)
                                                      0.000     0.779 r  clk_ibuf_iso/IBUFCTRL_INST/O
                         net (fo=1, routed)           0.334     1.113    clk_ibuf_iso
    BUFGCE_X1Y224        BUFGCE (Prop_BUFCE_BUFGCE_I_O)
                                                      0.028     1.141 r  clk_ibuf/O
    X3Y7 (CLOCK_ROOT)    net (fo=446, routed)         2.136     3.277    shift_reg_tap_i/clk_c
    SLICE_X94Y447        FDRE                                         r  shift_reg_tap_i/sr_p.sr_1_fast[146]/C
  -------------------------------------------------------------------    -------------------
    SLICE_X94Y447        FDRE (Prop_DFF2_SLICEL_C_Q)
                                                      0.098     3.375 r  shift_reg_tap_i/sr_p.sr_1_fast[146]/Q
                         net (fo=8, routed)           0.221     3.596    dut_inst/stage_g.20.csn_cmp_inst/input_slr_fast_13
    SLICE_X93Y447        LUT4 (Prop_E6LUT_SLICEM_I2_O)
                                                      0.063     3.659 r  dut_inst/stage_g.20.csn_cmp_inst/un1_b_i_ac0_5_d_0/O
                         net (fo=13, routed)          0.156     3.815    dut_inst/stage_g.20.csn_cmp_inst/un1_b_i_ac0_5_d_0_16
    SLICE_X94Y447        LUT6 (Prop_G6LUT_SLICEL_I5_O)
                                                      0.100     3.915 f  dut_inst/stage_g.20.csn_cmp_inst/b_o_comb.pt[0]/O
                         net (fo=3, routed)           0.117     4.032    dut_inst/stage_g.22.csn_cmp_inst/pt_5[0]
    SLICE_X94Y448        LUT6 (Prop_D6LUT_SLICEL_I4_O)
                                                      0.147     4.179 r  dut_inst/stage_g.22.csn_cmp_inst/un1_b_i_c2/O
                         net (fo=4, routed)           0.177     4.356    dut_inst/stage_g.22.csn_cmp_inst/un1_b_i_c2_0
    SLICE_X94Y447        LUT5 (Prop_C6LUT_SLICEL_I4_O)
                                                      0.113     4.469 r  dut_inst/stage_g.22.csn_cmp_inst/a_o_comb.pt[0]/O
                         net (fo=4, routed)           0.078     4.547    dut_inst/stage_g.23.csn_cmp_inst/pt_4_0
    SLICE_X94Y446        LUT6 (Prop_H6LUT_SLICEL_I4_O)
                                                      0.149     4.696 r  dut_inst/stage_g.23.csn_cmp_inst/un1_b_i_c2/O
                         net (fo=4, routed)           0.075     4.771    dut_inst/stage_g.23.csn_cmp_inst/un1_b_i_c2_19
    SLICE_X94Y446        LUT5 (Prop_B6LUT_SLICEL_I4_O)
                                                      0.177     4.948 r  dut_inst/stage_g.23.csn_cmp_inst/un1_b_i_ac0_5_0/O
                         net (fo=35, routed)          0.397     5.345    dut_inst/stage_g.34.csn_cmp_inst/un1_b_i_ac0_5_0_20
    SLICE_X97Y447        LUT6 (Prop_E6LUT_SLICEM_I4_O)
                                                      0.148     5.493 r  dut_inst/stage_g.34.csn_cmp_inst/un1_b_i_ac0_2_xx/O
                         net (fo=1, routed)           0.116     5.609    dut_inst/stage_g.34.csn_cmp_inst/un1_b_i_ac0_2_xx_0
    SLICE_X97Y446        LUT6 (Prop_E6LUT_SLICEM_I2_O)
                                                      0.148     5.757 r  dut_inst/stage_g.34.csn_cmp_inst/un1_b_i_c2/O
                         net (fo=8, routed)           0.134     5.891    dut_inst/stage_g.34.csn_cmp_inst/un1_b_i_c2_2
    SLICE_X97Y445        LUT6 (Prop_F6LUT_SLICEM_I5_O)
                                                      0.177     6.068 r  dut_inst/stage_g.34.csn_cmp_inst/a_o_comb.pt[3]/O
                         net (fo=22, routed)          0.271     6.339    dut_inst/stage_g.36.csn_cmp_inst/pt_31_0
    SLICE_X96Y444        LUT5 (Prop_A6LUT_SLICEL_I2_O)
                                                      0.064     6.403 r  dut_inst/stage_g.36.csn_cmp_inst/un1_b_i_ac0_5_0/O
                         net (fo=25, routed)          0.343     6.746    dut_inst/stage_g.39.csn_cmp_inst/un1_b_i_ac0_5_0_15
    SLICE_X94Y444        LUT6 (Prop_H6LUT_SLICEL_I5_O)
                                                      0.179     6.925 r  dut_inst/stage_g.39.csn_cmp_inst/un1_b_i_ac0_5_0_0/O
                         net (fo=16, routed)          0.263     7.188    dut_inst/stage_g.39.csn_cmp_inst/un1_b_i_ac0_5_0_0_3
    SLICE_X95Y442        LUT4 (Prop_B6LUT_SLICEM_I2_O)
                                                      0.063     7.251 r  dut_inst/stage_g.39.csn_cmp_inst/b_o_comb.pt[1]/O
                         net (fo=4, routed)           0.194     7.445    dut_inst/stage_g.46.csn_cmp_inst/pt_41_0
    SLICE_X95Y441        LUT6 (Prop_H6LUT_SLICEM_I1_O)
                                                      0.182     7.627 f  dut_inst/stage_g.46.csn_cmp_inst/un1_b_i_d1_ac0_5_d/O
                         net (fo=4, routed)           0.181     7.808    dut_inst/stage_g.46.csn_cmp_inst/un1_b_i_d1_ac0_5_d
    SLICE_X95Y441        LUT4 (Prop_A6LUT_SLICEM_I2_O)
                                                      0.116     7.924 f  dut_inst/stage_g.46.csn_cmp_inst/un1_b_i_d1_ac0_5_0_0_RNIO29R/O
                         net (fo=28, routed)          0.315     8.239    dut_inst/stage_g.46.csn_cmp_inst/un1_b_i_d1_ac0_5_0_0_RNIO29R_1z
    SLICE_X96Y441        LUT5 (Prop_B6LUT_SLICEL_I4_O)
                                                      0.040     8.279 f  dut_inst/stage_g.46.csn_cmp_inst/a_o_comb.pt[0]/O
                         net (fo=3, routed)           0.221     8.500    dut_inst/stage_g.60.csn_cmp_inst/pt_31_0
    SLICE_X97Y440        LUT5 (Prop_D6LUT_SLICEM_I3_O)
                                                      0.038     8.538 r  dut_inst/stage_g.60.csn_cmp_inst/un1_b_i_ac0_1_0/O
                         net (fo=1, routed)           0.103     8.641    dut_inst/stage_g.60.csn_cmp_inst/un1_b_i_ac0_1_0
    SLICE_X96Y440        LUT6 (Prop_B6LUT_SLICEL_I4_O)
                                                      0.064     8.705 r  dut_inst/stage_g.60.csn_cmp_inst/un1_b_i_ac0_5_d/O
                         net (fo=24, routed)          0.192     8.897    dut_inst/stage_g.60.csn_cmp_inst/un1_b_i_ac0_5_d_1
    SLICE_X96Y441        LUT6 (Prop_A6LUT_SLICEL_I5_O)
                                                      0.100     8.997 r  dut_inst/stage_g.60.csn_cmp_inst/b_o_comb.pt[0]/O
                         net (fo=1, routed)           0.058     9.055    shift_reg_tap_o/pt_2_0[0]
    SLICE_X96Y441        FDRE                                         r  shift_reg_tap_o/sr_p.sr_1[130]/D
  -------------------------------------------------------------------    -------------------

                         (clock clk rise edge)        3.572     3.572 r  
    AV33                                              0.000     3.572 r  clk (IN)
                         net (fo=0)                   0.000     3.572    clk_ibuf_iso/I
    AV33                 INBUF (Prop_INBUF_HPIOB_M_PAD_O)
                                                      0.510     4.082 r  clk_ibuf_iso/INBUF_INST/O
                         net (fo=1, routed)           0.000     4.082    clk_ibuf_iso/OUT
    AV33                 IBUFCTRL (Prop_IBUFCTRL_HPIOB_M_I_O)
                                                      0.000     4.082 r  clk_ibuf_iso/IBUFCTRL_INST/O
                         net (fo=1, routed)           0.296     4.378    clk_ibuf_iso
    BUFGCE_X1Y224        BUFGCE (Prop_BUFCE_BUFGCE_I_O)
                                                      0.024     4.402 r  clk_ibuf/O
    X3Y7 (CLOCK_ROOT)    net (fo=446, routed)         1.951     6.353    shift_reg_tap_o/clk_c
    SLICE_X96Y441        FDRE                                         r  shift_reg_tap_o/sr_p.sr_1[130]/C
                         clock pessimism              0.457     6.810    
                         clock uncertainty           -0.035     6.774    
    SLICE_X96Y441        FDRE (Setup_AFF_SLICEL_C_D)
                                                      0.027     6.801    shift_reg_tap_o/sr_p.sr_1[130]
  -------------------------------------------------------------------
                         required time                          6.801    
                         arrival time                          -9.055    
  -------------------------------------------------------------------
                         slack                                 -2.254    

Slack (VIOLATED) :        -2.254ns  (required time - arrival time)
  Source:                 shift_reg_tap_i/sr_p.sr_1_fast[146]/C
                            (rising edge-triggered cell FDRE clocked by clk  {rise@0.000ns fall@1.786ns period=3.572ns})
  Destination:            shift_reg_tap_o/sr_p.sr_1[130]/D
                            (rising edge-triggered cell FDRE clocked by clk  {rise@0.000ns fall@1.786ns period=3.572ns})
  Path Group:             clk
  Path Type:              Setup (Max at Slow Process Corner)
  Requirement:            3.572ns  (clk rise@3.572ns - clk rise@0.000ns)
  Data Path Delay:        5.778ns  (logic 2.166ns (37.487%)  route 3.612ns (62.513%))
  Logic Levels:           18  (LUT4=3 LUT5=5 LUT6=10)
  Clock Path Skew:        -0.039ns (DCD - SCD + CPR)
    Destination Clock Delay (DCD):    2.781ns = ( 6.353 - 3.572 ) 
    Source Clock Delay      (SCD):    3.277ns
    Clock Pessimism Removal (CPR):    0.457ns
  Clock Uncertainty:      0.035ns  ((TSJ^2 + TIJ^2)^1/2 + DJ) / 2 + PE
    Total System Jitter     (TSJ):    0.071ns
    Total Input Jitter      (TIJ):    0.000ns
    Discrete Jitter          (DJ):    0.000ns
    Phase Error              (PE):    0.000ns
  Clock Net Delay (Source):      2.136ns (routing 1.237ns, distribution 0.899ns)
  Clock Net Delay (Destination): 1.951ns (routing 1.130ns, distribution 0.821ns)

    Location             Delay type                Incr(ns)  Path(ns)    Netlist Resource(s)
  -------------------------------------------------------------------    -------------------
                         (clock clk rise edge)        0.000     0.000 r  
    AV33                                              0.000     0.000 r  clk (IN)
                         net (fo=0)                   0.000     0.000    clk_ibuf_iso/I
    AV33                 INBUF (Prop_INBUF_HPIOB_M_PAD_O)
                                                      0.779     0.779 r  clk_ibuf_iso/INBUF_INST/O
                         net (fo=1, routed)           0.000     0.779    clk_ibuf_iso/OUT
    AV33                 IBUFCTRL (Prop_IBUFCTRL_HPIOB_M_I_O)
                                                      0.000     0.779 r  clk_ibuf_iso/IBUFCTRL_INST/O
                         net (fo=1, routed)           0.334     1.113    clk_ibuf_iso
    BUFGCE_X1Y224        BUFGCE (Prop_BUFCE_BUFGCE_I_O)
                                                      0.028     1.141 r  clk_ibuf/O
    X3Y7 (CLOCK_ROOT)    net (fo=446, routed)         2.136     3.277    shift_reg_tap_i/clk_c
    SLICE_X94Y447        FDRE                                         r  shift_reg_tap_i/sr_p.sr_1_fast[146]/C
  -------------------------------------------------------------------    -------------------
    SLICE_X94Y447        FDRE (Prop_DFF2_SLICEL_C_Q)
                                                      0.098     3.375 r  shift_reg_tap_i/sr_p.sr_1_fast[146]/Q
                         net (fo=8, routed)           0.221     3.596    dut_inst/stage_g.20.csn_cmp_inst/input_slr_fast_13
    SLICE_X93Y447        LUT4 (Prop_E6LUT_SLICEM_I2_O)
                                                      0.063     3.659 r  dut_inst/stage_g.20.csn_cmp_inst/un1_b_i_ac0_5_d_0/O
                         net (fo=13, routed)          0.156     3.815    dut_inst/stage_g.20.csn_cmp_inst/un1_b_i_ac0_5_d_0_16
    SLICE_X94Y447        LUT6 (Prop_G6LUT_SLICEL_I5_O)
                                                      0.100     3.915 r  dut_inst/stage_g.20.csn_cmp_inst/b_o_comb.pt[0]/O
                         net (fo=3, routed)           0.117     4.032    dut_inst/stage_g.22.csn_cmp_inst/pt_5[0]
    SLICE_X94Y448        LUT6 (Prop_D6LUT_SLICEL_I4_O)
                                                      0.147     4.179 f  dut_inst/stage_g.22.csn_cmp_inst/un1_b_i_c2/O
                         net (fo=4, routed)           0.177     4.356    dut_inst/stage_g.22.csn_cmp_inst/un1_b_i_c2_0
    SLICE_X94Y447        LUT5 (Prop_C6LUT_SLICEL_I4_O)
                                                      0.113     4.469 r  dut_inst/stage_g.22.csn_cmp_inst/a_o_comb.pt[0]/O
                         net (fo=4, routed)           0.078     4.547    dut_inst/stage_g.23.csn_cmp_inst/pt_4_0
    SLICE_X94Y446        LUT6 (Prop_H6LUT_SLICEL_I4_O)
                                                      0.149     4.696 r  dut_inst/stage_g.23.csn_cmp_inst/un1_b_i_c2/O
                         net (fo=4, routed)           0.075     4.771    dut_inst/stage_g.23.csn_cmp_inst/un1_b_i_c2_19
    SLICE_X94Y446        LUT5 (Prop_B6LUT_SLICEL_I4_O)
                                                      0.177     4.948 r  dut_inst/stage_g.23.csn_cmp_inst/un1_b_i_ac0_5_0/O
                         net (fo=35, routed)          0.397     5.345    dut_inst/stage_g.34.csn_cmp_inst/un1_b_i_ac0_5_0_20
    SLICE_X97Y447        LUT6 (Prop_E6LUT_SLICEM_I4_O)
                                                      0.148     5.493 r  dut_inst/stage_g.34.csn_cmp_inst/un1_b_i_ac0_2_xx/O
                         net (fo=1, routed)           0.116     5.609    dut_inst/stage_g.34.csn_cmp_inst/un1_b_i_ac0_2_xx_0
    SLICE_X97Y446        LUT6 (Prop_E6LUT_SLICEM_I2_O)
                                                      0.148     5.757 r  dut_inst/stage_g.34.csn_cmp_inst/un1_b_i_c2/O
                         net (fo=8, routed)           0.134     5.891    dut_inst/stage_g.34.csn_cmp_inst/un1_b_i_c2_2
    SLICE_X97Y445        LUT6 (Prop_F6LUT_SLICEM_I5_O)
                                                      0.177     6.068 r  dut_inst/stage_g.34.csn_cmp_inst/a_o_comb.pt[3]/O
                         net (fo=22, routed)          0.271     6.339    dut_inst/stage_g.36.csn_cmp_inst/pt_31_0
    SLICE_X96Y444        LUT5 (Prop_A6LUT_SLICEL_I2_O)
                                                      0.064     6.403 r  dut_inst/stage_g.36.csn_cmp_inst/un1_b_i_ac0_5_0/O
                         net (fo=25, routed)          0.343     6.746    dut_inst/stage_g.39.csn_cmp_inst/un1_b_i_ac0_5_0_15
    SLICE_X94Y444        LUT6 (Prop_H6LUT_SLICEL_I5_O)
                                                      0.179     6.925 r  dut_inst/stage_g.39.csn_cmp_inst/un1_b_i_ac0_5_0_0/O
                         net (fo=16, routed)          0.263     7.188    dut_inst/stage_g.39.csn_cmp_inst/un1_b_i_ac0_5_0_0_3
    SLICE_X95Y442        LUT4 (Prop_B6LUT_SLICEM_I2_O)
                                                      0.063     7.251 r  dut_inst/stage_g.39.csn_cmp_inst/b_o_comb.pt[1]/O
                         net (fo=4, routed)           0.194     7.445    dut_inst/stage_g.46.csn_cmp_inst/pt_41_0
    SLICE_X95Y441        LUT6 (Prop_H6LUT_SLICEM_I1_O)
                                                      0.182     7.627 f  dut_inst/stage_g.46.csn_cmp_inst/un1_b_i_d1_ac0_5_d/O
                         net (fo=4, routed)           0.181     7.808    dut_inst/stage_g.46.csn_cmp_inst/un1_b_i_d1_ac0_5_d
    SLICE_X95Y441        LUT4 (Prop_A6LUT_SLICEM_I2_O)
                                                      0.116     7.924 f  dut_inst/stage_g.46.csn_cmp_inst/un1_b_i_d1_ac0_5_0_0_RNIO29R/O
                         net (fo=28, routed)          0.315     8.239    dut_inst/stage_g.46.csn_cmp_inst/un1_b_i_d1_ac0_5_0_0_RNIO29R_1z
    SLICE_X96Y441        LUT5 (Prop_B6LUT_SLICEL_I4_O)
                                                      0.040     8.279 f  dut_inst/stage_g.46.csn_cmp_inst/a_o_comb.pt[0]/O
                         net (fo=3, routed)           0.221     8.500    dut_inst/stage_g.60.csn_cmp_inst/pt_31_0
    SLICE_X97Y440        LUT5 (Prop_D6LUT_SLICEM_I3_O)
                                                      0.038     8.538 r  dut_inst/stage_g.60.csn_cmp_inst/un1_b_i_ac0_1_0/O
                         net (fo=1, routed)           0.103     8.641    dut_inst/stage_g.60.csn_cmp_inst/un1_b_i_ac0_1_0
    SLICE_X96Y440        LUT6 (Prop_B6LUT_SLICEL_I4_O)
                                                      0.064     8.705 r  dut_inst/stage_g.60.csn_cmp_inst/un1_b_i_ac0_5_d/O
                         net (fo=24, routed)          0.192     8.897    dut_inst/stage_g.60.csn_cmp_inst/un1_b_i_ac0_5_d_1
    SLICE_X96Y441        LUT6 (Prop_A6LUT_SLICEL_I5_O)
                                                      0.100     8.997 r  dut_inst/stage_g.60.csn_cmp_inst/b_o_comb.pt[0]/O
                         net (fo=1, routed)           0.058     9.055    shift_reg_tap_o/pt_2_0[0]
    SLICE_X96Y441        FDRE                                         r  shift_reg_tap_o/sr_p.sr_1[130]/D
  -------------------------------------------------------------------    -------------------

                         (clock clk rise edge)        3.572     3.572 r  
    AV33                                              0.000     3.572 r  clk (IN)
                         net (fo=0)                   0.000     3.572    clk_ibuf_iso/I
    AV33                 INBUF (Prop_INBUF_HPIOB_M_PAD_O)
                                                      0.510     4.082 r  clk_ibuf_iso/INBUF_INST/O
                         net (fo=1, routed)           0.000     4.082    clk_ibuf_iso/OUT
    AV33                 IBUFCTRL (Prop_IBUFCTRL_HPIOB_M_I_O)
                                                      0.000     4.082 r  clk_ibuf_iso/IBUFCTRL_INST/O
                         net (fo=1, routed)           0.296     4.378    clk_ibuf_iso
    BUFGCE_X1Y224        BUFGCE (Prop_BUFCE_BUFGCE_I_O)
                                                      0.024     4.402 r  clk_ibuf/O
    X3Y7 (CLOCK_ROOT)    net (fo=446, routed)         1.951     6.353    shift_reg_tap_o/clk_c
    SLICE_X96Y441        FDRE                                         r  shift_reg_tap_o/sr_p.sr_1[130]/C
                         clock pessimism              0.457     6.810    
                         clock uncertainty           -0.035     6.774    
    SLICE_X96Y441        FDRE (Setup_AFF_SLICEL_C_D)
                                                      0.027     6.801    shift_reg_tap_o/sr_p.sr_1[130]
  -------------------------------------------------------------------
                         required time                          6.801    
                         arrival time                          -9.055    
  -------------------------------------------------------------------
                         slack                                 -2.254    

Slack (VIOLATED) :        -2.254ns  (required time - arrival time)
  Source:                 shift_reg_tap_i/sr_p.sr_1_fast[146]/C
                            (rising edge-triggered cell FDRE clocked by clk  {rise@0.000ns fall@1.786ns period=3.572ns})
  Destination:            shift_reg_tap_o/sr_p.sr_1[130]/D
                            (rising edge-triggered cell FDRE clocked by clk  {rise@0.000ns fall@1.786ns period=3.572ns})
  Path Group:             clk
  Path Type:              Setup (Max at Slow Process Corner)
  Requirement:            3.572ns  (clk rise@3.572ns - clk rise@0.000ns)
  Data Path Delay:        5.778ns  (logic 2.166ns (37.487%)  route 3.612ns (62.513%))
  Logic Levels:           18  (LUT4=3 LUT5=5 LUT6=10)
  Clock Path Skew:        -0.039ns (DCD - SCD + CPR)
    Destination Clock Delay (DCD):    2.781ns = ( 6.353 - 3.572 ) 
    Source Clock Delay      (SCD):    3.277ns
    Clock Pessimism Removal (CPR):    0.457ns
  Clock Uncertainty:      0.035ns  ((TSJ^2 + TIJ^2)^1/2 + DJ) / 2 + PE
    Total System Jitter     (TSJ):    0.071ns
    Total Input Jitter      (TIJ):    0.000ns
    Discrete Jitter          (DJ):    0.000ns
    Phase Error              (PE):    0.000ns
  Clock Net Delay (Source):      2.136ns (routing 1.237ns, distribution 0.899ns)
  Clock Net Delay (Destination): 1.951ns (routing 1.130ns, distribution 0.821ns)

    Location             Delay type                Incr(ns)  Path(ns)    Netlist Resource(s)
  -------------------------------------------------------------------    -------------------
                         (clock clk rise edge)        0.000     0.000 r  
    AV33                                              0.000     0.000 r  clk (IN)
                         net (fo=0)                   0.000     0.000    clk_ibuf_iso/I
    AV33                 INBUF (Prop_INBUF_HPIOB_M_PAD_O)
                                                      0.779     0.779 r  clk_ibuf_iso/INBUF_INST/O
                         net (fo=1, routed)           0.000     0.779    clk_ibuf_iso/OUT
    AV33                 IBUFCTRL (Prop_IBUFCTRL_HPIOB_M_I_O)
                                                      0.000     0.779 r  clk_ibuf_iso/IBUFCTRL_INST/O
                         net (fo=1, routed)           0.334     1.113    clk_ibuf_iso
    BUFGCE_X1Y224        BUFGCE (Prop_BUFCE_BUFGCE_I_O)
                                                      0.028     1.141 r  clk_ibuf/O
    X3Y7 (CLOCK_ROOT)    net (fo=446, routed)         2.136     3.277    shift_reg_tap_i/clk_c
    SLICE_X94Y447        FDRE                                         r  shift_reg_tap_i/sr_p.sr_1_fast[146]/C
  -------------------------------------------------------------------    -------------------
    SLICE_X94Y447        FDRE (Prop_DFF2_SLICEL_C_Q)
                                                      0.098     3.375 r  shift_reg_tap_i/sr_p.sr_1_fast[146]/Q
                         net (fo=8, routed)           0.221     3.596    dut_inst/stage_g.20.csn_cmp_inst/input_slr_fast_13
    SLICE_X93Y447        LUT4 (Prop_E6LUT_SLICEM_I2_O)
                                                      0.063     3.659 r  dut_inst/stage_g.20.csn_cmp_inst/un1_b_i_ac0_5_d_0/O
                         net (fo=13, routed)          0.156     3.815    dut_inst/stage_g.20.csn_cmp_inst/un1_b_i_ac0_5_d_0_16
    SLICE_X94Y447        LUT6 (Prop_G6LUT_SLICEL_I5_O)
                                                      0.100     3.915 f  dut_inst/stage_g.20.csn_cmp_inst/b_o_comb.pt[0]/O
                         net (fo=3, routed)           0.117     4.032    dut_inst/stage_g.22.csn_cmp_inst/pt_5[0]
    SLICE_X94Y448        LUT6 (Prop_D6LUT_SLICEL_I4_O)
                                                      0.147     4.179 r  dut_inst/stage_g.22.csn_cmp_inst/un1_b_i_c2/O
                         net (fo=4, routed)           0.177     4.356    dut_inst/stage_g.22.csn_cmp_inst/un1_b_i_c2_0
    SLICE_X94Y447        LUT5 (Prop_C6LUT_SLICEL_I4_O)
                                                      0.113     4.469 r  dut_inst/stage_g.22.csn_cmp_inst/a_o_comb.pt[0]/O
                         net (fo=4, routed)           0.078     4.547    dut_inst/stage_g.23.csn_cmp_inst/pt_4_0
    SLICE_X94Y446        LUT6 (Prop_H6LUT_SLICEL_I4_O)
                                                      0.149     4.696 r  dut_inst/stage_g.23.csn_cmp_inst/un1_b_i_c2/O
                         net (fo=4, routed)           0.075     4.771    dut_inst/stage_g.23.csn_cmp_inst/un1_b_i_c2_19
    SLICE_X94Y446        LUT5 (Prop_B6LUT_SLICEL_I4_O)
                                                      0.177     4.948 r  dut_inst/stage_g.23.csn_cmp_inst/un1_b_i_ac0_5_0/O
                         net (fo=35, routed)          0.397     5.345    dut_inst/stage_g.34.csn_cmp_inst/un1_b_i_ac0_5_0_20
    SLICE_X97Y447        LUT6 (Prop_E6LUT_SLICEM_I4_O)
                                                      0.148     5.493 r  dut_inst/stage_g.34.csn_cmp_inst/un1_b_i_ac0_2_xx/O
                         net (fo=1, routed)           0.116     5.609    dut_inst/stage_g.34.csn_cmp_inst/un1_b_i_ac0_2_xx_0
    SLICE_X97Y446        LUT6 (Prop_E6LUT_SLICEM_I2_O)
                                                      0.148     5.757 r  dut_inst/stage_g.34.csn_cmp_inst/un1_b_i_c2/O
                         net (fo=8, routed)           0.134     5.891    dut_inst/stage_g.34.csn_cmp_inst/un1_b_i_c2_2
    SLICE_X97Y445        LUT6 (Prop_F6LUT_SLICEM_I5_O)
                                                      0.177     6.068 r  dut_inst/stage_g.34.csn_cmp_inst/a_o_comb.pt[3]/O
                         net (fo=22, routed)          0.271     6.339    dut_inst/stage_g.36.csn_cmp_inst/pt_31_0
    SLICE_X96Y444        LUT5 (Prop_A6LUT_SLICEL_I2_O)
                                                      0.064     6.403 r  dut_inst/stage_g.36.csn_cmp_inst/un1_b_i_ac0_5_0/O
                         net (fo=25, routed)          0.343     6.746    dut_inst/stage_g.39.csn_cmp_inst/un1_b_i_ac0_5_0_15
    SLICE_X94Y444        LUT6 (Prop_H6LUT_SLICEL_I5_O)
                                                      0.179     6.925 f  dut_inst/stage_g.39.csn_cmp_inst/un1_b_i_ac0_5_0_0/O
                         net (fo=16, routed)          0.263     7.188    dut_inst/stage_g.39.csn_cmp_inst/un1_b_i_ac0_5_0_0_3
    SLICE_X95Y442        LUT4 (Prop_B6LUT_SLICEM_I2_O)
                                                      0.063     7.251 r  dut_inst/stage_g.39.csn_cmp_inst/b_o_comb.pt[1]/O
                         net (fo=4, routed)           0.194     7.445    dut_inst/stage_g.46.csn_cmp_inst/pt_41_0
    SLICE_X95Y441        LUT6 (Prop_H6LUT_SLICEM_I1_O)
                                                      0.182     7.627 f  dut_inst/stage_g.46.csn_cmp_inst/un1_b_i_d1_ac0_5_d/O
                         net (fo=4, routed)           0.181     7.808    dut_inst/stage_g.46.csn_cmp_inst/un1_b_i_d1_ac0_5_d
    SLICE_X95Y441        LUT4 (Prop_A6LUT_SLICEM_I2_O)
                                                      0.116     7.924 f  dut_inst/stage_g.46.csn_cmp_inst/un1_b_i_d1_ac0_5_0_0_RNIO29R/O
                         net (fo=28, routed)          0.315     8.239    dut_inst/stage_g.46.csn_cmp_inst/un1_b_i_d1_ac0_5_0_0_RNIO29R_1z
    SLICE_X96Y441        LUT5 (Prop_B6LUT_SLICEL_I4_O)
                                                      0.040     8.279 f  dut_inst/stage_g.46.csn_cmp_inst/a_o_comb.pt[0]/O
                         net (fo=3, routed)           0.221     8.500    dut_inst/stage_g.60.csn_cmp_inst/pt_31_0
    SLICE_X97Y440        LUT5 (Prop_D6LUT_SLICEM_I3_O)
                                                      0.038     8.538 r  dut_inst/stage_g.60.csn_cmp_inst/un1_b_i_ac0_1_0/O
                         net (fo=1, routed)           0.103     8.641    dut_inst/stage_g.60.csn_cmp_inst/un1_b_i_ac0_1_0
    SLICE_X96Y440        LUT6 (Prop_B6LUT_SLICEL_I4_O)
                                                      0.064     8.705 r  dut_inst/stage_g.60.csn_cmp_inst/un1_b_i_ac0_5_d/O
                         net (fo=24, routed)          0.192     8.897    dut_inst/stage_g.60.csn_cmp_inst/un1_b_i_ac0_5_d_1
    SLICE_X96Y441        LUT6 (Prop_A6LUT_SLICEL_I5_O)
                                                      0.100     8.997 r  dut_inst/stage_g.60.csn_cmp_inst/b_o_comb.pt[0]/O
                         net (fo=1, routed)           0.058     9.055    shift_reg_tap_o/pt_2_0[0]
    SLICE_X96Y441        FDRE                                         r  shift_reg_tap_o/sr_p.sr_1[130]/D
  -------------------------------------------------------------------    -------------------

                         (clock clk rise edge)        3.572     3.572 r  
    AV33                                              0.000     3.572 r  clk (IN)
                         net (fo=0)                   0.000     3.572    clk_ibuf_iso/I
    AV33                 INBUF (Prop_INBUF_HPIOB_M_PAD_O)
                                                      0.510     4.082 r  clk_ibuf_iso/INBUF_INST/O
                         net (fo=1, routed)           0.000     4.082    clk_ibuf_iso/OUT
    AV33                 IBUFCTRL (Prop_IBUFCTRL_HPIOB_M_I_O)
                                                      0.000     4.082 r  clk_ibuf_iso/IBUFCTRL_INST/O
                         net (fo=1, routed)           0.296     4.378    clk_ibuf_iso
    BUFGCE_X1Y224        BUFGCE (Prop_BUFCE_BUFGCE_I_O)
                                                      0.024     4.402 r  clk_ibuf/O
    X3Y7 (CLOCK_ROOT)    net (fo=446, routed)         1.951     6.353    shift_reg_tap_o/clk_c
    SLICE_X96Y441        FDRE                                         r  shift_reg_tap_o/sr_p.sr_1[130]/C
                         clock pessimism              0.457     6.810    
                         clock uncertainty           -0.035     6.774    
    SLICE_X96Y441        FDRE (Setup_AFF_SLICEL_C_D)
                                                      0.027     6.801    shift_reg_tap_o/sr_p.sr_1[130]
  -------------------------------------------------------------------
                         required time                          6.801    
                         arrival time                          -9.055    
  -------------------------------------------------------------------
                         slack                                 -2.254    





Pulse Width Checks
--------------------------------------------------------------------------------------
Clock Name:         clk
Waveform(ns):       { 0.000 1.786 }
Period(ns):         3.572
Sources:            { clk }

Check Type        Corner  Lib Pin   Reference Pin  Required(ns)  Actual(ns)  Slack(ns)  Location        Pin
Min Period        n/a     BUFGCE/I  n/a            1.499         3.572       2.073      BUFGCE_X1Y224   clk_ibuf/I
Min Period        n/a     FDRE/C    n/a            0.550         3.572       3.022      SLICE_X97Y453   shift_reg_tap_i/sr_p.sr_1[147]/C
Min Period        n/a     FDRE/C    n/a            0.550         3.572       3.022      SLICE_X97Y453   shift_reg_tap_i/sr_p.sr_1[148]/C
Min Period        n/a     FDRE/C    n/a            0.550         3.572       3.022      SLICE_X95Y456   shift_reg_tap_i/sr_p.sr_1[149]/C
Min Period        n/a     FDRE/C    n/a            0.550         3.572       3.022      SLICE_X101Y449  shift_reg_tap_i/sr_p.sr_1[14]/C
Low Pulse Width   Slow    FDRE/C    n/a            0.275         1.786       1.511      SLICE_X94Y453   shift_reg_tap_i/sr_p.sr_1[163]/C
Low Pulse Width   Fast    FDRE/C    n/a            0.275         1.786       1.511      SLICE_X100Y438  shift_reg_tap_o/sr_p.sr_1[181]/C
Low Pulse Width   Slow    FDRE/C    n/a            0.275         1.786       1.511      SLICE_X102Y439  shift_reg_tap_o/sr_p.sr_1[184]/C
Low Pulse Width   Slow    FDRE/C    n/a            0.275         1.786       1.511      SLICE_X94Y453   shift_reg_tap_i/sr_p.sr_1[176]/C
Low Pulse Width   Fast    FDRE/C    n/a            0.275         1.786       1.511      SLICE_X100Y438  shift_reg_tap_o/sr_p.sr_1[194]/C
High Pulse Width  Slow    FDRE/C    n/a            0.275         1.786       1.511      SLICE_X97Y453   shift_reg_tap_i/sr_p.sr_1[147]/C
High Pulse Width  Fast    FDRE/C    n/a            0.275         1.786       1.511      SLICE_X97Y453   shift_reg_tap_i/sr_p.sr_1[147]/C
High Pulse Width  Slow    FDRE/C    n/a            0.275         1.786       1.511      SLICE_X97Y453   shift_reg_tap_i/sr_p.sr_1[148]/C
High Pulse Width  Fast    FDRE/C    n/a            0.275         1.786       1.511      SLICE_X97Y453   shift_reg_tap_i/sr_p.sr_1[148]/C
High Pulse Width  Fast    FDRE/C    n/a            0.275         1.786       1.511      SLICE_X95Y456   shift_reg_tap_i/sr_p.sr_1[149]/C



---------------------------------------------------------------------------------------------------
From Clock:  clk_wrapper
  To Clock:  clk_wrapper

Setup :           NA  Failing Endpoints,  Worst Slack           NA  ,  Total Violation           NA
Hold  :           NA  Failing Endpoints,  Worst Slack           NA  ,  Total Violation           NA
PW    :            0  Failing Endpoints,  Worst Slack      498.562ns,  Total Violation        0.000ns
---------------------------------------------------------------------------------------------------


Pulse Width Checks
--------------------------------------------------------------------------------------
Clock Name:         clk_wrapper
Waveform(ns):       { 0.000 500.000 }
Period(ns):         1000.000
Sources:            { clk_wrapper }

Check Type        Corner  Lib Pin   Reference Pin  Required(ns)  Actual(ns)  Slack(ns)  Location               Pin
Min Period        n/a     FDRE/C    n/a            3.195         1000.000    996.805    BITSLICE_RX_TX_X1Y483  reducer_1/delay_block[4][0]/C
Min Period        n/a     BUFGCE/I  n/a            1.499         1000.000    998.501    BUFGCE_X1Y230          clk_wrapper_ibuf/I
Min Period        n/a     FDRE/C    n/a            0.550         1000.000    999.450    SLICE_X92Y454          lsfr_1/shiftreg_vector[138]/C
Min Period        n/a     FDRE/C    n/a            0.550         1000.000    999.450    SLICE_X92Y454          lsfr_1/shiftreg_vector[139]/C
Min Period        n/a     FDRE/C    n/a            0.550         1000.000    999.450    SLICE_X102Y454         lsfr_1/shiftreg_vector[13]/C
Low Pulse Width   Slow    FDRE/C    n/a            1.438         500.000     498.562    BITSLICE_RX_TX_X1Y483  reducer_1/delay_block[4][0]/C
Low Pulse Width   Fast    FDRE/C    n/a            1.438         500.000     498.562    BITSLICE_RX_TX_X1Y483  reducer_1/delay_block[4][0]/C
Low Pulse Width   Slow    FDRE/C    n/a            0.275         500.000     499.725    SLICE_X102Y454         lsfr_1/shiftreg_vector[13]/C
Low Pulse Width   Slow    FDRE/C    n/a            0.275         500.000     499.725    SLICE_X101Y455         lsfr_1/shiftreg_vector[72]/C
Low Pulse Width   Slow    FDRE/C    n/a            0.275         500.000     499.725    SLICE_X101Y455         lsfr_1/shiftreg_vector[73]/C
High Pulse Width  Fast    FDRE/C    n/a            1.438         500.000     498.562    BITSLICE_RX_TX_X1Y483  reducer_1/delay_block[4][0]/C
High Pulse Width  Slow    FDRE/C    n/a            1.438         500.000     498.562    BITSLICE_RX_TX_X1Y483  reducer_1/delay_block[4][0]/C
High Pulse Width  Fast    FDRE/C    n/a            0.275         500.000     499.725    SLICE_X92Y454          lsfr_1/shiftreg_vector[138]/C
High Pulse Width  Fast    FDRE/C    n/a            0.275         500.000     499.725    SLICE_X92Y454          lsfr_1/shiftreg_vector[139]/C
High Pulse Width  Fast    FDRE/C    n/a            0.275         500.000     499.725    SLICE_X102Y454         lsfr_1/shiftreg_vector[13]/C



