Copyright 1986-2018 Xilinx, Inc. All Rights Reserved.
-------------------------------------------------------------------------------------------------
| Tool Version      : Vivado v.2018.2 (win64) Build 2258646 Thu Jun 14 20:03:12 MDT 2018
| Date              : Wed Feb  6 12:36:02 2019
| Host              : PCPHESEBE02 running 64-bit Service Pack 1  (build 7601)
| Command           : report_timing_summary -setup -nworst 5 -max_paths 5 -file timing_setup.txt
| Design            : wrapper
| Device            : xcvu9p-flgc2104
| Speed File        : -1  PRODUCTION 1.20 05-21-2018
| Temperature Grade : E
-------------------------------------------------------------------------------------------------

Timing Summary Report

------------------------------------------------------------------------------------------------
| Timer Settings
| --------------
------------------------------------------------------------------------------------------------

  Enable Multi Corner Analysis               :  Yes
  Enable Pessimism Removal                   :  Yes
  Pessimism Removal Resolution               :  Nearest Common Node
  Enable Input Delay Default Clock           :  No
  Enable Preset / Clear Arcs                 :  No
  Disable Flight Delays                      :  No
  Ignore I/O Paths                           :  No
  Timing Early Launch at Borrowing Latches   :  false

  Corner  Analyze    Analyze    
  Name    Max Paths  Min Paths  
  ------  ---------  ---------  
  Slow    Yes        Yes        
  Fast    Yes        Yes        



check_timing report

Table of Contents
-----------------
1. checking no_clock
2. checking constant_clock
3. checking pulse_width_clock
4. checking unconstrained_internal_endpoints
5. checking no_input_delay
6. checking no_output_delay
7. checking multiple_clock
8. checking generated_clocks
9. checking loops
10. checking partial_input_delay
11. checking partial_output_delay
12. checking latch_loops

1. checking no_clock
--------------------
 There are 0 register/latch pins with no clock.


2. checking constant_clock
--------------------------
 There are 0 register/latch pins with constant_clock.


3. checking pulse_width_clock
-----------------------------
 There are 0 register/latch pins which need pulse_width check


4. checking unconstrained_internal_endpoints
--------------------------------------------
 There are 0 pins that are not constrained for maximum delay.

 There are 0 pins that are not constrained for maximum delay due to constant clock.


5. checking no_input_delay
--------------------------
 There is 1 input port with no input delay specified. (HIGH)

 There are 0 input ports with no input delay but user has a false path constraint.


6. checking no_output_delay
---------------------------
 There is 1 port with no output delay specified. (HIGH)

 There are 0 ports with no output delay but user has a false path constraint

 There are 0 ports with no output delay but with a timing clock defined on it or propagating through it


7. checking multiple_clock
--------------------------
 There are 0 register/latch pins with multiple clocks.


8. checking generated_clocks
----------------------------
 There are 0 generated clocks that are not connected to a clock source.


9. checking loops
-----------------
 There are 0 combinational loops in the design.


10. checking partial_input_delay
--------------------------------
 There are 0 input ports with partial input delay specified.


11. checking partial_output_delay
---------------------------------
 There are 0 ports with partial output delay specified.


12. checking latch_loops
------------------------
 There are 0 combinational latch loops in the design through latch input



------------------------------------------------------------------------------------------------
| Design Timing Summary
| ---------------------
------------------------------------------------------------------------------------------------

    WNS(ns)      TNS(ns)  TNS Failing Endpoints  TNS Total Endpoints     WPWS(ns)     TPWS(ns)  TPWS Failing Endpoints  TPWS Total Endpoints  
    -------      -------  ---------------------  -------------------     --------     --------  ----------------------  --------------------  
     -7.451    -2779.009                    516                 8438        1.287        0.000                       0                  9285  


Timing constraints are not met.


------------------------------------------------------------------------------------------------
| Clock Summary
| -------------
------------------------------------------------------------------------------------------------

Clock        Waveform(ns)         Period(ns)      Frequency(MHz)
-----        ------------         ----------      --------------
clk          {0.000 1.563}        3.125           320.000         
clk_wrapper  {0.000 500.000}      1000.000        1.000           


------------------------------------------------------------------------------------------------
| Intra Clock Table
| -----------------
------------------------------------------------------------------------------------------------

Clock             WNS(ns)      TNS(ns)  TNS Failing Endpoints  TNS Total Endpoints     WPWS(ns)     TPWS(ns)  TPWS Failing Endpoints  TPWS Total Endpoints  
-----             -------      -------  ---------------------  -------------------     --------     --------  ----------------------  --------------------  
clk                -7.451    -2779.009                    516                 8438        1.287        0.000                       0                  8686  
clk_wrapper                                                                             498.562        0.000                       0                   599  


------------------------------------------------------------------------------------------------
| Inter Clock Table
| -----------------
------------------------------------------------------------------------------------------------

From Clock    To Clock          WNS(ns)      TNS(ns)  TNS Failing Endpoints  TNS Total Endpoints  
----------    --------          -------      -------  ---------------------  -------------------  


------------------------------------------------------------------------------------------------
| Other Path Groups Table
| -----------------------
------------------------------------------------------------------------------------------------

Path Group    From Clock    To Clock          WNS(ns)      TNS(ns)  TNS Failing Endpoints  TNS Total Endpoints  
----------    ----------    --------          -------      -------  ---------------------  -------------------  


------------------------------------------------------------------------------------------------
| Timing Details
| --------------
------------------------------------------------------------------------------------------------


---------------------------------------------------------------------------------------------------
From Clock:  clk
  To Clock:  clk

Setup :          516  Failing Endpoints,  Worst Slack       -7.451ns,  Total Violation    -2779.009ns
Hold  :           NA  Failing Endpoints,  Worst Slack           NA  ,  Total Violation           NA
PW    :            0  Failing Endpoints,  Worst Slack        1.287ns,  Total Violation        0.000ns
---------------------------------------------------------------------------------------------------


Max Delay Paths
--------------------------------------------------------------------------------------
Slack (VIOLATED) :        -7.451ns  (required time - arrival time)
  Source:                 muon_cand_6.pt_fast[0]/C
                            (rising edge-triggered cell FDRE clocked by clk  {rise@0.000ns fall@1.563ns period=3.125ns})
  Destination:            muon_sorter_1/sr_p.sr_1_13.sector_ret_29/D
                            (rising edge-triggered cell FDRE clocked by clk  {rise@0.000ns fall@1.563ns period=3.125ns})
  Path Group:             clk
  Path Type:              Setup (Max at Slow Process Corner)
  Requirement:            3.125ns  (clk rise@3.125ns - clk rise@0.000ns)
  Data Path Delay:        10.445ns  (logic 3.043ns (29.134%)  route 7.402ns (70.866%))
  Logic Levels:           24  (LUT3=1 LUT4=3 LUT5=8 LUT6=12)
  Clock Path Skew:        -0.122ns (DCD - SCD + CPR)
    Destination Clock Delay (DCD):    2.747ns = ( 5.872 - 3.125 ) 
    Source Clock Delay      (SCD):    3.326ns
    Clock Pessimism Removal (CPR):    0.457ns
  Clock Uncertainty:      0.035ns  ((TSJ^2 + TIJ^2)^1/2 + DJ) / 2 + PE
    Total System Jitter     (TSJ):    0.071ns
    Total Input Jitter      (TIJ):    0.000ns
    Discrete Jitter          (DJ):    0.000ns
    Phase Error              (PE):    0.000ns
  Clock Net Delay (Source):      2.185ns (routing 1.237ns, distribution 0.948ns)
  Clock Net Delay (Destination): 1.917ns (routing 1.130ns, distribution 0.787ns)

    Location             Delay type                Incr(ns)  Path(ns)    Netlist Resource(s)
  -------------------------------------------------------------------    -------------------
                         (clock clk rise edge)        0.000     0.000 r  
    AV33                                              0.000     0.000 r  clk (IN)
                         net (fo=0)                   0.000     0.000    clk_ibuf_iso/I
    AV33                 INBUF (Prop_INBUF_HPIOB_M_PAD_O)
                                                      0.779     0.779 r  clk_ibuf_iso/INBUF_INST/O
                         net (fo=1, routed)           0.000     0.779    clk_ibuf_iso/OUT
    AV33                 IBUFCTRL (Prop_IBUFCTRL_HPIOB_M_I_O)
                                                      0.000     0.779 r  clk_ibuf_iso/IBUFCTRL_INST/O
                         net (fo=1, routed)           0.334     1.113    clk_ibuf_iso
    BUFGCE_X1Y224        BUFGCE (Prop_BUFCE_BUFGCE_I_O)
                                                      0.028     1.141 r  clk_ibuf/O
    X3Y7 (CLOCK_ROOT)    net (fo=8685, routed)        2.185     3.326    clk_c
    SLICE_X105Y441       FDRE                                         r  muon_cand_6.pt_fast[0]/C
  -------------------------------------------------------------------    -------------------
    SLICE_X105Y441       FDRE (Prop_BFF_SLICEL_C_Q)
                                                      0.096     3.422 r  muon_cand_6.pt_fast[0]/Q
                         net (fo=9, routed)           0.297     3.719    muon_sorter_1/pt_fast_5[0]
    SLICE_X106Y443       LUT4 (Prop_C6LUT_SLICEL_I3_O)
                                                      0.098     3.817 f  muon_sorter_1/compare_p.6.5.compare_pt.op_qge.op_qge.un6347_pt_compare_c2/O
                         net (fo=1, routed)           0.229     4.046    muon_sorter_1/un6347_pt_compare_c2
    SLICE_X105Y443       LUT5 (Prop_G6LUT_SLICEL_I4_O)
                                                      0.147     4.193 f  muon_sorter_1/compare_p.6.5.compare_pt.op_qge.op_qge.un6347_pt_compare_c4/O
                         net (fo=4, routed)           0.260     4.453    muon_sorter_1/un6347_pt_compare
    SLICE_X105Y442       LUT6 (Prop_H6LUT_SLICEL_I5_O)
                                                      0.179     4.632 r  muon_sorter_1/max_pt_0_0_2[6]/O
                         net (fo=1, routed)           0.112     4.744    muon_sorter_1/max_pt_0_0_2[6]
    SLICE_X104Y442       LUT6 (Prop_H6LUT_SLICEM_I2_O)
                                                      0.151     4.895 r  muon_sorter_1/max_pt_0_3[6]/O
                         net (fo=18, routed)          0.248     5.143    muon_sorter_1/max_pt_0_3[6]
    SLICE_X102Y443       LUT6 (Prop_B6LUT_SLICEM_I5_O)
                                                      0.116     5.259 f  muon_sorter_1/pt_compare_11_6_17_0_a2[3]/O
                         net (fo=10, routed)          0.307     5.566    muon_sorter_1/pt_compare_11_6_17_0_a2[3]
    SLICE_X98Y443        LUT4 (Prop_A6LUT_SLICEL_I0_O)
                                                      0.149     5.715 r  muon_sorter_1/max_pt_1_0_3[6]/O
                         net (fo=1, routed)           0.176     5.891    muon_sorter_1/max_pt_1_0_3[6]
    SLICE_X98Y444        LUT5 (Prop_H6LUT_SLICEL_I2_O)
                                                      0.116     6.007 r  muon_sorter_1/max_pt_1_3[6]/O
                         net (fo=12, routed)          0.276     6.283    muon_sorter_1/max_pt_1_3[6]
    SLICE_X101Y445       LUT6 (Prop_C6LUT_SLICEL_I5_O)
                                                      0.113     6.396 r  muon_sorter_1/pt_compare_2_14_0_a2[6]/O
                         net (fo=2, routed)           0.610     7.006    muon_sorter_1/pt_compare_2_14_0_a2[6]
    SLICE_X103Y446       LUT5 (Prop_E6LUT_SLICEL_I2_O)
                                                      0.100     7.106 r  muon_sorter_1/max_pt_2_2[6]/O
                         net (fo=2, routed)           0.183     7.289    muon_sorter_1/max_pt_2_2[6]
    SLICE_X101Y447       LUT5 (Prop_B6LUT_SLICEL_I4_O)
                                                      0.040     7.329 r  muon_sorter_1/max_pt_2_3[6]/O
                         net (fo=15, routed)          0.134     7.463    muon_sorter_1/max_pt_2_3[6]
    SLICE_X100Y447       LUT5 (Prop_F6LUT_SLICEM_I4_O)
                                                      0.177     7.640 r  muon_sorter_1/pt_compare_3_6_0_a2[0]/O
                         net (fo=4, routed)           0.210     7.850    muon_sorter_1/pt_compare_3_6_0_a2[0]
    SLICE_X100Y450       LUT5 (Prop_B6LUT_SLICEM_I3_O)
                                                      0.100     7.950 r  muon_sorter_1/max_pt_3_1[0]/O
                         net (fo=10, routed)          0.131     8.081    muon_sorter_1/max_pt_3_1[0]
    SLICE_X100Y452       LUT6 (Prop_A6LUT_SLICEM_I4_O)
                                                      0.150     8.231 r  muon_sorter_1/max_pt_3[0]/O
                         net (fo=35, routed)          0.760     8.991    muon_sorter_1/max_pt_3[0]
    SLICE_X95Y446        LUT5 (Prop_E6LUT_SLICEM_I3_O)
                                                      0.101     9.092 r  muon_sorter_1/max_pt_4_0_0[6]/O
                         net (fo=2, routed)           0.129     9.221    muon_sorter_1/max_pt_4_0_0[6]
    SLICE_X95Y447        LUT6 (Prop_F6LUT_SLICEM_I3_O)
                                                      0.177     9.398 r  muon_sorter_1/max_pt_4_3[6]/O
                         net (fo=16, routed)          0.796    10.194    muon_sorter_1/max_pt_4_3[6]
    SLICE_X91Y447        LUT6 (Prop_D6LUT_SLICEL_I5_O)
                                                      0.063    10.257 f  muon_sorter_1/pt_compare_13_6_25_0_a2[0]/O
                         net (fo=4, routed)           0.387    10.644    muon_sorter_1/N_1360
    SLICE_X87Y444        LUT6 (Prop_G6LUT_SLICEM_I1_O)
                                                      0.116    10.760 r  muon_sorter_1/max_pt_5_0[6]/O
                         net (fo=14, routed)          0.311    11.071    muon_sorter_1/max_pt_5_0[6]
    SLICE_X88Y449        LUT6 (Prop_D6LUT_SLICEM_I3_O)
                                                      0.174    11.245 f  muon_sorter_1/pt_compare_6_6_0_a2[2]/O
                         net (fo=7, routed)           0.201    11.446    muon_sorter_1/pt_compare_6_6_0_a2[2]
    SLICE_X89Y451        LUT4 (Prop_B6LUT_SLICEL_I1_O)
                                                      0.177    11.623 r  muon_sorter_1/pt_compare_6_15_0_a2_RNI5UUP[6]/O
                         net (fo=2, routed)           0.227    11.850    muon_sorter_1/g0_3
    SLICE_X90Y452        LUT5 (Prop_F6LUT_SLICEM_I2_O)
                                                      0.113    11.963 r  muon_sorter_1/pt_compare_7_6_0_a2_RNO[2]/O
                         net (fo=2, routed)           0.293    12.256    muon_sorter_1/pt_compare_7_6_0_a2_RNO[2]
    SLICE_X93Y452        LUT6 (Prop_D6LUT_SLICEM_I4_O)
                                                      0.062    12.318 r  muon_sorter_1/pt_compare_7_6_0_a2[2]/O
                         net (fo=7, routed)           0.302    12.620    muon_sorter_1/N_504
    SLICE_X94Y454        LUT3 (Prop_G6LUT_SLICEL_I0_O)
                                                      0.147    12.767 r  muon_sorter_1/max_pt_7_3_N_2L1_3/O
                         net (fo=1, routed)           0.113    12.880    muon_sorter_1/max_pt_7_3_N_2L1_3
    SLICE_X95Y454        LUT6 (Prop_G6LUT_SLICEM_I4_O)
                                                      0.064    12.944 r  muon_sorter_1/max_pt_7_3[2]/O
                         net (fo=12, routed)          0.642    13.586    muon_sorter_1/max_pt_7_3[2]
    SLICE_X100Y455       LUT6 (Prop_H6LUT_SLICEM_I1_O)
                                                      0.117    13.703 r  muon_sorter_1/sr_p.sr_1_13.sector_ret_29_RNO/O
                         net (fo=1, routed)           0.068    13.771    muon_sorter_1/N_622_ret_0i
    SLICE_X100Y455       FDRE                                         r  muon_sorter_1/sr_p.sr_1_13.sector_ret_29/D
  -------------------------------------------------------------------    -------------------

                         (clock clk rise edge)        3.125     3.125 r  
    AV33                                              0.000     3.125 r  clk (IN)
                         net (fo=0)                   0.000     3.125    clk_ibuf_iso/I
    AV33                 INBUF (Prop_INBUF_HPIOB_M_PAD_O)
                                                      0.510     3.635 r  clk_ibuf_iso/INBUF_INST/O
                         net (fo=1, routed)           0.000     3.635    clk_ibuf_iso/OUT
    AV33                 IBUFCTRL (Prop_IBUFCTRL_HPIOB_M_I_O)
                                                      0.000     3.635 r  clk_ibuf_iso/IBUFCTRL_INST/O
                         net (fo=1, routed)           0.296     3.931    clk_ibuf_iso
    BUFGCE_X1Y224        BUFGCE (Prop_BUFCE_BUFGCE_I_O)
                                                      0.024     3.955 r  clk_ibuf/O
    X3Y7 (CLOCK_ROOT)    net (fo=8685, routed)        1.917     5.872    muon_sorter_1/clk_c
    SLICE_X100Y455       FDRE                                         r  muon_sorter_1/sr_p.sr_1_13.sector_ret_29/C
                         clock pessimism              0.457     6.329    
                         clock uncertainty           -0.035     6.293    
    SLICE_X100Y455       FDRE (Setup_HFF_SLICEM_C_D)
                                                      0.027     6.320    muon_sorter_1/sr_p.sr_1_13.sector_ret_29
  -------------------------------------------------------------------
                         required time                          6.320    
                         arrival time                         -13.771    
  -------------------------------------------------------------------
                         slack                                 -7.451    

Slack (VIOLATED) :        -7.451ns  (required time - arrival time)
  Source:                 muon_cand_6.pt_fast[0]/C
                            (rising edge-triggered cell FDRE clocked by clk  {rise@0.000ns fall@1.563ns period=3.125ns})
  Destination:            muon_sorter_1/sr_p.sr_1_13.sector_ret_29/D
                            (rising edge-triggered cell FDRE clocked by clk  {rise@0.000ns fall@1.563ns period=3.125ns})
  Path Group:             clk
  Path Type:              Setup (Max at Slow Process Corner)
  Requirement:            3.125ns  (clk rise@3.125ns - clk rise@0.000ns)
  Data Path Delay:        10.445ns  (logic 3.043ns (29.134%)  route 7.402ns (70.866%))
  Logic Levels:           24  (LUT3=1 LUT4=3 LUT5=8 LUT6=12)
  Clock Path Skew:        -0.122ns (DCD - SCD + CPR)
    Destination Clock Delay (DCD):    2.747ns = ( 5.872 - 3.125 ) 
    Source Clock Delay      (SCD):    3.326ns
    Clock Pessimism Removal (CPR):    0.457ns
  Clock Uncertainty:      0.035ns  ((TSJ^2 + TIJ^2)^1/2 + DJ) / 2 + PE
    Total System Jitter     (TSJ):    0.071ns
    Total Input Jitter      (TIJ):    0.000ns
    Discrete Jitter          (DJ):    0.000ns
    Phase Error              (PE):    0.000ns
  Clock Net Delay (Source):      2.185ns (routing 1.237ns, distribution 0.948ns)
  Clock Net Delay (Destination): 1.917ns (routing 1.130ns, distribution 0.787ns)

    Location             Delay type                Incr(ns)  Path(ns)    Netlist Resource(s)
  -------------------------------------------------------------------    -------------------
                         (clock clk rise edge)        0.000     0.000 r  
    AV33                                              0.000     0.000 r  clk (IN)
                         net (fo=0)                   0.000     0.000    clk_ibuf_iso/I
    AV33                 INBUF (Prop_INBUF_HPIOB_M_PAD_O)
                                                      0.779     0.779 r  clk_ibuf_iso/INBUF_INST/O
                         net (fo=1, routed)           0.000     0.779    clk_ibuf_iso/OUT
    AV33                 IBUFCTRL (Prop_IBUFCTRL_HPIOB_M_I_O)
                                                      0.000     0.779 r  clk_ibuf_iso/IBUFCTRL_INST/O
                         net (fo=1, routed)           0.334     1.113    clk_ibuf_iso
    BUFGCE_X1Y224        BUFGCE (Prop_BUFCE_BUFGCE_I_O)
                                                      0.028     1.141 r  clk_ibuf/O
    X3Y7 (CLOCK_ROOT)    net (fo=8685, routed)        2.185     3.326    clk_c
    SLICE_X105Y441       FDRE                                         r  muon_cand_6.pt_fast[0]/C
  -------------------------------------------------------------------    -------------------
    SLICE_X105Y441       FDRE (Prop_BFF_SLICEL_C_Q)
                                                      0.096     3.422 r  muon_cand_6.pt_fast[0]/Q
                         net (fo=9, routed)           0.297     3.719    muon_sorter_1/pt_fast_5[0]
    SLICE_X106Y443       LUT4 (Prop_C6LUT_SLICEL_I3_O)
                                                      0.098     3.817 f  muon_sorter_1/compare_p.6.5.compare_pt.op_qge.op_qge.un6347_pt_compare_c2/O
                         net (fo=1, routed)           0.229     4.046    muon_sorter_1/un6347_pt_compare_c2
    SLICE_X105Y443       LUT5 (Prop_G6LUT_SLICEL_I4_O)
                                                      0.147     4.193 f  muon_sorter_1/compare_p.6.5.compare_pt.op_qge.op_qge.un6347_pt_compare_c4/O
                         net (fo=4, routed)           0.260     4.453    muon_sorter_1/un6347_pt_compare
    SLICE_X105Y442       LUT6 (Prop_H6LUT_SLICEL_I5_O)
                                                      0.179     4.632 r  muon_sorter_1/max_pt_0_0_2[6]/O
                         net (fo=1, routed)           0.112     4.744    muon_sorter_1/max_pt_0_0_2[6]
    SLICE_X104Y442       LUT6 (Prop_H6LUT_SLICEM_I2_O)
                                                      0.151     4.895 r  muon_sorter_1/max_pt_0_3[6]/O
                         net (fo=18, routed)          0.248     5.143    muon_sorter_1/max_pt_0_3[6]
    SLICE_X102Y443       LUT6 (Prop_B6LUT_SLICEM_I5_O)
                                                      0.116     5.259 r  muon_sorter_1/pt_compare_11_6_17_0_a2[3]/O
                         net (fo=10, routed)          0.307     5.566    muon_sorter_1/pt_compare_11_6_17_0_a2[3]
    SLICE_X98Y443        LUT4 (Prop_A6LUT_SLICEL_I0_O)
                                                      0.149     5.715 f  muon_sorter_1/max_pt_1_0_3[6]/O
                         net (fo=1, routed)           0.176     5.891    muon_sorter_1/max_pt_1_0_3[6]
    SLICE_X98Y444        LUT5 (Prop_H6LUT_SLICEL_I2_O)
                                                      0.116     6.007 f  muon_sorter_1/max_pt_1_3[6]/O
                         net (fo=12, routed)          0.276     6.283    muon_sorter_1/max_pt_1_3[6]
    SLICE_X101Y445       LUT6 (Prop_C6LUT_SLICEL_I5_O)
                                                      0.113     6.396 r  muon_sorter_1/pt_compare_2_14_0_a2[6]/O
                         net (fo=2, routed)           0.610     7.006    muon_sorter_1/pt_compare_2_14_0_a2[6]
    SLICE_X103Y446       LUT5 (Prop_E6LUT_SLICEL_I2_O)
                                                      0.100     7.106 r  muon_sorter_1/max_pt_2_2[6]/O
                         net (fo=2, routed)           0.183     7.289    muon_sorter_1/max_pt_2_2[6]
    SLICE_X101Y447       LUT5 (Prop_B6LUT_SLICEL_I4_O)
                                                      0.040     7.329 r  muon_sorter_1/max_pt_2_3[6]/O
                         net (fo=15, routed)          0.134     7.463    muon_sorter_1/max_pt_2_3[6]
    SLICE_X100Y447       LUT5 (Prop_F6LUT_SLICEM_I4_O)
                                                      0.177     7.640 r  muon_sorter_1/pt_compare_3_6_0_a2[0]/O
                         net (fo=4, routed)           0.210     7.850    muon_sorter_1/pt_compare_3_6_0_a2[0]
    SLICE_X100Y450       LUT5 (Prop_B6LUT_SLICEM_I3_O)
                                                      0.100     7.950 r  muon_sorter_1/max_pt_3_1[0]/O
                         net (fo=10, routed)          0.131     8.081    muon_sorter_1/max_pt_3_1[0]
    SLICE_X100Y452       LUT6 (Prop_A6LUT_SLICEM_I4_O)
                                                      0.150     8.231 r  muon_sorter_1/max_pt_3[0]/O
                         net (fo=35, routed)          0.760     8.991    muon_sorter_1/max_pt_3[0]
    SLICE_X95Y446        LUT5 (Prop_E6LUT_SLICEM_I3_O)
                                                      0.101     9.092 r  muon_sorter_1/max_pt_4_0_0[6]/O
                         net (fo=2, routed)           0.129     9.221    muon_sorter_1/max_pt_4_0_0[6]
    SLICE_X95Y447        LUT6 (Prop_F6LUT_SLICEM_I3_O)
                                                      0.177     9.398 r  muon_sorter_1/max_pt_4_3[6]/O
                         net (fo=16, routed)          0.796    10.194    muon_sorter_1/max_pt_4_3[6]
    SLICE_X91Y447        LUT6 (Prop_D6LUT_SLICEL_I5_O)
                                                      0.063    10.257 f  muon_sorter_1/pt_compare_13_6_25_0_a2[0]/O
                         net (fo=4, routed)           0.387    10.644    muon_sorter_1/N_1360
    SLICE_X87Y444        LUT6 (Prop_G6LUT_SLICEM_I1_O)
                                                      0.116    10.760 r  muon_sorter_1/max_pt_5_0[6]/O
                         net (fo=14, routed)          0.311    11.071    muon_sorter_1/max_pt_5_0[6]
    SLICE_X88Y449        LUT6 (Prop_D6LUT_SLICEM_I3_O)
                                                      0.174    11.245 f  muon_sorter_1/pt_compare_6_6_0_a2[2]/O
                         net (fo=7, routed)           0.201    11.446    muon_sorter_1/pt_compare_6_6_0_a2[2]
    SLICE_X89Y451        LUT4 (Prop_B6LUT_SLICEL_I1_O)
                                                      0.177    11.623 r  muon_sorter_1/pt_compare_6_15_0_a2_RNI5UUP[6]/O
                         net (fo=2, routed)           0.227    11.850    muon_sorter_1/g0_3
    SLICE_X90Y452        LUT5 (Prop_F6LUT_SLICEM_I2_O)
                                                      0.113    11.963 r  muon_sorter_1/pt_compare_7_6_0_a2_RNO[2]/O
                         net (fo=2, routed)           0.293    12.256    muon_sorter_1/pt_compare_7_6_0_a2_RNO[2]
    SLICE_X93Y452        LUT6 (Prop_D6LUT_SLICEM_I4_O)
                                                      0.062    12.318 r  muon_sorter_1/pt_compare_7_6_0_a2[2]/O
                         net (fo=7, routed)           0.302    12.620    muon_sorter_1/N_504
    SLICE_X94Y454        LUT3 (Prop_G6LUT_SLICEL_I0_O)
                                                      0.147    12.767 r  muon_sorter_1/max_pt_7_3_N_2L1_3/O
                         net (fo=1, routed)           0.113    12.880    muon_sorter_1/max_pt_7_3_N_2L1_3
    SLICE_X95Y454        LUT6 (Prop_G6LUT_SLICEM_I4_O)
                                                      0.064    12.944 r  muon_sorter_1/max_pt_7_3[2]/O
                         net (fo=12, routed)          0.642    13.586    muon_sorter_1/max_pt_7_3[2]
    SLICE_X100Y455       LUT6 (Prop_H6LUT_SLICEM_I1_O)
                                                      0.117    13.703 r  muon_sorter_1/sr_p.sr_1_13.sector_ret_29_RNO/O
                         net (fo=1, routed)           0.068    13.771    muon_sorter_1/N_622_ret_0i
    SLICE_X100Y455       FDRE                                         r  muon_sorter_1/sr_p.sr_1_13.sector_ret_29/D
  -------------------------------------------------------------------    -------------------

                         (clock clk rise edge)        3.125     3.125 r  
    AV33                                              0.000     3.125 r  clk (IN)
                         net (fo=0)                   0.000     3.125    clk_ibuf_iso/I
    AV33                 INBUF (Prop_INBUF_HPIOB_M_PAD_O)
                                                      0.510     3.635 r  clk_ibuf_iso/INBUF_INST/O
                         net (fo=1, routed)           0.000     3.635    clk_ibuf_iso/OUT
    AV33                 IBUFCTRL (Prop_IBUFCTRL_HPIOB_M_I_O)
                                                      0.000     3.635 r  clk_ibuf_iso/IBUFCTRL_INST/O
                         net (fo=1, routed)           0.296     3.931    clk_ibuf_iso
    BUFGCE_X1Y224        BUFGCE (Prop_BUFCE_BUFGCE_I_O)
                                                      0.024     3.955 r  clk_ibuf/O
    X3Y7 (CLOCK_ROOT)    net (fo=8685, routed)        1.917     5.872    muon_sorter_1/clk_c
    SLICE_X100Y455       FDRE                                         r  muon_sorter_1/sr_p.sr_1_13.sector_ret_29/C
                         clock pessimism              0.457     6.329    
                         clock uncertainty           -0.035     6.293    
    SLICE_X100Y455       FDRE (Setup_HFF_SLICEM_C_D)
                                                      0.027     6.320    muon_sorter_1/sr_p.sr_1_13.sector_ret_29
  -------------------------------------------------------------------
                         required time                          6.320    
                         arrival time                         -13.771    
  -------------------------------------------------------------------
                         slack                                 -7.451    

Slack (VIOLATED) :        -7.451ns  (required time - arrival time)
  Source:                 muon_cand_6.pt_fast[0]/C
                            (rising edge-triggered cell FDRE clocked by clk  {rise@0.000ns fall@1.563ns period=3.125ns})
  Destination:            muon_sorter_1/sr_p.sr_1_13.sector_ret_29/D
                            (rising edge-triggered cell FDRE clocked by clk  {rise@0.000ns fall@1.563ns period=3.125ns})
  Path Group:             clk
  Path Type:              Setup (Max at Slow Process Corner)
  Requirement:            3.125ns  (clk rise@3.125ns - clk rise@0.000ns)
  Data Path Delay:        10.445ns  (logic 3.043ns (29.134%)  route 7.402ns (70.866%))
  Logic Levels:           24  (LUT3=1 LUT4=3 LUT5=8 LUT6=12)
  Clock Path Skew:        -0.122ns (DCD - SCD + CPR)
    Destination Clock Delay (DCD):    2.747ns = ( 5.872 - 3.125 ) 
    Source Clock Delay      (SCD):    3.326ns
    Clock Pessimism Removal (CPR):    0.457ns
  Clock Uncertainty:      0.035ns  ((TSJ^2 + TIJ^2)^1/2 + DJ) / 2 + PE
    Total System Jitter     (TSJ):    0.071ns
    Total Input Jitter      (TIJ):    0.000ns
    Discrete Jitter          (DJ):    0.000ns
    Phase Error              (PE):    0.000ns
  Clock Net Delay (Source):      2.185ns (routing 1.237ns, distribution 0.948ns)
  Clock Net Delay (Destination): 1.917ns (routing 1.130ns, distribution 0.787ns)

    Location             Delay type                Incr(ns)  Path(ns)    Netlist Resource(s)
  -------------------------------------------------------------------    -------------------
                         (clock clk rise edge)        0.000     0.000 r  
    AV33                                              0.000     0.000 r  clk (IN)
                         net (fo=0)                   0.000     0.000    clk_ibuf_iso/I
    AV33                 INBUF (Prop_INBUF_HPIOB_M_PAD_O)
                                                      0.779     0.779 r  clk_ibuf_iso/INBUF_INST/O
                         net (fo=1, routed)           0.000     0.779    clk_ibuf_iso/OUT
    AV33                 IBUFCTRL (Prop_IBUFCTRL_HPIOB_M_I_O)
                                                      0.000     0.779 r  clk_ibuf_iso/IBUFCTRL_INST/O
                         net (fo=1, routed)           0.334     1.113    clk_ibuf_iso
    BUFGCE_X1Y224        BUFGCE (Prop_BUFCE_BUFGCE_I_O)
                                                      0.028     1.141 r  clk_ibuf/O
    X3Y7 (CLOCK_ROOT)    net (fo=8685, routed)        2.185     3.326    clk_c
    SLICE_X105Y441       FDRE                                         r  muon_cand_6.pt_fast[0]/C
  -------------------------------------------------------------------    -------------------
    SLICE_X105Y441       FDRE (Prop_BFF_SLICEL_C_Q)
                                                      0.096     3.422 r  muon_cand_6.pt_fast[0]/Q
                         net (fo=9, routed)           0.297     3.719    muon_sorter_1/pt_fast_5[0]
    SLICE_X106Y443       LUT4 (Prop_C6LUT_SLICEL_I3_O)
                                                      0.098     3.817 f  muon_sorter_1/compare_p.6.5.compare_pt.op_qge.op_qge.un6347_pt_compare_c2/O
                         net (fo=1, routed)           0.229     4.046    muon_sorter_1/un6347_pt_compare_c2
    SLICE_X105Y443       LUT5 (Prop_G6LUT_SLICEL_I4_O)
                                                      0.147     4.193 f  muon_sorter_1/compare_p.6.5.compare_pt.op_qge.op_qge.un6347_pt_compare_c4/O
                         net (fo=4, routed)           0.260     4.453    muon_sorter_1/un6347_pt_compare
    SLICE_X105Y442       LUT6 (Prop_H6LUT_SLICEL_I5_O)
                                                      0.179     4.632 r  muon_sorter_1/max_pt_0_0_2[6]/O
                         net (fo=1, routed)           0.112     4.744    muon_sorter_1/max_pt_0_0_2[6]
    SLICE_X104Y442       LUT6 (Prop_H6LUT_SLICEM_I2_O)
                                                      0.151     4.895 r  muon_sorter_1/max_pt_0_3[6]/O
                         net (fo=18, routed)          0.248     5.143    muon_sorter_1/max_pt_0_3[6]
    SLICE_X102Y443       LUT6 (Prop_B6LUT_SLICEM_I5_O)
                                                      0.116     5.259 f  muon_sorter_1/pt_compare_11_6_17_0_a2[3]/O
                         net (fo=10, routed)          0.307     5.566    muon_sorter_1/pt_compare_11_6_17_0_a2[3]
    SLICE_X98Y443        LUT4 (Prop_A6LUT_SLICEL_I0_O)
                                                      0.149     5.715 r  muon_sorter_1/max_pt_1_0_3[6]/O
                         net (fo=1, routed)           0.176     5.891    muon_sorter_1/max_pt_1_0_3[6]
    SLICE_X98Y444        LUT5 (Prop_H6LUT_SLICEL_I2_O)
                                                      0.116     6.007 r  muon_sorter_1/max_pt_1_3[6]/O
                         net (fo=12, routed)          0.276     6.283    muon_sorter_1/max_pt_1_3[6]
    SLICE_X101Y445       LUT6 (Prop_C6LUT_SLICEL_I5_O)
                                                      0.113     6.396 r  muon_sorter_1/pt_compare_2_14_0_a2[6]/O
                         net (fo=2, routed)           0.610     7.006    muon_sorter_1/pt_compare_2_14_0_a2[6]
    SLICE_X103Y446       LUT5 (Prop_E6LUT_SLICEL_I2_O)
                                                      0.100     7.106 r  muon_sorter_1/max_pt_2_2[6]/O
                         net (fo=2, routed)           0.183     7.289    muon_sorter_1/max_pt_2_2[6]
    SLICE_X101Y447       LUT5 (Prop_B6LUT_SLICEL_I4_O)
                                                      0.040     7.329 r  muon_sorter_1/max_pt_2_3[6]/O
                         net (fo=15, routed)          0.134     7.463    muon_sorter_1/max_pt_2_3[6]
    SLICE_X100Y447       LUT5 (Prop_F6LUT_SLICEM_I4_O)
                                                      0.177     7.640 r  muon_sorter_1/pt_compare_3_6_0_a2[0]/O
                         net (fo=4, routed)           0.210     7.850    muon_sorter_1/pt_compare_3_6_0_a2[0]
    SLICE_X100Y450       LUT5 (Prop_B6LUT_SLICEM_I3_O)
                                                      0.100     7.950 r  muon_sorter_1/max_pt_3_1[0]/O
                         net (fo=10, routed)          0.131     8.081    muon_sorter_1/max_pt_3_1[0]
    SLICE_X100Y452       LUT6 (Prop_A6LUT_SLICEM_I4_O)
                                                      0.150     8.231 r  muon_sorter_1/max_pt_3[0]/O
                         net (fo=35, routed)          0.760     8.991    muon_sorter_1/max_pt_3[0]
    SLICE_X95Y446        LUT5 (Prop_E6LUT_SLICEM_I3_O)
                                                      0.101     9.092 f  muon_sorter_1/max_pt_4_0_0[6]/O
                         net (fo=2, routed)           0.129     9.221    muon_sorter_1/max_pt_4_0_0[6]
    SLICE_X95Y447        LUT6 (Prop_F6LUT_SLICEM_I3_O)
                                                      0.177     9.398 f  muon_sorter_1/max_pt_4_3[6]/O
                         net (fo=16, routed)          0.796    10.194    muon_sorter_1/max_pt_4_3[6]
    SLICE_X91Y447        LUT6 (Prop_D6LUT_SLICEL_I5_O)
                                                      0.063    10.257 f  muon_sorter_1/pt_compare_13_6_25_0_a2[0]/O
                         net (fo=4, routed)           0.387    10.644    muon_sorter_1/N_1360
    SLICE_X87Y444        LUT6 (Prop_G6LUT_SLICEM_I1_O)
                                                      0.116    10.760 r  muon_sorter_1/max_pt_5_0[6]/O
                         net (fo=14, routed)          0.311    11.071    muon_sorter_1/max_pt_5_0[6]
    SLICE_X88Y449        LUT6 (Prop_D6LUT_SLICEM_I3_O)
                                                      0.174    11.245 f  muon_sorter_1/pt_compare_6_6_0_a2[2]/O
                         net (fo=7, routed)           0.201    11.446    muon_sorter_1/pt_compare_6_6_0_a2[2]
    SLICE_X89Y451        LUT4 (Prop_B6LUT_SLICEL_I1_O)
                                                      0.177    11.623 r  muon_sorter_1/pt_compare_6_15_0_a2_RNI5UUP[6]/O
                         net (fo=2, routed)           0.227    11.850    muon_sorter_1/g0_3
    SLICE_X90Y452        LUT5 (Prop_F6LUT_SLICEM_I2_O)
                                                      0.113    11.963 r  muon_sorter_1/pt_compare_7_6_0_a2_RNO[2]/O
                         net (fo=2, routed)           0.293    12.256    muon_sorter_1/pt_compare_7_6_0_a2_RNO[2]
    SLICE_X93Y452        LUT6 (Prop_D6LUT_SLICEM_I4_O)
                                                      0.062    12.318 r  muon_sorter_1/pt_compare_7_6_0_a2[2]/O
                         net (fo=7, routed)           0.302    12.620    muon_sorter_1/N_504
    SLICE_X94Y454        LUT3 (Prop_G6LUT_SLICEL_I0_O)
                                                      0.147    12.767 r  muon_sorter_1/max_pt_7_3_N_2L1_3/O
                         net (fo=1, routed)           0.113    12.880    muon_sorter_1/max_pt_7_3_N_2L1_3
    SLICE_X95Y454        LUT6 (Prop_G6LUT_SLICEM_I4_O)
                                                      0.064    12.944 r  muon_sorter_1/max_pt_7_3[2]/O
                         net (fo=12, routed)          0.642    13.586    muon_sorter_1/max_pt_7_3[2]
    SLICE_X100Y455       LUT6 (Prop_H6LUT_SLICEM_I1_O)
                                                      0.117    13.703 r  muon_sorter_1/sr_p.sr_1_13.sector_ret_29_RNO/O
                         net (fo=1, routed)           0.068    13.771    muon_sorter_1/N_622_ret_0i
    SLICE_X100Y455       FDRE                                         r  muon_sorter_1/sr_p.sr_1_13.sector_ret_29/D
  -------------------------------------------------------------------    -------------------

                         (clock clk rise edge)        3.125     3.125 r  
    AV33                                              0.000     3.125 r  clk (IN)
                         net (fo=0)                   0.000     3.125    clk_ibuf_iso/I
    AV33                 INBUF (Prop_INBUF_HPIOB_M_PAD_O)
                                                      0.510     3.635 r  clk_ibuf_iso/INBUF_INST/O
                         net (fo=1, routed)           0.000     3.635    clk_ibuf_iso/OUT
    AV33                 IBUFCTRL (Prop_IBUFCTRL_HPIOB_M_I_O)
                                                      0.000     3.635 r  clk_ibuf_iso/IBUFCTRL_INST/O
                         net (fo=1, routed)           0.296     3.931    clk_ibuf_iso
    BUFGCE_X1Y224        BUFGCE (Prop_BUFCE_BUFGCE_I_O)
                                                      0.024     3.955 r  clk_ibuf/O
    X3Y7 (CLOCK_ROOT)    net (fo=8685, routed)        1.917     5.872    muon_sorter_1/clk_c
    SLICE_X100Y455       FDRE                                         r  muon_sorter_1/sr_p.sr_1_13.sector_ret_29/C
                         clock pessimism              0.457     6.329    
                         clock uncertainty           -0.035     6.293    
    SLICE_X100Y455       FDRE (Setup_HFF_SLICEM_C_D)
                                                      0.027     6.320    muon_sorter_1/sr_p.sr_1_13.sector_ret_29
  -------------------------------------------------------------------
                         required time                          6.320    
                         arrival time                         -13.771    
  -------------------------------------------------------------------
                         slack                                 -7.451    

Slack (VIOLATED) :        -7.451ns  (required time - arrival time)
  Source:                 muon_cand_6.pt_fast[0]/C
                            (rising edge-triggered cell FDRE clocked by clk  {rise@0.000ns fall@1.563ns period=3.125ns})
  Destination:            muon_sorter_1/sr_p.sr_1_13.sector_ret_29/D
                            (rising edge-triggered cell FDRE clocked by clk  {rise@0.000ns fall@1.563ns period=3.125ns})
  Path Group:             clk
  Path Type:              Setup (Max at Slow Process Corner)
  Requirement:            3.125ns  (clk rise@3.125ns - clk rise@0.000ns)
  Data Path Delay:        10.445ns  (logic 3.043ns (29.134%)  route 7.402ns (70.866%))
  Logic Levels:           24  (LUT3=1 LUT4=3 LUT5=8 LUT6=12)
  Clock Path Skew:        -0.122ns (DCD - SCD + CPR)
    Destination Clock Delay (DCD):    2.747ns = ( 5.872 - 3.125 ) 
    Source Clock Delay      (SCD):    3.326ns
    Clock Pessimism Removal (CPR):    0.457ns
  Clock Uncertainty:      0.035ns  ((TSJ^2 + TIJ^2)^1/2 + DJ) / 2 + PE
    Total System Jitter     (TSJ):    0.071ns
    Total Input Jitter      (TIJ):    0.000ns
    Discrete Jitter          (DJ):    0.000ns
    Phase Error              (PE):    0.000ns
  Clock Net Delay (Source):      2.185ns (routing 1.237ns, distribution 0.948ns)
  Clock Net Delay (Destination): 1.917ns (routing 1.130ns, distribution 0.787ns)

    Location             Delay type                Incr(ns)  Path(ns)    Netlist Resource(s)
  -------------------------------------------------------------------    -------------------
                         (clock clk rise edge)        0.000     0.000 r  
    AV33                                              0.000     0.000 r  clk (IN)
                         net (fo=0)                   0.000     0.000    clk_ibuf_iso/I
    AV33                 INBUF (Prop_INBUF_HPIOB_M_PAD_O)
                                                      0.779     0.779 r  clk_ibuf_iso/INBUF_INST/O
                         net (fo=1, routed)           0.000     0.779    clk_ibuf_iso/OUT
    AV33                 IBUFCTRL (Prop_IBUFCTRL_HPIOB_M_I_O)
                                                      0.000     0.779 r  clk_ibuf_iso/IBUFCTRL_INST/O
                         net (fo=1, routed)           0.334     1.113    clk_ibuf_iso
    BUFGCE_X1Y224        BUFGCE (Prop_BUFCE_BUFGCE_I_O)
                                                      0.028     1.141 r  clk_ibuf/O
    X3Y7 (CLOCK_ROOT)    net (fo=8685, routed)        2.185     3.326    clk_c
    SLICE_X105Y441       FDRE                                         r  muon_cand_6.pt_fast[0]/C
  -------------------------------------------------------------------    -------------------
    SLICE_X105Y441       FDRE (Prop_BFF_SLICEL_C_Q)
                                                      0.096     3.422 r  muon_cand_6.pt_fast[0]/Q
                         net (fo=9, routed)           0.297     3.719    muon_sorter_1/pt_fast_5[0]
    SLICE_X106Y443       LUT4 (Prop_C6LUT_SLICEL_I3_O)
                                                      0.098     3.817 f  muon_sorter_1/compare_p.6.5.compare_pt.op_qge.op_qge.un6347_pt_compare_c2/O
                         net (fo=1, routed)           0.229     4.046    muon_sorter_1/un6347_pt_compare_c2
    SLICE_X105Y443       LUT5 (Prop_G6LUT_SLICEL_I4_O)
                                                      0.147     4.193 f  muon_sorter_1/compare_p.6.5.compare_pt.op_qge.op_qge.un6347_pt_compare_c4/O
                         net (fo=4, routed)           0.260     4.453    muon_sorter_1/un6347_pt_compare
    SLICE_X105Y442       LUT6 (Prop_H6LUT_SLICEL_I5_O)
                                                      0.179     4.632 r  muon_sorter_1/max_pt_0_0_2[6]/O
                         net (fo=1, routed)           0.112     4.744    muon_sorter_1/max_pt_0_0_2[6]
    SLICE_X104Y442       LUT6 (Prop_H6LUT_SLICEM_I2_O)
                                                      0.151     4.895 r  muon_sorter_1/max_pt_0_3[6]/O
                         net (fo=18, routed)          0.248     5.143    muon_sorter_1/max_pt_0_3[6]
    SLICE_X102Y443       LUT6 (Prop_B6LUT_SLICEM_I5_O)
                                                      0.116     5.259 r  muon_sorter_1/pt_compare_11_6_17_0_a2[3]/O
                         net (fo=10, routed)          0.307     5.566    muon_sorter_1/pt_compare_11_6_17_0_a2[3]
    SLICE_X98Y443        LUT4 (Prop_A6LUT_SLICEL_I0_O)
                                                      0.149     5.715 f  muon_sorter_1/max_pt_1_0_3[6]/O
                         net (fo=1, routed)           0.176     5.891    muon_sorter_1/max_pt_1_0_3[6]
    SLICE_X98Y444        LUT5 (Prop_H6LUT_SLICEL_I2_O)
                                                      0.116     6.007 f  muon_sorter_1/max_pt_1_3[6]/O
                         net (fo=12, routed)          0.276     6.283    muon_sorter_1/max_pt_1_3[6]
    SLICE_X101Y445       LUT6 (Prop_C6LUT_SLICEL_I5_O)
                                                      0.113     6.396 r  muon_sorter_1/pt_compare_2_14_0_a2[6]/O
                         net (fo=2, routed)           0.610     7.006    muon_sorter_1/pt_compare_2_14_0_a2[6]
    SLICE_X103Y446       LUT5 (Prop_E6LUT_SLICEL_I2_O)
                                                      0.100     7.106 r  muon_sorter_1/max_pt_2_2[6]/O
                         net (fo=2, routed)           0.183     7.289    muon_sorter_1/max_pt_2_2[6]
    SLICE_X101Y447       LUT5 (Prop_B6LUT_SLICEL_I4_O)
                                                      0.040     7.329 r  muon_sorter_1/max_pt_2_3[6]/O
                         net (fo=15, routed)          0.134     7.463    muon_sorter_1/max_pt_2_3[6]
    SLICE_X100Y447       LUT5 (Prop_F6LUT_SLICEM_I4_O)
                                                      0.177     7.640 r  muon_sorter_1/pt_compare_3_6_0_a2[0]/O
                         net (fo=4, routed)           0.210     7.850    muon_sorter_1/pt_compare_3_6_0_a2[0]
    SLICE_X100Y450       LUT5 (Prop_B6LUT_SLICEM_I3_O)
                                                      0.100     7.950 r  muon_sorter_1/max_pt_3_1[0]/O
                         net (fo=10, routed)          0.131     8.081    muon_sorter_1/max_pt_3_1[0]
    SLICE_X100Y452       LUT6 (Prop_A6LUT_SLICEM_I4_O)
                                                      0.150     8.231 r  muon_sorter_1/max_pt_3[0]/O
                         net (fo=35, routed)          0.760     8.991    muon_sorter_1/max_pt_3[0]
    SLICE_X95Y446        LUT5 (Prop_E6LUT_SLICEM_I3_O)
                                                      0.101     9.092 f  muon_sorter_1/max_pt_4_0_0[6]/O
                         net (fo=2, routed)           0.129     9.221    muon_sorter_1/max_pt_4_0_0[6]
    SLICE_X95Y447        LUT6 (Prop_F6LUT_SLICEM_I3_O)
                                                      0.177     9.398 f  muon_sorter_1/max_pt_4_3[6]/O
                         net (fo=16, routed)          0.796    10.194    muon_sorter_1/max_pt_4_3[6]
    SLICE_X91Y447        LUT6 (Prop_D6LUT_SLICEL_I5_O)
                                                      0.063    10.257 f  muon_sorter_1/pt_compare_13_6_25_0_a2[0]/O
                         net (fo=4, routed)           0.387    10.644    muon_sorter_1/N_1360
    SLICE_X87Y444        LUT6 (Prop_G6LUT_SLICEM_I1_O)
                                                      0.116    10.760 r  muon_sorter_1/max_pt_5_0[6]/O
                         net (fo=14, routed)          0.311    11.071    muon_sorter_1/max_pt_5_0[6]
    SLICE_X88Y449        LUT6 (Prop_D6LUT_SLICEM_I3_O)
                                                      0.174    11.245 f  muon_sorter_1/pt_compare_6_6_0_a2[2]/O
                         net (fo=7, routed)           0.201    11.446    muon_sorter_1/pt_compare_6_6_0_a2[2]
    SLICE_X89Y451        LUT4 (Prop_B6LUT_SLICEL_I1_O)
                                                      0.177    11.623 r  muon_sorter_1/pt_compare_6_15_0_a2_RNI5UUP[6]/O
                         net (fo=2, routed)           0.227    11.850    muon_sorter_1/g0_3
    SLICE_X90Y452        LUT5 (Prop_F6LUT_SLICEM_I2_O)
                                                      0.113    11.963 r  muon_sorter_1/pt_compare_7_6_0_a2_RNO[2]/O
                         net (fo=2, routed)           0.293    12.256    muon_sorter_1/pt_compare_7_6_0_a2_RNO[2]
    SLICE_X93Y452        LUT6 (Prop_D6LUT_SLICEM_I4_O)
                                                      0.062    12.318 r  muon_sorter_1/pt_compare_7_6_0_a2[2]/O
                         net (fo=7, routed)           0.302    12.620    muon_sorter_1/N_504
    SLICE_X94Y454        LUT3 (Prop_G6LUT_SLICEL_I0_O)
                                                      0.147    12.767 r  muon_sorter_1/max_pt_7_3_N_2L1_3/O
                         net (fo=1, routed)           0.113    12.880    muon_sorter_1/max_pt_7_3_N_2L1_3
    SLICE_X95Y454        LUT6 (Prop_G6LUT_SLICEM_I4_O)
                                                      0.064    12.944 r  muon_sorter_1/max_pt_7_3[2]/O
                         net (fo=12, routed)          0.642    13.586    muon_sorter_1/max_pt_7_3[2]
    SLICE_X100Y455       LUT6 (Prop_H6LUT_SLICEM_I1_O)
                                                      0.117    13.703 r  muon_sorter_1/sr_p.sr_1_13.sector_ret_29_RNO/O
                         net (fo=1, routed)           0.068    13.771    muon_sorter_1/N_622_ret_0i
    SLICE_X100Y455       FDRE                                         r  muon_sorter_1/sr_p.sr_1_13.sector_ret_29/D
  -------------------------------------------------------------------    -------------------

                         (clock clk rise edge)        3.125     3.125 r  
    AV33                                              0.000     3.125 r  clk (IN)
                         net (fo=0)                   0.000     3.125    clk_ibuf_iso/I
    AV33                 INBUF (Prop_INBUF_HPIOB_M_PAD_O)
                                                      0.510     3.635 r  clk_ibuf_iso/INBUF_INST/O
                         net (fo=1, routed)           0.000     3.635    clk_ibuf_iso/OUT
    AV33                 IBUFCTRL (Prop_IBUFCTRL_HPIOB_M_I_O)
                                                      0.000     3.635 r  clk_ibuf_iso/IBUFCTRL_INST/O
                         net (fo=1, routed)           0.296     3.931    clk_ibuf_iso
    BUFGCE_X1Y224        BUFGCE (Prop_BUFCE_BUFGCE_I_O)
                                                      0.024     3.955 r  clk_ibuf/O
    X3Y7 (CLOCK_ROOT)    net (fo=8685, routed)        1.917     5.872    muon_sorter_1/clk_c
    SLICE_X100Y455       FDRE                                         r  muon_sorter_1/sr_p.sr_1_13.sector_ret_29/C
                         clock pessimism              0.457     6.329    
                         clock uncertainty           -0.035     6.293    
    SLICE_X100Y455       FDRE (Setup_HFF_SLICEM_C_D)
                                                      0.027     6.320    muon_sorter_1/sr_p.sr_1_13.sector_ret_29
  -------------------------------------------------------------------
                         required time                          6.320    
                         arrival time                         -13.771    
  -------------------------------------------------------------------
                         slack                                 -7.451    

Slack (VIOLATED) :        -7.451ns  (required time - arrival time)
  Source:                 muon_cand_6.pt_fast[0]/C
                            (rising edge-triggered cell FDRE clocked by clk  {rise@0.000ns fall@1.563ns period=3.125ns})
  Destination:            muon_sorter_1/sr_p.sr_1_13.sector_ret_29/D
                            (rising edge-triggered cell FDRE clocked by clk  {rise@0.000ns fall@1.563ns period=3.125ns})
  Path Group:             clk
  Path Type:              Setup (Max at Slow Process Corner)
  Requirement:            3.125ns  (clk rise@3.125ns - clk rise@0.000ns)
  Data Path Delay:        10.445ns  (logic 3.043ns (29.134%)  route 7.402ns (70.866%))
  Logic Levels:           24  (LUT3=1 LUT4=3 LUT5=8 LUT6=12)
  Clock Path Skew:        -0.122ns (DCD - SCD + CPR)
    Destination Clock Delay (DCD):    2.747ns = ( 5.872 - 3.125 ) 
    Source Clock Delay      (SCD):    3.326ns
    Clock Pessimism Removal (CPR):    0.457ns
  Clock Uncertainty:      0.035ns  ((TSJ^2 + TIJ^2)^1/2 + DJ) / 2 + PE
    Total System Jitter     (TSJ):    0.071ns
    Total Input Jitter      (TIJ):    0.000ns
    Discrete Jitter          (DJ):    0.000ns
    Phase Error              (PE):    0.000ns
  Clock Net Delay (Source):      2.185ns (routing 1.237ns, distribution 0.948ns)
  Clock Net Delay (Destination): 1.917ns (routing 1.130ns, distribution 0.787ns)

    Location             Delay type                Incr(ns)  Path(ns)    Netlist Resource(s)
  -------------------------------------------------------------------    -------------------
                         (clock clk rise edge)        0.000     0.000 r  
    AV33                                              0.000     0.000 r  clk (IN)
                         net (fo=0)                   0.000     0.000    clk_ibuf_iso/I
    AV33                 INBUF (Prop_INBUF_HPIOB_M_PAD_O)
                                                      0.779     0.779 r  clk_ibuf_iso/INBUF_INST/O
                         net (fo=1, routed)           0.000     0.779    clk_ibuf_iso/OUT
    AV33                 IBUFCTRL (Prop_IBUFCTRL_HPIOB_M_I_O)
                                                      0.000     0.779 r  clk_ibuf_iso/IBUFCTRL_INST/O
                         net (fo=1, routed)           0.334     1.113    clk_ibuf_iso
    BUFGCE_X1Y224        BUFGCE (Prop_BUFCE_BUFGCE_I_O)
                                                      0.028     1.141 r  clk_ibuf/O
    X3Y7 (CLOCK_ROOT)    net (fo=8685, routed)        2.185     3.326    clk_c
    SLICE_X105Y441       FDRE                                         r  muon_cand_6.pt_fast[0]/C
  -------------------------------------------------------------------    -------------------
    SLICE_X105Y441       FDRE (Prop_BFF_SLICEL_C_Q)
                                                      0.096     3.422 r  muon_cand_6.pt_fast[0]/Q
                         net (fo=9, routed)           0.297     3.719    muon_sorter_1/pt_fast_5[0]
    SLICE_X106Y443       LUT4 (Prop_C6LUT_SLICEL_I3_O)
                                                      0.098     3.817 f  muon_sorter_1/compare_p.6.5.compare_pt.op_qge.op_qge.un6347_pt_compare_c2/O
                         net (fo=1, routed)           0.229     4.046    muon_sorter_1/un6347_pt_compare_c2
    SLICE_X105Y443       LUT5 (Prop_G6LUT_SLICEL_I4_O)
                                                      0.147     4.193 f  muon_sorter_1/compare_p.6.5.compare_pt.op_qge.op_qge.un6347_pt_compare_c4/O
                         net (fo=4, routed)           0.260     4.453    muon_sorter_1/un6347_pt_compare
    SLICE_X105Y442       LUT6 (Prop_H6LUT_SLICEL_I5_O)
                                                      0.179     4.632 r  muon_sorter_1/max_pt_0_0_2[6]/O
                         net (fo=1, routed)           0.112     4.744    muon_sorter_1/max_pt_0_0_2[6]
    SLICE_X104Y442       LUT6 (Prop_H6LUT_SLICEM_I2_O)
                                                      0.151     4.895 r  muon_sorter_1/max_pt_0_3[6]/O
                         net (fo=18, routed)          0.248     5.143    muon_sorter_1/max_pt_0_3[6]
    SLICE_X102Y443       LUT6 (Prop_B6LUT_SLICEM_I5_O)
                                                      0.116     5.259 f  muon_sorter_1/pt_compare_11_6_17_0_a2[3]/O
                         net (fo=10, routed)          0.307     5.566    muon_sorter_1/pt_compare_11_6_17_0_a2[3]
    SLICE_X98Y443        LUT4 (Prop_A6LUT_SLICEL_I0_O)
                                                      0.149     5.715 r  muon_sorter_1/max_pt_1_0_3[6]/O
                         net (fo=1, routed)           0.176     5.891    muon_sorter_1/max_pt_1_0_3[6]
    SLICE_X98Y444        LUT5 (Prop_H6LUT_SLICEL_I2_O)
                                                      0.116     6.007 r  muon_sorter_1/max_pt_1_3[6]/O
                         net (fo=12, routed)          0.276     6.283    muon_sorter_1/max_pt_1_3[6]
    SLICE_X101Y445       LUT6 (Prop_C6LUT_SLICEL_I5_O)
                                                      0.113     6.396 f  muon_sorter_1/pt_compare_2_14_0_a2[6]/O
                         net (fo=2, routed)           0.610     7.006    muon_sorter_1/pt_compare_2_14_0_a2[6]
    SLICE_X103Y446       LUT5 (Prop_E6LUT_SLICEL_I2_O)
                                                      0.100     7.106 f  muon_sorter_1/max_pt_2_2[6]/O
                         net (fo=2, routed)           0.183     7.289    muon_sorter_1/max_pt_2_2[6]
    SLICE_X101Y447       LUT5 (Prop_B6LUT_SLICEL_I4_O)
                                                      0.040     7.329 f  muon_sorter_1/max_pt_2_3[6]/O
                         net (fo=15, routed)          0.134     7.463    muon_sorter_1/max_pt_2_3[6]
    SLICE_X100Y447       LUT5 (Prop_F6LUT_SLICEM_I4_O)
                                                      0.177     7.640 r  muon_sorter_1/pt_compare_3_6_0_a2[0]/O
                         net (fo=4, routed)           0.210     7.850    muon_sorter_1/pt_compare_3_6_0_a2[0]
    SLICE_X100Y450       LUT5 (Prop_B6LUT_SLICEM_I3_O)
                                                      0.100     7.950 r  muon_sorter_1/max_pt_3_1[0]/O
                         net (fo=10, routed)          0.131     8.081    muon_sorter_1/max_pt_3_1[0]
    SLICE_X100Y452       LUT6 (Prop_A6LUT_SLICEM_I4_O)
                                                      0.150     8.231 r  muon_sorter_1/max_pt_3[0]/O
                         net (fo=35, routed)          0.760     8.991    muon_sorter_1/max_pt_3[0]
    SLICE_X95Y446        LUT5 (Prop_E6LUT_SLICEM_I3_O)
                                                      0.101     9.092 f  muon_sorter_1/max_pt_4_0_0[6]/O
                         net (fo=2, routed)           0.129     9.221    muon_sorter_1/max_pt_4_0_0[6]
    SLICE_X95Y447        LUT6 (Prop_F6LUT_SLICEM_I3_O)
                                                      0.177     9.398 f  muon_sorter_1/max_pt_4_3[6]/O
                         net (fo=16, routed)          0.796    10.194    muon_sorter_1/max_pt_4_3[6]
    SLICE_X91Y447        LUT6 (Prop_D6LUT_SLICEL_I5_O)
                                                      0.063    10.257 f  muon_sorter_1/pt_compare_13_6_25_0_a2[0]/O
                         net (fo=4, routed)           0.387    10.644    muon_sorter_1/N_1360
    SLICE_X87Y444        LUT6 (Prop_G6LUT_SLICEM_I1_O)
                                                      0.116    10.760 r  muon_sorter_1/max_pt_5_0[6]/O
                         net (fo=14, routed)          0.311    11.071    muon_sorter_1/max_pt_5_0[6]
    SLICE_X88Y449        LUT6 (Prop_D6LUT_SLICEM_I3_O)
                                                      0.174    11.245 f  muon_sorter_1/pt_compare_6_6_0_a2[2]/O
                         net (fo=7, routed)           0.201    11.446    muon_sorter_1/pt_compare_6_6_0_a2[2]
    SLICE_X89Y451        LUT4 (Prop_B6LUT_SLICEL_I1_O)
                                                      0.177    11.623 r  muon_sorter_1/pt_compare_6_15_0_a2_RNI5UUP[6]/O
                         net (fo=2, routed)           0.227    11.850    muon_sorter_1/g0_3
    SLICE_X90Y452        LUT5 (Prop_F6LUT_SLICEM_I2_O)
                                                      0.113    11.963 r  muon_sorter_1/pt_compare_7_6_0_a2_RNO[2]/O
                         net (fo=2, routed)           0.293    12.256    muon_sorter_1/pt_compare_7_6_0_a2_RNO[2]
    SLICE_X93Y452        LUT6 (Prop_D6LUT_SLICEM_I4_O)
                                                      0.062    12.318 r  muon_sorter_1/pt_compare_7_6_0_a2[2]/O
                         net (fo=7, routed)           0.302    12.620    muon_sorter_1/N_504
    SLICE_X94Y454        LUT3 (Prop_G6LUT_SLICEL_I0_O)
                                                      0.147    12.767 r  muon_sorter_1/max_pt_7_3_N_2L1_3/O
                         net (fo=1, routed)           0.113    12.880    muon_sorter_1/max_pt_7_3_N_2L1_3
    SLICE_X95Y454        LUT6 (Prop_G6LUT_SLICEM_I4_O)
                                                      0.064    12.944 r  muon_sorter_1/max_pt_7_3[2]/O
                         net (fo=12, routed)          0.642    13.586    muon_sorter_1/max_pt_7_3[2]
    SLICE_X100Y455       LUT6 (Prop_H6LUT_SLICEM_I1_O)
                                                      0.117    13.703 r  muon_sorter_1/sr_p.sr_1_13.sector_ret_29_RNO/O
                         net (fo=1, routed)           0.068    13.771    muon_sorter_1/N_622_ret_0i
    SLICE_X100Y455       FDRE                                         r  muon_sorter_1/sr_p.sr_1_13.sector_ret_29/D
  -------------------------------------------------------------------    -------------------

                         (clock clk rise edge)        3.125     3.125 r  
    AV33                                              0.000     3.125 r  clk (IN)
                         net (fo=0)                   0.000     3.125    clk_ibuf_iso/I
    AV33                 INBUF (Prop_INBUF_HPIOB_M_PAD_O)
                                                      0.510     3.635 r  clk_ibuf_iso/INBUF_INST/O
                         net (fo=1, routed)           0.000     3.635    clk_ibuf_iso/OUT
    AV33                 IBUFCTRL (Prop_IBUFCTRL_HPIOB_M_I_O)
                                                      0.000     3.635 r  clk_ibuf_iso/IBUFCTRL_INST/O
                         net (fo=1, routed)           0.296     3.931    clk_ibuf_iso
    BUFGCE_X1Y224        BUFGCE (Prop_BUFCE_BUFGCE_I_O)
                                                      0.024     3.955 r  clk_ibuf/O
    X3Y7 (CLOCK_ROOT)    net (fo=8685, routed)        1.917     5.872    muon_sorter_1/clk_c
    SLICE_X100Y455       FDRE                                         r  muon_sorter_1/sr_p.sr_1_13.sector_ret_29/C
                         clock pessimism              0.457     6.329    
                         clock uncertainty           -0.035     6.293    
    SLICE_X100Y455       FDRE (Setup_HFF_SLICEM_C_D)
                                                      0.027     6.320    muon_sorter_1/sr_p.sr_1_13.sector_ret_29
  -------------------------------------------------------------------
                         required time                          6.320    
                         arrival time                         -13.771    
  -------------------------------------------------------------------
                         slack                                 -7.451    





Pulse Width Checks
--------------------------------------------------------------------------------------
Clock Name:         clk
Waveform(ns):       { 0.000 1.563 }
Period(ns):         3.125
Sources:            { clk }

Check Type        Corner  Lib Pin   Reference Pin  Required(ns)  Actual(ns)  Slack(ns)  Location        Pin
Min Period        n/a     BUFGCE/I  n/a            1.499         3.125       1.626      BUFGCE_X1Y224   clk_ibuf/I
Min Period        n/a     FDRE/C    n/a            0.550         3.125       2.575      SLICE_X98Y455   muon_sorter_1/sr_p.sr_1_10.pt_ret_6/C
Min Period        n/a     FDRE/C    n/a            0.550         3.125       2.575      SLICE_X101Y452  muon_sorter_1/sr_p.sr_1_13.sector_ret_38/C
Min Period        n/a     FDRE/C    n/a            0.550         3.125       2.575      SLICE_X100Y454  muon_sorter_1/sr_p.sr_1_13.sector_ret_39/C
Min Period        n/a     FDRE/C    n/a            0.550         3.125       2.575      SLICE_X95Y441   muon_sorter_1/sr_p.sr_1_4.sector[0]/C
Low Pulse Width   Fast    FDRE/C    n/a            0.275         1.562       1.287      SLICE_X98Y489   shift_reg_tap_i/sr_p.sr_12[27]/C
Low Pulse Width   Fast    FDRE/C    n/a            0.275         1.562       1.287      SLICE_X98Y491   shift_reg_tap_i/sr_p.sr_12[28]/C
Low Pulse Width   Fast    FDRE/C    n/a            0.275         1.562       1.287      SLICE_X94Y468   shift_reg_tap_i/sr_p.sr_12[30]/C
Low Pulse Width   Fast    FDRE/C    n/a            0.275         1.562       1.287      SLICE_X94Y486   shift_reg_tap_i/sr_p.sr_12[32]/C
Low Pulse Width   Fast    FDRE/C    n/a            0.275         1.562       1.287      SLICE_X97Y441   shift_reg_tap_i/sr_p.sr_12[36]/C
High Pulse Width  Slow    FDRE/C    n/a            0.275         1.563       1.288      SLICE_X100Y454  muon_sorter_1/sr_p.sr_1_13.sector_ret_39/C
High Pulse Width  Slow    FDRE/C    n/a            0.275         1.563       1.288      SLICE_X90Y478   shift_reg_tap_i/sr_p.sr_12[34]/C
High Pulse Width  Slow    FDRE/C    n/a            0.275         1.563       1.288      SLICE_X90Y480   shift_reg_tap_i/sr_p.sr_12[35]/C
High Pulse Width  Slow    FDRE/C    n/a            0.275         1.563       1.288      SLICE_X100Y453  shift_reg_tap_i/sr_p.sr_12[37]/C
High Pulse Width  Slow    FDRE/C    n/a            0.275         1.563       1.288      SLICE_X99Y508   shift_reg_tap_i/sr_p.sr_12[42]/C



---------------------------------------------------------------------------------------------------
From Clock:  clk_wrapper
  To Clock:  clk_wrapper

Setup :           NA  Failing Endpoints,  Worst Slack           NA  ,  Total Violation           NA
Hold  :           NA  Failing Endpoints,  Worst Slack           NA  ,  Total Violation           NA
PW    :            0  Failing Endpoints,  Worst Slack      498.562ns,  Total Violation        0.000ns
---------------------------------------------------------------------------------------------------


Pulse Width Checks
--------------------------------------------------------------------------------------
Clock Name:         clk_wrapper
Waveform(ns):       { 0.000 500.000 }
Period(ns):         1000.000
Sources:            { clk_wrapper }

Check Type        Corner  Lib Pin   Reference Pin  Required(ns)  Actual(ns)  Slack(ns)  Location               Pin
Min Period        n/a     FDRE/C    n/a            3.195         1000.000    996.805    BITSLICE_RX_TX_X1Y483  reducer_1/delay_block[4][0]/C
Min Period        n/a     BUFGCE/I  n/a            1.499         1000.000    998.501    BUFGCE_X1Y230          clk_wrapper_ibuf/I
Min Period        n/a     FDRE/C    n/a            0.550         1000.000    999.450    SLICE_X97Y510          lsfr_1/output_vector_1[255]/C
Min Period        n/a     FDRE/C    n/a            0.550         1000.000    999.450    SLICE_X101Y508         lsfr_1/shiftreg_vector[0]/C
Min Period        n/a     FDRE/C    n/a            0.550         1000.000    999.450    SLICE_X112Y490         lsfr_1/shiftreg_vector[100]/C
Low Pulse Width   Slow    FDRE/C    n/a            1.438         500.000     498.562    BITSLICE_RX_TX_X1Y483  reducer_1/delay_block[4][0]/C
Low Pulse Width   Fast    FDRE/C    n/a            1.438         500.000     498.562    BITSLICE_RX_TX_X1Y483  reducer_1/delay_block[4][0]/C
Low Pulse Width   Slow    FDRE/C    n/a            0.275         500.000     499.725    SLICE_X97Y510          lsfr_1/output_vector_1[255]/C
Low Pulse Width   Slow    FDRE/C    n/a            0.275         500.000     499.725    SLICE_X92Y431          reducer_1/delay_block[0][23]/C
Low Pulse Width   Slow    FDRE/C    n/a            0.275         500.000     499.725    SLICE_X90Y493          reducer_1/delay_block[0][248]/C
High Pulse Width  Fast    FDRE/C    n/a            1.438         500.000     498.562    BITSLICE_RX_TX_X1Y483  reducer_1/delay_block[4][0]/C
High Pulse Width  Slow    FDRE/C    n/a            1.438         500.000     498.562    BITSLICE_RX_TX_X1Y483  reducer_1/delay_block[4][0]/C
High Pulse Width  Fast    FDRE/C    n/a            0.275         500.000     499.725    SLICE_X97Y510          lsfr_1/output_vector_1[255]/C
High Pulse Width  Fast    FDRE/C    n/a            0.275         500.000     499.725    SLICE_X90Y493          reducer_1/delay_block[0][240]/C
High Pulse Width  Fast    FDRE/C    n/a            0.275         500.000     499.725    SLICE_X90Y493          reducer_1/delay_block[0][241]/C



