Copyright 1986-2018 Xilinx, Inc. All Rights Reserved.
------------------------------------------------------------------------------------------------------------------------------------------------------------------------------------------------------------------------
| Tool Version : Vivado v.2018.2 (win64) Build 2258646 Thu Jun 14 20:03:12 MDT 2018
| Date         : Mon Mar 11 17:39:54 2019
| Host         : PCPHESEBE02 running 64-bit Service Pack 1  (build 7601)
| Command      : report_design_analysis -timing -setup -max_paths 10 -extend -show_all -logic_level_distribution -logic_level_dist_paths 1000 -complexity -congestion -name design_analysis_1 -file design_analysis.txt
| Design       : wrapper_csn
| Device       : xcvu9p
------------------------------------------------------------------------------------------------------------------------------------------------------------------------------------------------------------------------

Report Design Analysis

Table of Contents
-----------------
1. Setup Path Characteristics 1-10
2. Logic Level Distribution
3. Complexity Characteristics (Cells)
4. Placed Maximum Level Congestion Reporting
5. Initial Estimated Router Congestion Reporting
6. Routed Maximum Level Congestion Reporting
7. SLR Net Crossing Reporting
8. Placed Tile Based Congestion Metric (Vertical)
9. Placed Tile Based Congestion Metric (Horizontal)

1. Setup Path Characteristics 1-10
----------------------------------

Setup Characteristics for Path #1
+---------------------------+-----------------------------------+---------------------------------------------------+---------------------------+
|      Characteristics      |          WorstPath to Src         |                      Path #1                      |     WorstPath from Dst    |
+---------------------------+-----------------------------------+---------------------------------------------------+---------------------------+
| Requirement               |                             3.572 |                                             3.572 |                     0.000 |
| Path Delay                |                             1.647 |                                             3.358 |                     0.758 |
| Logic Delay               | 0.364(23%)                        | 1.049(32%)                                        | 0.097(13%)                |
| Net Delay                 | 1.283(77%)                        | 2.309(68%)                                        | 0.661(87%)                |
| Clock Skew                |                            -0.094 |                                            -0.097 |                    -0.933 |
| Slack                     |                             1.823 |                                             0.109 |                       inf |
| Timing Exception          |                                   |                                                   | Asynchronous Clock Groups |
| Bounding Box Size         | 1% x 0%                           | 4% x 1%                                           | 0% x 0%                   |
| Clock Region Distance     | (0, 0)                            | (0, 0)                                            | (0, 0)                    |
| Cumulative Fanout         |                                47 |                                                22 |                         1 |
| Fixed Loc                 |                                 0 |                                                 0 |                         0 |
| Fixed Route               |                                 0 |                                                 0 |                         0 |
| Hold Fix Detour           |                                 0 |                                                 0 |                         0 |
| Combined LUT Pairs        |                                 0 |                                                 0 |                         0 |
| Clock Relationship        | Safely Timed                      | Safely Timed                                      | No Common Primary Clock   |
| Logic Levels              |                                 2 |                                                 8 |                         0 |
| Routes                    |                                 2 |                                                 8 |                         1 |
| Logical Path              | FDRE LUT4 LUT6 FDRE               | FDRE LUT5 LUT5 LUT5 LUT5 LUT6 LUT5 LUT5 LUT6 FDRE | FDRE FDRE                 |
| Start Point Clock         | clk                               | clk                                               | clk                       |
| End Point Clock           | clk                               | clk                                               | clk_wrapper               |
| DSP Block                 | None                              | None                                              | None                      |
| BRAM                      | None                              | None                                              | None                      |
| IO Crossings              |                                 0 |                                                 0 |                         0 |
| SLR Crossings             |                                 0 |                                                 0 |                         0 |
| PBlocks                   |                                 0 |                                                 0 |                         0 |
| High Fanout               |                                35 |                                                 4 |                         1 |
| Dont Touch                |                                 0 |                                                 0 |                         0 |
| Mark Debug                |                                 0 |                                                 0 |                         0 |
| Start Point Pin Primitive | FDRE/C                            | FDRE/C                                            | FDRE/C                    |
| End Point Pin Primitive   | FDRE/D                            | FDRE/D                                            | FDRE/D                    |
| Start Point Pin           | sr_p.sr_1[170]/C                  | ret_array_1_17.idx_ret_2155_ret/C                 | sr_p.sr_1[91]/C           |
| End Point Pin             | ret_array_1_17.idx_ret_2155_ret/D | sr_p.sr_1[91]/D                                   | delay_block[0][91]/D      |
+---------------------------+-----------------------------------+---------------------------------------------------+---------------------------+
* Bounding box calculated as % of dimensions for the target device (3842, 1864)


Setup Characteristics for Path #2
+---------------------------+----------------------------------+--------------------------------------------------------+---------------------------+
|      Characteristics      |         WorstPath to Src         |                         Path #2                        |     WorstPath from Dst    |
+---------------------------+----------------------------------+--------------------------------------------------------+---------------------------+
| Requirement               |                            3.572 |                                                  3.572 |                     0.000 |
| Path Delay                |                            0.687 |                                                  3.346 |                     0.384 |
| Logic Delay               | 0.099(15%)                       | 1.086(33%)                                             | 0.096(25%)                |
| Net Delay                 | 0.588(85%)                       | 2.260(67%)                                             | 0.288(75%)                |
| Clock Skew                |                           -0.107 |                                                 -0.065 |                    -0.969 |
| Slack                     |                            2.770 |                                                  0.153 |                       inf |
| Timing Exception          |                                  |                                                        | Asynchronous Clock Groups |
| Bounding Box Size         | 1% x 0%                          | 2% x 2%                                                | 0% x 0%                   |
| Clock Region Distance     | (0, 0)                           | (0, 0)                                                 | (0, 0)                    |
| Cumulative Fanout         |                                2 |                                                     27 |                         1 |
| Fixed Loc                 |                                0 |                                                      0 |                         0 |
| Fixed Route               |                                0 |                                                      0 |                         0 |
| Hold Fix Detour           |                                0 |                                                      0 |                         0 |
| Combined LUT Pairs        |                                0 |                                                      0 |                         0 |
| Clock Relationship        | Safely Timed                     | Safely Timed                                           | No Common Primary Clock   |
| Logic Levels              |                                0 |                                                      9 |                         0 |
| Routes                    |                                1 |                                                      9 |                         1 |
| Logical Path              | FDRE FDRE                        | FDRE LUT3 LUT5 LUT5 LUT5 LUT3 LUT6 LUT5 LUT5 LUT5 FDRE | FDRE FDRE                 |
| Start Point Clock         | clk                              | clk                                                    | clk                       |
| End Point Clock           | clk                              | clk                                                    | clk_wrapper               |
| DSP Block                 | None                             | None                                                   | None                      |
| BRAM                      | None                             | None                                                   | None                      |
| IO Crossings              |                                0 |                                                      0 |                         0 |
| SLR Crossings             |                                0 |                                                      0 |                         0 |
| PBlocks                   |                                0 |                                                      0 |                         0 |
| High Fanout               |                                2 |                                                      4 |                         1 |
| Dont Touch                |                                0 |                                                      0 |                         0 |
| Mark Debug                |                                0 |                                                      0 |                         0 |
| Start Point Pin Primitive | FDRE/C                           | FDRE/C                                                 | FDRE/C                    |
| End Point Pin Primitive   | FDRE/D                           | FDRE/D                                                 | FDRE/D                    |
| Start Point Pin           | sr_p.sr_1[208]/C                 | ret_array_1_17.idx_ret_2308[7]/C                       | sr_p.sr_1[108]/C          |
| End Point Pin             | ret_array_1_17.idx_ret_2308[7]/D | sr_p.sr_1[108]/D                                       | delay_block[0][108]/D     |
+---------------------------+----------------------------------+--------------------------------------------------------+---------------------------+
* Bounding box calculated as % of dimensions for the target device (3842, 1864)


Setup Characteristics for Path #3
+---------------------------+----------------------------------+---------------------------------------------------+---------------------------+
|      Characteristics      |         WorstPath to Src         |                      Path #3                      |     WorstPath from Dst    |
+---------------------------+----------------------------------+---------------------------------------------------+---------------------------+
| Requirement               |                            3.572 |                                             3.572 |                     0.000 |
| Path Delay                |                            0.665 |                                             3.299 |                     0.517 |
| Logic Delay               | 0.099(15%)                       | 0.921(28%)                                        | 0.096(19%)                |
| Net Delay                 | 0.566(85%)                       | 2.378(72%)                                        | 0.421(81%)                |
| Clock Skew                |                           -0.031 |                                            -0.109 |                    -0.952 |
| Slack                     |                            2.867 |                                             0.155 |                       inf |
| Timing Exception          |                                  |                                                   | Asynchronous Clock Groups |
| Bounding Box Size         | 0% x 0%                          | 4% x 1%                                           | 0% x 0%                   |
| Clock Region Distance     | (0, 0)                           | (0, 0)                                            | (0, 0)                    |
| Cumulative Fanout         |                                3 |                                                22 |                         1 |
| Fixed Loc                 |                                0 |                                                 0 |                         0 |
| Fixed Route               |                                0 |                                                 0 |                         0 |
| Hold Fix Detour           |                                0 |                                                 0 |                         0 |
| Combined LUT Pairs        |                                0 |                                                 0 |                         0 |
| Clock Relationship        | Safely Timed                     | Safely Timed                                      | No Common Primary Clock   |
| Logic Levels              |                                0 |                                                 8 |                         0 |
| Routes                    |                                1 |                                                 8 |                         1 |
| Logical Path              | FDRE FDRE                        | FDRE LUT3 LUT5 LUT5 LUT5 LUT6 LUT3 LUT5 LUT5 FDRE | FDRE FDRE                 |
| Start Point Clock         | clk                              | clk                                               | clk                       |
| End Point Clock           | clk                              | clk                                               | clk_wrapper               |
| DSP Block                 | None                             | None                                              | None                      |
| BRAM                      | None                             | None                                              | None                      |
| IO Crossings              |                                0 |                                                 0 |                         0 |
| SLR Crossings             |                                0 |                                                 0 |                         0 |
| PBlocks                   |                                0 |                                                 0 |                         0 |
| High Fanout               |                                3 |                                                 4 |                         1 |
| Dont Touch                |                                0 |                                                 0 |                         0 |
| Mark Debug                |                                0 |                                                 0 |                         0 |
| Start Point Pin Primitive | FDRE/C                           | FDRE/C                                            | FDRE/C                    |
| End Point Pin Primitive   | FDRE/D                           | FDRE/D                                            | FDRE/D                    |
| Start Point Pin           | sr_p.sr_1[125]/C                 | ret_array_1_17.idx_ret_2384[4]/C                  | sr_p.sr_1[75]/C           |
| End Point Pin             | ret_array_1_17.idx_ret_2384[4]/D | sr_p.sr_1[75]/D                                   | delay_block[0][75]/D      |
+---------------------------+----------------------------------+---------------------------------------------------+---------------------------+
* Bounding box calculated as % of dimensions for the target device (3842, 1864)


Setup Characteristics for Path #4
+---------------------------+----------------------------------+--------------------------------------------------------+---------------------------+
|      Characteristics      |         WorstPath to Src         |                         Path #4                        |     WorstPath from Dst    |
+---------------------------+----------------------------------+--------------------------------------------------------+---------------------------+
| Requirement               |                            3.572 |                                                  3.572 |                     0.000 |
| Path Delay                |                            0.687 |                                                  3.339 |                     0.370 |
| Logic Delay               | 0.099(15%)                       | 1.111(34%)                                             | 0.098(27%)                |
| Net Delay                 | 0.588(85%)                       | 2.228(66%)                                             | 0.272(73%)                |
| Clock Skew                |                           -0.107 |                                                 -0.065 |                    -0.965 |
| Slack                     |                            2.770 |                                                  0.160 |                       inf |
| Timing Exception          |                                  |                                                        | Asynchronous Clock Groups |
| Bounding Box Size         | 1% x 0%                          | 2% x 2%                                                | 0% x 0%                   |
| Clock Region Distance     | (0, 0)                           | (0, 0)                                                 | (0, 0)                    |
| Cumulative Fanout         |                                2 |                                                     27 |                         1 |
| Fixed Loc                 |                                0 |                                                      0 |                         0 |
| Fixed Route               |                                0 |                                                      0 |                         0 |
| Hold Fix Detour           |                                0 |                                                      0 |                         0 |
| Combined LUT Pairs        |                                0 |                                                      0 |                         0 |
| Clock Relationship        | Safely Timed                     | Safely Timed                                           | No Common Primary Clock   |
| Logic Levels              |                                0 |                                                      9 |                         0 |
| Routes                    |                                1 |                                                      9 |                         1 |
| Logical Path              | FDRE FDRE                        | FDRE LUT3 LUT5 LUT5 LUT5 LUT3 LUT6 LUT5 LUT5 LUT5 FDRE | FDRE FDRE                 |
| Start Point Clock         | clk                              | clk                                                    | clk                       |
| End Point Clock           | clk                              | clk                                                    | clk_wrapper               |
| DSP Block                 | None                             | None                                                   | None                      |
| BRAM                      | None                             | None                                                   | None                      |
| IO Crossings              |                                0 |                                                      0 |                         0 |
| SLR Crossings             |                                0 |                                                      0 |                         0 |
| PBlocks                   |                                0 |                                                      0 |                         0 |
| High Fanout               |                                2 |                                                      4 |                         1 |
| Dont Touch                |                                0 |                                                      0 |                         0 |
| Mark Debug                |                                0 |                                                      0 |                         0 |
| Start Point Pin Primitive | FDRE/C                           | FDRE/C                                                 | FDRE/C                    |
| End Point Pin Primitive   | FDRE/D                           | FDRE/D                                                 | FDRE/D                    |
| Start Point Pin           | sr_p.sr_1[208]/C                 | ret_array_1_17.idx_ret_2308[7]/C                       | sr_p.sr_1[118]/C          |
| End Point Pin             | ret_array_1_17.idx_ret_2308[7]/D | sr_p.sr_1[118]/D                                       | delay_block[0][118]/D     |
+---------------------------+----------------------------------+--------------------------------------------------------+---------------------------+
* Bounding box calculated as % of dimensions for the target device (3842, 1864)


Setup Characteristics for Path #5
+---------------------------+-----------------------------------+---------------------------------------------------+---------------------------+
|      Characteristics      |          WorstPath to Src         |                      Path #5                      |     WorstPath from Dst    |
+---------------------------+-----------------------------------+---------------------------------------------------+---------------------------+
| Requirement               |                             3.572 |                                             3.572 |                     0.000 |
| Path Delay                |                             1.647 |                                             3.302 |                     0.463 |
| Logic Delay               | 0.364(23%)                        | 1.086(33%)                                        | 0.096(21%)                |
| Net Delay                 | 1.283(77%)                        | 2.216(67%)                                        | 0.367(79%)                |
| Clock Skew                |                            -0.094 |                                            -0.072 |                    -0.978 |
| Slack                     |                             1.823 |                                             0.189 |                       inf |
| Timing Exception          |                                   |                                                   | Asynchronous Clock Groups |
| Bounding Box Size         | 1% x 0%                           | 4% x 2%                                           | 0% x 0%                   |
| Clock Region Distance     | (0, 0)                            | (0, 0)                                            | (0, 0)                    |
| Cumulative Fanout         |                                47 |                                                22 |                         1 |
| Fixed Loc                 |                                 0 |                                                 0 |                         0 |
| Fixed Route               |                                 0 |                                                 0 |                         0 |
| Hold Fix Detour           |                                 0 |                                                 0 |                         0 |
| Combined LUT Pairs        |                                 0 |                                                 0 |                         0 |
| Clock Relationship        | Safely Timed                      | Safely Timed                                      | No Common Primary Clock   |
| Logic Levels              |                                 2 |                                                 8 |                         0 |
| Routes                    |                                 2 |                                                 8 |                         1 |
| Logical Path              | FDRE LUT4 LUT6 FDRE               | FDRE LUT5 LUT5 LUT5 LUT5 LUT6 LUT5 LUT5 LUT6 FDRE | FDRE FDRE                 |
| Start Point Clock         | clk                               | clk                                               | clk                       |
| End Point Clock           | clk                               | clk                                               | clk_wrapper               |
| DSP Block                 | None                              | None                                              | None                      |
| BRAM                      | None                              | None                                              | None                      |
| IO Crossings              |                                 0 |                                                 0 |                         0 |
| SLR Crossings             |                                 0 |                                                 0 |                         0 |
| PBlocks                   |                                 0 |                                                 0 |                         0 |
| High Fanout               |                                35 |                                                 4 |                         1 |
| Dont Touch                |                                 0 |                                                 0 |                         0 |
| Mark Debug                |                                 0 |                                                 0 |                         0 |
| Start Point Pin Primitive | FDRE/C                            | FDRE/C                                            | FDRE/C                    |
| End Point Pin Primitive   | FDRE/D                            | FDRE/D                                            | FDRE/D                    |
| Start Point Pin           | sr_p.sr_1[170]/C                  | ret_array_1_17.idx_ret_2155_ret/C                 | sr_p.sr_1[81]/C           |
| End Point Pin             | ret_array_1_17.idx_ret_2155_ret/D | sr_p.sr_1[81]/D                                   | delay_block[0][81]/D      |
+---------------------------+-----------------------------------+---------------------------------------------------+---------------------------+
* Bounding box calculated as % of dimensions for the target device (3842, 1864)


Setup Characteristics for Path #6
+---------------------------+-----------------------------------+---------------------------------------------------+---------------------------+
|      Characteristics      |          WorstPath to Src         |                      Path #6                      |     WorstPath from Dst    |
+---------------------------+-----------------------------------+---------------------------------------------------+---------------------------+
| Requirement               |                             3.572 |                                             3.572 |                     0.000 |
| Path Delay                |                             1.647 |                                             3.292 |                     0.390 |
| Logic Delay               | 0.364(23%)                        | 1.024(32%)                                        | 0.096(25%)                |
| Net Delay                 | 1.283(77%)                        | 2.268(68%)                                        | 0.294(75%)                |
| Clock Skew                |                            -0.094 |                                            -0.067 |                    -0.985 |
| Slack                     |                             1.823 |                                             0.204 |                       inf |
| Timing Exception          |                                   |                                                   | Asynchronous Clock Groups |
| Bounding Box Size         | 1% x 0%                           | 4% x 2%                                           | 0% x 0%                   |
| Clock Region Distance     | (0, 0)                            | (0, 0)                                            | (0, 0)                    |
| Cumulative Fanout         |                                47 |                                                22 |                         1 |
| Fixed Loc                 |                                 0 |                                                 0 |                         0 |
| Fixed Route               |                                 0 |                                                 0 |                         0 |
| Hold Fix Detour           |                                 0 |                                                 0 |                         0 |
| Combined LUT Pairs        |                                 0 |                                                 0 |                         0 |
| Clock Relationship        | Safely Timed                      | Safely Timed                                      | No Common Primary Clock   |
| Logic Levels              |                                 2 |                                                 8 |                         0 |
| Routes                    |                                 2 |                                                 8 |                         1 |
| Logical Path              | FDRE LUT4 LUT6 FDRE               | FDRE LUT5 LUT5 LUT5 LUT5 LUT6 LUT5 LUT5 LUT5 FDRE | FDRE FDRE                 |
| Start Point Clock         | clk                               | clk                                               | clk                       |
| End Point Clock           | clk                               | clk                                               | clk_wrapper               |
| DSP Block                 | None                              | None                                              | None                      |
| BRAM                      | None                              | None                                              | None                      |
| IO Crossings              |                                 0 |                                                 0 |                         0 |
| SLR Crossings             |                                 0 |                                                 0 |                         0 |
| PBlocks                   |                                 0 |                                                 0 |                         0 |
| High Fanout               |                                35 |                                                 4 |                         1 |
| Dont Touch                |                                 0 |                                                 0 |                         0 |
| Mark Debug                |                                 0 |                                                 0 |                         0 |
| Start Point Pin Primitive | FDRE/C                            | FDRE/C                                            | FDRE/C                    |
| End Point Pin Primitive   | FDRE/D                            | FDRE/D                                            | FDRE/D                    |
| Start Point Pin           | sr_p.sr_1[170]/C                  | ret_array_1_17.idx_ret_2155_ret/C                 | sr_p.sr_1[71]/C           |
| End Point Pin             | ret_array_1_17.idx_ret_2155_ret/D | sr_p.sr_1[71]/D                                   | delay_block[0][71]/D      |
+---------------------------+-----------------------------------+---------------------------------------------------+---------------------------+
* Bounding box calculated as % of dimensions for the target device (3842, 1864)


Setup Characteristics for Path #7
+---------------------------+-------------------------------+-------------------------------------------------------------+---------------------------+
|      Characteristics      |        WorstPath to Src       |                           Path #7                           |     WorstPath from Dst    |
+---------------------------+-------------------------------+-------------------------------------------------------------+---------------------------+
| Requirement               |                         3.572 |                                                       3.572 |                     0.000 |
| Path Delay                |                         0.604 |                                                       3.240 |                     0.396 |
| Logic Delay               | 0.158(27%)                    | 1.177(37%)                                                  | 0.096(25%)                |
| Net Delay                 | 0.446(73%)                    | 2.063(63%)                                                  | 0.300(75%)                |
| Clock Skew                |                        -0.057 |                                                      -0.113 |                    -0.958 |
| Slack                     |                         2.903 |                                                       0.210 |                       inf |
| Timing Exception          |                               |                                                             | Asynchronous Clock Groups |
| Bounding Box Size         | 0% x 0%                       | 2% x 1%                                                     | 0% x 0%                   |
| Clock Region Distance     | (0, 0)                        | (0, 0)                                                      | (0, 0)                    |
| Cumulative Fanout         |                            33 |                                                          33 |                         1 |
| Fixed Loc                 |                             0 |                                                           0 |                         0 |
| Fixed Route               |                             0 |                                                           0 |                         0 |
| Hold Fix Detour           |                             0 |                                                           0 |                         0 |
| Combined LUT Pairs        |                             0 |                                                           0 |                         0 |
| Clock Relationship        | Safely Timed                  | Safely Timed                                                | No Common Primary Clock   |
| Logic Levels              |                             1 |                                                          10 |                         0 |
| Routes                    |                             1 |                                                          10 |                         1 |
| Logical Path              | FDRE LUT2 FDRE                | FDRE LUT3 LUT5 LUT5 LUT3 LUT6 LUT6 LUT5 LUT5 LUT5 LUT5 FDRE | FDRE FDRE                 |
| Start Point Clock         | clk                           | clk                                                         | clk                       |
| End Point Clock           | clk                           | clk                                                         | clk_wrapper               |
| DSP Block                 | None                          | None                                                        | None                      |
| BRAM                      | None                          | None                                                        | None                      |
| IO Crossings              |                             0 |                                                           0 |                         0 |
| SLR Crossings             |                             0 |                                                           0 |                         0 |
| PBlocks                   |                             0 |                                                           0 |                         0 |
| High Fanout               |                            32 |                                                          10 |                         1 |
| Dont Touch                |                             0 |                                                           0 |                         0 |
| Mark Debug                |                             0 |                                                           0 |                         0 |
| Start Point Pin Primitive | FDRE/C                        | FDRE/C                                                      | FDRE/C                    |
| End Point Pin Primitive   | FDRE/D                        | FDRE/D                                                      | FDRE/D                    |
| Start Point Pin           | sr_p.sr_1[150]/C              | ret_array_1_17.idx_ret_2155/C                               | sr_p.sr_1[116]/C          |
| End Point Pin             | ret_array_1_17.idx_ret_2155/D | sr_p.sr_1[116]/D                                            | delay_block[0][116]/D     |
+---------------------------+-------------------------------+-------------------------------------------------------------+---------------------------+
* Bounding box calculated as % of dimensions for the target device (3842, 1864)


Setup Characteristics for Path #8
+---------------------------+----------------------------------+---------------------------------------------------+---------------------------+
|      Characteristics      |         WorstPath to Src         |                      Path #8                      |     WorstPath from Dst    |
+---------------------------+----------------------------------+---------------------------------------------------+---------------------------+
| Requirement               |                            3.572 |                                             3.572 |                     0.000 |
| Path Delay                |                            0.687 |                                             3.266 |                     0.613 |
| Logic Delay               | 0.099(15%)                       | 1.126(35%)                                        | 0.095(16%)                |
| Net Delay                 | 0.588(85%)                       | 2.140(65%)                                        | 0.518(84%)                |
| Clock Skew                |                           -0.107 |                                            -0.084 |                    -0.931 |
| Slack                     |                            2.770 |                                             0.214 |                       inf |
| Timing Exception          |                                  |                                                   | Asynchronous Clock Groups |
| Bounding Box Size         | 1% x 0%                          | 2% x 1%                                           | 0% x 0%                   |
| Clock Region Distance     | (0, 0)                           | (0, 0)                                            | (0, 0)                    |
| Cumulative Fanout         |                                2 |                                                21 |                         1 |
| Fixed Loc                 |                                0 |                                                 0 |                         0 |
| Fixed Route               |                                0 |                                                 0 |                         0 |
| Hold Fix Detour           |                                0 |                                                 0 |                         0 |
| Combined LUT Pairs        |                                0 |                                                 0 |                         0 |
| Clock Relationship        | Safely Timed                     | Safely Timed                                      | No Common Primary Clock   |
| Logic Levels              |                                0 |                                                 8 |                         0 |
| Routes                    |                                1 |                                                 8 |                         1 |
| Logical Path              | FDRE FDRE                        | FDRE LUT3 LUT5 LUT5 LUT6 LUT6 LUT5 LUT5 LUT5 FDRE | FDRE FDRE                 |
| Start Point Clock         | clk                              | clk                                               | clk                       |
| End Point Clock           | clk                              | clk                                               | clk_wrapper               |
| DSP Block                 | None                             | None                                              | None                      |
| BRAM                      | None                             | None                                              | None                      |
| IO Crossings              |                                0 |                                                 0 |                         0 |
| SLR Crossings             |                                0 |                                                 0 |                         0 |
| PBlocks                   |                                0 |                                                 0 |                         0 |
| High Fanout               |                                2 |                                                 4 |                         1 |
| Dont Touch                |                                0 |                                                 0 |                         0 |
| Mark Debug                |                                0 |                                                 0 |                         0 |
| Start Point Pin Primitive | FDRE/C                           | FDRE/C                                            | FDRE/C                    |
| End Point Pin Primitive   | FDRE/D                           | FDRE/D                                            | FDRE/D                    |
| Start Point Pin           | sr_p.sr_1[208]/C                 | ret_array_1_17.idx_ret_2308[7]/C                  | sr_p.sr_1[48]/C           |
| End Point Pin             | ret_array_1_17.idx_ret_2308[7]/D | sr_p.sr_1[48]/D                                   | delay_block[0][48]/D      |
+---------------------------+----------------------------------+---------------------------------------------------+---------------------------+
* Bounding box calculated as % of dimensions for the target device (3842, 1864)


Setup Characteristics for Path #9
+---------------------------+----------------------------------+--------------------------------------------------------+---------------------------+
|      Characteristics      |         WorstPath to Src         |                         Path #9                        |     WorstPath from Dst    |
+---------------------------+----------------------------------+--------------------------------------------------------+---------------------------+
| Requirement               |                            3.572 |                                                  3.572 |                     0.000 |
| Path Delay                |                            0.687 |                                                  3.282 |                     0.417 |
| Logic Delay               | 0.099(15%)                       | 1.062(33%)                                             | 0.093(23%)                |
| Net Delay                 | 0.588(85%)                       | 2.220(67%)                                             | 0.324(77%)                |
| Clock Skew                |                           -0.107 |                                                 -0.056 |                    -0.975 |
| Slack                     |                            2.770 |                                                  0.226 |                       inf |
| Timing Exception          |                                  |                                                        | Asynchronous Clock Groups |
| Bounding Box Size         | 1% x 0%                          | 1% x 2%                                                | 0% x 0%                   |
| Clock Region Distance     | (0, 0)                           | (0, 0)                                                 | (0, 0)                    |
| Cumulative Fanout         |                                2 |                                                     27 |                         1 |
| Fixed Loc                 |                                0 |                                                      0 |                         0 |
| Fixed Route               |                                0 |                                                      0 |                         0 |
| Hold Fix Detour           |                                0 |                                                      0 |                         0 |
| Combined LUT Pairs        |                                0 |                                                      0 |                         0 |
| Clock Relationship        | Safely Timed                     | Safely Timed                                           | No Common Primary Clock   |
| Logic Levels              |                                0 |                                                      9 |                         0 |
| Routes                    |                                1 |                                                      9 |                         1 |
| Logical Path              | FDRE FDRE                        | FDRE LUT3 LUT5 LUT5 LUT5 LUT3 LUT6 LUT5 LUT5 LUT6 FDRE | FDRE FDRE                 |
| Start Point Clock         | clk                              | clk                                                    | clk                       |
| End Point Clock           | clk                              | clk                                                    | clk_wrapper               |
| DSP Block                 | None                             | None                                                   | None                      |
| BRAM                      | None                             | None                                                   | None                      |
| IO Crossings              |                                0 |                                                      0 |                         0 |
| SLR Crossings             |                                0 |                                                      0 |                         0 |
| PBlocks                   |                                0 |                                                      0 |                         0 |
| High Fanout               |                                2 |                                                      4 |                         1 |
| Dont Touch                |                                0 |                                                      0 |                         0 |
| Mark Debug                |                                0 |                                                      0 |                         0 |
| Start Point Pin Primitive | FDRE/C                           | FDRE/C                                                 | FDRE/C                    |
| End Point Pin Primitive   | FDRE/D                           | FDRE/D                                                 | FDRE/D                    |
| Start Point Pin           | sr_p.sr_1[208]/C                 | ret_array_1_17.idx_ret_2308[7]/C                       | sr_p.sr_1[88]/C           |
| End Point Pin             | ret_array_1_17.idx_ret_2308[7]/D | sr_p.sr_1[88]/D                                        | delay_block[0][88]/D      |
+---------------------------+----------------------------------+--------------------------------------------------------+---------------------------+
* Bounding box calculated as % of dimensions for the target device (3842, 1864)


Setup Characteristics for Path #10
+---------------------------+-------------------------------+-------------------------------------------------------------+---------------------------+
|      Characteristics      |        WorstPath to Src       |                           Path #10                          |     WorstPath from Dst    |
+---------------------------+-------------------------------+-------------------------------------------------------------+---------------------------+
| Requirement               |                         3.572 |                                                       3.572 |                     0.000 |
| Path Delay                |                         0.604 |                                                       3.224 |                     0.466 |
| Logic Delay               | 0.158(27%)                    | 0.959(30%)                                                  | 0.096(21%)                |
| Net Delay                 | 0.446(73%)                    | 2.265(70%)                                                  | 0.370(79%)                |
| Clock Skew                |                        -0.057 |                                                      -0.113 |                    -0.957 |
| Slack                     |                         2.903 |                                                       0.226 |                       inf |
| Timing Exception          |                               |                                                             | Asynchronous Clock Groups |
| Bounding Box Size         | 0% x 0%                       | 2% x 1%                                                     | 0% x 0%                   |
| Clock Region Distance     | (0, 0)                        | (0, 0)                                                      | (0, 0)                    |
| Cumulative Fanout         |                            33 |                                                          34 |                         1 |
| Fixed Loc                 |                             0 |                                                           0 |                         0 |
| Fixed Route               |                             0 |                                                           0 |                         0 |
| Hold Fix Detour           |                             0 |                                                           0 |                         0 |
| Combined LUT Pairs        |                             0 |                                                           0 |                         0 |
| Clock Relationship        | Safely Timed                  | Safely Timed                                                | No Common Primary Clock   |
| Logic Levels              |                             1 |                                                          10 |                         0 |
| Routes                    |                             1 |                                                          10 |                         1 |
| Logical Path              | FDRE LUT2 FDRE                | FDRE LUT3 LUT5 LUT5 LUT3 LUT6 LUT6 LUT5 LUT5 LUT5 LUT5 FDRE | FDRE FDRE                 |
| Start Point Clock         | clk                           | clk                                                         | clk                       |
| End Point Clock           | clk                           | clk                                                         | clk_wrapper               |
| DSP Block                 | None                          | None                                                        | None                      |
| BRAM                      | None                          | None                                                        | None                      |
| IO Crossings              |                             0 |                                                           0 |                         0 |
| SLR Crossings             |                             0 |                                                           0 |                         0 |
| PBlocks                   |                             0 |                                                           0 |                         0 |
| High Fanout               |                            32 |                                                          10 |                         1 |
| Dont Touch                |                             0 |                                                           0 |                         0 |
| Mark Debug                |                             0 |                                                           0 |                         0 |
| Start Point Pin Primitive | FDRE/C                        | FDRE/C                                                      | FDRE/C                    |
| End Point Pin Primitive   | FDRE/D                        | FDRE/D                                                      | FDRE/D                    |
| Start Point Pin           | sr_p.sr_1[150]/C              | ret_array_1_17.idx_ret_2155/C                               | sr_p.sr_1[146]/C          |
| End Point Pin             | ret_array_1_17.idx_ret_2155/D | sr_p.sr_1[146]/D                                            | delay_block[0][146]/D     |
+---------------------------+-------------------------------+-------------------------------------------------------------+---------------------------+
* Bounding box calculated as % of dimensions for the target device (3842, 1864)


2. Logic Level Distribution
---------------------------

+-----------------+-------------+-----+-----+----+----+----+----+----+----+----+----+----+
| End Point Clock | Requirement |  0  |  1  |  2 |  3 |  4 |  5 |  6 |  7 |  8 |  9 | 10 |
+-----------------+-------------+-----+-----+----+----+----+----+----+----+----+----+----+
| clk             | 3.572ns     | 142 | 139 | 61 | 38 | 41 | 17 | 20 | 28 | 80 | 36 |  3 |
+-----------------+-------------+-----+-----+----+----+----+----+----+----+----+----+----+
* Columns represents the logic levels per end point clock
** Distribution is for top worst 605 paths


3. Complexity Characteristics (Cells)
-------------------------------------

+-----------+---------------------------------------------------------------------+------+----------------+-----------------+---------+----------+-----------+------------+------------+------------+------------+-----+------+------+------+
|  Instance |                                Module                               | Rent | Average Fanout | Total Instances |   LUT1  |   LUT2   |    LUT3   |    LUT4    |    LUT5    |    LUT6    | Memory LUT | DSP | RAMB | MUXF | URAM |
+-----------+---------------------------------------------------------------------+------+----------------+-----------------+---------+----------+-----------+------------+------------+------------+------------+-----+------+------+------+
| (top)     |                                                         wrapper_csn | 0.70 |           3.31 |            3172 | 0(0.0%) | 17(0.9%) | 130(7.0%) | 260(14.1%) | 932(50.4%) | 509(27.5%) |          0 |   0 |    0 |    0 |    0 |
|  dut_inst | muon_sorter_I022_O022_D001_CSN_VHDL_PT1BIT-freq280retfan10000_rev_1 | 0.77 |           3.89 |            2137 | 0(0.0%) | 13(0.7%) | 129(7.3%) | 188(10.6%) | 932(52.6%) | 509(28.7%) |          0 |   0 |    0 |    0 |    0 |
+-----------+---------------------------------------------------------------------+------+----------------+-----------------+---------+----------+-----------+------------+------------+------------+------------+-----+------+------+------+
* Complexity Ranges 
** 0.0 - 0.3 -> Very Low, 0.3 - 0.5 -> low, 0.5 - 0.65 -> normal,  0.65 - 0.85 -> high, 0.85 - 1.0 -> very high
*** -* -> Not computable as cell size is very small


4. Placed Maximum Level Congestion Reporting
--------------------------------------------

+-----------+------------------+------------+---------------------------------+-------------------+---------------+---------------+--------------+------------+------+------+------+------+-----+-------+-----+
| Direction | Congestion Level | Congestion |        Congestion Window        |     Cell Names    | Combined LUTs | Avg LUT Input | LUT as logic | Lut Memory | Flop | MUXF | RAMB | URAM | DSP | CARRY | SRL |
+-----------+------------------+------------+---------------------------------+-------------------+---------------+---------------+--------------+------------+------+------+------+------+-----+-------+-----+
| North     |                0 |        80% | (CLEL_R_X62Y557,CLEL_R_X62Y557) | wrapper_csn(100%) |            0% |          9.75 | 100%         | NA         |   0% |   0% | NA   | NA   | NA  |    0% |  NA |
| East      |                0 |        99% | (CLEL_R_X62Y560,CLEL_R_X62Y560) | wrapper_csn(100%) |            0% |         7.875 | 100%         | NA         |  12% |   0% | NA   | NA   | NA  |    0% |  NA |
| South     |                2 |       117% | (CLEL_R_X62Y557,CLEM_X64Y560)   | wrapper_csn(100%) |            0% |       7.41406 | 91%          | 0%         |   8% |   0% | NA   | NA   | NA  |    0% |  0% |
| West      |                0 |       102% | (CLEL_R_X62Y557,CLEL_R_X62Y557) | wrapper_csn(100%) |            0% |          9.75 | 100%         | NA         |   0% |   0% | NA   | NA   | NA  |    0% |  NA |
+-----------+------------------+------------+---------------------------------+-------------------+---------------+---------------+--------------+------------+------+------+------+------+-----+-------+-----+


5. Initial Estimated Router Congestion Reporting
------------------------------------------------

+-----------+--------+------------------+------------------+-------------------------------+-------------------+---------------+---------------+--------------+------------+------+------+------+------+-----+-------+-----+
| Direction |  Type  | Congestion Level | Percentage Tiles |       Congestion Window       |     Cell Names    | Combined LUTs | Avg LUT Input | LUT as logic | Lut Memory | Flop | MUXF | RAMB | URAM | DSP | CARRY | SRL |
+-----------+--------+------------------+------------------+-------------------------------+-------------------+---------------+---------------+--------------+------------+------+------+------+------+-----+-------+-----+
| North     | Global |                1 |           0.004% | (CLEM_X63Y558,CLEM_X63Y559)   | wrapper_csn(100%) |            0% |        6.4375 | 81%          | 0%         |   6% |   0% | NA   | NA   | NA  |    0% |  0% |
| North     | Short  |                3 |           0.029% | (CLEM_X60Y552,CLEM_X63Y559)   | wrapper_csn(100%) |            0% |       5.53125 | 77%          | 0%         |  15% |   0% | NA   | 0%   | NA  |    0% |  0% |
| East      | Short  |                1 |           0.004% | (CLEL_R_X62Y556,CLEM_X63Y557) | wrapper_csn(100%) |            0% |        8.6875 | 100%         | 0%         |   0% |   0% | NA   | NA   | NA  |    0% |  0% |
| West      | Short  |                1 |           0.005% | (CLEM_X63Y554,CLEM_X63Y557)   | wrapper_csn(100%) |            0% |         7.625 | 100%         | 0%         |   0% |   0% | NA   | NA   | NA  |    0% |  0% |
+-----------+--------+------------------+------------------+-------------------------------+-------------------+---------------+---------------+--------------+------------+------+------+------+------+-----+-------+-----+


6. Routed Maximum Level Congestion Reporting
--------------------------------------------

+-----------+------------------+------------+-------------------+------------+---------------+---------------+--------------+------------+------+------+------+------+-----+-------+-----+
| Direction | Congestion Level | Congestion | Congestion Window | Cell Names | Combined LUTs | Avg LUT Input | LUT as logic | Lut Memory | Flop | MUXF | RAMB | URAM | DSP | CARRY | SRL |
+-----------+------------------+------------+-------------------+------------+---------------+---------------+--------------+------------+------+------+------+------+-----+-------+-----+
* No router congested regions found.


7. SLR Net Crossing Reporting
-----------------------------

+------------+-----------------------------+-------------+-------------+-------------+
| Cell Names | Number of Nets crossing SLR | 0 - 1 Cuts  | 0 - 2 Cuts  | 1 - 2 Cuts  |
+------------+-----------------------------+-------------+-------------+-------------+
* Information not available. There are no nets crossing SLRs.


8. Placed Tile Based Congestion Metric (Vertical)
-------------------------------------------------

+----------------+-----------------+--------------+----------------------+-------------------+---------------------+
|    Tile Name   | RPM Grid Column | RPM Grid Row | Congestion in Window |     Cell Names    | Placer Max Overlap? |
+----------------+-----------------+--------------+----------------------+-------------------+---------------------+
| CLEL_R_X63Y559 | 379             | 353          | 34%                  | wrapper_csn(100%) | Y                   |
| CLEL_R_X63Y558 | 379             | 354          | 34%                  | wrapper_csn(100%) | Y                   |
| CLEM_X64Y558   | 380             | 354          | 32%                  | wrapper_csn(100%) | Y                   |
| CLEL_R_X63Y560 | 379             | 352          | 32%                  | wrapper_csn(100%) | Y                   |
| CLEL_R_X63Y557 | 379             | 355          | 32%                  | wrapper_csn(100%) | Y                   |
| CLEL_R_X63Y563 | 379             | 349          | 30%                  | wrapper_csn(100%) | Y                   |
| CLEM_X64Y559   | 380             | 353          | 30%                  | wrapper_csn(100%) | Y                   |
| CLEM_X63Y560   | 377             | 352          | 30%                  | wrapper_csn(100%) | Y                   |
| CLEM_X63Y558   | 377             | 354          | 30%                  | wrapper_csn(100%) | Y                   |
| CLEM_X63Y557   | 377             | 355          | 30%                  | wrapper_csn(100%) | Y                   |
+----------------+-----------------+--------------+----------------------+-------------------+---------------------+


9. Placed Tile Based Congestion Metric (Horizontal)
---------------------------------------------------

+----------------+-----------------+--------------+----------------------+-------------------+---------------------+
|    Tile Name   | RPM Grid Column | RPM Grid Row | Congestion in Window |     Cell Names    | Placer Max Overlap? |
+----------------+-----------------+--------------+----------------------+-------------------+---------------------+
| CLEL_R_X63Y559 | 379             | 353          | 28%                  | wrapper_csn(100%) | Y                   |
| CLEM_X65Y559   | 384             | 353          | 28%                  | wrapper_csn(100%) | Y                   |
| CLEL_R_X63Y560 | 379             | 352          | 27%                  | wrapper_csn(100%) | Y                   |
| CLEL_R_X62Y560 | 374             | 352          | 27%                  | wrapper_csn(100%) | Y                   |
| CLEM_X64Y559   | 380             | 353          | 27%                  | wrapper_csn(100%) | Y                   |
| CLEM_X63Y560   | 377             | 352          | 27%                  | wrapper_csn(100%) | Y                   |
| CLEL_R_X63Y557 | 379             | 355          | 26%                  | wrapper_csn(100%) | Y                   |
| CLEM_X64Y558   | 380             | 354          | 26%                  | wrapper_csn(100%) | Y                   |
| CLEM_X64Y560   | 380             | 352          | 26%                  | wrapper_csn(100%) | Y                   |
| CLEL_R_X63Y558 | 379             | 354          | 26%                  | wrapper_csn(100%) | Y                   |
+----------------+-----------------+--------------+----------------------+-------------------+---------------------+


