Copyright 1986-2018 Xilinx, Inc. All Rights Reserved.
-------------------------------------------------------------------------------------------------
| Tool Version      : Vivado v.2018.2 (win64) Build 2258646 Thu Jun 14 20:03:12 MDT 2018
| Date              : Fri Feb  8 13:03:28 2019
| Host              : PCPHESEBE02 running 64-bit Service Pack 1  (build 7601)
| Command           : report_timing_summary -setup -nworst 5 -max_paths 5 -file timing_setup.txt
| Design            : wrapper
| Device            : xcvu9p-flgc2104
| Speed File        : -1  PRODUCTION 1.20 05-21-2018
| Temperature Grade : E
-------------------------------------------------------------------------------------------------

Timing Summary Report

------------------------------------------------------------------------------------------------
| Timer Settings
| --------------
------------------------------------------------------------------------------------------------

  Enable Multi Corner Analysis               :  Yes
  Enable Pessimism Removal                   :  Yes
  Pessimism Removal Resolution               :  Nearest Common Node
  Enable Input Delay Default Clock           :  No
  Enable Preset / Clear Arcs                 :  No
  Disable Flight Delays                      :  No
  Ignore I/O Paths                           :  No
  Timing Early Launch at Borrowing Latches   :  false

  Corner  Analyze    Analyze    
  Name    Max Paths  Min Paths  
  ------  ---------  ---------  
  Slow    Yes        Yes        
  Fast    Yes        Yes        



check_timing report

Table of Contents
-----------------
1. checking no_clock
2. checking constant_clock
3. checking pulse_width_clock
4. checking unconstrained_internal_endpoints
5. checking no_input_delay
6. checking no_output_delay
7. checking multiple_clock
8. checking generated_clocks
9. checking loops
10. checking partial_input_delay
11. checking partial_output_delay
12. checking latch_loops

1. checking no_clock
--------------------
 There are 0 register/latch pins with no clock.


2. checking constant_clock
--------------------------
 There are 0 register/latch pins with constant_clock.


3. checking pulse_width_clock
-----------------------------
 There are 0 register/latch pins which need pulse_width check


4. checking unconstrained_internal_endpoints
--------------------------------------------
 There are 0 pins that are not constrained for maximum delay.

 There are 0 pins that are not constrained for maximum delay due to constant clock.


5. checking no_input_delay
--------------------------
 There is 1 input port with no input delay specified. (HIGH)

 There are 0 input ports with no input delay but user has a false path constraint.


6. checking no_output_delay
---------------------------
 There is 1 port with no output delay specified. (HIGH)

 There are 0 ports with no output delay but user has a false path constraint

 There are 0 ports with no output delay but with a timing clock defined on it or propagating through it


7. checking multiple_clock
--------------------------
 There are 0 register/latch pins with multiple clocks.


8. checking generated_clocks
----------------------------
 There are 0 generated clocks that are not connected to a clock source.


9. checking loops
-----------------
 There are 0 combinational loops in the design.


10. checking partial_input_delay
--------------------------------
 There are 0 input ports with partial input delay specified.


11. checking partial_output_delay
---------------------------------
 There are 0 ports with partial output delay specified.


12. checking latch_loops
------------------------
 There are 0 combinational latch loops in the design through latch input



------------------------------------------------------------------------------------------------
| Design Timing Summary
| ---------------------
------------------------------------------------------------------------------------------------

    WNS(ns)      TNS(ns)  TNS Failing Endpoints  TNS Total Endpoints     WPWS(ns)     TPWS(ns)  TPWS Failing Endpoints  TPWS Total Endpoints  
    -------      -------  ---------------------  -------------------     --------     --------  ----------------------  --------------------  
    -15.557   -19975.043                   1665                13979        1.287        0.000                       0                 15333  


Timing constraints are not met.


------------------------------------------------------------------------------------------------
| Clock Summary
| -------------
------------------------------------------------------------------------------------------------

Clock        Waveform(ns)         Period(ns)      Frequency(MHz)
-----        ------------         ----------      --------------
clk          {0.000 1.563}        3.125           320.000         
clk_wrapper  {0.000 500.000}      1000.000        1.000           


------------------------------------------------------------------------------------------------
| Intra Clock Table
| -----------------
------------------------------------------------------------------------------------------------

Clock             WNS(ns)      TNS(ns)  TNS Failing Endpoints  TNS Total Endpoints     WPWS(ns)     TPWS(ns)  TPWS Failing Endpoints  TPWS Total Endpoints  
-----             -------      -------  ---------------------  -------------------     --------     --------  ----------------------  --------------------  
clk               -15.557   -19975.043                   1665                13979        1.287        0.000                       0                 14478  
clk_wrapper                                                                             498.562        0.000                       0                   855  


------------------------------------------------------------------------------------------------
| Inter Clock Table
| -----------------
------------------------------------------------------------------------------------------------

From Clock    To Clock          WNS(ns)      TNS(ns)  TNS Failing Endpoints  TNS Total Endpoints  
----------    --------          -------      -------  ---------------------  -------------------  


------------------------------------------------------------------------------------------------
| Other Path Groups Table
| -----------------------
------------------------------------------------------------------------------------------------

Path Group    From Clock    To Clock          WNS(ns)      TNS(ns)  TNS Failing Endpoints  TNS Total Endpoints  
----------    ----------    --------          -------      -------  ---------------------  -------------------  


------------------------------------------------------------------------------------------------
| Timing Details
| --------------
------------------------------------------------------------------------------------------------


---------------------------------------------------------------------------------------------------
From Clock:  clk
  To Clock:  clk

Setup :         1665  Failing Endpoints,  Worst Slack      -15.557ns,  Total Violation   -19975.043ns
Hold  :           NA  Failing Endpoints,  Worst Slack           NA  ,  Total Violation           NA
PW    :            0  Failing Endpoints,  Worst Slack        1.287ns,  Total Violation        0.000ns
---------------------------------------------------------------------------------------------------


Max Delay Paths
--------------------------------------------------------------------------------------
Slack (VIOLATED) :        -15.557ns  (required time - arrival time)
  Source:                 muon_cand_23.pt_fast[1]/C
                            (rising edge-triggered cell FDRE clocked by clk  {rise@0.000ns fall@1.563ns period=3.125ns})
  Destination:            muon_sorter_1/sr_p.sr_1_15.roi_ret_26655/D
                            (rising edge-triggered cell FDRE clocked by clk  {rise@0.000ns fall@1.563ns period=3.125ns})
  Path Group:             clk
  Path Type:              Setup (Max at Slow Process Corner)
  Requirement:            3.125ns  (clk rise@3.125ns - clk rise@0.000ns)
  Data Path Delay:        19.075ns  (logic 4.337ns (22.737%)  route 14.738ns (77.263%))
  Logic Levels:           37  (LUT2=2 LUT4=7 LUT5=7 LUT6=21)
  Clock Path Skew:        0.401ns (DCD - SCD + CPR)
    Destination Clock Delay (DCD):    3.843ns = ( 6.968 - 3.125 ) 
    Source Clock Delay      (SCD):    3.954ns
    Clock Pessimism Removal (CPR):    0.512ns
  Clock Uncertainty:      0.035ns  ((TSJ^2 + TIJ^2)^1/2 + DJ) / 2 + PE
    Total System Jitter     (TSJ):    0.071ns
    Total Input Jitter      (TIJ):    0.000ns
    Discrete Jitter          (DJ):    0.000ns
    Phase Error              (PE):    0.000ns
  Clock Net Delay (Source):      2.813ns (routing 1.683ns, distribution 1.130ns)
  Clock Net Delay (Destination): 3.013ns (routing 1.538ns, distribution 1.475ns)

    Location             Delay type                Incr(ns)  Path(ns)    Netlist Resource(s)
  -------------------------------------------------------------------    -------------------
                         (clock clk rise edge)        0.000     0.000 r  
    AV33                                              0.000     0.000 r  clk (IN)
                         net (fo=0)                   0.000     0.000    clk_ibuf_iso/I
    AV33                 INBUF (Prop_INBUF_HPIOB_M_PAD_O)
                                                      0.779     0.779 r  clk_ibuf_iso/INBUF_INST/O
                         net (fo=1, routed)           0.000     0.779    clk_ibuf_iso/OUT
    AV33                 IBUFCTRL (Prop_IBUFCTRL_HPIOB_M_I_O)
                                                      0.000     0.779 r  clk_ibuf_iso/IBUFCTRL_INST/O
                         net (fo=1, routed)           0.334     1.113    clk_ibuf_iso
    BUFGCE_X1Y224        BUFGCE (Prop_BUFCE_BUFGCE_I_O)
                                                      0.028     1.141 r  clk_ibuf/O
    X3Y5 (CLOCK_ROOT)    net (fo=14477, routed)       2.813     3.954    clk_c
    SLICE_X98Y318        FDRE                                         r  muon_cand_23.pt_fast[1]/C
  -------------------------------------------------------------------    -------------------
    SLICE_X98Y318        FDRE (Prop_EFF_SLICEL_C_Q)
                                                      0.096     4.050 f  muon_cand_23.pt_fast[1]/Q
                         net (fo=10, routed)          0.673     4.723    muon_sorter_1/pt_fast_15[1]
    SLICE_X94Y312        LUT4 (Prop_B6LUT_SLICEL_I2_O)
                                                      0.115     4.838 r  muon_sorter_1/compare_p.23.0.compare_pt.op_qge.op_qge.un53526_pt_compare_c2/O
                         net (fo=1, routed)           0.099     4.937    muon_sorter_1/un53526_pt_compare_c2
    SLICE_X93Y312        LUT5 (Prop_D6LUT_SLICEM_I4_O)
                                                      0.062     4.999 r  muon_sorter_1/compare_p.23.0.compare_pt.op_qge.op_qge.un53526_pt_compare_c4/O
                         net (fo=4, routed)           0.577     5.576    muon_sorter_1/un53526_pt_compare
    SLICE_X85Y312        LUT6 (Prop_E6LUT_SLICEL_I5_O)
                                                      0.100     5.676 r  muon_sorter_1/max_pt_0_2_1[0]/O
                         net (fo=1, routed)           0.173     5.849    muon_sorter_1/max_pt_0_2_1[0]
    SLICE_X85Y314        LUT6 (Prop_H6LUT_SLICEL_I3_O)
                                                      0.064     5.913 r  muon_sorter_1/max_pt_0_0_4_N_6L12_0/O
                         net (fo=1, routed)           0.121     6.034    muon_sorter_1/max_pt_0_0_4_N_6L12_0
    SLICE_X85Y314        LUT4 (Prop_G6LUT_SLICEL_I1_O)
                                                      0.178     6.212 r  muon_sorter_1/max_pt_0_0_4[0]/O
                         net (fo=9, routed)           0.205     6.417    muon_sorter_1/max_pt_0_0_4[0]
    SLICE_X85Y312        LUT6 (Prop_C6LUT_SLICEL_I5_O)
                                                      0.174     6.591 r  muon_sorter_1/max_pt_0_rep_3[0]/O
                         net (fo=26, routed)          0.849     7.440    muon_sorter_1/max_pt_0_rep_3[0]
    SLICE_X91Y322        LUT2 (Prop_E5LUT_SLICEL_I1_O)
                                                      0.085     7.525 f  muon_sorter_1/pt_compare_1_3_0_a2[0]/O
                         net (fo=2, routed)           0.636     8.161    muon_sorter_1/pt_compare_1_3_0_a2[0]
    SLICE_X99Y325        LUT6 (Prop_C6LUT_SLICEM_I3_O)
                                                      0.098     8.259 f  muon_sorter_1/max_pt_1_0_4_N_5L9/O
                         net (fo=1, routed)           0.101     8.360    muon_sorter_1/max_pt_1_0_4_N_5L9
    SLICE_X99Y326        LUT6 (Prop_D6LUT_SLICEM_I5_O)
                                                      0.098     8.458 r  muon_sorter_1/max_pt_1_N_6L12_0/O
                         net (fo=3, routed)           0.250     8.708    muon_sorter_1/max_pt_1_N_6L12_0
    SLICE_X99Y328        LUT6 (Prop_C6LUT_SLICEM_I5_O)
                                                      0.098     8.806 r  muon_sorter_1/I_68148/O
                         net (fo=46, routed)          0.646     9.452    muon_sorter_1/N_1496_i_0
    SLICE_X95Y332        LUT6 (Prop_D6LUT_SLICEM_I5_O)
                                                      0.098     9.550 f  muon_sorter_1/max_pt_2_2_4_N_6L12/O
                         net (fo=1, routed)           0.124     9.674    muon_sorter_1/max_pt_2_2_4_N_6L12
    SLICE_X95Y334        LUT4 (Prop_C6LUT_SLICEM_I3_O)
                                                      0.174     9.848 r  muon_sorter_1/max_pt_2_2_4_N_7L14/O
                         net (fo=1, routed)           0.410    10.258    muon_sorter_1/max_pt_2_2_4_N_7L14
    SLICE_X96Y335        LUT4 (Prop_C6LUT_SLICEL_I2_O)
                                                      0.098    10.356 r  muon_sorter_1/max_pt_2_2_4[23]/O
                         net (fo=5, routed)           0.175    10.531    muon_sorter_1/max_pt_2_2_4[23]
    SLICE_X96Y337        LUT5 (Prop_E6LUT_SLICEL_I3_O)
                                                      0.116    10.647 r  muon_sorter_1/max_pt_2_rep_405[23]/O
                         net (fo=16, routed)          0.513    11.160    muon_sorter_1/max_pt_2_rep_405[23]
    SLICE_X92Y338        LUT5 (Prop_E6LUT_SLICEM_I4_O)
                                                      0.115    11.275 f  muon_sorter_1/pt_compare_3_23_0_a2[3]/O
                         net (fo=3, routed)           0.553    11.828    muon_sorter_1/pt_compare_3_23_0_a2[3]
    SLICE_X86Y339        LUT4 (Prop_E6LUT_SLICEL_I2_O)
                                                      0.116    11.944 r  muon_sorter_1/max_pt_3_2_N_6L12/O
                         net (fo=1, routed)           0.543    12.487    muon_sorter_1/max_pt_3_2_N_6L12
    SLICE_X85Y336        LUT6 (Prop_C6LUT_SLICEL_I4_O)
                                                      0.063    12.550 r  muon_sorter_1/max_pt_3_2[23]/O
                         net (fo=6, routed)           0.207    12.757    muon_sorter_1/max_pt_3_2[23]
    SLICE_X83Y334        LUT6 (Prop_H6LUT_SLICEL_I5_O)
                                                      0.179    12.936 r  muon_sorter_1/max_pt_3[23]/O
                         net (fo=52, routed)          0.719    13.655    muon_sorter_1/max_pt_3[23]
    SLICE_X77Y325        LUT5 (Prop_C6LUT_SLICEL_I4_O)
                                                      0.174    13.829 r  muon_sorter_1/max_pt_4_2_1[20]/O
                         net (fo=1, routed)           0.272    14.101    muon_sorter_1/max_pt_4_2_1[20]
    SLICE_X76Y325        LUT6 (Prop_C6LUT_SLICEM_I5_O)
                                                      0.174    14.275 f  muon_sorter_1/max_pt_4_2_N_6L12_0/O
                         net (fo=1, routed)           0.214    14.489    muon_sorter_1/max_pt_4_2_N_6L12_0
    SLICE_X76Y322        LUT6 (Prop_C6LUT_SLICEM_I4_O)
                                                      0.062    14.551 r  muon_sorter_1/max_pt_4_2[20]/O
                         net (fo=1, routed)           0.108    14.659    muon_sorter_1/max_pt_4_2[20]
    SLICE_X75Y322        LUT5 (Prop_B6LUT_SLICEL_I2_O)
                                                      0.100    14.759 r  muon_sorter_1/max_pt_4_N_9L20/O
                         net (fo=3, routed)           0.233    14.992    muon_sorter_1/max_pt_4_N_9L20
    SLICE_X74Y321        LUT6 (Prop_H6LUT_SLICEM_I5_O)
                                                      0.066    15.058 r  muon_sorter_1/max_pt_4_rep_41[20]/O
                         net (fo=18, routed)          0.310    15.368    muon_sorter_1/max_pt_4_rep_41[20]
    SLICE_X73Y323        LUT6 (Prop_C6LUT_SLICEL_I5_O)
                                                      0.113    15.481 r  muon_sorter_1/pt_compare_5_23_0_a2_i[20]/O
                         net (fo=17, routed)          0.561    16.042    muon_sorter_1/N_7138_0
    SLICE_X66Y320        LUT6 (Prop_G6LUT_SLICEM_I5_O)
                                                      0.039    16.081 r  muon_sorter_1/max_pt_5_25_m3_e_3_2/O
                         net (fo=1, routed)           0.123    16.204    muon_sorter_1/max_pt_5_25_m3_e_3_2
    SLICE_X65Y320        LUT6 (Prop_D6LUT_SLICEL_I3_O)
                                                      0.174    16.378 r  muon_sorter_1/max_pt_5_25_m3_e_2_4/O
                         net (fo=4, routed)           0.580    16.958    muon_sorter_1/max_pt_5_25_m3_e_2_4
    SLICE_X58Y326        LUT6 (Prop_D6LUT_SLICEL_I5_O)
                                                      0.174    17.132 r  muon_sorter_1/max_pt_5_25_m3_e_rep_171/O
                         net (fo=48, routed)          0.443    17.575    muon_sorter_1/max_pt_5_rep_171[25]
    SLICE_X61Y323        LUT6 (Prop_B6LUT_SLICEL_I5_O)
                                                      0.149    17.724 r  muon_sorter_1/pt_compare_6_25_0_a3_0_a4_0_a2[24]/O
                         net (fo=4, routed)           0.645    18.369    muon_sorter_1/pt_compare_6_25_0_a3_0_a4_0_a2[24]
    SLICE_X67Y328        LUT5 (Prop_A6LUT_SLICEL_I0_O)
                                                      0.064    18.433 r  muon_sorter_1/pt_compare_6_28_0_a3_0_a2_RNI9QKT5[24]/O
                         net (fo=1, routed)           0.301    18.734    muon_sorter_1/pt_compare_6_28_0_a3_0_a2_RNI9QKT5[24]
    SLICE_X67Y333        LUT4 (Prop_A6LUT_SLICEL_I0_O)
                                                      0.178    18.912 f  muon_sorter_1/max_pt_6_3_0_N_6L11_0_RNIML4C8/O
                         net (fo=4, routed)           0.449    19.361    muon_sorter_1/max_pt_6_3_0_N_6L11_0_RNIML4C8
    SLICE_X66Y334        LUT5 (Prop_C6LUT_SLICEM_I4_O)
                                                      0.098    19.459 r  muon_sorter_1/max_pt_6_3_4_x_RNIIFOO9[24]/O
                         net (fo=58, routed)          0.622    20.081    muon_sorter_1/max_pt_6[24]
    SLICE_X69Y334        LUT4 (Prop_E6LUT_SLICEL_I3_O)
                                                      0.064    20.145 r  muon_sorter_1/pt_compare_7_24_0_a3_0_a2_1_0_a2[18]/O
                         net (fo=9, routed)           0.499    20.644    muon_sorter_1/pt_compare_7_24_1[18]
    SLICE_X70Y345        LUT2 (Prop_E6LUT_SLICEM_I1_O)
                                                      0.063    20.707 r  muon_sorter_1/max_pt_7_3_4_N_9L20/O
                         net (fo=1, routed)           0.243    20.950    muon_sorter_1/max_pt_7_3_4_N_9L20
    SLICE_X66Y345        LUT6 (Prop_F6LUT_SLICEM_I2_O)
                                                      0.098    21.048 r  muon_sorter_1/max_pt_7_3_4[30]/O
                         net (fo=5, routed)           0.289    21.337    muon_sorter_1/max_pt_7_3_4[30]
    SLICE_X65Y344        LUT6 (Prop_B6LUT_SLICEL_I2_O)
                                                      0.177    21.514 r  muon_sorter_1/max_pt_7[30]/O
                         net (fo=39, routed)          1.017    22.531    muon_sorter_1/max_pt_7[30]
    SLICE_X73Y339        LUT6 (Prop_A6LUT_SLICEL_I5_O)
                                                      0.064    22.595 r  muon_sorter_1/sr_p.sr_1_15.roi_ret_26655_RNO_0/O
                         net (fo=1, routed)           0.192    22.787    muon_sorter_1/N_8745
    SLICE_X72Y339        LUT6 (Prop_A6LUT_SLICEM_I3_O)
                                                      0.179    22.966 r  muon_sorter_1/sr_p.sr_1_15.roi_ret_26655_RNO/O
                         net (fo=1, routed)           0.063    23.029    muon_sorter_1/max_pt_8_4_2[1]
    SLICE_X72Y339        FDRE                                         r  muon_sorter_1/sr_p.sr_1_15.roi_ret_26655/D
  -------------------------------------------------------------------    -------------------

                         (clock clk rise edge)        3.125     3.125 r  
    AV33                                              0.000     3.125 r  clk (IN)
                         net (fo=0)                   0.000     3.125    clk_ibuf_iso/I
    AV33                 INBUF (Prop_INBUF_HPIOB_M_PAD_O)
                                                      0.510     3.635 r  clk_ibuf_iso/INBUF_INST/O
                         net (fo=1, routed)           0.000     3.635    clk_ibuf_iso/OUT
    AV33                 IBUFCTRL (Prop_IBUFCTRL_HPIOB_M_I_O)
                                                      0.000     3.635 r  clk_ibuf_iso/IBUFCTRL_INST/O
                         net (fo=1, routed)           0.296     3.931    clk_ibuf_iso
    BUFGCE_X1Y224        BUFGCE (Prop_BUFCE_BUFGCE_I_O)
                                                      0.024     3.955 r  clk_ibuf/O
    X3Y5 (CLOCK_ROOT)    net (fo=14477, routed)       3.013     6.968    muon_sorter_1/clk_c
    SLICE_X72Y339        FDRE                                         r  muon_sorter_1/sr_p.sr_1_15.roi_ret_26655/C
                         clock pessimism              0.512     7.480    
                         clock uncertainty           -0.035     7.445    
    SLICE_X72Y339        FDRE (Setup_AFF_SLICEM_C_D)
                                                      0.027     7.472    muon_sorter_1/sr_p.sr_1_15.roi_ret_26655
  -------------------------------------------------------------------
                         required time                          7.472    
                         arrival time                         -23.029    
  -------------------------------------------------------------------
                         slack                                -15.557    

Slack (VIOLATED) :        -15.557ns  (required time - arrival time)
  Source:                 muon_cand_23.pt_fast[1]/C
                            (rising edge-triggered cell FDRE clocked by clk  {rise@0.000ns fall@1.563ns period=3.125ns})
  Destination:            muon_sorter_1/sr_p.sr_1_15.roi_ret_26655/D
                            (rising edge-triggered cell FDRE clocked by clk  {rise@0.000ns fall@1.563ns period=3.125ns})
  Path Group:             clk
  Path Type:              Setup (Max at Slow Process Corner)
  Requirement:            3.125ns  (clk rise@3.125ns - clk rise@0.000ns)
  Data Path Delay:        19.075ns  (logic 4.337ns (22.737%)  route 14.738ns (77.263%))
  Logic Levels:           37  (LUT2=2 LUT4=7 LUT5=7 LUT6=21)
  Clock Path Skew:        0.401ns (DCD - SCD + CPR)
    Destination Clock Delay (DCD):    3.843ns = ( 6.968 - 3.125 ) 
    Source Clock Delay      (SCD):    3.954ns
    Clock Pessimism Removal (CPR):    0.512ns
  Clock Uncertainty:      0.035ns  ((TSJ^2 + TIJ^2)^1/2 + DJ) / 2 + PE
    Total System Jitter     (TSJ):    0.071ns
    Total Input Jitter      (TIJ):    0.000ns
    Discrete Jitter          (DJ):    0.000ns
    Phase Error              (PE):    0.000ns
  Clock Net Delay (Source):      2.813ns (routing 1.683ns, distribution 1.130ns)
  Clock Net Delay (Destination): 3.013ns (routing 1.538ns, distribution 1.475ns)

    Location             Delay type                Incr(ns)  Path(ns)    Netlist Resource(s)
  -------------------------------------------------------------------    -------------------
                         (clock clk rise edge)        0.000     0.000 r  
    AV33                                              0.000     0.000 r  clk (IN)
                         net (fo=0)                   0.000     0.000    clk_ibuf_iso/I
    AV33                 INBUF (Prop_INBUF_HPIOB_M_PAD_O)
                                                      0.779     0.779 r  clk_ibuf_iso/INBUF_INST/O
                         net (fo=1, routed)           0.000     0.779    clk_ibuf_iso/OUT
    AV33                 IBUFCTRL (Prop_IBUFCTRL_HPIOB_M_I_O)
                                                      0.000     0.779 r  clk_ibuf_iso/IBUFCTRL_INST/O
                         net (fo=1, routed)           0.334     1.113    clk_ibuf_iso
    BUFGCE_X1Y224        BUFGCE (Prop_BUFCE_BUFGCE_I_O)
                                                      0.028     1.141 r  clk_ibuf/O
    X3Y5 (CLOCK_ROOT)    net (fo=14477, routed)       2.813     3.954    clk_c
    SLICE_X98Y318        FDRE                                         r  muon_cand_23.pt_fast[1]/C
  -------------------------------------------------------------------    -------------------
    SLICE_X98Y318        FDRE (Prop_EFF_SLICEL_C_Q)
                                                      0.096     4.050 f  muon_cand_23.pt_fast[1]/Q
                         net (fo=10, routed)          0.673     4.723    muon_sorter_1/pt_fast_15[1]
    SLICE_X94Y312        LUT4 (Prop_B6LUT_SLICEL_I2_O)
                                                      0.115     4.838 r  muon_sorter_1/compare_p.23.0.compare_pt.op_qge.op_qge.un53526_pt_compare_c2/O
                         net (fo=1, routed)           0.099     4.937    muon_sorter_1/un53526_pt_compare_c2
    SLICE_X93Y312        LUT5 (Prop_D6LUT_SLICEM_I4_O)
                                                      0.062     4.999 r  muon_sorter_1/compare_p.23.0.compare_pt.op_qge.op_qge.un53526_pt_compare_c4/O
                         net (fo=4, routed)           0.577     5.576    muon_sorter_1/un53526_pt_compare
    SLICE_X85Y312        LUT6 (Prop_E6LUT_SLICEL_I5_O)
                                                      0.100     5.676 r  muon_sorter_1/max_pt_0_2_1[0]/O
                         net (fo=1, routed)           0.173     5.849    muon_sorter_1/max_pt_0_2_1[0]
    SLICE_X85Y314        LUT6 (Prop_H6LUT_SLICEL_I3_O)
                                                      0.064     5.913 r  muon_sorter_1/max_pt_0_0_4_N_6L12_0/O
                         net (fo=1, routed)           0.121     6.034    muon_sorter_1/max_pt_0_0_4_N_6L12_0
    SLICE_X85Y314        LUT4 (Prop_G6LUT_SLICEL_I1_O)
                                                      0.178     6.212 r  muon_sorter_1/max_pt_0_0_4[0]/O
                         net (fo=9, routed)           0.205     6.417    muon_sorter_1/max_pt_0_0_4[0]
    SLICE_X85Y312        LUT6 (Prop_C6LUT_SLICEL_I5_O)
                                                      0.174     6.591 r  muon_sorter_1/max_pt_0_rep_3[0]/O
                         net (fo=26, routed)          0.849     7.440    muon_sorter_1/max_pt_0_rep_3[0]
    SLICE_X91Y322        LUT2 (Prop_E5LUT_SLICEL_I1_O)
                                                      0.085     7.525 f  muon_sorter_1/pt_compare_1_3_0_a2[0]/O
                         net (fo=2, routed)           0.636     8.161    muon_sorter_1/pt_compare_1_3_0_a2[0]
    SLICE_X99Y325        LUT6 (Prop_C6LUT_SLICEM_I3_O)
                                                      0.098     8.259 f  muon_sorter_1/max_pt_1_0_4_N_5L9/O
                         net (fo=1, routed)           0.101     8.360    muon_sorter_1/max_pt_1_0_4_N_5L9
    SLICE_X99Y326        LUT6 (Prop_D6LUT_SLICEM_I5_O)
                                                      0.098     8.458 r  muon_sorter_1/max_pt_1_N_6L12_0/O
                         net (fo=3, routed)           0.250     8.708    muon_sorter_1/max_pt_1_N_6L12_0
    SLICE_X99Y328        LUT6 (Prop_C6LUT_SLICEM_I5_O)
                                                      0.098     8.806 r  muon_sorter_1/I_68148/O
                         net (fo=46, routed)          0.646     9.452    muon_sorter_1/N_1496_i_0
    SLICE_X95Y332        LUT6 (Prop_D6LUT_SLICEM_I5_O)
                                                      0.098     9.550 f  muon_sorter_1/max_pt_2_2_4_N_6L12/O
                         net (fo=1, routed)           0.124     9.674    muon_sorter_1/max_pt_2_2_4_N_6L12
    SLICE_X95Y334        LUT4 (Prop_C6LUT_SLICEM_I3_O)
                                                      0.174     9.848 r  muon_sorter_1/max_pt_2_2_4_N_7L14/O
                         net (fo=1, routed)           0.410    10.258    muon_sorter_1/max_pt_2_2_4_N_7L14
    SLICE_X96Y335        LUT4 (Prop_C6LUT_SLICEL_I2_O)
                                                      0.098    10.356 r  muon_sorter_1/max_pt_2_2_4[23]/O
                         net (fo=5, routed)           0.175    10.531    muon_sorter_1/max_pt_2_2_4[23]
    SLICE_X96Y337        LUT5 (Prop_E6LUT_SLICEL_I3_O)
                                                      0.116    10.647 r  muon_sorter_1/max_pt_2_rep_405[23]/O
                         net (fo=16, routed)          0.513    11.160    muon_sorter_1/max_pt_2_rep_405[23]
    SLICE_X92Y338        LUT5 (Prop_E6LUT_SLICEM_I4_O)
                                                      0.115    11.275 f  muon_sorter_1/pt_compare_3_23_0_a2[3]/O
                         net (fo=3, routed)           0.553    11.828    muon_sorter_1/pt_compare_3_23_0_a2[3]
    SLICE_X86Y339        LUT4 (Prop_E6LUT_SLICEL_I2_O)
                                                      0.116    11.944 r  muon_sorter_1/max_pt_3_2_N_6L12/O
                         net (fo=1, routed)           0.543    12.487    muon_sorter_1/max_pt_3_2_N_6L12
    SLICE_X85Y336        LUT6 (Prop_C6LUT_SLICEL_I4_O)
                                                      0.063    12.550 r  muon_sorter_1/max_pt_3_2[23]/O
                         net (fo=6, routed)           0.207    12.757    muon_sorter_1/max_pt_3_2[23]
    SLICE_X83Y334        LUT6 (Prop_H6LUT_SLICEL_I5_O)
                                                      0.179    12.936 r  muon_sorter_1/max_pt_3[23]/O
                         net (fo=52, routed)          0.719    13.655    muon_sorter_1/max_pt_3[23]
    SLICE_X77Y325        LUT5 (Prop_C6LUT_SLICEL_I4_O)
                                                      0.174    13.829 r  muon_sorter_1/max_pt_4_2_1[20]/O
                         net (fo=1, routed)           0.272    14.101    muon_sorter_1/max_pt_4_2_1[20]
    SLICE_X76Y325        LUT6 (Prop_C6LUT_SLICEM_I5_O)
                                                      0.174    14.275 f  muon_sorter_1/max_pt_4_2_N_6L12_0/O
                         net (fo=1, routed)           0.214    14.489    muon_sorter_1/max_pt_4_2_N_6L12_0
    SLICE_X76Y322        LUT6 (Prop_C6LUT_SLICEM_I4_O)
                                                      0.062    14.551 r  muon_sorter_1/max_pt_4_2[20]/O
                         net (fo=1, routed)           0.108    14.659    muon_sorter_1/max_pt_4_2[20]
    SLICE_X75Y322        LUT5 (Prop_B6LUT_SLICEL_I2_O)
                                                      0.100    14.759 r  muon_sorter_1/max_pt_4_N_9L20/O
                         net (fo=3, routed)           0.233    14.992    muon_sorter_1/max_pt_4_N_9L20
    SLICE_X74Y321        LUT6 (Prop_H6LUT_SLICEM_I5_O)
                                                      0.066    15.058 r  muon_sorter_1/max_pt_4_rep_41[20]/O
                         net (fo=18, routed)          0.310    15.368    muon_sorter_1/max_pt_4_rep_41[20]
    SLICE_X73Y323        LUT6 (Prop_C6LUT_SLICEL_I5_O)
                                                      0.113    15.481 f  muon_sorter_1/pt_compare_5_23_0_a2_i[20]/O
                         net (fo=17, routed)          0.561    16.042    muon_sorter_1/N_7138_0
    SLICE_X66Y320        LUT6 (Prop_G6LUT_SLICEM_I5_O)
                                                      0.039    16.081 r  muon_sorter_1/max_pt_5_25_m3_e_3_2/O
                         net (fo=1, routed)           0.123    16.204    muon_sorter_1/max_pt_5_25_m3_e_3_2
    SLICE_X65Y320        LUT6 (Prop_D6LUT_SLICEL_I3_O)
                                                      0.174    16.378 r  muon_sorter_1/max_pt_5_25_m3_e_2_4/O
                         net (fo=4, routed)           0.580    16.958    muon_sorter_1/max_pt_5_25_m3_e_2_4
    SLICE_X58Y326        LUT6 (Prop_D6LUT_SLICEL_I5_O)
                                                      0.174    17.132 r  muon_sorter_1/max_pt_5_25_m3_e_rep_171/O
                         net (fo=48, routed)          0.443    17.575    muon_sorter_1/max_pt_5_rep_171[25]
    SLICE_X61Y323        LUT6 (Prop_B6LUT_SLICEL_I5_O)
                                                      0.149    17.724 r  muon_sorter_1/pt_compare_6_25_0_a3_0_a4_0_a2[24]/O
                         net (fo=4, routed)           0.645    18.369    muon_sorter_1/pt_compare_6_25_0_a3_0_a4_0_a2[24]
    SLICE_X67Y328        LUT5 (Prop_A6LUT_SLICEL_I0_O)
                                                      0.064    18.433 r  muon_sorter_1/pt_compare_6_28_0_a3_0_a2_RNI9QKT5[24]/O
                         net (fo=1, routed)           0.301    18.734    muon_sorter_1/pt_compare_6_28_0_a3_0_a2_RNI9QKT5[24]
    SLICE_X67Y333        LUT4 (Prop_A6LUT_SLICEL_I0_O)
                                                      0.178    18.912 f  muon_sorter_1/max_pt_6_3_0_N_6L11_0_RNIML4C8/O
                         net (fo=4, routed)           0.449    19.361    muon_sorter_1/max_pt_6_3_0_N_6L11_0_RNIML4C8
    SLICE_X66Y334        LUT5 (Prop_C6LUT_SLICEM_I4_O)
                                                      0.098    19.459 r  muon_sorter_1/max_pt_6_3_4_x_RNIIFOO9[24]/O
                         net (fo=58, routed)          0.622    20.081    muon_sorter_1/max_pt_6[24]
    SLICE_X69Y334        LUT4 (Prop_E6LUT_SLICEL_I3_O)
                                                      0.064    20.145 r  muon_sorter_1/pt_compare_7_24_0_a3_0_a2_1_0_a2[18]/O
                         net (fo=9, routed)           0.499    20.644    muon_sorter_1/pt_compare_7_24_1[18]
    SLICE_X70Y345        LUT2 (Prop_E6LUT_SLICEM_I1_O)
                                                      0.063    20.707 r  muon_sorter_1/max_pt_7_3_4_N_9L20/O
                         net (fo=1, routed)           0.243    20.950    muon_sorter_1/max_pt_7_3_4_N_9L20
    SLICE_X66Y345        LUT6 (Prop_F6LUT_SLICEM_I2_O)
                                                      0.098    21.048 r  muon_sorter_1/max_pt_7_3_4[30]/O
                         net (fo=5, routed)           0.289    21.337    muon_sorter_1/max_pt_7_3_4[30]
    SLICE_X65Y344        LUT6 (Prop_B6LUT_SLICEL_I2_O)
                                                      0.177    21.514 r  muon_sorter_1/max_pt_7[30]/O
                         net (fo=39, routed)          1.017    22.531    muon_sorter_1/max_pt_7[30]
    SLICE_X73Y339        LUT6 (Prop_A6LUT_SLICEL_I5_O)
                                                      0.064    22.595 r  muon_sorter_1/sr_p.sr_1_15.roi_ret_26655_RNO_0/O
                         net (fo=1, routed)           0.192    22.787    muon_sorter_1/N_8745
    SLICE_X72Y339        LUT6 (Prop_A6LUT_SLICEM_I3_O)
                                                      0.179    22.966 r  muon_sorter_1/sr_p.sr_1_15.roi_ret_26655_RNO/O
                         net (fo=1, routed)           0.063    23.029    muon_sorter_1/max_pt_8_4_2[1]
    SLICE_X72Y339        FDRE                                         r  muon_sorter_1/sr_p.sr_1_15.roi_ret_26655/D
  -------------------------------------------------------------------    -------------------

                         (clock clk rise edge)        3.125     3.125 r  
    AV33                                              0.000     3.125 r  clk (IN)
                         net (fo=0)                   0.000     3.125    clk_ibuf_iso/I
    AV33                 INBUF (Prop_INBUF_HPIOB_M_PAD_O)
                                                      0.510     3.635 r  clk_ibuf_iso/INBUF_INST/O
                         net (fo=1, routed)           0.000     3.635    clk_ibuf_iso/OUT
    AV33                 IBUFCTRL (Prop_IBUFCTRL_HPIOB_M_I_O)
                                                      0.000     3.635 r  clk_ibuf_iso/IBUFCTRL_INST/O
                         net (fo=1, routed)           0.296     3.931    clk_ibuf_iso
    BUFGCE_X1Y224        BUFGCE (Prop_BUFCE_BUFGCE_I_O)
                                                      0.024     3.955 r  clk_ibuf/O
    X3Y5 (CLOCK_ROOT)    net (fo=14477, routed)       3.013     6.968    muon_sorter_1/clk_c
    SLICE_X72Y339        FDRE                                         r  muon_sorter_1/sr_p.sr_1_15.roi_ret_26655/C
                         clock pessimism              0.512     7.480    
                         clock uncertainty           -0.035     7.445    
    SLICE_X72Y339        FDRE (Setup_AFF_SLICEM_C_D)
                                                      0.027     7.472    muon_sorter_1/sr_p.sr_1_15.roi_ret_26655
  -------------------------------------------------------------------
                         required time                          7.472    
                         arrival time                         -23.029    
  -------------------------------------------------------------------
                         slack                                -15.557    

Slack (VIOLATED) :        -15.557ns  (required time - arrival time)
  Source:                 muon_cand_23.pt_fast[1]/C
                            (rising edge-triggered cell FDRE clocked by clk  {rise@0.000ns fall@1.563ns period=3.125ns})
  Destination:            muon_sorter_1/sr_p.sr_1_15.roi_ret_26655/D
                            (rising edge-triggered cell FDRE clocked by clk  {rise@0.000ns fall@1.563ns period=3.125ns})
  Path Group:             clk
  Path Type:              Setup (Max at Slow Process Corner)
  Requirement:            3.125ns  (clk rise@3.125ns - clk rise@0.000ns)
  Data Path Delay:        19.075ns  (logic 4.337ns (22.737%)  route 14.738ns (77.263%))
  Logic Levels:           37  (LUT2=2 LUT4=7 LUT5=7 LUT6=21)
  Clock Path Skew:        0.401ns (DCD - SCD + CPR)
    Destination Clock Delay (DCD):    3.843ns = ( 6.968 - 3.125 ) 
    Source Clock Delay      (SCD):    3.954ns
    Clock Pessimism Removal (CPR):    0.512ns
  Clock Uncertainty:      0.035ns  ((TSJ^2 + TIJ^2)^1/2 + DJ) / 2 + PE
    Total System Jitter     (TSJ):    0.071ns
    Total Input Jitter      (TIJ):    0.000ns
    Discrete Jitter          (DJ):    0.000ns
    Phase Error              (PE):    0.000ns
  Clock Net Delay (Source):      2.813ns (routing 1.683ns, distribution 1.130ns)
  Clock Net Delay (Destination): 3.013ns (routing 1.538ns, distribution 1.475ns)

    Location             Delay type                Incr(ns)  Path(ns)    Netlist Resource(s)
  -------------------------------------------------------------------    -------------------
                         (clock clk rise edge)        0.000     0.000 r  
    AV33                                              0.000     0.000 r  clk (IN)
                         net (fo=0)                   0.000     0.000    clk_ibuf_iso/I
    AV33                 INBUF (Prop_INBUF_HPIOB_M_PAD_O)
                                                      0.779     0.779 r  clk_ibuf_iso/INBUF_INST/O
                         net (fo=1, routed)           0.000     0.779    clk_ibuf_iso/OUT
    AV33                 IBUFCTRL (Prop_IBUFCTRL_HPIOB_M_I_O)
                                                      0.000     0.779 r  clk_ibuf_iso/IBUFCTRL_INST/O
                         net (fo=1, routed)           0.334     1.113    clk_ibuf_iso
    BUFGCE_X1Y224        BUFGCE (Prop_BUFCE_BUFGCE_I_O)
                                                      0.028     1.141 r  clk_ibuf/O
    X3Y5 (CLOCK_ROOT)    net (fo=14477, routed)       2.813     3.954    clk_c
    SLICE_X98Y318        FDRE                                         r  muon_cand_23.pt_fast[1]/C
  -------------------------------------------------------------------    -------------------
    SLICE_X98Y318        FDRE (Prop_EFF_SLICEL_C_Q)
                                                      0.096     4.050 f  muon_cand_23.pt_fast[1]/Q
                         net (fo=10, routed)          0.673     4.723    muon_sorter_1/pt_fast_15[1]
    SLICE_X94Y312        LUT4 (Prop_B6LUT_SLICEL_I2_O)
                                                      0.115     4.838 r  muon_sorter_1/compare_p.23.0.compare_pt.op_qge.op_qge.un53526_pt_compare_c2/O
                         net (fo=1, routed)           0.099     4.937    muon_sorter_1/un53526_pt_compare_c2
    SLICE_X93Y312        LUT5 (Prop_D6LUT_SLICEM_I4_O)
                                                      0.062     4.999 r  muon_sorter_1/compare_p.23.0.compare_pt.op_qge.op_qge.un53526_pt_compare_c4/O
                         net (fo=4, routed)           0.577     5.576    muon_sorter_1/un53526_pt_compare
    SLICE_X85Y312        LUT6 (Prop_E6LUT_SLICEL_I5_O)
                                                      0.100     5.676 r  muon_sorter_1/max_pt_0_2_1[0]/O
                         net (fo=1, routed)           0.173     5.849    muon_sorter_1/max_pt_0_2_1[0]
    SLICE_X85Y314        LUT6 (Prop_H6LUT_SLICEL_I3_O)
                                                      0.064     5.913 r  muon_sorter_1/max_pt_0_0_4_N_6L12_0/O
                         net (fo=1, routed)           0.121     6.034    muon_sorter_1/max_pt_0_0_4_N_6L12_0
    SLICE_X85Y314        LUT4 (Prop_G6LUT_SLICEL_I1_O)
                                                      0.178     6.212 r  muon_sorter_1/max_pt_0_0_4[0]/O
                         net (fo=9, routed)           0.205     6.417    muon_sorter_1/max_pt_0_0_4[0]
    SLICE_X85Y312        LUT6 (Prop_C6LUT_SLICEL_I5_O)
                                                      0.174     6.591 r  muon_sorter_1/max_pt_0_rep_3[0]/O
                         net (fo=26, routed)          0.849     7.440    muon_sorter_1/max_pt_0_rep_3[0]
    SLICE_X91Y322        LUT2 (Prop_E5LUT_SLICEL_I1_O)
                                                      0.085     7.525 f  muon_sorter_1/pt_compare_1_3_0_a2[0]/O
                         net (fo=2, routed)           0.636     8.161    muon_sorter_1/pt_compare_1_3_0_a2[0]
    SLICE_X99Y325        LUT6 (Prop_C6LUT_SLICEM_I3_O)
                                                      0.098     8.259 f  muon_sorter_1/max_pt_1_0_4_N_5L9/O
                         net (fo=1, routed)           0.101     8.360    muon_sorter_1/max_pt_1_0_4_N_5L9
    SLICE_X99Y326        LUT6 (Prop_D6LUT_SLICEM_I5_O)
                                                      0.098     8.458 r  muon_sorter_1/max_pt_1_N_6L12_0/O
                         net (fo=3, routed)           0.250     8.708    muon_sorter_1/max_pt_1_N_6L12_0
    SLICE_X99Y328        LUT6 (Prop_C6LUT_SLICEM_I5_O)
                                                      0.098     8.806 r  muon_sorter_1/I_68148/O
                         net (fo=46, routed)          0.646     9.452    muon_sorter_1/N_1496_i_0
    SLICE_X95Y332        LUT6 (Prop_D6LUT_SLICEM_I5_O)
                                                      0.098     9.550 f  muon_sorter_1/max_pt_2_2_4_N_6L12/O
                         net (fo=1, routed)           0.124     9.674    muon_sorter_1/max_pt_2_2_4_N_6L12
    SLICE_X95Y334        LUT4 (Prop_C6LUT_SLICEM_I3_O)
                                                      0.174     9.848 r  muon_sorter_1/max_pt_2_2_4_N_7L14/O
                         net (fo=1, routed)           0.410    10.258    muon_sorter_1/max_pt_2_2_4_N_7L14
    SLICE_X96Y335        LUT4 (Prop_C6LUT_SLICEL_I2_O)
                                                      0.098    10.356 r  muon_sorter_1/max_pt_2_2_4[23]/O
                         net (fo=5, routed)           0.175    10.531    muon_sorter_1/max_pt_2_2_4[23]
    SLICE_X96Y337        LUT5 (Prop_E6LUT_SLICEL_I3_O)
                                                      0.116    10.647 r  muon_sorter_1/max_pt_2_rep_405[23]/O
                         net (fo=16, routed)          0.513    11.160    muon_sorter_1/max_pt_2_rep_405[23]
    SLICE_X92Y338        LUT5 (Prop_E6LUT_SLICEM_I4_O)
                                                      0.115    11.275 f  muon_sorter_1/pt_compare_3_23_0_a2[3]/O
                         net (fo=3, routed)           0.553    11.828    muon_sorter_1/pt_compare_3_23_0_a2[3]
    SLICE_X86Y339        LUT4 (Prop_E6LUT_SLICEL_I2_O)
                                                      0.116    11.944 r  muon_sorter_1/max_pt_3_2_N_6L12/O
                         net (fo=1, routed)           0.543    12.487    muon_sorter_1/max_pt_3_2_N_6L12
    SLICE_X85Y336        LUT6 (Prop_C6LUT_SLICEL_I4_O)
                                                      0.063    12.550 r  muon_sorter_1/max_pt_3_2[23]/O
                         net (fo=6, routed)           0.207    12.757    muon_sorter_1/max_pt_3_2[23]
    SLICE_X83Y334        LUT6 (Prop_H6LUT_SLICEL_I5_O)
                                                      0.179    12.936 r  muon_sorter_1/max_pt_3[23]/O
                         net (fo=52, routed)          0.719    13.655    muon_sorter_1/max_pt_3[23]
    SLICE_X77Y325        LUT5 (Prop_C6LUT_SLICEL_I4_O)
                                                      0.174    13.829 r  muon_sorter_1/max_pt_4_2_1[20]/O
                         net (fo=1, routed)           0.272    14.101    muon_sorter_1/max_pt_4_2_1[20]
    SLICE_X76Y325        LUT6 (Prop_C6LUT_SLICEM_I5_O)
                                                      0.174    14.275 f  muon_sorter_1/max_pt_4_2_N_6L12_0/O
                         net (fo=1, routed)           0.214    14.489    muon_sorter_1/max_pt_4_2_N_6L12_0
    SLICE_X76Y322        LUT6 (Prop_C6LUT_SLICEM_I4_O)
                                                      0.062    14.551 r  muon_sorter_1/max_pt_4_2[20]/O
                         net (fo=1, routed)           0.108    14.659    muon_sorter_1/max_pt_4_2[20]
    SLICE_X75Y322        LUT5 (Prop_B6LUT_SLICEL_I2_O)
                                                      0.100    14.759 r  muon_sorter_1/max_pt_4_N_9L20/O
                         net (fo=3, routed)           0.233    14.992    muon_sorter_1/max_pt_4_N_9L20
    SLICE_X74Y321        LUT6 (Prop_H6LUT_SLICEM_I5_O)
                                                      0.066    15.058 r  muon_sorter_1/max_pt_4_rep_41[20]/O
                         net (fo=18, routed)          0.310    15.368    muon_sorter_1/max_pt_4_rep_41[20]
    SLICE_X73Y323        LUT6 (Prop_C6LUT_SLICEL_I5_O)
                                                      0.113    15.481 r  muon_sorter_1/pt_compare_5_23_0_a2_i[20]/O
                         net (fo=17, routed)          0.561    16.042    muon_sorter_1/N_7138_0
    SLICE_X66Y320        LUT6 (Prop_G6LUT_SLICEM_I5_O)
                                                      0.039    16.081 r  muon_sorter_1/max_pt_5_25_m3_e_3_2/O
                         net (fo=1, routed)           0.123    16.204    muon_sorter_1/max_pt_5_25_m3_e_3_2
    SLICE_X65Y320        LUT6 (Prop_D6LUT_SLICEL_I3_O)
                                                      0.174    16.378 r  muon_sorter_1/max_pt_5_25_m3_e_2_4/O
                         net (fo=4, routed)           0.580    16.958    muon_sorter_1/max_pt_5_25_m3_e_2_4
    SLICE_X58Y326        LUT6 (Prop_D6LUT_SLICEL_I5_O)
                                                      0.174    17.132 r  muon_sorter_1/max_pt_5_25_m3_e_rep_171/O
                         net (fo=48, routed)          0.443    17.575    muon_sorter_1/max_pt_5_rep_171[25]
    SLICE_X61Y323        LUT6 (Prop_B6LUT_SLICEL_I5_O)
                                                      0.149    17.724 r  muon_sorter_1/pt_compare_6_25_0_a3_0_a4_0_a2[24]/O
                         net (fo=4, routed)           0.645    18.369    muon_sorter_1/pt_compare_6_25_0_a3_0_a4_0_a2[24]
    SLICE_X67Y328        LUT5 (Prop_A6LUT_SLICEL_I0_O)
                                                      0.064    18.433 r  muon_sorter_1/pt_compare_6_28_0_a3_0_a2_RNI9QKT5[24]/O
                         net (fo=1, routed)           0.301    18.734    muon_sorter_1/pt_compare_6_28_0_a3_0_a2_RNI9QKT5[24]
    SLICE_X67Y333        LUT4 (Prop_A6LUT_SLICEL_I0_O)
                                                      0.178    18.912 f  muon_sorter_1/max_pt_6_3_0_N_6L11_0_RNIML4C8/O
                         net (fo=4, routed)           0.449    19.361    muon_sorter_1/max_pt_6_3_0_N_6L11_0_RNIML4C8
    SLICE_X66Y334        LUT5 (Prop_C6LUT_SLICEM_I4_O)
                                                      0.098    19.459 r  muon_sorter_1/max_pt_6_3_4_x_RNIIFOO9[24]/O
                         net (fo=58, routed)          0.622    20.081    muon_sorter_1/max_pt_6[24]
    SLICE_X69Y334        LUT4 (Prop_E6LUT_SLICEL_I3_O)
                                                      0.064    20.145 r  muon_sorter_1/pt_compare_7_24_0_a3_0_a2_1_0_a2[18]/O
                         net (fo=9, routed)           0.499    20.644    muon_sorter_1/pt_compare_7_24_1[18]
    SLICE_X70Y345        LUT2 (Prop_E6LUT_SLICEM_I1_O)
                                                      0.063    20.707 r  muon_sorter_1/max_pt_7_3_4_N_9L20/O
                         net (fo=1, routed)           0.243    20.950    muon_sorter_1/max_pt_7_3_4_N_9L20
    SLICE_X66Y345        LUT6 (Prop_F6LUT_SLICEM_I2_O)
                                                      0.098    21.048 r  muon_sorter_1/max_pt_7_3_4[30]/O
                         net (fo=5, routed)           0.289    21.337    muon_sorter_1/max_pt_7_3_4[30]
    SLICE_X65Y344        LUT6 (Prop_B6LUT_SLICEL_I2_O)
                                                      0.177    21.514 r  muon_sorter_1/max_pt_7[30]/O
                         net (fo=39, routed)          1.017    22.531    muon_sorter_1/max_pt_7[30]
    SLICE_X73Y339        LUT6 (Prop_A6LUT_SLICEL_I5_O)
                                                      0.064    22.595 f  muon_sorter_1/sr_p.sr_1_15.roi_ret_26655_RNO_0/O
                         net (fo=1, routed)           0.192    22.787    muon_sorter_1/N_8745
    SLICE_X72Y339        LUT6 (Prop_A6LUT_SLICEM_I3_O)
                                                      0.179    22.966 r  muon_sorter_1/sr_p.sr_1_15.roi_ret_26655_RNO/O
                         net (fo=1, routed)           0.063    23.029    muon_sorter_1/max_pt_8_4_2[1]
    SLICE_X72Y339        FDRE                                         r  muon_sorter_1/sr_p.sr_1_15.roi_ret_26655/D
  -------------------------------------------------------------------    -------------------

                         (clock clk rise edge)        3.125     3.125 r  
    AV33                                              0.000     3.125 r  clk (IN)
                         net (fo=0)                   0.000     3.125    clk_ibuf_iso/I
    AV33                 INBUF (Prop_INBUF_HPIOB_M_PAD_O)
                                                      0.510     3.635 r  clk_ibuf_iso/INBUF_INST/O
                         net (fo=1, routed)           0.000     3.635    clk_ibuf_iso/OUT
    AV33                 IBUFCTRL (Prop_IBUFCTRL_HPIOB_M_I_O)
                                                      0.000     3.635 r  clk_ibuf_iso/IBUFCTRL_INST/O
                         net (fo=1, routed)           0.296     3.931    clk_ibuf_iso
    BUFGCE_X1Y224        BUFGCE (Prop_BUFCE_BUFGCE_I_O)
                                                      0.024     3.955 r  clk_ibuf/O
    X3Y5 (CLOCK_ROOT)    net (fo=14477, routed)       3.013     6.968    muon_sorter_1/clk_c
    SLICE_X72Y339        FDRE                                         r  muon_sorter_1/sr_p.sr_1_15.roi_ret_26655/C
                         clock pessimism              0.512     7.480    
                         clock uncertainty           -0.035     7.445    
    SLICE_X72Y339        FDRE (Setup_AFF_SLICEM_C_D)
                                                      0.027     7.472    muon_sorter_1/sr_p.sr_1_15.roi_ret_26655
  -------------------------------------------------------------------
                         required time                          7.472    
                         arrival time                         -23.029    
  -------------------------------------------------------------------
                         slack                                -15.557    

Slack (VIOLATED) :        -15.557ns  (required time - arrival time)
  Source:                 muon_cand_23.pt_fast[1]/C
                            (rising edge-triggered cell FDRE clocked by clk  {rise@0.000ns fall@1.563ns period=3.125ns})
  Destination:            muon_sorter_1/sr_p.sr_1_15.roi_ret_26655/D
                            (rising edge-triggered cell FDRE clocked by clk  {rise@0.000ns fall@1.563ns period=3.125ns})
  Path Group:             clk
  Path Type:              Setup (Max at Slow Process Corner)
  Requirement:            3.125ns  (clk rise@3.125ns - clk rise@0.000ns)
  Data Path Delay:        19.075ns  (logic 4.337ns (22.737%)  route 14.738ns (77.263%))
  Logic Levels:           37  (LUT2=2 LUT4=7 LUT5=7 LUT6=21)
  Clock Path Skew:        0.401ns (DCD - SCD + CPR)
    Destination Clock Delay (DCD):    3.843ns = ( 6.968 - 3.125 ) 
    Source Clock Delay      (SCD):    3.954ns
    Clock Pessimism Removal (CPR):    0.512ns
  Clock Uncertainty:      0.035ns  ((TSJ^2 + TIJ^2)^1/2 + DJ) / 2 + PE
    Total System Jitter     (TSJ):    0.071ns
    Total Input Jitter      (TIJ):    0.000ns
    Discrete Jitter          (DJ):    0.000ns
    Phase Error              (PE):    0.000ns
  Clock Net Delay (Source):      2.813ns (routing 1.683ns, distribution 1.130ns)
  Clock Net Delay (Destination): 3.013ns (routing 1.538ns, distribution 1.475ns)

    Location             Delay type                Incr(ns)  Path(ns)    Netlist Resource(s)
  -------------------------------------------------------------------    -------------------
                         (clock clk rise edge)        0.000     0.000 r  
    AV33                                              0.000     0.000 r  clk (IN)
                         net (fo=0)                   0.000     0.000    clk_ibuf_iso/I
    AV33                 INBUF (Prop_INBUF_HPIOB_M_PAD_O)
                                                      0.779     0.779 r  clk_ibuf_iso/INBUF_INST/O
                         net (fo=1, routed)           0.000     0.779    clk_ibuf_iso/OUT
    AV33                 IBUFCTRL (Prop_IBUFCTRL_HPIOB_M_I_O)
                                                      0.000     0.779 r  clk_ibuf_iso/IBUFCTRL_INST/O
                         net (fo=1, routed)           0.334     1.113    clk_ibuf_iso
    BUFGCE_X1Y224        BUFGCE (Prop_BUFCE_BUFGCE_I_O)
                                                      0.028     1.141 r  clk_ibuf/O
    X3Y5 (CLOCK_ROOT)    net (fo=14477, routed)       2.813     3.954    clk_c
    SLICE_X98Y318        FDRE                                         r  muon_cand_23.pt_fast[1]/C
  -------------------------------------------------------------------    -------------------
    SLICE_X98Y318        FDRE (Prop_EFF_SLICEL_C_Q)
                                                      0.096     4.050 f  muon_cand_23.pt_fast[1]/Q
                         net (fo=10, routed)          0.673     4.723    muon_sorter_1/pt_fast_15[1]
    SLICE_X94Y312        LUT4 (Prop_B6LUT_SLICEL_I2_O)
                                                      0.115     4.838 r  muon_sorter_1/compare_p.23.0.compare_pt.op_qge.op_qge.un53526_pt_compare_c2/O
                         net (fo=1, routed)           0.099     4.937    muon_sorter_1/un53526_pt_compare_c2
    SLICE_X93Y312        LUT5 (Prop_D6LUT_SLICEM_I4_O)
                                                      0.062     4.999 r  muon_sorter_1/compare_p.23.0.compare_pt.op_qge.op_qge.un53526_pt_compare_c4/O
                         net (fo=4, routed)           0.577     5.576    muon_sorter_1/un53526_pt_compare
    SLICE_X85Y312        LUT6 (Prop_E6LUT_SLICEL_I5_O)
                                                      0.100     5.676 r  muon_sorter_1/max_pt_0_2_1[0]/O
                         net (fo=1, routed)           0.173     5.849    muon_sorter_1/max_pt_0_2_1[0]
    SLICE_X85Y314        LUT6 (Prop_H6LUT_SLICEL_I3_O)
                                                      0.064     5.913 r  muon_sorter_1/max_pt_0_0_4_N_6L12_0/O
                         net (fo=1, routed)           0.121     6.034    muon_sorter_1/max_pt_0_0_4_N_6L12_0
    SLICE_X85Y314        LUT4 (Prop_G6LUT_SLICEL_I1_O)
                                                      0.178     6.212 r  muon_sorter_1/max_pt_0_0_4[0]/O
                         net (fo=9, routed)           0.205     6.417    muon_sorter_1/max_pt_0_0_4[0]
    SLICE_X85Y312        LUT6 (Prop_C6LUT_SLICEL_I5_O)
                                                      0.174     6.591 r  muon_sorter_1/max_pt_0_rep_3[0]/O
                         net (fo=26, routed)          0.849     7.440    muon_sorter_1/max_pt_0_rep_3[0]
    SLICE_X91Y322        LUT2 (Prop_E5LUT_SLICEL_I1_O)
                                                      0.085     7.525 f  muon_sorter_1/pt_compare_1_3_0_a2[0]/O
                         net (fo=2, routed)           0.636     8.161    muon_sorter_1/pt_compare_1_3_0_a2[0]
    SLICE_X99Y325        LUT6 (Prop_C6LUT_SLICEM_I3_O)
                                                      0.098     8.259 f  muon_sorter_1/max_pt_1_0_4_N_5L9/O
                         net (fo=1, routed)           0.101     8.360    muon_sorter_1/max_pt_1_0_4_N_5L9
    SLICE_X99Y326        LUT6 (Prop_D6LUT_SLICEM_I5_O)
                                                      0.098     8.458 r  muon_sorter_1/max_pt_1_N_6L12_0/O
                         net (fo=3, routed)           0.250     8.708    muon_sorter_1/max_pt_1_N_6L12_0
    SLICE_X99Y328        LUT6 (Prop_C6LUT_SLICEM_I5_O)
                                                      0.098     8.806 r  muon_sorter_1/I_68148/O
                         net (fo=46, routed)          0.646     9.452    muon_sorter_1/N_1496_i_0
    SLICE_X95Y332        LUT6 (Prop_D6LUT_SLICEM_I5_O)
                                                      0.098     9.550 f  muon_sorter_1/max_pt_2_2_4_N_6L12/O
                         net (fo=1, routed)           0.124     9.674    muon_sorter_1/max_pt_2_2_4_N_6L12
    SLICE_X95Y334        LUT4 (Prop_C6LUT_SLICEM_I3_O)
                                                      0.174     9.848 r  muon_sorter_1/max_pt_2_2_4_N_7L14/O
                         net (fo=1, routed)           0.410    10.258    muon_sorter_1/max_pt_2_2_4_N_7L14
    SLICE_X96Y335        LUT4 (Prop_C6LUT_SLICEL_I2_O)
                                                      0.098    10.356 r  muon_sorter_1/max_pt_2_2_4[23]/O
                         net (fo=5, routed)           0.175    10.531    muon_sorter_1/max_pt_2_2_4[23]
    SLICE_X96Y337        LUT5 (Prop_E6LUT_SLICEL_I3_O)
                                                      0.116    10.647 r  muon_sorter_1/max_pt_2_rep_405[23]/O
                         net (fo=16, routed)          0.513    11.160    muon_sorter_1/max_pt_2_rep_405[23]
    SLICE_X92Y338        LUT5 (Prop_E6LUT_SLICEM_I4_O)
                                                      0.115    11.275 f  muon_sorter_1/pt_compare_3_23_0_a2[3]/O
                         net (fo=3, routed)           0.553    11.828    muon_sorter_1/pt_compare_3_23_0_a2[3]
    SLICE_X86Y339        LUT4 (Prop_E6LUT_SLICEL_I2_O)
                                                      0.116    11.944 r  muon_sorter_1/max_pt_3_2_N_6L12/O
                         net (fo=1, routed)           0.543    12.487    muon_sorter_1/max_pt_3_2_N_6L12
    SLICE_X85Y336        LUT6 (Prop_C6LUT_SLICEL_I4_O)
                                                      0.063    12.550 r  muon_sorter_1/max_pt_3_2[23]/O
                         net (fo=6, routed)           0.207    12.757    muon_sorter_1/max_pt_3_2[23]
    SLICE_X83Y334        LUT6 (Prop_H6LUT_SLICEL_I5_O)
                                                      0.179    12.936 r  muon_sorter_1/max_pt_3[23]/O
                         net (fo=52, routed)          0.719    13.655    muon_sorter_1/max_pt_3[23]
    SLICE_X77Y325        LUT5 (Prop_C6LUT_SLICEL_I4_O)
                                                      0.174    13.829 r  muon_sorter_1/max_pt_4_2_1[20]/O
                         net (fo=1, routed)           0.272    14.101    muon_sorter_1/max_pt_4_2_1[20]
    SLICE_X76Y325        LUT6 (Prop_C6LUT_SLICEM_I5_O)
                                                      0.174    14.275 f  muon_sorter_1/max_pt_4_2_N_6L12_0/O
                         net (fo=1, routed)           0.214    14.489    muon_sorter_1/max_pt_4_2_N_6L12_0
    SLICE_X76Y322        LUT6 (Prop_C6LUT_SLICEM_I4_O)
                                                      0.062    14.551 r  muon_sorter_1/max_pt_4_2[20]/O
                         net (fo=1, routed)           0.108    14.659    muon_sorter_1/max_pt_4_2[20]
    SLICE_X75Y322        LUT5 (Prop_B6LUT_SLICEL_I2_O)
                                                      0.100    14.759 r  muon_sorter_1/max_pt_4_N_9L20/O
                         net (fo=3, routed)           0.233    14.992    muon_sorter_1/max_pt_4_N_9L20
    SLICE_X74Y321        LUT6 (Prop_H6LUT_SLICEM_I5_O)
                                                      0.066    15.058 r  muon_sorter_1/max_pt_4_rep_41[20]/O
                         net (fo=18, routed)          0.310    15.368    muon_sorter_1/max_pt_4_rep_41[20]
    SLICE_X73Y323        LUT6 (Prop_C6LUT_SLICEL_I5_O)
                                                      0.113    15.481 f  muon_sorter_1/pt_compare_5_23_0_a2_i[20]/O
                         net (fo=17, routed)          0.561    16.042    muon_sorter_1/N_7138_0
    SLICE_X66Y320        LUT6 (Prop_G6LUT_SLICEM_I5_O)
                                                      0.039    16.081 r  muon_sorter_1/max_pt_5_25_m3_e_3_2/O
                         net (fo=1, routed)           0.123    16.204    muon_sorter_1/max_pt_5_25_m3_e_3_2
    SLICE_X65Y320        LUT6 (Prop_D6LUT_SLICEL_I3_O)
                                                      0.174    16.378 r  muon_sorter_1/max_pt_5_25_m3_e_2_4/O
                         net (fo=4, routed)           0.580    16.958    muon_sorter_1/max_pt_5_25_m3_e_2_4
    SLICE_X58Y326        LUT6 (Prop_D6LUT_SLICEL_I5_O)
                                                      0.174    17.132 r  muon_sorter_1/max_pt_5_25_m3_e_rep_171/O
                         net (fo=48, routed)          0.443    17.575    muon_sorter_1/max_pt_5_rep_171[25]
    SLICE_X61Y323        LUT6 (Prop_B6LUT_SLICEL_I5_O)
                                                      0.149    17.724 r  muon_sorter_1/pt_compare_6_25_0_a3_0_a4_0_a2[24]/O
                         net (fo=4, routed)           0.645    18.369    muon_sorter_1/pt_compare_6_25_0_a3_0_a4_0_a2[24]
    SLICE_X67Y328        LUT5 (Prop_A6LUT_SLICEL_I0_O)
                                                      0.064    18.433 r  muon_sorter_1/pt_compare_6_28_0_a3_0_a2_RNI9QKT5[24]/O
                         net (fo=1, routed)           0.301    18.734    muon_sorter_1/pt_compare_6_28_0_a3_0_a2_RNI9QKT5[24]
    SLICE_X67Y333        LUT4 (Prop_A6LUT_SLICEL_I0_O)
                                                      0.178    18.912 f  muon_sorter_1/max_pt_6_3_0_N_6L11_0_RNIML4C8/O
                         net (fo=4, routed)           0.449    19.361    muon_sorter_1/max_pt_6_3_0_N_6L11_0_RNIML4C8
    SLICE_X66Y334        LUT5 (Prop_C6LUT_SLICEM_I4_O)
                                                      0.098    19.459 r  muon_sorter_1/max_pt_6_3_4_x_RNIIFOO9[24]/O
                         net (fo=58, routed)          0.622    20.081    muon_sorter_1/max_pt_6[24]
    SLICE_X69Y334        LUT4 (Prop_E6LUT_SLICEL_I3_O)
                                                      0.064    20.145 r  muon_sorter_1/pt_compare_7_24_0_a3_0_a2_1_0_a2[18]/O
                         net (fo=9, routed)           0.499    20.644    muon_sorter_1/pt_compare_7_24_1[18]
    SLICE_X70Y345        LUT2 (Prop_E6LUT_SLICEM_I1_O)
                                                      0.063    20.707 r  muon_sorter_1/max_pt_7_3_4_N_9L20/O
                         net (fo=1, routed)           0.243    20.950    muon_sorter_1/max_pt_7_3_4_N_9L20
    SLICE_X66Y345        LUT6 (Prop_F6LUT_SLICEM_I2_O)
                                                      0.098    21.048 r  muon_sorter_1/max_pt_7_3_4[30]/O
                         net (fo=5, routed)           0.289    21.337    muon_sorter_1/max_pt_7_3_4[30]
    SLICE_X65Y344        LUT6 (Prop_B6LUT_SLICEL_I2_O)
                                                      0.177    21.514 r  muon_sorter_1/max_pt_7[30]/O
                         net (fo=39, routed)          1.017    22.531    muon_sorter_1/max_pt_7[30]
    SLICE_X73Y339        LUT6 (Prop_A6LUT_SLICEL_I5_O)
                                                      0.064    22.595 f  muon_sorter_1/sr_p.sr_1_15.roi_ret_26655_RNO_0/O
                         net (fo=1, routed)           0.192    22.787    muon_sorter_1/N_8745
    SLICE_X72Y339        LUT6 (Prop_A6LUT_SLICEM_I3_O)
                                                      0.179    22.966 r  muon_sorter_1/sr_p.sr_1_15.roi_ret_26655_RNO/O
                         net (fo=1, routed)           0.063    23.029    muon_sorter_1/max_pt_8_4_2[1]
    SLICE_X72Y339        FDRE                                         r  muon_sorter_1/sr_p.sr_1_15.roi_ret_26655/D
  -------------------------------------------------------------------    -------------------

                         (clock clk rise edge)        3.125     3.125 r  
    AV33                                              0.000     3.125 r  clk (IN)
                         net (fo=0)                   0.000     3.125    clk_ibuf_iso/I
    AV33                 INBUF (Prop_INBUF_HPIOB_M_PAD_O)
                                                      0.510     3.635 r  clk_ibuf_iso/INBUF_INST/O
                         net (fo=1, routed)           0.000     3.635    clk_ibuf_iso/OUT
    AV33                 IBUFCTRL (Prop_IBUFCTRL_HPIOB_M_I_O)
                                                      0.000     3.635 r  clk_ibuf_iso/IBUFCTRL_INST/O
                         net (fo=1, routed)           0.296     3.931    clk_ibuf_iso
    BUFGCE_X1Y224        BUFGCE (Prop_BUFCE_BUFGCE_I_O)
                                                      0.024     3.955 r  clk_ibuf/O
    X3Y5 (CLOCK_ROOT)    net (fo=14477, routed)       3.013     6.968    muon_sorter_1/clk_c
    SLICE_X72Y339        FDRE                                         r  muon_sorter_1/sr_p.sr_1_15.roi_ret_26655/C
                         clock pessimism              0.512     7.480    
                         clock uncertainty           -0.035     7.445    
    SLICE_X72Y339        FDRE (Setup_AFF_SLICEM_C_D)
                                                      0.027     7.472    muon_sorter_1/sr_p.sr_1_15.roi_ret_26655
  -------------------------------------------------------------------
                         required time                          7.472    
                         arrival time                         -23.029    
  -------------------------------------------------------------------
                         slack                                -15.557    

Slack (VIOLATED) :        -15.557ns  (required time - arrival time)
  Source:                 muon_cand_23.pt_fast[1]/C
                            (rising edge-triggered cell FDRE clocked by clk  {rise@0.000ns fall@1.563ns period=3.125ns})
  Destination:            muon_sorter_1/sr_p.sr_1_15.roi_ret_26655/D
                            (rising edge-triggered cell FDRE clocked by clk  {rise@0.000ns fall@1.563ns period=3.125ns})
  Path Group:             clk
  Path Type:              Setup (Max at Slow Process Corner)
  Requirement:            3.125ns  (clk rise@3.125ns - clk rise@0.000ns)
  Data Path Delay:        19.075ns  (logic 4.337ns (22.737%)  route 14.738ns (77.263%))
  Logic Levels:           37  (LUT2=2 LUT4=7 LUT5=7 LUT6=21)
  Clock Path Skew:        0.401ns (DCD - SCD + CPR)
    Destination Clock Delay (DCD):    3.843ns = ( 6.968 - 3.125 ) 
    Source Clock Delay      (SCD):    3.954ns
    Clock Pessimism Removal (CPR):    0.512ns
  Clock Uncertainty:      0.035ns  ((TSJ^2 + TIJ^2)^1/2 + DJ) / 2 + PE
    Total System Jitter     (TSJ):    0.071ns
    Total Input Jitter      (TIJ):    0.000ns
    Discrete Jitter          (DJ):    0.000ns
    Phase Error              (PE):    0.000ns
  Clock Net Delay (Source):      2.813ns (routing 1.683ns, distribution 1.130ns)
  Clock Net Delay (Destination): 3.013ns (routing 1.538ns, distribution 1.475ns)

    Location             Delay type                Incr(ns)  Path(ns)    Netlist Resource(s)
  -------------------------------------------------------------------    -------------------
                         (clock clk rise edge)        0.000     0.000 r  
    AV33                                              0.000     0.000 r  clk (IN)
                         net (fo=0)                   0.000     0.000    clk_ibuf_iso/I
    AV33                 INBUF (Prop_INBUF_HPIOB_M_PAD_O)
                                                      0.779     0.779 r  clk_ibuf_iso/INBUF_INST/O
                         net (fo=1, routed)           0.000     0.779    clk_ibuf_iso/OUT
    AV33                 IBUFCTRL (Prop_IBUFCTRL_HPIOB_M_I_O)
                                                      0.000     0.779 r  clk_ibuf_iso/IBUFCTRL_INST/O
                         net (fo=1, routed)           0.334     1.113    clk_ibuf_iso
    BUFGCE_X1Y224        BUFGCE (Prop_BUFCE_BUFGCE_I_O)
                                                      0.028     1.141 r  clk_ibuf/O
    X3Y5 (CLOCK_ROOT)    net (fo=14477, routed)       2.813     3.954    clk_c
    SLICE_X98Y318        FDRE                                         r  muon_cand_23.pt_fast[1]/C
  -------------------------------------------------------------------    -------------------
    SLICE_X98Y318        FDRE (Prop_EFF_SLICEL_C_Q)
                                                      0.096     4.050 f  muon_cand_23.pt_fast[1]/Q
                         net (fo=10, routed)          0.673     4.723    muon_sorter_1/pt_fast_15[1]
    SLICE_X94Y312        LUT4 (Prop_B6LUT_SLICEL_I2_O)
                                                      0.115     4.838 r  muon_sorter_1/compare_p.23.0.compare_pt.op_qge.op_qge.un53526_pt_compare_c2/O
                         net (fo=1, routed)           0.099     4.937    muon_sorter_1/un53526_pt_compare_c2
    SLICE_X93Y312        LUT5 (Prop_D6LUT_SLICEM_I4_O)
                                                      0.062     4.999 r  muon_sorter_1/compare_p.23.0.compare_pt.op_qge.op_qge.un53526_pt_compare_c4/O
                         net (fo=4, routed)           0.577     5.576    muon_sorter_1/un53526_pt_compare
    SLICE_X85Y312        LUT6 (Prop_E6LUT_SLICEL_I5_O)
                                                      0.100     5.676 r  muon_sorter_1/max_pt_0_2_1[0]/O
                         net (fo=1, routed)           0.173     5.849    muon_sorter_1/max_pt_0_2_1[0]
    SLICE_X85Y314        LUT6 (Prop_H6LUT_SLICEL_I3_O)
                                                      0.064     5.913 r  muon_sorter_1/max_pt_0_0_4_N_6L12_0/O
                         net (fo=1, routed)           0.121     6.034    muon_sorter_1/max_pt_0_0_4_N_6L12_0
    SLICE_X85Y314        LUT4 (Prop_G6LUT_SLICEL_I1_O)
                                                      0.178     6.212 r  muon_sorter_1/max_pt_0_0_4[0]/O
                         net (fo=9, routed)           0.205     6.417    muon_sorter_1/max_pt_0_0_4[0]
    SLICE_X85Y312        LUT6 (Prop_C6LUT_SLICEL_I5_O)
                                                      0.174     6.591 r  muon_sorter_1/max_pt_0_rep_3[0]/O
                         net (fo=26, routed)          0.849     7.440    muon_sorter_1/max_pt_0_rep_3[0]
    SLICE_X91Y322        LUT2 (Prop_E5LUT_SLICEL_I1_O)
                                                      0.085     7.525 f  muon_sorter_1/pt_compare_1_3_0_a2[0]/O
                         net (fo=2, routed)           0.636     8.161    muon_sorter_1/pt_compare_1_3_0_a2[0]
    SLICE_X99Y325        LUT6 (Prop_C6LUT_SLICEM_I3_O)
                                                      0.098     8.259 f  muon_sorter_1/max_pt_1_0_4_N_5L9/O
                         net (fo=1, routed)           0.101     8.360    muon_sorter_1/max_pt_1_0_4_N_5L9
    SLICE_X99Y326        LUT6 (Prop_D6LUT_SLICEM_I5_O)
                                                      0.098     8.458 r  muon_sorter_1/max_pt_1_N_6L12_0/O
                         net (fo=3, routed)           0.250     8.708    muon_sorter_1/max_pt_1_N_6L12_0
    SLICE_X99Y328        LUT6 (Prop_C6LUT_SLICEM_I5_O)
                                                      0.098     8.806 r  muon_sorter_1/I_68148/O
                         net (fo=46, routed)          0.646     9.452    muon_sorter_1/N_1496_i_0
    SLICE_X95Y332        LUT6 (Prop_D6LUT_SLICEM_I5_O)
                                                      0.098     9.550 f  muon_sorter_1/max_pt_2_2_4_N_6L12/O
                         net (fo=1, routed)           0.124     9.674    muon_sorter_1/max_pt_2_2_4_N_6L12
    SLICE_X95Y334        LUT4 (Prop_C6LUT_SLICEM_I3_O)
                                                      0.174     9.848 r  muon_sorter_1/max_pt_2_2_4_N_7L14/O
                         net (fo=1, routed)           0.410    10.258    muon_sorter_1/max_pt_2_2_4_N_7L14
    SLICE_X96Y335        LUT4 (Prop_C6LUT_SLICEL_I2_O)
                                                      0.098    10.356 r  muon_sorter_1/max_pt_2_2_4[23]/O
                         net (fo=5, routed)           0.175    10.531    muon_sorter_1/max_pt_2_2_4[23]
    SLICE_X96Y337        LUT5 (Prop_E6LUT_SLICEL_I3_O)
                                                      0.116    10.647 r  muon_sorter_1/max_pt_2_rep_405[23]/O
                         net (fo=16, routed)          0.513    11.160    muon_sorter_1/max_pt_2_rep_405[23]
    SLICE_X92Y338        LUT5 (Prop_E6LUT_SLICEM_I4_O)
                                                      0.115    11.275 f  muon_sorter_1/pt_compare_3_23_0_a2[3]/O
                         net (fo=3, routed)           0.553    11.828    muon_sorter_1/pt_compare_3_23_0_a2[3]
    SLICE_X86Y339        LUT4 (Prop_E6LUT_SLICEL_I2_O)
                                                      0.116    11.944 r  muon_sorter_1/max_pt_3_2_N_6L12/O
                         net (fo=1, routed)           0.543    12.487    muon_sorter_1/max_pt_3_2_N_6L12
    SLICE_X85Y336        LUT6 (Prop_C6LUT_SLICEL_I4_O)
                                                      0.063    12.550 r  muon_sorter_1/max_pt_3_2[23]/O
                         net (fo=6, routed)           0.207    12.757    muon_sorter_1/max_pt_3_2[23]
    SLICE_X83Y334        LUT6 (Prop_H6LUT_SLICEL_I5_O)
                                                      0.179    12.936 r  muon_sorter_1/max_pt_3[23]/O
                         net (fo=52, routed)          0.719    13.655    muon_sorter_1/max_pt_3[23]
    SLICE_X77Y325        LUT5 (Prop_C6LUT_SLICEL_I4_O)
                                                      0.174    13.829 r  muon_sorter_1/max_pt_4_2_1[20]/O
                         net (fo=1, routed)           0.272    14.101    muon_sorter_1/max_pt_4_2_1[20]
    SLICE_X76Y325        LUT6 (Prop_C6LUT_SLICEM_I5_O)
                                                      0.174    14.275 f  muon_sorter_1/max_pt_4_2_N_6L12_0/O
                         net (fo=1, routed)           0.214    14.489    muon_sorter_1/max_pt_4_2_N_6L12_0
    SLICE_X76Y322        LUT6 (Prop_C6LUT_SLICEM_I4_O)
                                                      0.062    14.551 r  muon_sorter_1/max_pt_4_2[20]/O
                         net (fo=1, routed)           0.108    14.659    muon_sorter_1/max_pt_4_2[20]
    SLICE_X75Y322        LUT5 (Prop_B6LUT_SLICEL_I2_O)
                                                      0.100    14.759 r  muon_sorter_1/max_pt_4_N_9L20/O
                         net (fo=3, routed)           0.233    14.992    muon_sorter_1/max_pt_4_N_9L20
    SLICE_X74Y321        LUT6 (Prop_H6LUT_SLICEM_I5_O)
                                                      0.066    15.058 r  muon_sorter_1/max_pt_4_rep_41[20]/O
                         net (fo=18, routed)          0.310    15.368    muon_sorter_1/max_pt_4_rep_41[20]
    SLICE_X73Y323        LUT6 (Prop_C6LUT_SLICEL_I5_O)
                                                      0.113    15.481 r  muon_sorter_1/pt_compare_5_23_0_a2_i[20]/O
                         net (fo=17, routed)          0.561    16.042    muon_sorter_1/N_7138_0
    SLICE_X66Y320        LUT6 (Prop_G6LUT_SLICEM_I5_O)
                                                      0.039    16.081 r  muon_sorter_1/max_pt_5_25_m3_e_3_2/O
                         net (fo=1, routed)           0.123    16.204    muon_sorter_1/max_pt_5_25_m3_e_3_2
    SLICE_X65Y320        LUT6 (Prop_D6LUT_SLICEL_I3_O)
                                                      0.174    16.378 r  muon_sorter_1/max_pt_5_25_m3_e_2_4/O
                         net (fo=4, routed)           0.580    16.958    muon_sorter_1/max_pt_5_25_m3_e_2_4
    SLICE_X58Y326        LUT6 (Prop_D6LUT_SLICEL_I5_O)
                                                      0.174    17.132 r  muon_sorter_1/max_pt_5_25_m3_e_rep_171/O
                         net (fo=48, routed)          0.443    17.575    muon_sorter_1/max_pt_5_rep_171[25]
    SLICE_X61Y323        LUT6 (Prop_B6LUT_SLICEL_I5_O)
                                                      0.149    17.724 r  muon_sorter_1/pt_compare_6_25_0_a3_0_a4_0_a2[24]/O
                         net (fo=4, routed)           0.645    18.369    muon_sorter_1/pt_compare_6_25_0_a3_0_a4_0_a2[24]
    SLICE_X67Y328        LUT5 (Prop_A6LUT_SLICEL_I0_O)
                                                      0.064    18.433 r  muon_sorter_1/pt_compare_6_28_0_a3_0_a2_RNI9QKT5[24]/O
                         net (fo=1, routed)           0.301    18.734    muon_sorter_1/pt_compare_6_28_0_a3_0_a2_RNI9QKT5[24]
    SLICE_X67Y333        LUT4 (Prop_A6LUT_SLICEL_I0_O)
                                                      0.178    18.912 f  muon_sorter_1/max_pt_6_3_0_N_6L11_0_RNIML4C8/O
                         net (fo=4, routed)           0.449    19.361    muon_sorter_1/max_pt_6_3_0_N_6L11_0_RNIML4C8
    SLICE_X66Y334        LUT5 (Prop_C6LUT_SLICEM_I4_O)
                                                      0.098    19.459 r  muon_sorter_1/max_pt_6_3_4_x_RNIIFOO9[24]/O
                         net (fo=58, routed)          0.622    20.081    muon_sorter_1/max_pt_6[24]
    SLICE_X69Y334        LUT4 (Prop_E6LUT_SLICEL_I3_O)
                                                      0.064    20.145 r  muon_sorter_1/pt_compare_7_24_0_a3_0_a2_1_0_a2[18]/O
                         net (fo=9, routed)           0.499    20.644    muon_sorter_1/pt_compare_7_24_1[18]
    SLICE_X70Y345        LUT2 (Prop_E6LUT_SLICEM_I1_O)
                                                      0.063    20.707 r  muon_sorter_1/max_pt_7_3_4_N_9L20/O
                         net (fo=1, routed)           0.243    20.950    muon_sorter_1/max_pt_7_3_4_N_9L20
    SLICE_X66Y345        LUT6 (Prop_F6LUT_SLICEM_I2_O)
                                                      0.098    21.048 f  muon_sorter_1/max_pt_7_3_4[30]/O
                         net (fo=5, routed)           0.289    21.337    muon_sorter_1/max_pt_7_3_4[30]
    SLICE_X65Y344        LUT6 (Prop_B6LUT_SLICEL_I2_O)
                                                      0.177    21.514 f  muon_sorter_1/max_pt_7[30]/O
                         net (fo=39, routed)          1.017    22.531    muon_sorter_1/max_pt_7[30]
    SLICE_X73Y339        LUT6 (Prop_A6LUT_SLICEL_I5_O)
                                                      0.064    22.595 f  muon_sorter_1/sr_p.sr_1_15.roi_ret_26655_RNO_0/O
                         net (fo=1, routed)           0.192    22.787    muon_sorter_1/N_8745
    SLICE_X72Y339        LUT6 (Prop_A6LUT_SLICEM_I3_O)
                                                      0.179    22.966 r  muon_sorter_1/sr_p.sr_1_15.roi_ret_26655_RNO/O
                         net (fo=1, routed)           0.063    23.029    muon_sorter_1/max_pt_8_4_2[1]
    SLICE_X72Y339        FDRE                                         r  muon_sorter_1/sr_p.sr_1_15.roi_ret_26655/D
  -------------------------------------------------------------------    -------------------

                         (clock clk rise edge)        3.125     3.125 r  
    AV33                                              0.000     3.125 r  clk (IN)
                         net (fo=0)                   0.000     3.125    clk_ibuf_iso/I
    AV33                 INBUF (Prop_INBUF_HPIOB_M_PAD_O)
                                                      0.510     3.635 r  clk_ibuf_iso/INBUF_INST/O
                         net (fo=1, routed)           0.000     3.635    clk_ibuf_iso/OUT
    AV33                 IBUFCTRL (Prop_IBUFCTRL_HPIOB_M_I_O)
                                                      0.000     3.635 r  clk_ibuf_iso/IBUFCTRL_INST/O
                         net (fo=1, routed)           0.296     3.931    clk_ibuf_iso
    BUFGCE_X1Y224        BUFGCE (Prop_BUFCE_BUFGCE_I_O)
                                                      0.024     3.955 r  clk_ibuf/O
    X3Y5 (CLOCK_ROOT)    net (fo=14477, routed)       3.013     6.968    muon_sorter_1/clk_c
    SLICE_X72Y339        FDRE                                         r  muon_sorter_1/sr_p.sr_1_15.roi_ret_26655/C
                         clock pessimism              0.512     7.480    
                         clock uncertainty           -0.035     7.445    
    SLICE_X72Y339        FDRE (Setup_AFF_SLICEM_C_D)
                                                      0.027     7.472    muon_sorter_1/sr_p.sr_1_15.roi_ret_26655
  -------------------------------------------------------------------
                         required time                          7.472    
                         arrival time                         -23.029    
  -------------------------------------------------------------------
                         slack                                -15.557    





Pulse Width Checks
--------------------------------------------------------------------------------------
Clock Name:         clk
Waveform(ns):       { 0.000 1.563 }
Period(ns):         3.125
Sources:            { clk }

Check Type        Corner  Lib Pin   Reference Pin  Required(ns)  Actual(ns)  Slack(ns)  Location        Pin
Min Period        n/a     BUFGCE/I  n/a            1.499         3.125       1.626      BUFGCE_X1Y224   clk_ibuf/I
Min Period        n/a     FDRE/C    n/a            0.550         3.125       2.575      SLICE_X81Y344   muon_sorter_1/sr_p.sr_1_15.roi_ret_23896/C
Min Period        n/a     FDRE/C    n/a            0.550         3.125       2.575      SLICE_X82Y342   muon_sorter_1/sr_p.sr_1_15.roi_ret_23927/C
Min Period        n/a     FDRE/C    n/a            0.550         3.125       2.575      SLICE_X80Y343   muon_sorter_1/sr_p.sr_1_15.roi_ret_23933/C
Min Period        n/a     FDRE/C    n/a            0.550         3.125       2.575      SLICE_X72Y332   muon_sorter_1/sr_p.sr_1_15.roi_ret_23967/C
Low Pulse Width   Fast    FDRE/C    n/a            0.275         1.562       1.287      SLICE_X82Y342   muon_sorter_1/sr_p.sr_1_15.roi_ret_23927/C
Low Pulse Width   Slow    FDRE/C    n/a            0.275         1.562       1.287      SLICE_X80Y343   muon_sorter_1/sr_p.sr_1_15.roi_ret_23933/C
Low Pulse Width   Slow    FDRE/C    n/a            0.275         1.562       1.287      SLICE_X85Y425   shift_reg_tap_i/sr_p.sr_10[361]/C
Low Pulse Width   Slow    FDRE/C    n/a            0.275         1.562       1.287      SLICE_X101Y337  shift_reg_tap_i/sr_p.sr_14[197]/C
Low Pulse Width   Slow    FDRE/C    n/a            0.275         1.562       1.287      SLICE_X71Y311   shift_reg_tap_i/sr_p.sr_14[202]/C
High Pulse Width  Slow    FDRE/C    n/a            0.275         1.563       1.288      SLICE_X63Y325   muon_sorter_1/sr_p.sr_1_15.roi_ret_26027/C
High Pulse Width  Slow    FDRE/C    n/a            0.275         1.563       1.288      SLICE_X93Y369   shift_reg_tap_i/sr_p.sr_10[357]/C
High Pulse Width  Slow    FDRE/C    n/a            0.275         1.563       1.288      SLICE_X94Y375   shift_reg_tap_i/sr_p.sr_10[358]/C
High Pulse Width  Slow    FDRE/C    n/a            0.275         1.563       1.288      SLICE_X83Y440   shift_reg_tap_i/sr_p.sr_10[362]/C
High Pulse Width  Slow    FDRE/C    n/a            0.275         1.563       1.288      SLICE_X85Y309   shift_reg_tap_i/sr_p.sr_14[199]/C



---------------------------------------------------------------------------------------------------
From Clock:  clk_wrapper
  To Clock:  clk_wrapper

Setup :           NA  Failing Endpoints,  Worst Slack           NA  ,  Total Violation           NA
Hold  :           NA  Failing Endpoints,  Worst Slack           NA  ,  Total Violation           NA
PW    :            0  Failing Endpoints,  Worst Slack      498.562ns,  Total Violation        0.000ns
---------------------------------------------------------------------------------------------------


Pulse Width Checks
--------------------------------------------------------------------------------------
Clock Name:         clk_wrapper
Waveform(ns):       { 0.000 500.000 }
Period(ns):         1000.000
Sources:            { clk_wrapper }

Check Type        Corner  Lib Pin   Reference Pin  Required(ns)  Actual(ns)  Slack(ns)  Location               Pin
Min Period        n/a     FDRE/C    n/a            3.195         1000.000    996.805    BITSLICE_RX_TX_X1Y483  reducer_1/delay_block[4][0]/C
Min Period        n/a     BUFGCE/I  n/a            1.499         1000.000    998.501    BUFGCE_X1Y230          clk_wrapper_ibuf/I
Min Period        n/a     FDRE/C    n/a            0.550         1000.000    999.450    SLICE_X79Y447          lsfr_1/output_vector_1[511]/C
Min Period        n/a     FDRE/C    n/a            0.550         1000.000    999.450    SLICE_X81Y463          lsfr_1/shiftreg_vector[0]/C
Min Period        n/a     FDRE/C    n/a            0.550         1000.000    999.450    SLICE_X63Y330          lsfr_1/shiftreg_vector[100]/C
Low Pulse Width   Slow    FDRE/C    n/a            1.438         500.000     498.562    BITSLICE_RX_TX_X1Y483  reducer_1/delay_block[4][0]/C
Low Pulse Width   Fast    FDRE/C    n/a            1.438         500.000     498.562    BITSLICE_RX_TX_X1Y483  reducer_1/delay_block[4][0]/C
Low Pulse Width   Slow    FDRE/C    n/a            0.275         500.000     499.725    SLICE_X63Y330          lsfr_1/shiftreg_vector[100]/C
Low Pulse Width   Slow    FDRE/C    n/a            0.275         500.000     499.725    SLICE_X61Y348          lsfr_1/shiftreg_vector[114]/C
Low Pulse Width   Slow    FDRE/C    n/a            0.275         500.000     499.725    SLICE_X61Y348          lsfr_1/shiftreg_vector[115]/C
High Pulse Width  Fast    FDRE/C    n/a            1.438         500.000     498.562    BITSLICE_RX_TX_X1Y483  reducer_1/delay_block[4][0]/C
High Pulse Width  Slow    FDRE/C    n/a            1.438         500.000     498.562    BITSLICE_RX_TX_X1Y483  reducer_1/delay_block[4][0]/C
High Pulse Width  Fast    FDRE/C    n/a            0.275         500.000     499.725    SLICE_X79Y447          lsfr_1/output_vector_1[511]/C
High Pulse Width  Fast    FDRE/C    n/a            0.275         500.000     499.725    SLICE_X100Y324         lsfr_1/shiftreg_vector[101]/C
High Pulse Width  Fast    FDRE/C    n/a            0.275         500.000     499.725    SLICE_X100Y324         lsfr_1/shiftreg_vector[102]/C



