Copyright 1986-2018 Xilinx, Inc. All Rights Reserved.
------------------------------------------------------------------------------------
| Tool Version : Vivado v.2018.2 (win64) Build 2258646 Thu Jun 14 20:03:12 MDT 2018
| Date         : Wed Feb 13 22:57:55 2019
| Host         : PCPHESEBE02 running 64-bit Service Pack 1  (build 7601)
| Command      : report_high_fanout_nets -file fanout.txt -max_nets 200
| Design       : wrapper
| Device       : xcvu9p
------------------------------------------------------------------------------------

High Fan-out Nets Information

1. Summary
----------

+---------------------------------------+--------+-------------+
| Net Name                              | Fanout | Driver Type |
+---------------------------------------+--------+-------------+
| muon_sorter_1/max_pt_7[12]            |     56 | LUT6        |
| muon_sorter_1/max_pt_13[12]           |     47 | LUT6        |
| muon_sorter_1/max_pt_8[11]            |     43 | LUT6        |
| muon_sorter_1/max_pt_11[12]           |     39 | LUT6        |
| muon_sorter_1/max_pt_12_1[10]         |     38 | LUT4        |
| muon_sorter_1/max_pt_14[14]           |     38 | LUT6        |
| muon_sorter_1/max_pt_9_1[4]           |     38 | LUT6        |
| muon_sorter_1/max_pt_12_3[10]         |     37 | LUT5        |
| muon_sorter_1/max_pt_14[2]            |     37 | LUT6        |
| muon_sorter_1/max_pt_14[8]            |     37 | LUT6        |
| muon_sorter_1/max_pt_7[13]            |     37 | LUT6        |
| muon_sorter_1/max_pt_14[0]            |     36 | LUT6        |
| muon_sorter_1/max_pt_14[15]           |     36 | LUT6        |
| muon_sorter_1/max_pt_14[1]            |     36 | LUT6        |
| muon_sorter_1/max_pt_7_1[4]           |     36 | LUT6        |
| muon_sorter_1/max_pt_11[10]           |     35 | LUT5        |
| muon_sorter_1/max_pt_12_1[6]          |     35 | LUT5        |
| muon_sorter_1/max_pt_14[10]           |     35 | LUT6        |
| muon_sorter_1/max_pt_14[13]           |     35 | LUT4        |
| muon_sorter_1/max_pt_14[5]            |     35 | LUT6        |
| muon_sorter_1/max_pt_4_0[4]           |     35 | LUT6        |
| muon_sorter_1/max_pt_4_1[4]           |     35 | LUT5        |
| muon_sorter_1/max_pt_4_2[4]           |     35 | LUT4        |
| muon_sorter_1/max_pt_6_1[4]           |     35 | LUT6        |
| muon_sorter_1/max_pt_12_3[6]          |     34 | LUT5        |
| muon_sorter_1/max_pt_14[11]           |     34 | LUT6        |
| muon_sorter_1/max_pt_14[4]            |     34 | LUT5        |
| muon_sorter_1/max_pt_14[9]            |     34 | LUT6        |
| muon_sorter_1/max_pt_5_0[4]           |     34 | LUT5        |
| muon_sorter_1/max_pt_5_1[4]           |     34 | LUT5        |
| muon_sorter_1/max_pt_7[7]             |     34 | LUT6        |
| muon_sorter_1/max_pt_12[11]           |     33 | LUT6        |
| muon_sorter_1/max_pt_14_0[6]          |     33 | LUT6        |
| muon_sorter_1/max_pt_14_1[6]          |     33 | LUT5        |
| muon_sorter_1/max_pt_6[11]            |     33 | LUT6        |
| muon_sorter_1/max_pt_7_3[4]           |     33 | LUT6        |
| muon_sorter_1/max_pt_8_1[4]           |     33 | LUT6        |
| muon_sorter_1/max_pt_0oi[7]           |     32 | LUT6        |
| muon_sorter_1/max_pt_11_1[14]         |     32 | LUT6        |
| muon_sorter_1/max_pt_12_0_reto[5]     |     32 | FDRE        |
| muon_sorter_1/max_pt_12_1[5]          |     32 | LUT5        |
| muon_sorter_1/max_pt_14[3]            |     32 | LUT6        |
| muon_sorter_1/max_pt_14_2[6]          |     32 | LUT5        |
| muon_sorter_1/max_pt_10_0[6]          |     31 | LUT6        |
| muon_sorter_1/max_pt_10_1[6]          |     31 | LUT5        |
| muon_sorter_1/max_pt_11_3[14]         |     31 | LUT5        |
| muon_sorter_1/max_pt_13_1_reto[5]     |     31 | LUT6        |
| muon_sorter_1/max_pt_5_2[4]           |     31 | LUT4        |
| muon_sorter_1/max_pt_7[15]            |     31 | LUT6        |
| muon_sorter_1/max_pt_8[10]            |     31 | LUT6        |
| muon_sorter_1/max_pt_11_0[5]          |     30 | LUT6        |
| muon_sorter_1/max_pt_11_1[5]          |     30 | LUT5        |
| muon_sorter_1/max_pt_12_1[7]          |     30 | LUT5        |
| muon_sorter_1/max_pt_12_2[5]          |     30 | LUT6        |
| muon_sorter_1/max_pt_13_3[5]          |     30 | LUT5        |
| muon_sorter_1/max_pt_14[12]           |     30 | LUT5        |
| muon_sorter_1/max_pt_5[1]             |     30 | LUT6        |
| muon_sorter_1/max_pt_6_3[4]           |     30 | LUT6        |
| muon_sorter_1/max_pt_8[12]            |     30 | LUT6        |
| muon_sorter_1/max_pt_8_3[4]           |     30 | LUT6        |
| muon_sorter_1/max_pt_11_2[5]          |     29 | LUT4        |
| muon_sorter_1/max_pt_7[5]             |     29 | LUT6        |
| muon_sorter_1/max_pt_7[6]             |     29 | LUT6        |
| muon_sorter_1/max_pt_10[0]            |     28 | LUT4        |
| muon_sorter_1/max_pt_10_2[6]          |     28 | LUT4        |
| muon_sorter_1/max_pt_12_0_reto[13]    |     28 | FDRE        |
| muon_sorter_1/max_pt_12_1[13]         |     28 | LUT5        |
| muon_sorter_1/max_pt_12_1_reto[4]     |     28 | FDRE        |
| muon_sorter_1/max_pt_14[7]            |     28 | LUT5        |
| muon_sorter_1/max_pt_2[11]            |     28 | LUT6        |
| muon_sorter_1/max_pt_5[10]            |     28 | LUT6        |
| muon_sorter_1/max_pt_5[9]             |     28 | LUT6        |
| muon_sorter_1/max_pt_7[1]             |     28 | LUT6        |
| muon_sorter_1/max_pt_8[8]             |     28 | LUT6        |
| muon_sorter_1/top_candoi[24]          |     28 | FDRE        |
| muon_sorter_1/top_candoi[8]           |     28 | FDRE        |
| muon_sorter_1/max_pt_5[11]            |     27 | LUT6        |
| muon_sorter_1/max_pt_5[13]            |     27 | LUT6        |
| muon_sorter_1/max_pt_5[5]             |     27 | LUT6        |
| muon_sorter_1/max_pt_8[13]            |     27 | LUT6        |
| muon_sorter_1/max_pt_8[3]             |     27 | LUT5        |
| muon_sorter_1/max_pt_9[8]             |     27 | LUT6        |
| muon_sorter_1/max_pt_12_1_reto[8]     |     26 | FDRE        |
| muon_sorter_1/max_pt_12_3[7]          |     26 | LUT5        |
| muon_sorter_1/max_pt_12_3[8]          |     26 | LUT4        |
| muon_sorter_1/max_pt_13[13]           |     26 | LUT6        |
| muon_sorter_1/max_pt_13[7]            |     26 | LUT6        |
| muon_sorter_1/max_pt_2[8]             |     26 | LUT6        |
| muon_sorter_1/max_pt_5[14]            |     26 | LUT6        |
| muon_sorter_1/max_pt_8[7]             |     26 | LUT6        |
| muon_sorter_1/max_pt_10[9]            |     25 | LUT6        |
| muon_sorter_1/max_pt_12[12]           |     25 | LUT6        |
| muon_sorter_1/max_pt_12_0_reto[2]     |     25 | FDRE        |
| muon_sorter_1/max_pt_12_1_reto[2]     |     25 | FDRE        |
| muon_sorter_1/max_pt_12_2[13]         |     25 | LUT6        |
| muon_sorter_1/max_pt_13[10]           |     25 | LUT6        |
| muon_sorter_1/max_pt_13[6]            |     25 | LUT6        |
| muon_sorter_1/max_pt_3[14]            |     25 | LUT6        |
| muon_sorter_1/max_pt_3[15]            |     25 | LUT6        |
| muon_sorter_1/max_pt_3[2]             |     25 | LUT6        |
| muon_sorter_1/max_pt_5[7]             |     25 | LUT6        |
| muon_sorter_1/max_pt_11[2]            |     24 | LUT6        |
| muon_sorter_1/max_pt_12[15]           |     24 | LUT6        |
| muon_sorter_1/max_pt_12_2_reto[2]     |     24 | FDRE        |
| muon_sorter_1/max_pt_2[4]             |     24 | FDRE        |
| muon_sorter_1/max_pt_3[12]            |     24 | LUT6        |
| muon_sorter_1/max_pt_5[15]            |     24 | LUT6        |
| muon_sorter_1/max_pt_7[8]             |     24 | LUT5        |
| muon_sorter_1/pt_compare_9_10_0_a2[4] |     24 | LUT4        |
| muon_sorter_1/top_candoi[136]         |     24 | FDRE        |
| muon_sorter_1/top_candoi[152]         |     24 | FDRE        |
| muon_sorter_1/top_candoi[40]          |     24 | FDRE        |
| muon_sorter_1/max_pt_11_0[2]          |     23 | LUT6        |
| muon_sorter_1/max_pt_11_1[2]          |     23 | LUT5        |
| muon_sorter_1/max_pt_12[14]           |     23 | LUT6        |
| muon_sorter_1/max_pt_12[3]            |     23 | LUT6        |
| muon_sorter_1/max_pt_12_0_reto[1]     |     23 | FDRE        |
| muon_sorter_1/max_pt_12_1_reto[1]     |     23 | FDRE        |
| muon_sorter_1/max_pt_12_2[1]          |     23 | LUT5        |
| muon_sorter_1/max_pt_13[0]            |     23 | LUT6        |
| muon_sorter_1/max_pt_13[4]            |     23 | LUT6        |
| muon_sorter_1/max_pt_13[9]            |     23 | LUT6        |
| muon_sorter_1/max_pt_3[8]             |     23 | LUT6        |
| muon_sorter_1/max_pt_7[0]             |     23 | LUT3        |
| muon_sorter_1/max_pt_8[0]             |     23 | LUT6        |
| muon_sorter_1/max_pt_8[6]             |     23 | LUT4        |
| muon_sorter_1/top_candoi[56]          |     23 | FDRE        |
| muon_sorter_1/top_candoi[88]          |     23 | FDRE        |
| muon_sorter_1/N_528                   |     22 | LUT6        |
| muon_sorter_1/max_pt_0_3i[0]          |     22 | LUT6        |
| muon_sorter_1/max_pt_0oi[12]          |     22 | LUT6        |
| muon_sorter_1/max_pt_10[14]           |     22 | LUT3        |
| muon_sorter_1/max_pt_12_1[11]         |     22 | LUT6        |
| muon_sorter_1/max_pt_12_3[11]         |     22 | LUT4        |
| muon_sorter_1/max_pt_13[14]           |     22 | LUT6        |
| muon_sorter_1/max_pt_1[13]            |     22 | FDRE        |
| muon_sorter_1/max_pt_2[7]             |     22 | LUT6        |
| muon_sorter_1/max_pt_5[0]             |     22 | LUT6        |
| muon_sorter_1/max_pt_7[14]            |     22 | LUT6        |
| muon_sorter_1/max_pt_8[14]            |     22 | LUT6        |
| muon_sorter_1/max_pt_8[15]            |     22 | LUT6        |
| muon_sorter_1/max_pt_8_1[0]           |     22 | LUT5        |
| muon_sorter_1/max_pt_9_1[10]          |     22 | LUT6        |
| muon_sorter_1/top_candoi[153]         |     22 | FDRE        |
| muon_sorter_1/top_candoi[9]           |     22 | FDRE        |
| muon_sorter_1/max_pt_10[1]            |     21 | LUT6        |
| muon_sorter_1/max_pt_10_0[0]          |     21 | LUT6        |
| muon_sorter_1/max_pt_10_0[3]          |     21 | LUT6        |
| muon_sorter_1/max_pt_10_1[3]          |     21 | LUT5        |
| muon_sorter_1/max_pt_10_2[0]          |     21 | LUT6        |
| muon_sorter_1/max_pt_11[8]            |     21 | LUT6        |
| muon_sorter_1/max_pt_11[9]            |     21 | LUT6        |
| muon_sorter_1/max_pt_11_1[4]          |     21 | LUT6        |
| muon_sorter_1/max_pt_12[1]            |     21 | LUT3        |
| muon_sorter_1/max_pt_1[5]             |     21 | FDRE        |
| muon_sorter_1/max_pt_3[13]            |     21 | LUT6        |
| muon_sorter_1/max_pt_3[1]             |     21 | LUT6        |
| muon_sorter_1/max_pt_3[9]             |     21 | LUT6        |
| muon_sorter_1/max_pt_4[12]            |     21 | LUT6        |
| muon_sorter_1/max_pt_4[8]             |     21 | LUT6        |
| muon_sorter_1/max_pt_5[12]            |     21 | LUT6        |
| muon_sorter_1/max_pt_5_0[11]          |     21 | LUT6        |
| muon_sorter_1/max_pt_5_0[2]           |     21 | LUT6        |
| muon_sorter_1/max_pt_5_1[11]          |     21 | LUT5        |
| muon_sorter_1/max_pt_5_1[2]           |     21 | LUT5        |
| muon_sorter_1/max_pt_6[8]             |     21 | LUT3        |
| muon_sorter_1/max_pt_6_1[2]           |     21 | LUT5        |
| muon_sorter_1/max_pt_7[10]            |     21 | LUT6        |
| muon_sorter_1/max_pt_7[11]            |     21 | LUT5        |
| muon_sorter_1/top_candoi[137]         |     21 | FDRE        |
| muon_sorter_1/top_candoi[25]          |     21 | FDRE        |
| muon_sorter_1/top_candoi[41]          |     21 | FDRE        |
| muon_sorter_1/max_pt_0_1i[0]          |     20 | LUT5        |
| muon_sorter_1/max_pt_10_1[0]          |     20 | LUT5        |
| muon_sorter_1/max_pt_11[11]           |     20 | LUT6        |
| muon_sorter_1/max_pt_11_3[4]          |     20 | LUT6        |
| muon_sorter_1/max_pt_12_3[4]          |     20 | LUT6        |
| muon_sorter_1/max_pt_13[11]           |     20 | LUT6        |
| muon_sorter_1/max_pt_13[8]            |     20 | LUT6        |
| muon_sorter_1/max_pt_2[12]            |     20 | LUT5        |
| muon_sorter_1/max_pt_2[6]             |     20 | LUT6        |
| muon_sorter_1/max_pt_3[11]            |     20 | LUT6        |
| muon_sorter_1/max_pt_3[7]             |     20 | LUT5        |
| muon_sorter_1/max_pt_4_1[15]          |     20 | LUT5        |
| muon_sorter_1/max_pt_5[3]             |     20 | LUT6        |
| muon_sorter_1/max_pt_5[6]             |     20 | LUT6        |
| muon_sorter_1/max_pt_5_0[1]           |     20 | LUT6        |
| muon_sorter_1/max_pt_5_1[1]           |     20 | LUT6        |
| muon_sorter_1/max_pt_5_2[2]           |     20 | LUT4        |
| muon_sorter_1/max_pt_6[15]            |     20 | LUT6        |
| muon_sorter_1/max_pt_6[1]             |     20 | LUT6        |
| muon_sorter_1/max_pt_7[2]             |     20 | LUT6        |
| muon_sorter_1/max_pt_7[3]             |     20 | LUT6        |
| muon_sorter_1/max_pt_8_1[5]           |     20 | LUT5        |
| muon_sorter_1/max_pt_9[13]            |     20 | LUT6        |
| muon_sorter_1/max_pt_9[15]            |     20 | LUT6        |
| muon_sorter_1/max_pt_9[5]             |     20 | LUT6        |
| muon_sorter_1/max_pt_9_1[2]           |     20 | LUT6        |
| muon_sorter_1/max_pt_9_3[4]           |     20 | LUT5        |
| muon_sorter_1/top_candoi[104]         |     20 | FDRE        |
+---------------------------------------+--------+-------------+


