Copyright 1986-2018 Xilinx, Inc. All Rights Reserved.
------------------------------------------------------------------------------------
| Tool Version : Vivado v.2018.2 (win64) Build 2258646 Thu Jun 14 20:03:12 MDT 2018
| Date         : Wed Mar  6 15:03:40 2019
| Host         : PCPHESEBE02 running 64-bit Service Pack 1  (build 7601)
| Command      : report_high_fanout_nets -histogram -file fanout_hist.txt
| Design       : wrapper_csn
| Device       : xcvu9p
------------------------------------------------------------------------------------

High Fan-out Nets Information

1. Histogram
------------

+---------+------+--------+
|  Fanout | Nets |      % |
+---------+------+--------+
|       1 | 1304 |  40.35 |
|       2 | 1012 |  31.32 |
|       3 |  412 |  12.75 |
|       4 |  145 |   4.48 |
|    5-10 |  214 |   6.62 |
|   11-50 |  144 |   4.45 |
|  51-100 |    0 |   0.00 |
| 101-500 |    0 |   0.00 |
|    >500 |    0 |   0.00 |
+---------+------+--------+
|     ALL | 3231 | 100.00 |
+---------+------+--------+


